{
  "GroupGUID": "8e37f66c-3ed1-460d-a037-e45bf2a61ecf",
  "GroupName": "Submission202030615",
  "AreaAnchorName": "LevelArea_P20211_F20211001_G85",
  "SaveType": "Reset",
  "LoadCondition": {
    "Conditions": [
      {
        "Type": "SubMission",
        "ID": 202030615
      },
      {
        "Type": "SubMission",
        "ID": 202030616
      },
      {
        "Type": "SubMission",
        "ID": 202030617
      }
    ],
    "Operation": "Or"
  },
  "UnloadCondition": {
    "Conditions": [
      {
        "Type": "SubMission",
        "Phase": "Finish",
        "ID": 202030617
      }
    ]
  },
  "ValueSource": {},
  "ConflictIDList": [],
  "AnchorList": [
    {
      "ID": 1,
      "PosX": -14.82,
      "PosY": 5.235957,
      "PosZ": -74.46,
      "Name": "Anchor1",
      "RotY": 279.8243
    }
  ],
  "MonsterList": [],
  "PropList": [
    {
      "ID": 300001,
      "PosX": -14.17,
      "PosY": 5.235959,
      "PosZ": -74.12,
      "Name": "Prop1",
      "PropID": 111,
      "IsOverrideInitLevelGraph": true,
      "Trigger": {
        "Radius": 2.0,
        "DimX": 2.0,
        "DimY": 1.0,
        "DimZ": 1.0,
        "PointList": []
      },
      "CampID": 4,
      "CustomTriggerMap": {},
      "CustomTriggerMapV2": {},
      "BridgeStateRotations": [],
      "DialogueGroups": [],
      "TalkDialogGroupIDList": [],
      "ServerInteractVerificationIDList": []
    },
    {
      "ID": 300002,
      "PosX": -13.89,
      "PosY": 5.235952,
      "PosZ": -92.46,
      "Name": "Prop2",
      "PropID": 100,
      "IsOverrideInitLevelGraph": true,
      "Trigger": {
        "Shape": "Box",
        "Radius": 1.0,
        "DimX": 5.0,
        "DimY": 2.0,
        "DimZ": 2.0,
        "PointList": []
      },
      "CampID": 4,
      "CustomTriggerMap": {},
      "CustomTriggerMapV2": {},
      "BridgeStateRotations": [],
      "DialogueGroups": [],
      "TalkDialogGroupIDList": [],
      "ServerInteractVerificationIDList": []
    },
    {
      "ID": 300003,
      "PosX": -7.53,
      "PosY": 5.235952,
      "PosZ": -68.41,
      "Name": "Prop3",
      "PropID": 100,
      "IsOverrideInitLevelGraph": true,
      "Trigger": {
        "Shape": "Box",
        "Radius": 1.0,
        "DimX": 7.0,
        "DimY": 2.0,
        "DimZ": 2.0,
        "PointList": []
      },
      "CampID": 4,
      "CustomTriggerMap": {},
      "CustomTriggerMapV2": {},
      "BridgeStateRotations": [],
      "DialogueGroups": [],
      "TalkDialogGroupIDList": [],
      "ServerInteractVerificationIDList": []
    }
  ],
  "NPCList": [
    {
      "ID": 400002,
      "PosX": -16.51,
      "PosY": 5.235958,
      "PosZ": -74.23,
      "Name": "NPC2",
      "RotY": 84.61014,
      "NPCID": 1209,
      "DialogueGroups": [],
      "ServerInteractVerificationIDList": [],
      "DefaultLookAtMode": "Closed",
      "BoardShowList": [],
      "TalkDialogGroupIDList": [],
      "DefaultIdleFreeStyleMotionID": 312110000,
      "InitialHiddenNodeList": []
    },
    {
      "ID": 400003,
      "PosX": -15.74,
      "PosY": 5.235958,
      "PosZ": -73.07,
      "Name": "NPC3",
      "RotY": 134.5686,
      "NPCID": 2202,
      "AIConfig": {
        "AIFile": "Config/ConfigAI/Adventure/MazeNPC_FollowPlayer_2020306.json",
        "PathwayList": [
          {
            "UseOwnerGroup": true,
            "UseGroup": 85,
            "UseID": 1
          }
        ],
        "SlaveConfigList": []
      },
      "DialogueGroups": [],
      "ServerInteractVerificationIDList": [],
      "DefaultLookAtMode": "Closed",
      "BoardShowList": [],
      "TalkDialogGroupIDList": [],
      "DefaultIdleFreeStyleMotionID": 200160000,
      "InitialHiddenNodeList": []
    }
  ]
}