{
  "GroupGUID": "4d8aab1f-70f5-40a6-8b29-d91106235025",
  "GroupName": "Pinball_02",
  "AreaAnchorName": "LevelArea_P20322_F20322001_G172",
  "SaveDimensionFilter": {},
  "SavedValueCondition": {
    "Conditions": [
      {
        "SavedValueName": "Pinball_Machine_Unlocked",
        "Operation": "Equal",
        "Value": 1
      }
    ],
    "Operation": "And"
  },
  "LoadSide": "Server",
  "LoadOnInitial": true,
  "ValueSource": {},
  "ConflictIDList": [],
  "IsHoyoGroup": true,
  "ConflictWhiteList": [],
  "TagContainer": {},
  "AnchorList": [
    {
      "ID": 1,
      "PosX": -94.939,
      "PosY": -172.756,
      "PosZ": -29.727,
      "Name": "SettingCam",
      "RotY": 251.9547,
      "RotX": 41.80396,
      "RotZ": 8.460289,
      "Usage": "Camera",
      "CustomParameter": {
        "$type": "LevelAnchorCameraParameter",
        "fov": 60.0
      }
    },
    {
      "ID": 2,
      "PosX": -128.87,
      "PosY": -202.6891,
      "PosZ": -18.77,
      "Name": "Station_01"
    },
    {
      "ID": 3,
      "PosX": -142.08,
      "PosY": -204.9698,
      "PosZ": -63.04,
      "Name": "Station_02",
      "RotY": 180.0
    },
    {
      "ID": 4,
      "PosX": -168.49,
      "PosY": -199.4177,
      "PosZ": -62.3,
      "Name": "Station_03",
      "RotY": 180.0
    },
    {
      "ID": 5,
      "PosX": -131.41,
      "PosY": -202.252,
      "PosZ": -15.151,
      "Name": "StationCam_1",
      "RotY": 184.9695,
      "RotX": 347.6683,
      "RotZ": 0.026505,
      "Usage": "Camera",
      "CustomParameter": {
        "$type": "LevelAnchorCameraParameter"
      }
    },
    {
      "ID": 6,
      "PosX": -145.568,
      "PosY": -204.612,
      "PosZ": -65.989,
      "Name": "StationCam_2",
      "RotY": 28.99871,
      "RotX": 346.6104,
      "RotZ": 0.028027,
      "Usage": "Camera",
      "LookAtCameraTemplate": "Level/Common_Adventure/Camera_Module/PinballPuzzleCam01.prefab",
      "CustomParameter": {
        "$type": "LevelAnchorCameraParameter"
      }
    },
    {
      "ID": 7,
      "PosX": -170.744,
      "PosY": -199.194,
      "PosZ": -66.514,
      "Name": "StationCam_3",
      "RotY": 11.46568,
      "RotX": 345.8366,
      "RotZ": 0.028583,
      "Usage": "Camera",
      "LookAtCameraTemplate": "Level/Common_Adventure/Camera_Module/PinballPuzzleCam01.prefab",
      "CustomParameter": {
        "$type": "LevelAnchorCameraParameter"
      }
    },
    {
      "ID": 8,
      "PosX": -115.529,
      "PosY": -183.5243,
      "PosZ": -31.03899,
      "Name": "ShootingCam",
      "RotY": 233.5681,
      "RotX": 35.85583,
      "RotZ": 0.028542,
      "Usage": "LookAtCamera",
      "LookAtCameraTemplate": "Level/Common_Adventure/Camera_Module/PinballPuzzleCam01.prefab"
    }
  ],
  "MonsterList": [],
  "PropList": [
    {
      "ID": 300002,
      "PosX": -132.0,
      "PosY": -202.74,
      "PosZ": -22.5,
      "Name": "Station_1",
      "PropID": 103005,
      "ValueSource": {
        "Values": [
          {
            "$type": "SharedString",
            "Key": "PinballPuzzleController",
            "Value": "172,300001"
          }
        ]
      },
      "CampID": 4,
      "State": "Open",
      "CustomTriggerMap": {},
      "CustomTriggerMapV2": {},
      "BridgeStateRotations": [],
      "DialogueGroups": [],
      "TalkDialogGroupIDList": [],
      "ServerInteractVerificationIDList": [],
      "TriggerValidGuest": {},
      "TagContainer": {},
      "CameraCenterEntityList": [],
      "SpawnConfig": {
        "EntitySpawnConfig": {}
      }
    },
    {
      "ID": 300001,
      "PosX": -109.4656,
      "PosY": -204.2308,
      "PosZ": -22.65141,
      "Name": "Controller",
      "RotY": 181.6708,
      "RotX": 6.283008,
      "RotZ": 11.59044,
      "PropID": 103008,
      "ValueSource": {
        "Values": [
          {
            "$type": "SharedString",
            "Key": "VcamAnchor",
            "Value": "LevelArea_P20322_F20322001_G172,SettingCam"
          },
          {
            "$type": "SharedString",
            "Key": "PinBallPuzzleConfigPrefab",
            "Value": "Props/Outputs/Chap03/Chap03_PuzzlePrefab_Pinball/Chap03_PuzzlePrefab_Pinball_20322001_02.prefab"
          }
        ]
      },
      "CampID": 4,
      "CustomTriggerMap": {},
      "CustomTriggerMapV2": {},
      "BridgeStateRotations": [],
      "DialogueGroups": [],
      "TalkDialogGroupIDList": [],
      "ServerInteractVerificationIDList": [],
      "TriggerValidGuest": {},
      "TagContainer": {},
      "CameraCenterEntityList": [],
      "SpawnConfig": {
        "EntitySpawnConfig": {}
      }
    },
    {
      "ID": 300003,
      "PosX": -142.0802,
      "PosY": -204.9299,
      "PosZ": -58.99998,
      "Name": "Station_2",
      "PropID": 103005,
      "ValueSource": {
        "Values": [
          {
            "$type": "SharedString",
            "Key": "PinballPuzzleController",
            "Value": "172,300001"
          }
        ]
      },
      "CampID": 4,
      "State": "Open",
      "CustomTriggerMap": {},
      "CustomTriggerMapV2": {},
      "BridgeStateRotations": [],
      "DialogueGroups": [],
      "TalkDialogGroupIDList": [],
      "ServerInteractVerificationIDList": [],
      "TriggerValidGuest": {},
      "TagContainer": {},
      "CameraCenterEntityList": [],
      "SpawnConfig": {
        "EntitySpawnConfig": {}
      }
    },
    {
      "ID": 300004,
      "PosX": -169.1215,
      "PosY": -199.4184,
      "PosZ": -58.81829,
      "Name": "Station_3",
      "PropID": 103005,
      "ValueSource": {
        "Values": [
          {
            "$type": "SharedString",
            "Key": "PinballPuzzleController",
            "Value": "172,300001"
          }
        ]
      },
      "CampID": 4,
      "State": "Open",
      "CustomTriggerMap": {},
      "CustomTriggerMapV2": {},
      "BridgeStateRotations": [],
      "DialogueGroups": [],
      "TalkDialogGroupIDList": [],
      "ServerInteractVerificationIDList": [],
      "TriggerValidGuest": {},
      "TagContainer": {},
      "CameraCenterEntityList": [],
      "SpawnConfig": {
        "EntitySpawnConfig": {}
      }
    },
    {
      "ID": 300005,
      "PosX": -110.1321,
      "PosY": -206.7477,
      "PosZ": -45.50176,
      "Name": "Plate_1",
      "RotY": 270.385,
      "RotX": 348.4801,
      "RotZ": 6.412715,
      "PropID": 103006,
      "ValueSource": {},
      "CampID": 4,
      "State": "BridgeState1",
      "CustomTriggerMap": {},
      "CustomTriggerMapV2": {},
      "BridgeStateRotations": [],
      "DialogueGroups": [],
      "TalkDialogGroupIDList": [],
      "ServerInteractVerificationIDList": [],
      "TriggerValidGuest": {},
      "TagContainer": {},
      "CameraCenterEntityList": [],
      "SpawnConfig": {
        "EntitySpawnConfig": {}
      }
    },
    {
      "ID": 300006,
      "PosX": -119.4125,
      "PosY": -205.9173,
      "PosZ": -54.58134,
      "Name": "Plate_2",
      "RotY": 1.670815,
      "RotX": 353.717,
      "RotZ": 348.4095,
      "PropID": 103006,
      "ValueSource": {},
      "CampID": 4,
      "State": "BridgeState1",
      "CustomTriggerMap": {},
      "CustomTriggerMapV2": {},
      "BridgeStateRotations": [],
      "DialogueGroups": [],
      "TalkDialogGroupIDList": [],
      "ServerInteractVerificationIDList": [],
      "TriggerValidGuest": {},
      "TagContainer": {},
      "CameraCenterEntityList": [],
      "SpawnConfig": {
        "EntitySpawnConfig": {}
      }
    },
    {
      "ID": 300007,
      "PosX": -128.1596,
      "PosY": -203.0734,
      "PosZ": -45.38063,
      "Name": "Plate_3",
      "RotY": 1.670815,
      "RotX": 353.717,
      "RotZ": 348.4095,
      "PropID": 103006,
      "ValueSource": {},
      "CampID": 4,
      "State": "BridgeState1",
      "CustomTriggerMap": {},
      "CustomTriggerMapV2": {},
      "BridgeStateRotations": [],
      "DialogueGroups": [],
      "TalkDialogGroupIDList": [],
      "ServerInteractVerificationIDList": [],
      "TriggerValidGuest": {},
      "TagContainer": {},
      "CameraCenterEntityList": [],
      "SpawnConfig": {
        "EntitySpawnConfig": {}
      }
    },
    {
      "ID": 300008,
      "PosX": -123.2528,
      "PosY": -202.4818,
      "PosZ": -31.7007,
      "Name": "Plate_4",
      "RotY": 1.670815,
      "RotX": 353.717,
      "RotZ": 348.4095,
      "PropID": 103006,
      "ValueSource": {},
      "CampID": 4,
      "State": "BridgeState1",
      "CustomTriggerMap": {},
      "CustomTriggerMapV2": {},
      "BridgeStateRotations": [],
      "DialogueGroups": [],
      "TalkDialogGroupIDList": [],
      "ServerInteractVerificationIDList": [],
      "TriggerValidGuest": {},
      "TagContainer": {},
      "CameraCenterEntityList": [],
      "SpawnConfig": {
        "EntitySpawnConfig": {}
      }
    },
    {
      "ID": 300009,
      "PosX": -141.8136,
      "PosY": -200.821,
      "PosZ": -49.85985,
      "Name": "Plate_5",
      "RotY": 270.385,
      "RotX": 348.4801,
      "RotZ": 6.412715,
      "PropID": 103006,
      "ValueSource": {},
      "CampID": 4,
      "State": "BridgeState1",
      "CustomTriggerMap": {},
      "CustomTriggerMapV2": {},
      "BridgeStateRotations": [],
      "DialogueGroups": [],
      "TalkDialogGroupIDList": [],
      "ServerInteractVerificationIDList": [],
      "TriggerValidGuest": {},
      "TagContainer": {},
      "CameraCenterEntityList": [],
      "SpawnConfig": {
        "EntitySpawnConfig": {}
      }
    },
    {
      "ID": 300010,
      "PosX": -150.5607,
      "PosY": -197.9771,
      "PosZ": -40.65914,
      "Name": "Plate_6",
      "RotY": 1.670815,
      "RotX": 353.717,
      "RotZ": 348.4095,
      "PropID": 103006,
      "ValueSource": {},
      "CampID": 4,
      "State": "BridgeState1",
      "CustomTriggerMap": {},
      "CustomTriggerMapV2": {},
      "BridgeStateRotations": [],
      "DialogueGroups": [],
      "TalkDialogGroupIDList": [],
      "ServerInteractVerificationIDList": [],
      "TriggerValidGuest": {},
      "TagContainer": {},
      "CameraCenterEntityList": [],
      "SpawnConfig": {
        "EntitySpawnConfig": {}
      }
    },
    {
      "ID": 300011,
      "PosX": -128.6929,
      "PosY": -205.0869,
      "PosZ": -63.6609,
      "Name": "Block_1",
      "RotY": 270.385,
      "RotX": 348.4801,
      "RotZ": 6.412715,
      "Scale": {
        "x": 0.919928,
        "y": 0.919928,
        "z": 0.919928
      },
      "PropID": 103007,
      "ValueSource": {},
      "CampID": 4,
      "CustomTriggerMap": {},
      "CustomTriggerMapV2": {},
      "BridgeStateRotations": [],
      "DialogueGroups": [],
      "TalkDialogGroupIDList": [],
      "ServerInteractVerificationIDList": [],
      "TriggerValidGuest": {},
      "TagContainer": {},
      "CameraCenterEntityList": [],
      "SpawnConfig": {
        "EntitySpawnConfig": {}
      }
    },
    {
      "ID": 300012,
      "PosX": -141.2804,
      "PosY": -198.8075,
      "PosZ": -31.57957,
      "Name": "TransBlock_1",
      "RotY": 270.385,
      "RotX": 348.4801,
      "RotZ": 6.412715,
      "Scale": {
        "x": 0.919928,
        "y": 0.919928,
        "z": 0.919928
      },
      "PropID": 100,
      "ValueSource": {},
      "CampID": 4,
      "CustomTriggerMap": {},
      "CustomTriggerMapV2": {},
      "BridgeStateRotations": [],
      "DialogueGroups": [],
      "TalkDialogGroupIDList": [],
      "ServerInteractVerificationIDList": [],
      "TriggerValidGuest": {},
      "TagContainer": {},
      "CameraCenterEntityList": [],
      "SpawnConfig": {
        "EntitySpawnConfig": {}
      }
    }
  ],
  "NPCList": []
}