{
  "GroupGUID": "23c53852-0ce0-4544-96ca-eef13bd7adb6",
  "GroupName": "Default_ChallengeChest",
  "LevelGraph": "Config/Level/Maze/MazeGroup/Maze_Group_OpenTreasure_WhenMonsterDie.json",
  "AreaAnchorName": "LevelArea_P20322_F20322001_G45",
  "SaveDimensionFilter": {},
  "SavedValueCondition": {
    "Conditions": [],
    "Operation": "And"
  },
  "LoadSide": "Server",
  "LoadOnInitial": true,
  "ValueSource": {},
  "ConflictIDList": [],
  "IsHoyoGroup": true,
  "ConflictWhiteList": [],
  "TagContainer": {},
  "AnchorList": [],
  "MonsterList": [
    {
      "ID": 200001,
      "PosX": -165.7441,
      "PosY": -199.4177,
      "PosZ": -79.99512,
      "Name": "Monster1",
      "NPCMonsterID": 3013010,
      "AIConfig": {
        "PathwayList": [],
        "SlaveConfigList": []
      },
      "AIVariableSource": {},
      "ValueSource": {},
      "CampID": 3,
      "BattleArea": {
        "GroupID": 1,
        "ID": 2
      },
      "EventID": 20322236,
      "BoardShowList": [
        4
      ],
      "TagList": [],
      "SpawnConfig": {
        "EntitySpawnConfig": {}
      },
      "TagContainer": {}
    }
  ],
  "PropList": [
    {
      "ID": 300001,
      "PosX": -165.9241,
      "PosY": -199.418,
      "PosZ": -82.96997,
      "Name": "Prop1",
      "PropID": 60303,
      "ValueSource": {
        "Values": [
          {
            "$type": "SharedString",
            "Key": "MDString_HintTextmap",
            "Value": "MazeText_MazeCommon_ChestLockedHint2"
          }
        ]
      },
      "Trigger": {
        "Radius": 1.5,
        "DimX": 1.0,
        "DimY": 1.0,
        "DimZ": 1.0,
        "PointList": []
      },
      "CampID": 4,
      "State": "ChestLocked",
      "CustomTriggerMap": {},
      "CustomTriggerMapV2": {},
      "BridgeStateRotations": [],
      "ChestID": 20322654,
      "DialogueGroups": [],
      "TalkDialogGroupIDList": [],
      "ServerInteractVerificationIDList": [],
      "TriggerValidGuest": {},
      "TagContainer": {},
      "CameraCenterEntityList": [],
      "SpawnConfig": {
        "EntitySpawnConfig": {}
      }
    },
    {
      "ID": 300002,
      "PosX": -4200.0,
      "PosY": 1000.0,
      "PosZ": -1500.0,
      "Name": "Prop2",
      "PropID": 100,
      "IsOverrideInitLevelGraph": true,
      "InitLevelGraph": "Config/Level/Maze/MazeGroup/Maze_GroupProp_OpenTreasure_WhenMonsterDie.json",
      "ValueSource": {
        "Values": [
          {
            "$type": "SharedFloat",
            "Key": "MazeDF_CurrentGroup",
            "Value": 45.0
          }
        ]
      },
      "CampID": 4,
      "CustomTriggerMap": {},
      "CustomTriggerMapV2": {},
      "BridgeStateRotations": [],
      "DialogueGroups": [],
      "TalkDialogGroupIDList": [],
      "ServerInteractVerificationIDList": [],
      "TriggerValidGuest": {},
      "CameraCenterEntityList": [],
      "SpawnConfig": {
        "EntitySpawnConfig": {}
      }
    },
    {
      "ID": 300003,
      "PosX": -165.9241,
      "PosY": -199.418,
      "PosZ": -78.82996,
      "Name": "Prop3",
      "PropID": 211,
      "IsOverrideInitLevelGraph": true,
      "InitLevelGraph": "Config/Level/Maze/MazeExtra/Maze_Prop_GameplayIcon.json",
      "ValueSource": {
        "Values": [
          {
            "$type": "SharedString",
            "Key": "Chest",
            "Value": "45,300001"
          }
        ]
      },
      "CampID": 4,
      "CustomTriggerMap": {},
      "CustomTriggerMapV2": {},
      "BridgeStateRotations": [],
      "MappingInfoID": 10033,
      "DialogueGroups": [],
      "TalkDialogGroupIDList": [],
      "ServerInteractVerificationIDList": [],
      "OverrideMapStateIcons": [
        {
          "IconID": 87
        }
      ],
      "TriggerValidGuest": {},
      "CameraCenterEntityList": [],
      "SpawnConfig": {
        "EntitySpawnConfig": {}
      }
    }
  ],
  "NPCList": []
}