{
  "GroupGUID": "8108434d-8c1e-489a-b451-d3a0cd8488db",
  "GroupName": "Pose4_WolfGroup_Manager",
  "LevelGraph": "Config/Level/GroupGraph/F20322001/Group_F20322001_G99.json",
  "AreaAnchorName": "LevelArea_P20322_F20322001_G99",
  "SaveDimensionFilter": {
    "FilterType": "BlackList"
  },
  "SavedValueCondition": {
    "Conditions": [],
    "Operation": "And"
  },
  "UseCustomSaveData": true,
  "LoadSide": "Server",
  "LoadOnInitial": true,
  "GroupStateList": [
    {},
    {
      "Comment": "变小",
      "SrcState": 1,
      "DstState": 2
    },
    {
      "Comment": "变大",
      "SrcState": 2,
      "DstState": 1
    }
  ],
  "ValueSource": {},
  "ConflictIDList": [],
  "IsHoyoGroup": true,
  "ConflictWhiteList": [],
  "TagContainer": {},
  "AnchorList": [
    {
      "ID": 1,
      "PosX": -70.696,
      "PosY": 122.0,
      "PosZ": 86.853,
      "Name": "Born1",
      "RotY": 180.0
    },
    {
      "ID": 2,
      "PosX": -70.77557,
      "PosY": 117.6379,
      "PosZ": 92.85582,
      "Name": "TVCam01",
      "RotY": 181.4749,
      "RotX": 337.0362,
      "RotZ": 180.0379,
      "Usage": "Camera",
      "CustomParameter": {
        "$type": "LevelAnchorCameraParameter"
      }
    }
  ],
  "MonsterList": [
    {
      "ID": 200002,
      "PosY": -560.0,
      "Name": "Monster2",
      "RotY": 180.0,
      "NPCMonsterID": 3002010,
      "AIConfig": {
        "PathwayList": [],
        "SlaveConfigList": []
      },
      "AIVariableSource": {},
      "ValueSource": {},
      "CampID": 1,
      "BattleArea": {},
      "EventID": 10301299,
      "BoardShowList": [
        4
      ],
      "TagList": [],
      "SpawnConfig": {
        "EntitySpawnConfig": {}
      },
      "TagContainer": {}
    }
  ],
  "PropList": [
    {
      "ID": 300001,
      "PosX": -70.61,
      "PosY": 122.0,
      "PosZ": 85.45,
      "Name": "StartTV_Case1",
      "RotY": 1.2E-5,
      "RotX": -3.4E-5,
      "RotZ": 180.0,
      "PropID": 103042,
      "ValueSource": {
        "Values": [
          {
            "$type": "SharedString",
            "Key": "Born01",
            "Value": "LevelArea_P20322_F20322001_G99,Born1"
          },
          {
            "$type": "SharedString",
            "Key": "TVCam",
            "Value": "LevelArea_P20322_F20322001_G99,TVCam01"
          }
        ]
      },
      "Trigger": {
        "Radius": 1.0,
        "DimX": 1.0,
        "DimY": 1.0,
        "DimZ": 1.0,
        "PointList": []
      },
      "CampID": 4,
      "CustomTriggerMap": {},
      "CustomTriggerMapV2": {},
      "BridgeStateRotations": [],
      "MappingInfoID": 10062,
      "DialogueGroups": [],
      "TalkDialogGroupIDList": [],
      "ServerInteractVerificationIDList": [],
      "TriggerValidGuest": {},
      "TagContainer": {},
      "CameraCenterEntityList": [],
      "SpawnConfig": {
        "EntitySpawnConfig": {}
      }
    },
    {
      "ID": 300002,
      "PosX": -70.55,
      "PosY": 122.0,
      "PosZ": 88.31,
      "Name": "GameController",
      "RotY": 180.0,
      "RotZ": 180.0,
      "PropID": 100,
      "IsOverrideInitLevelGraph": true,
      "InitLevelGraph": "Config/Level/Props/Chap03/InitLevelGraph_Prop_Chap03_WolfBroSaveManagar_01.json",
      "ValueSource": {
        "Values": [
          {
            "$type": "SharedString",
            "Key": "ReplaceMonster",
            "Value": "99,200002"
          },
          {
            "$type": "SharedString",
            "Key": "PuzzlePrefab",
            "Value": "Props/Outputs/Chap03/Chap03_Prop_WolfBro/Chap03_Prop_PuzzleWolfBro_P202.prefab"
          }
        ]
      },
      "CampID": 4,
      "CustomTriggerMap": {},
      "CustomTriggerMapV2": {},
      "BridgeStateRotations": [],
      "DialogueGroups": [],
      "TalkDialogGroupIDList": [],
      "ServerInteractVerificationIDList": [],
      "TriggerValidGuest": {},
      "TagContainer": {},
      "CameraCenterEntityList": [],
      "SpawnConfig": {
        "EntitySpawnConfig": {}
      }
    },
    {
      "ID": 300003,
      "PosX": -70.55,
      "PosY": 122.0,
      "PosZ": 88.31,
      "Name": "SavePoint1_Case1",
      "RotY": 180.0,
      "RotZ": 180.0,
      "PropID": 100,
      "IsOverrideInitLevelGraph": true,
      "InitLevelGraph": "Config/Level/Props/Chap03/InitLevelGraph_Prop_Chap03_WolfBroSavePoint_01.json",
      "ValueSource": {
        "Values": [
          {
            "$type": "SharedString",
            "Key": "PuzzleInit_Obj",
            "Value": "99,300002"
          }
        ]
      },
      "Trigger": {
        "Radius": 3.0,
        "DimX": 1.0,
        "DimY": 1.0,
        "DimZ": 1.0,
        "PointList": []
      },
      "CampID": 4,
      "CustomTriggerMap": {},
      "CustomTriggerMapV2": {},
      "BridgeStateRotations": [],
      "DialogueGroups": [],
      "TalkDialogGroupIDList": [],
      "ServerInteractVerificationIDList": [],
      "TriggerValidGuest": {},
      "TagContainer": {},
      "CameraCenterEntityList": [],
      "SpawnConfig": {
        "EntitySpawnConfig": {}
      }
    },
    {
      "ID": 300006,
      "PosX": -77.541,
      "PosY": 120.901,
      "PosZ": 94.104,
      "Name": "Target_Chest",
      "RotY": 180.0,
      "RotZ": 180.0,
      "PropID": 100,
      "IsOverrideInitLevelGraph": true,
      "InitLevelGraph": "Config/Level/Props/Chap03/InitLevelGraph_Prop_Chap03_WolfTreasureBoxHint_01.json",
      "ValueSource": {
        "Values": [
          {
            "$type": "SharedString",
            "Key": "TargetBox",
            "Value": "30,300001"
          }
        ]
      },
      "CampID": 4,
      "CustomTriggerMap": {},
      "CustomTriggerMapV2": {},
      "BridgeStateRotations": [],
      "DialogueGroups": [],
      "TalkDialogGroupIDList": [],
      "ServerInteractVerificationIDList": [],
      "TriggerValidGuest": {},
      "TagContainer": {},
      "CameraCenterEntityList": [],
      "SpawnConfig": {
        "EntitySpawnConfig": {}
      }
    },
    {
      "ID": 300007,
      "PosX": -84.46,
      "PosY": 122.0,
      "PosZ": 68.07,
      "Name": "SavePoint4_Case1",
      "RotY": 270.0,
      "RotX": -5.0E-6,
      "RotZ": 180.0,
      "PropID": 100,
      "IsOverrideInitLevelGraph": true,
      "InitLevelGraph": "Config/Level/Props/Chap03/InitLevelGraph_Prop_Chap03_WolfBroSavePoint_01.json",
      "ValueSource": {
        "Values": [
          {
            "$type": "SharedString",
            "Key": "PuzzleInit_Obj",
            "Value": "99,300002"
          }
        ]
      },
      "Trigger": {
        "Shape": "Box",
        "Radius": 5.0,
        "DimX": 9.0,
        "DimY": 6.0,
        "DimZ": 2.0,
        "PointList": []
      },
      "CampID": 4,
      "CustomTriggerMap": {},
      "CustomTriggerMapV2": {},
      "BridgeStateRotations": [],
      "DialogueGroups": [],
      "TalkDialogGroupIDList": [],
      "ServerInteractVerificationIDList": [],
      "TriggerValidGuest": {},
      "TagContainer": {},
      "CameraCenterEntityList": [],
      "SpawnConfig": {
        "EntitySpawnConfig": {}
      }
    }
  ],
  "NPCList": []
}