{
  "GroupGUID": "acfc852c-f104-44fa-9314-1e20b4974285",
  "GroupName": "RogueTemplate210_BaseEvent_Event",
  "Category": "Custom",
  "LevelGraph": "Config/Level/GroupTemplateGraph/03_Rogue/RogueTemplate210/RogueTemplate210_BaseEvent_Event.json",
  "AreaAnchorName": "LevelArea_P81313_F81313001_G57",
  "SaveDimensionFilter": {},
  "LoadSide": "Server",
  "ValueSource": {},
  "ConflictIDList": [],
  "IsHoyoGroup": true,
  "ConflictWhiteList": [],
  "TagContainer": {},
  "AnchorList": [],
  "MonsterList": [],
  "PropList": [],
  "NPCList": [
    {
      "ID": 400001,
      "PosX": 320.14,
      "PosY": 168.8601,
      "PosZ": 436.5,
      "Name": "NPC1",
      "NPCID": 3013,
      "LevelGraph": "Config/Level/Maze/MazeRogue/Maze_Rogue_NPC_EventPainting.json",
      "ValueSource": {},
      "DialogueGroups": [],
      "ServerInteractVerificationIDList": [],
      "BoardShowList": [],
      "TalkDialogGroupIDList": [],
      "DefaultAnimationType": "IdleState",
      "IsMapContent": true,
      "MiniMapIconType": 55,
      "InitialHiddenNodeList": [],
      "Dialog": {
        "PackList": []
      },
      "TagContainer": {},
      "CameraCenterEntityList": [],
      "SpawnConfig": {
        "EntitySpawnConfig": {}
      },
      "TriggerValidGuest": {}
    }
  ]
}