{
  "GroupGUID": "e6c17a47-9141-4978-a2d1-6c890192fb68",
  "GroupName": "MainMission2020103_",
  "Category": "Mission",
  "AreaAnchorName": "LevelArea_P10202_F10202001_G47",
  "SaveType": "Reset",
  "LoadCondition": {
    "Conditions": [
      {
        "Type": "SubMission",
        "Phase": "Finish",
        "ID": 202010302
      }
    ]
  },
  "UnloadCondition": {
    "Conditions": [
      {
        "Type": "SubMission",
        "Phase": "Finish",
        "ID": 202010373
      }
    ]
  },
  "OwnerMainMissionID": 2020103,
  "ConflictIDList": [],
  "AnchorList": [
    {
      "ID": 1,
      "PosX": 40.08,
      "PosY": 2.598289,
      "PosZ": 55.94,
      "Name": "Anchor1"
    },
    {
      "ID": 2,
      "PosX": 29.634,
      "PosY": -3.486238,
      "PosZ": -26.845,
      "Name": "Anchor2",
      "RotY": 289.6313
    }
  ],
  "MonsterList": [],
  "PropList": [
    {
      "ID": 300001,
      "PosX": 49.2,
      "PosY": 2.598292,
      "PosZ": 51.66,
      "Name": "Prop1",
      "PropID": 100,
      "IsOverrideInitLevelGraph": true,
      "Trigger": {
        "Shape": "Box",
        "Radius": 3.0,
        "DimX": 7.0,
        "DimY": 3.0,
        "DimZ": 7.0,
        "PointList": []
      },
      "CampID": 4,
      "CustomTriggerMap": {},
      "BridgeStateRotations": [],
      "DialogueGroups": [],
      "TalkDialogGroupIDList": [],
      "ServerInteractVerificationIDList": []
    }
  ],
  "NPCList": [
    {
      "ID": 400001,
      "PosX": 48.61,
      "PosY": 2.598295,
      "PosZ": 48.09,
      "Name": "NPC1",
      "RotY": 16.91098,
      "NPCID": 12152,
      "DialogueGroups": [],
      "ServerInteractVerificationIDList": [],
      "DefaultIdleStateName": "Sell01Loop",
      "BoardShowList": [
        8
      ],
      "OverrideNPCName": {
        "Hash": 705210141
      },
      "TalkDialogGroupIDList": [],
      "DefaultIdleFreeStyleMotionID": 100010200,
      "BornType": "Permanent",
      "InitialHiddenNodeList": [],
      "Dialog": {
        "LevelGraph": "Config/Level/NPCDialogue/P10202/F10202001_G47/DialogueMain_F10202001_G47_N400001.json",
        "PackList": [],
        "EnableCondition": {
          "Conditions": [
            {
              "Type": "SubMission",
              "ID": 202010303
            }
          ]
        }
      }
    },
    {
      "ID": 400002,
      "PosX": 27.598,
      "PosY": -3.486238,
      "PosZ": -26.594,
      "Name": "NPC2",
      "RotY": 93.16542,
      "NPCID": 12152,
      "DialogueGroups": [],
      "ServerInteractVerificationIDList": [],
      "DefaultIdleStateName": "HoldArm01Loop",
      "BoardShowList": [],
      "TalkDialogGroupIDList": [],
      "DefaultIdleFreeStyleMotionID": 100010231,
      "BornType": "Permanent",
      "InitialHiddenNodeList": []
    },
    {
      "ID": 400003,
      "PosX": 26.04,
      "PosY": -3.486238,
      "PosZ": -27.14,
      "Name": "NPC3",
      "RotY": 86.14065,
      "NPCID": 12131,
      "DialogueGroups": [],
      "ServerInteractVerificationIDList": [],
      "BoardShowList": [],
      "TalkDialogGroupIDList": [],
      "DefaultIdleFreeStyleMotionID": 100010000,
      "BornType": "Permanent",
      "InitialHiddenNodeList": []
    },
    {
      "ID": 400004,
      "PosX": 26.154,
      "PosY": -3.486239,
      "PosZ": -24.92,
      "Name": "NPC4",
      "RotY": 114.8601,
      "NPCID": 12233,
      "DialogueGroups": [],
      "ServerInteractVerificationIDList": [],
      "BoardShowList": [],
      "TalkDialogGroupIDList": [],
      "DefaultIdleFreeStyleMotionID": 100020000,
      "BornType": "Permanent",
      "InitialHiddenNodeList": []
    },
    {
      "ID": 400005,
      "PosX": 29.634,
      "PosY": -3.486238,
      "PosZ": -26.845,
      "Name": "NPC5",
      "RotY": 289.6313,
      "NPCID": 1991,
      "DialogueGroups": [],
      "ServerInteractVerificationIDList": [],
      "BoardShowList": [],
      "TalkDialogGroupIDList": [],
      "DefaultAnimationType": "IdleState",
      "BornType": "Permanent",
      "InitialHiddenNodeList": []
    },
    {
      "ID": 400006,
      "PosX": 26.448,
      "PosY": -3.466252,
      "PosZ": -26.028,
      "Name": "NPC6",
      "RotY": 106.5313,
      "NPCID": 2201,
      "DialogueGroups": [],
      "ServerInteractVerificationIDList": [],
      "BoardShowList": [],
      "TalkDialogGroupIDList": [],
      "DefaultIdleFreeStyleMotionID": 200230000,
      "BornType": "Permanent",
      "InitialHiddenNodeList": []
    }
  ]
}