{
  "GroupGUID": "54e01e7c-8faa-447e-a2d9-3a0592b2663f",
  "GroupName": "MainMission1020702_",
  "Category": "Mission",
  "AreaAnchorName": "LevelArea_P10202_F10202001_G17",
  "SaveType": "Reset",
  "LoadCondition": {
    "Conditions": [
      {
        "ID": 1020701
      }
    ]
  },
  "OwnerMainMissionID": 1020702,
  "ConflictIDList": [],
  "AnchorList": [],
  "MonsterList": [],
  "PropList": [],
  "NPCList": [
    {
      "ID": 400004,
      "PosX": 4.9,
      "PosY": -4.349,
      "PosZ": 14.229,
      "Name": "NPC4",
      "RotY": 251.5279,
      "NPCID": 2201,
      "StaticNPC": true,
      "DialogueGroups": [],
      "ServerInteractVerificationIDList": [],
      "DefaultIdleStateName": "Pose02",
      "DefaultLookAtMode": "Closed",
      "BoardShowList": [],
      "TalkDialogGroupIDList": [],
      "DefaultIdleFreeStyleMotionID": 200230215,
      "InitialHiddenNodeList": [
        "NPC_Monster_W2_Knight01_00/Weapon"
      ]
    },
    {
      "ID": 400005,
      "PosX": 5.746,
      "PosY": -4.950707,
      "PosZ": 15.521,
      "Name": "NPC5",
      "RotY": 174.3993,
      "NPCID": 12226,
      "DialogueGroups": [],
      "ServerInteractVerificationIDList": [],
      "DefaultLookAtMode": "Closed",
      "BoardShowList": [
        1,
        8,
        64
      ],
      "OverrideNPCName": {
        "Hash": -400948356
      },
      "OverrideNPCTitle": {
        "Hash": -737354912
      },
      "TalkDialogGroupIDList": [
        102070128
      ],
      "DefaultIdleFreeStyleMotionID": 100020210,
      "OverrideSeriesID": 1222601,
      "InitialHiddenNodeList": [],
      "Dialog": {
        "LevelGraph": "Config/Level/NPCDialogue/P10202/F10202001_G17/DialogueMain_F10202001_G17_N400005.json",
        "PackList": [],
        "EnableCondition": {
          "Conditions": [
            {
              "ID": 1020701
            }
          ]
        }
      }
    }
  ]
}