{
  "GroupGUID": "f563585c-9b07-4658-b295-dfb57160a77f",
  "GroupName": "MainMission2030402_DreamPoem",
  "Category": "Mission",
  "LevelGraph": "Config/Level/GroupGraph/F43322001/Group_F43322001_G18.json",
  "AreaAnchorName": "LevelArea_P43322_F43322001_G18",
  "SaveType": "Reset",
  "OwnerMainMissionID": 2030402,
  "ValueSource": {},
  "ConflictIDList": [],
  "IsHoyoGroup": true,
  "ConflictWhiteList": [],
  "TagContainer": {},
  "AnchorList": [
    {
      "ID": 1,
      "PosX": 64.832,
      "PosY": -19.5075,
      "PosZ": -529.401,
      "Name": "Anchor1",
      "RotY": 226.856
    }
  ],
  "MonsterList": [],
  "PropList": [
    {
      "ID": 300001,
      "PosX": 69.27,
      "PosY": -19.5075,
      "PosZ": -528.22,
      "Name": "Prop1",
      "PropID": 100,
      "ValueSource": {},
      "Trigger": {
        "Radius": 2.0,
        "DimX": 1.0,
        "DimY": 1.0,
        "DimZ": 1.0,
        "PointList": []
      },
      "CampID": 4,
      "CustomTriggerMap": {},
      "CustomTriggerMapV2": {
        "MissionTrigger": {
          "Shape": "Box",
          "Radius": 6.0,
          "DimX": 10.0,
          "DimY": 1.0,
          "DimZ": 10.0,
          "PointList": []
        },
        "BubbleTrigger": {
          "Radius": 20.0,
          "DimX": 1.0,
          "DimY": 1.0,
          "DimZ": 1.0,
          "PointList": []
        }
      },
      "BridgeStateRotations": [],
      "DialogueGroups": [],
      "TalkDialogGroupIDList": [],
      "ServerInteractVerificationIDList": [],
      "TriggerValidGuest": {},
      "TagContainer": {},
      "CameraCenterEntityList": [],
      "SpawnConfig": {
        "EntitySpawnConfig": {}
      }
    },
    {
      "ID": 300002,
      "PosX": 67.30724,
      "PosY": -19.5075,
      "PosZ": -523.0825,
      "IsDelete": true,
      "Name": "Prop2",
      "PropID": 100,
      "ValueSource": {},
      "CampID": 4,
      "CustomTriggerMap": {},
      "CustomTriggerMapV2": {},
      "BridgeStateRotations": [],
      "DialogueGroups": [],
      "TalkDialogGroupIDList": [],
      "ServerInteractVerificationIDList": [],
      "TriggerValidGuest": {},
      "TagContainer": {},
      "CameraCenterEntityList": [],
      "SpawnConfig": {
        "EntitySpawnConfig": {}
      }
    }
  ],
  "NPCList": [
    {
      "ID": 400001,
      "PosX": 62.725,
      "PosY": -19.23424,
      "PosZ": -530.955,
      "Name": "NPC1",
      "RotY": 90.88847,
      "NPCID": 3065,
      "ValueSource": {},
      "DialogueGroups": [],
      "ServerInteractVerificationIDList": [],
      "BoardShowList": [
        8
      ],
      "TalkDialogGroupIDList": [],
      "DefaultIdleFreeStyleMotionID": 900090000,
      "OverrideSeriesID": 4294967295,
      "InitialHiddenNodeList": [],
      "TagContainer": {},
      "CameraCenterEntityList": [],
      "SpawnConfig": {
        "EntitySpawnConfig": {}
      },
      "TriggerValidGuest": {}
    },
    {
      "ID": 400002,
      "PosX": 62.452,
      "PosY": -19.05848,
      "PosZ": -530.47,
      "Name": "NPC2",
      "RotY": 73.74488,
      "NPCID": 3067,
      "ValueSource": {},
      "DialogueGroups": [],
      "ServerInteractVerificationIDList": [],
      "BoardShowList": [],
      "TalkDialogGroupIDList": [],
      "DefaultIdleFreeStyleMotionID": 900090000,
      "InitialHiddenNodeList": [],
      "TagContainer": {},
      "CameraCenterEntityList": [],
      "SpawnConfig": {
        "EntitySpawnConfig": {}
      },
      "TriggerValidGuest": {}
    },
    {
      "ID": 400003,
      "PosX": 62.454,
      "PosY": -19.05849,
      "PosZ": -531.796,
      "Name": "NPC3",
      "RotY": 70.26778,
      "NPCID": 3066,
      "ValueSource": {},
      "DialogueGroups": [],
      "ServerInteractVerificationIDList": [],
      "BoardShowList": [
        8
      ],
      "TalkDialogGroupIDList": [],
      "DefaultIdleFreeStyleMotionID": 900090000,
      "InitialHiddenNodeList": [],
      "TagContainer": {},
      "CameraCenterEntityList": [],
      "SpawnConfig": {
        "EntitySpawnConfig": {}
      },
      "TriggerValidGuest": {}
    },
    {
      "ID": 400004,
      "PosX": 62.777,
      "PosY": -19.23424,
      "PosZ": -529.783,
      "Name": "NPC4",
      "RotY": 87.55608,
      "NPCID": 3064,
      "ValueSource": {},
      "DialogueGroups": [],
      "ServerInteractVerificationIDList": [],
      "BoardShowList": [],
      "TalkDialogGroupIDList": [],
      "DefaultIdleFreeStyleMotionID": 900090000,
      "InitialHiddenNodeList": [],
      "TagContainer": {},
      "CameraCenterEntityList": [],
      "SpawnConfig": {
        "EntitySpawnConfig": {}
      },
      "TriggerValidGuest": {}
    }
  ]
}