{
  "GroupGUID": "0a7057cc-f365-4305-899d-e4f50cd76f98",
  "GroupName": "MainMission2030402_DreamPoem",
  "Category": "Mission",
  "AreaAnchorName": "LevelArea_P43322_F43322001_G20",
  "SaveType": "Reset",
  "OwnerMainMissionID": 2030402,
  "ValueSource": {},
  "ConflictIDList": [],
  "IsHoyoGroup": true,
  "ConflictWhiteList": [],
  "TagContainer": {},
  "AnchorList": [],
  "MonsterList": [],
  "PropList": [
    {
      "ID": 300001,
      "PosX": 130.825,
      "PosY": 22.45,
      "PosZ": -205.5708,
      "Name": "Prop1",
      "PropID": 100,
      "ValueSource": {},
      "Trigger": {
        "Radius": 1.0,
        "DimX": 1.0,
        "DimY": 1.0,
        "DimZ": 1.0,
        "PointList": []
      },
      "CampID": 4,
      "OverrideHintRange": 5.0,
      "CustomTriggerMap": {},
      "CustomTriggerMapV2": {},
      "BridgeStateRotations": [],
      "DialogueGroups": [],
      "TalkDialogGroupIDList": [],
      "ServerInteractVerificationIDList": [],
      "HideInCutScene": true,
      "HideInStory": true,
      "PerformanceHideFlags": -8,
      "Dialog": {
        "LevelGraph": "Config/Level/PropDialogue/P43322/F43322001_G20/DialogueMain_F43322001_G20_P300001.json",
        "PackList": []
      },
      "InteractIconType": "ChatIcon",
      "InteractTitle": {
        "Hash": 278713937
      },
      "TriggerValidGuest": {},
      "TagContainer": {},
      "CameraCenterEntityList": [],
      "SpawnConfig": {
        "EntitySpawnConfig": {}
      }
    }
  ],
  "NPCList": []
}