{
  "GroupGUID": "fcdfdd39-510f-4a50-b7f8-95ebd7d61a4e",
  "GroupName": "DefaultGroup",
  "LevelGraph": "Config/Level/GroupGraph/F81312001/Group_F81312001_G1.json",
  "AreaAnchorName": "LevelArea_P81312_F81312001_G1",
  "SaveType": "Reset",
  "SavedValueCondition": {
    "Conditions": [],
    "Operation": "And"
  },
  "LoadOnInitial": true,
  "ValueSource": {},
  "ConflictIDList": [],
  "IsHoyoGroup": true,
  "ConflictWhiteList": [],
  "TagContainer": {},
  "AnchorList": [
    {
      "ID": 1,
      "Name": "PlayerStart"
    }
  ],
  "MonsterList": [],
  "PropList": [],
  "NPCList": []
}