{
  "GroupGUID": "54c055c9-3239-4c96-99f8-b8342fe3a466",
  "GroupName": "DefaultGroup",
  "AreaAnchorName": "LevelArea_P43322_F43322004_G1",
  "SaveType": "Reset",
  "SavedValueCondition": {
    "Conditions": [],
    "Operation": "And"
  },
  "LoadOnInitial": true,
  "ValueSource": {},
  "ConflictIDList": [],
  "IsHoyoGroup": true,
  "HoYoGroupType": "Container",
  "ConflictWhiteList": [],
  "TagContainer": {},
  "AnchorList": [
    {
      "ID": 1,
      "PosX": -1.362032,
      "PosY": 95.00934,
      "PosZ": -38.65197,
      "Name": "PlayerStart"
    }
  ],
  "MonsterList": [],
  "PropList": [],
  "NPCList": []
}