{
  "GroupGUID": "617799e1-33f8-424e-bef6-e029022e29d6",
  "GroupName": "MainMission1032802_11",
  "Category": "Mission",
  "AreaAnchorName": "LevelArea_P43321_F43321002_G9",
  "SaveType": "Reset",
  "OwnerMainMissionID": 1032802,
  "ValueSource": {},
  "ConflictIDList": [],
  "IsHoyoGroup": true,
  "ConflictWhiteList": [],
  "TagContainer": {},
  "AnchorList": [
    {
      "ID": 1,
      "PosX": -0.104104,
      "PosY": 39.68704,
      "PosZ": -317.9853,
      "Name": "Anchor1"
    }
  ],
  "MonsterList": [],
  "PropList": [],
  "NPCList": []
}