{
  "GroupGUID": "cffd94f0-b867-4301-bc83-9bb90f8dde10",
  "GroupName": "Sound",
  "AreaAnchorName": "LevelArea_P44305_F44305004_G34",
  "SaveType": "Reset",
  "SavedValueCondition": {
    "Conditions": [],
    "Operation": "And"
  },
  "LoadOnInitial": true,
  "ValueSource": {},
  "ConflictIDList": [],
  "IsHoyoGroup": true,
  "HoYoGroupType": "Container",
  "ConflictWhiteList": [],
  "TagContainer": {},
  "AnchorList": [],
  "MonsterList": [],
  "PropList": [],
  "NPCList": []
}