{
  "GroupGUID": "94083d24-8b69-424a-bd3b-374f6da7ad52",
  "GroupName": "MainMission8022126_04",
  "Category": "Mission",
  "LevelGraph": "Config/Level/GroupGraph/F44305004/Group_F44305004_G52.json",
  "AreaAnchorName": "LevelArea_P44305_F44305004_G52",
  "SaveType": "Reset",
  "OwnerMainMissionID": 8022126,
  "ValueSource": {},
  "ConflictIDList": [],
  "IsHoyoGroup": true,
  "ConflictWhiteList": [],
  "TagContainer": {},
  "AnchorList": [],
  "MonsterList": [],
  "PropList": [],
  "NPCList": []
}