{
  "GroupGUID": "a7c95753-1b5d-4ed8-a42e-2fbb5bec4158",
  "GroupName": "MainMission8022126_02",
  "Category": "Mission",
  "LevelGraph": "Config/Level/GroupGraph/F44305004/Group_F44305004_G60.json",
  "AreaAnchorName": "LevelArea_P44305_F44305004_G60",
  "SaveType": "Reset",
  "OwnerMainMissionID": 8022126,
  "ValueSource": {},
  "ConflictIDList": [],
  "IsHoyoGroup": true,
  "ConflictWhiteList": [],
  "TagContainer": {},
  "AnchorList": [],
  "MonsterList": [],
  "PropList": [],
  "NPCList": []
}