{
  "GroupGUID": "3bcb3e66-5a83-4a49-9d06-079bfdefb3c8",
  "GroupName": "Switch",
  "LevelGraph": "Config/Level/GroupGraph/F43322005/Group_F43322005_G3.json",
  "AreaAnchorName": "LevelArea_P43322_F43322005_G3",
  "SavedValueCondition": {
    "Conditions": [],
    "Operation": "And"
  },
  "LoadSide": "Server",
  "LoadOnInitial": true,
  "ValueSource": {},
  "ConflictIDList": [],
  "IsHoyoGroup": true,
  "ConflictWhiteList": [],
  "TagContainer": {},
  "AnchorList": [],
  "MonsterList": [],
  "PropList": [],
  "NPCList": []
}