{
  "GroupGUID": "96eb330f-3148-4079-86ab-38d4b868d820",
  "GroupName": "MainMission6020101_",
  "Category": "Mission",
  "AreaAnchorName": "LevelArea_P10201_F10201002_G22",
  "SaveType": "Reset",
  "LoadCondition": {
    "Conditions": [
      {
        "Type": "SubMission",
        "ID": 602010107
      },
      {
        "Type": "SubMission",
        "ID": 602010108
      }
    ],
    "Operation": "Or"
  },
  "UnloadCondition": {
    "Conditions": [
      {
        "Type": "SubMission",
        "Phase": "Finish",
        "ID": 602010108
      }
    ]
  },
  "OwnerMainMissionID": 6020101,
  "ConflictIDList": [],
  "AnchorList": [
    {
      "ID": 1,
      "PosX": -10.345,
      "PosY": 8.285107,
      "PosZ": 7.48,
      "Name": "Anchor1",
      "RotY": 130.1766
    },
    {
      "ID": 2,
      "PosX": 18.58,
      "PosY": 8.3,
      "PosZ": 0.9,
      "Name": "Anchor2",
      "RotY": 342.7516,
      "Usage": "Camera"
    },
    {
      "ID": 3,
      "PosX": 5.004,
      "PosY": 7.356793,
      "PosZ": -9.439,
      "Name": "Anchor3",
      "RotY": 349.7369,
      "Usage": "Camera"
    },
    {
      "ID": 4,
      "PosX": 19.983,
      "PosY": 9.537,
      "PosZ": 0.026,
      "Name": "Anchor4",
      "RotY": 308.7137,
      "Usage": "Camera"
    },
    {
      "ID": 5,
      "PosX": 5.837,
      "PosY": 8.727,
      "PosZ": -10.447,
      "Name": "Anchor5",
      "RotY": 328.8763,
      "Usage": "Camera"
    }
  ],
  "MonsterList": [],
  "PropList": [
    {
      "ID": 300001,
      "PosX": 18.57,
      "PosY": 8.075088,
      "PosZ": 1.53,
      "Name": "Prop1",
      "PropID": 100,
      "IsOverrideInitLevelGraph": true,
      "Trigger": {
        "Radius": 4.0,
        "DimX": 50.0,
        "DimY": 5.0,
        "DimZ": 1.0,
        "PointList": []
      },
      "CampID": 4,
      "CustomTriggerMap": {},
      "BridgeStateRotations": [],
      "DialogueGroups": [],
      "TalkDialogGroupIDList": [],
      "ServerInteractVerificationIDList": []
    },
    {
      "ID": 300002,
      "PosX": 0.32,
      "PosY": 8.446365,
      "PosZ": -24.54,
      "Name": "Prop2",
      "PropID": 100,
      "IsOverrideInitLevelGraph": true,
      "Trigger": {
        "Shape": "Box",
        "Radius": 5.0,
        "DimX": 30.0,
        "DimY": 2.0,
        "DimZ": 1.0,
        "PointList": []
      },
      "CampID": 4,
      "CustomTriggerMap": {},
      "BridgeStateRotations": [],
      "DialogueGroups": [],
      "TalkDialogGroupIDList": [],
      "ServerInteractVerificationIDList": []
    }
  ],
  "NPCList": [
    {
      "ID": 400001,
      "PosX": 18.006,
      "PosY": 8.285106,
      "PosZ": 3.017,
      "Name": "NPC1",
      "RotY": 190.7099,
      "NPCID": 1202,
      "DialogueGroups": [],
      "ServerInteractVerificationIDList": [],
      "BoardShowList": [],
      "TalkDialogGroupIDList": [],
      "DefaultIdleFreeStyleMotionID": 312070000,
      "InitialHiddenNodeList": []
    },
    {
      "ID": 400002,
      "PosX": 3.63,
      "PosY": 7.356788,
      "PosZ": 1.3,
      "Name": "NPC2",
      "RotY": 319.5345,
      "NPCID": 12119,
      "DialogueGroups": [],
      "ServerInteractVerificationIDList": [],
      "BoardShowList": [],
      "TalkDialogGroupIDList": [],
      "DefaultIdleFreeStyleMotionID": 100010000,
      "InitialHiddenNodeList": [],
      "SpawnConfig": {
        "EntitySpawnConfig": {},
        "CaptureDistanceTolerance": 10.0
      }
    },
    {
      "ID": 400003,
      "PosX": 2.8,
      "PosY": 7.440659,
      "PosZ": 0.97,
      "Name": "NPC3",
      "RotY": 336.968,
      "NPCID": 12221,
      "DialogueGroups": [],
      "ServerInteractVerificationIDList": [],
      "BoardShowList": [],
      "TalkDialogGroupIDList": [],
      "DefaultIdleFreeStyleMotionID": 100020000,
      "InitialHiddenNodeList": []
    },
    {
      "ID": 400004,
      "PosX": -3.13,
      "PosY": 8.2912,
      "PosZ": -29.68,
      "Name": "NPC4",
      "RotY": 129.6637,
      "NPCID": 2201,
      "DialogueGroups": [],
      "ServerInteractVerificationIDList": [],
      "BoardShowList": [
        8
      ],
      "TalkDialogGroupIDList": [],
      "DefaultIdleFreeStyleMotionID": 200230000,
      "InitialHiddenNodeList": []
    },
    {
      "ID": 400005,
      "PosX": 3.37,
      "PosY": 8.2912,
      "PosZ": -29.65,
      "Name": "NPC5",
      "RotY": 231.7193,
      "NPCID": 2201,
      "DialogueGroups": [],
      "ServerInteractVerificationIDList": [],
      "BoardShowList": [
        8
      ],
      "TalkDialogGroupIDList": [],
      "DefaultIdleFreeStyleMotionID": 200230000,
      "InitialHiddenNodeList": []
    },
    {
      "ID": 400006,
      "PosX": 18.72,
      "PosY": 8.285107,
      "PosZ": 1.41,
      "Name": "NPC6",
      "RotY": 3.26509,
      "NPCID": 12251,
      "StaticNPC": true,
      "DialogueGroups": [],
      "ServerInteractVerificationIDList": [],
      "BoardShowList": [],
      "TalkDialogGroupIDList": [],
      "DefaultIdleFreeStyleMotionID": 100020230,
      "InitialHiddenNodeList": [],
      "SpawnConfig": {
        "EntitySpawnConfig": {},
        "CaptureDistanceTolerance": 10.0
      }
    },
    {
      "ID": 400007,
      "PosX": 17.34,
      "PosY": 8.3,
      "PosZ": 0.657,
      "Name": "NPC7",
      "RotY": 24.69359,
      "NPCID": 1004,
      "DialogueGroups": [],
      "ServerInteractVerificationIDList": [],
      "BoardShowList": [],
      "TalkDialogGroupIDList": [],
      "DefaultIdleFreeStyleMotionID": 310040000,
      "InitialHiddenNodeList": []
    },
    {
      "ID": 400008,
      "PosX": 19.448,
      "PosY": 8.291197,
      "PosZ": 0.827,
      "Name": "NPC8",
      "RotY": 334.6157,
      "NPCID": 1001,
      "DialogueGroups": [],
      "ServerInteractVerificationIDList": [],
      "BoardShowList": [],
      "TalkDialogGroupIDList": [],
      "DefaultIdleFreeStyleMotionID": 310010000,
      "InitialHiddenNodeList": [],
      "SpawnConfig": {
        "EntitySpawnConfig": {},
        "CaptureDistanceTolerance": 10.0
      }
    },
    {
      "ID": 400009,
      "PosX": 5.121,
      "PosY": 7.356797,
      "PosZ": -7.408,
      "Name": "NPC9",
      "RotY": 212.1734,
      "NPCID": 1202,
      "DialogueGroups": [],
      "ServerInteractVerificationIDList": [],
      "BoardShowList": [],
      "TalkDialogGroupIDList": [],
      "DefaultIdleFreeStyleMotionID": 312070000,
      "InitialHiddenNodeList": [],
      "Dialog": {
        "LevelGraph": "Config/Level/NPCDialogue/P10201/F10201002_G22/DialogueMain_F10201002_G22_N400009.json",
        "PackList": []
      }
    },
    {
      "ID": 400010,
      "PosX": 4.21,
      "PosY": 7.356792,
      "PosZ": -9.33,
      "Name": "NPC10",
      "RotY": 28.2126,
      "NPCID": 1004,
      "DialogueGroups": [],
      "ServerInteractVerificationIDList": [],
      "BoardShowList": [],
      "TalkDialogGroupIDList": [],
      "DefaultIdleFreeStyleMotionID": 310040000,
      "InitialHiddenNodeList": []
    },
    {
      "ID": 400011,
      "PosX": 5.84,
      "PosY": 7.356792,
      "PosZ": -9.12,
      "Name": "NPC11",
      "RotY": 346.4782,
      "NPCID": 1001,
      "DialogueGroups": [],
      "ServerInteractVerificationIDList": [],
      "BoardShowList": [],
      "TalkDialogGroupIDList": [],
      "DefaultIdleFreeStyleMotionID": 310010000,
      "InitialHiddenNodeList": []
    },
    {
      "ID": 400012,
      "PosX": -1.922933,
      "PosY": 7.356796,
      "PosZ": -13.71362,
      "Name": "NPC12",
      "NPCID": 100,
      "DialogueGroups": [],
      "ServerInteractVerificationIDList": [],
      "BoardShowList": [],
      "TalkDialogGroupIDList": [],
      "OverrideSeriesID": 120201,
      "InitialHiddenNodeList": []
    }
  ]
}