{
  "GroupGUID": "84c5a095-03d5-4450-9ab8-311721cf6995",
  "GroupName": "DefaultGroup",
  "LevelGraph": "Config/Level/GroupGraph/F43321001/Group_F43321001_G1.json",
  "AreaAnchorName": "LevelArea_P43321_F43321001_G1",
  "SaveType": "Reset",
  "SavedValueCondition": {
    "Conditions": [],
    "Operation": "And"
  },
  "LoadOnInitial": true,
  "ValueSource": {},
  "ConflictIDList": [],
  "IsHoyoGroup": true,
  "ConflictWhiteList": [],
  "TagContainer": {},
  "AnchorList": [
    {
      "ID": 1,
      "PosX": -117.2134,
      "PosY": 11.55796,
      "PosZ": 62.1528,
      "Name": "PlayerStart",
      "RotY": 180.0
    }
  ],
  "MonsterList": [],
  "PropList": [],
  "NPCList": []
}