{
  "GroupGUID": "a9933c26-0dab-48de-ac34-cf5a430c80ab",
  "GroupName": "OneWayBridge",
  "LevelGraph": "Config/Level/GroupGraph/F43321001/Group_F43321001_G51.json",
  "AreaAnchorName": "LevelArea_P43321_F43321001_G51",
  "SavedValueCondition": {
    "Conditions": [],
    "Operation": "And"
  },
  "LoadSide": "Server",
  "LoadOnInitial": true,
  "ValueSource": {},
  "ConflictIDList": [],
  "IsHoyoGroup": true,
  "ConflictWhiteList": [],
  "TagContainer": {},
  "AnchorList": [],
  "MonsterList": [],
  "PropList": [
    {
      "ID": 300001,
      "PosX": -150.424,
      "PosY": 11.5007,
      "PosZ": -72.95334,
      "Name": "Prop1",
      "RotY": 180.0,
      "PropID": 103033,
      "IsOverrideInitLevelGraph": true,
      "InitLevelGraph": "Config/Level/Props/Chap03/InitLevelGraph_Prop_Chap03_MazeBridge_01.json",
      "ValueSource": {
        "Values": [
          {
            "$type": "SharedUint",
            "Key": "FloorID",
            "Value": 4
          }
        ]
      },
      "CampID": 4,
      "CustomTriggerMap": {},
      "CustomTriggerMapV2": {},
      "BridgeStateRotations": [],
      "DialogueGroups": [],
      "TalkDialogGroupIDList": [],
      "ServerInteractVerificationIDList": [],
      "TriggerValidGuest": {},
      "TagContainer": {},
      "CameraCenterEntityList": [],
      "SpawnConfig": {
        "EntitySpawnConfig": {}
      }
    },
    {
      "ID": 300002,
      "PosX": -150.424,
      "PosY": 11.5007,
      "PosZ": -66.95334,
      "Name": "Prop2",
      "RotY": 180.0,
      "PropID": 103033,
      "IsOverrideInitLevelGraph": true,
      "InitLevelGraph": "Config/Level/Props/Chap03/InitLevelGraph_Prop_Chap03_MazeBridge_01.json",
      "ValueSource": {
        "Values": [
          {
            "$type": "SharedUint",
            "Key": "FloorID",
            "Value": 4
          }
        ]
      },
      "CampID": 4,
      "CustomTriggerMap": {},
      "CustomTriggerMapV2": {},
      "BridgeStateRotations": [],
      "DialogueGroups": [],
      "TalkDialogGroupIDList": [],
      "ServerInteractVerificationIDList": [],
      "TriggerValidGuest": {},
      "TagContainer": {},
      "CameraCenterEntityList": [],
      "SpawnConfig": {
        "EntitySpawnConfig": {}
      }
    },
    {
      "ID": 300003,
      "PosX": -145.579,
      "PosY": 11.5107,
      "PosZ": -65.50196,
      "Name": "Prop3",
      "PropID": 103039,
      "IsOverrideInitLevelGraph": true,
      "InitLevelGraph": "Config/Level/Props/Common/InitLevelGraph_Prop_Common_Console_01.json",
      "ValueSource": {},
      "CampID": 4,
      "CustomTriggerMap": {},
      "CustomTriggerMapV2": {},
      "BridgeStateRotations": [],
      "DialogueGroups": [],
      "TalkDialogGroupIDList": [],
      "ServerInteractVerificationIDList": [],
      "TriggerValidGuest": {},
      "TagContainer": {},
      "CameraCenterEntityList": [],
      "SpawnConfig": {
        "EntitySpawnConfig": {}
      }
    }
  ],
  "NPCList": []
}