{
  "GroupGUID": "8289dcb5-a913-409a-872a-f202afb8f193",
  "GroupName": "MainMission8022125_Camera3-1",
  "Category": "Mission",
  "AreaAnchorName": "LevelArea_P44305_F44305002_G42",
  "SaveType": "Reset",
  "OwnerMainMissionID": 8022125,
  "ValueSource": {},
  "ConflictIDList": [],
  "IsHoyoGroup": true,
  "HoYoGroupType": "Container",
  "ConflictWhiteList": [],
  "TagContainer": {},
  "AnchorList": [],
  "MonsterList": [],
  "PropList": [
    {
      "ID": 300001,
      "PosX": -29.31668,
      "PosY": 55.71602,
      "PosZ": 180.393,
      "Name": "Prop1",
      "PropID": 100,
      "IsOverrideInitLevelGraph": true,
      "InitLevelGraph": "Config/Level/LevelInstanceGraph/F44305002/LG_Prop_F44305002_G26_300001.json",
      "ValueSource": {},
      "Trigger": {
        "Radius": 15.0,
        "DimX": 1.0,
        "DimY": 1.0,
        "DimZ": 1.0,
        "PointList": []
      },
      "CampID": 4,
      "CustomTriggerMap": {},
      "CustomTriggerMapV2": {},
      "BridgeStateRotations": [],
      "DialogueGroups": [],
      "TalkDialogGroupIDList": [],
      "ServerInteractVerificationIDList": [],
      "TriggerValidGuest": {},
      "TagContainer": {},
      "CameraCenterEntityList": [],
      "SpawnConfig": {
        "EntitySpawnConfig": {}
      }
    }
  ],
  "NPCList": []
}