{
  "GroupGUID": "e384a68e-2743-4e4c-abc2-df28f5328be0",
  "GroupName": "Sub_Kfk",
  "ConfigPrefabPath": "Level/Mission/2022101/MainMission_2022101.prefab",
  "AreaAnchorName": "LevelArea_P20221_F20221001_G75",
  "SaveType": "Reset",
  "LoadCondition": {
    "Conditions": [
      {
        "ID": 6020201
      }
    ]
  },
  "UnloadCondition": {
    "Conditions": [
      {
        "Phase": "Finish",
        "ID": 6020201
      }
    ],
    "DelayToLevelReload": true
  },
  "ConflictIDList": [],
  "AnchorList": [
    {
      "ID": 1,
      "PosX": -35.81054,
      "PosY": 8.23996,
      "PosZ": -88.40527,
      "Name": "Anchor1"
    },
    {
      "ID": 2,
      "PosX": -35.2357,
      "PosY": 10.22443,
      "PosZ": -80.50365,
      "Name": "Anchor2"
    },
    {
      "ID": 3,
      "PosX": -34.45,
      "PosY": 8.239962,
      "PosZ": -100.52,
      "Name": "Anchor3",
      "RotY": 180.0
    },
    {
      "ID": 4,
      "PosX": -29.08,
      "PosY": 8.307146,
      "PosZ": -93.19,
      "Name": "Anchor4",
      "RotY": 328.9752
    },
    {
      "ID": 5,
      "PosX": -30.542,
      "PosY": 10.22442,
      "PosZ": -76.812,
      "Name": "Anchor5",
      "RotY": 35.88591
    },
    {
      "ID": 6,
      "PosX": -35.494,
      "PosY": 8.239961,
      "PosZ": -96.236,
      "Name": "Anchor6",
      "RotY": 38.52283
    }
  ],
  "MonsterList": [],
  "PropList": [
    {
      "ID": 300001,
      "PosX": -29.2,
      "PosY": 10.22442,
      "PosZ": -74.05,
      "Name": "Prop1",
      "PropID": 100,
      "IsOverrideInitLevelGraph": true,
      "Trigger": {
        "Radius": 6.0,
        "DimX": 1.0,
        "DimY": 1.0,
        "DimZ": 1.0,
        "PointList": []
      },
      "CampID": 4,
      "CustomTriggerMap": {},
      "BridgeStateRotations": [],
      "DialogueGroups": [],
      "TalkDialogGroupIDList": [],
      "ServerInteractVerificationIDList": []
    },
    {
      "ID": 300002,
      "PosX": -38.511,
      "PosY": 11.95,
      "PosZ": -79.362,
      "Name": "Prop2",
      "RotY": 1.892313,
      "PropID": 100,
      "IsOverrideInitLevelGraph": true,
      "Trigger": {
        "Radius": 2.0,
        "DimX": 4.0,
        "DimY": 2.0,
        "DimZ": 2.0,
        "PointList": []
      },
      "CampID": 4,
      "CustomTriggerMap": {},
      "BridgeStateRotations": [],
      "DialogueGroups": [],
      "TalkDialogGroupIDList": [],
      "ServerInteractVerificationIDList": []
    },
    {
      "ID": 300003,
      "PosX": -42.72,
      "PosY": 10.22442,
      "PosZ": -76.38,
      "Name": "Prop3",
      "PropID": 100,
      "IsOverrideInitLevelGraph": true,
      "Trigger": {
        "Radius": 5.0,
        "DimX": 2.0,
        "DimY": 1.0,
        "DimZ": 2.0,
        "PointList": []
      },
      "CampID": 4,
      "CustomTriggerMap": {},
      "BridgeStateRotations": [],
      "DialogueGroups": [],
      "TalkDialogGroupIDList": [],
      "ServerInteractVerificationIDList": []
    },
    {
      "ID": 300004,
      "PosX": -35.3,
      "PosY": 9.609776,
      "PosZ": -82.3,
      "Name": "Prop4",
      "PropID": 100,
      "IsOverrideInitLevelGraph": true,
      "Trigger": {
        "Shape": "Box",
        "Radius": 5.0,
        "DimX": 4.2,
        "DimY": 1.0,
        "DimZ": 2.0,
        "PointList": []
      },
      "CampID": 4,
      "CustomTriggerMap": {},
      "BridgeStateRotations": [],
      "DialogueGroups": [],
      "TalkDialogGroupIDList": [],
      "ServerInteractVerificationIDList": []
    },
    {
      "ID": 300005,
      "PosX": -31.869,
      "PosY": 9.592,
      "PosZ": -105.828,
      "Name": "Prop5",
      "PropID": 100,
      "IsOverrideInitLevelGraph": true,
      "Trigger": {
        "Radius": 2.0,
        "DimX": 6.0,
        "DimY": 1.0,
        "DimZ": 2.0,
        "PointList": []
      },
      "CampID": 4,
      "CustomTriggerMap": {},
      "BridgeStateRotations": [],
      "DialogueGroups": [],
      "TalkDialogGroupIDList": [],
      "ServerInteractVerificationIDList": []
    },
    {
      "ID": 300006,
      "PosX": -29.15,
      "PosY": 8.23996,
      "PosZ": -93.8,
      "Name": "Prop6",
      "PropID": 100,
      "IsOverrideInitLevelGraph": true,
      "Trigger": {
        "Radius": 4.0,
        "DimX": 1.0,
        "DimY": 1.0,
        "DimZ": 1.0,
        "PointList": []
      },
      "CampID": 4,
      "CustomTriggerMap": {},
      "BridgeStateRotations": [],
      "DialogueGroups": [],
      "TalkDialogGroupIDList": [],
      "ServerInteractVerificationIDList": []
    },
    {
      "ID": 300007,
      "PosX": -37.04,
      "PosY": 8.239964,
      "PosZ": -102.22,
      "Name": "Prop7",
      "PropID": 100,
      "IsOverrideInitLevelGraph": true,
      "Trigger": {
        "Shape": "Box",
        "Radius": 2.0,
        "DimX": 2.0,
        "DimY": 1.0,
        "DimZ": 3.0,
        "PointList": []
      },
      "CampID": 4,
      "CustomTriggerMap": {},
      "BridgeStateRotations": [],
      "DialogueGroups": [],
      "TalkDialogGroupIDList": [],
      "ServerInteractVerificationIDList": []
    },
    {
      "ID": 300008,
      "PosX": -29.13,
      "PosY": 10.22442,
      "PosZ": -74.27,
      "Name": "Prop8",
      "RotY": 235.312,
      "PropID": 102043,
      "IsOverrideInitLevelGraph": true,
      "CampID": 4,
      "CustomTriggerMap": {},
      "BridgeStateRotations": [],
      "DialogueGroups": [],
      "TalkDialogGroupIDList": [],
      "ServerInteractVerificationIDList": []
    },
    {
      "ID": 300009,
      "PosX": -43.4727,
      "PosY": 8.23997,
      "PosZ": -114.9028,
      "Name": "Prop9",
      "RotY": 231.6145,
      "PropID": 102044,
      "IsOverrideInitLevelGraph": true,
      "CampID": 4,
      "CustomTriggerMap": {},
      "BridgeStateRotations": [],
      "DialogueGroups": [],
      "TalkDialogGroupIDList": [],
      "ServerInteractVerificationIDList": []
    },
    {
      "ID": 300010,
      "PosX": -35.36,
      "PosY": 10.22443,
      "PosZ": -80.54,
      "Name": "Prop10",
      "PropID": 100,
      "IsOverrideInitLevelGraph": true,
      "Trigger": {
        "Shape": "Box",
        "Radius": 1.0,
        "DimX": 5.0,
        "DimY": 2.0,
        "DimZ": 2.0,
        "PointList": []
      },
      "CampID": 4,
      "CustomTriggerMap": {},
      "BridgeStateRotations": [],
      "DialogueGroups": [],
      "TalkDialogGroupIDList": [],
      "ServerInteractVerificationIDList": []
    },
    {
      "ID": 300011,
      "PosX": -34.32,
      "PosY": 8.23996,
      "PosZ": -102.75,
      "Name": "Prop11",
      "PropID": 100,
      "IsOverrideInitLevelGraph": true,
      "Trigger": {
        "Shape": "Box",
        "Radius": 1.0,
        "DimX": 5.0,
        "DimY": 2.0,
        "DimZ": 2.0,
        "PointList": []
      },
      "CampID": 4,
      "CustomTriggerMap": {},
      "BridgeStateRotations": [],
      "DialogueGroups": [],
      "TalkDialogGroupIDList": [],
      "ServerInteractVerificationIDList": []
    },
    {
      "ID": 300012,
      "PosX": -29.06,
      "PosY": 8.239959,
      "PosZ": -93.92,
      "Name": "Prop12",
      "PropID": 100,
      "IsOverrideInitLevelGraph": true,
      "Trigger": {
        "Radius": 4.0,
        "DimX": 5.0,
        "DimY": 2.0,
        "DimZ": 2.0,
        "PointList": []
      },
      "CampID": 4,
      "CustomTriggerMap": {},
      "BridgeStateRotations": [],
      "DialogueGroups": [],
      "TalkDialogGroupIDList": [],
      "ServerInteractVerificationIDList": []
    },
    {
      "ID": 300013,
      "PosX": -25.782,
      "PosY": 9.798,
      "PosZ": -92.422,
      "Name": "Prop13",
      "PropID": 100,
      "IsOverrideInitLevelGraph": true,
      "Trigger": {
        "Radius": 3.0,
        "DimX": 5.0,
        "DimY": 2.0,
        "DimZ": 2.0,
        "PointList": []
      },
      "CampID": 4,
      "CustomTriggerMap": {},
      "BridgeStateRotations": [],
      "DialogueGroups": [],
      "TalkDialogGroupIDList": [],
      "ServerInteractVerificationIDList": [],
      "OverridePropName": {
        "Hash": -326490042
      },
      "Dialog": {
        "LevelGraph": "Config/Level/PropDialogue/P20221/F20221001_G75/DialogueMain_F20221001_G75_P300013.json",
        "PackList": []
      },
      "InteractIconType": "CheckIcon",
      "InteractTitle": {
        "Hash": 278713937
      }
    },
    {
      "ID": 300014,
      "PosX": -35.28,
      "PosY": 8.23996,
      "PosZ": -87.06,
      "Name": "Prop14",
      "PropID": 111,
      "IsOverrideInitLevelGraph": true,
      "Trigger": {
        "Shape": "Box",
        "Radius": 1.0,
        "DimX": 5.0,
        "DimY": 1.0,
        "DimZ": 2.0,
        "Offset": {
          "z": 1.0
        },
        "PointList": []
      },
      "CampID": 4,
      "CustomTriggerMap": {},
      "BridgeStateRotations": [],
      "DialogueGroups": [],
      "TalkDialogGroupIDList": [],
      "ServerInteractVerificationIDList": []
    },
    {
      "ID": 300015,
      "PosX": -27.51589,
      "PosY": 9.375,
      "PosZ": -92.78875,
      "Name": "Prop15",
      "PropID": 100,
      "IsOverrideInitLevelGraph": true,
      "CampID": 4,
      "CustomTriggerMap": {},
      "BridgeStateRotations": [],
      "DialogueGroups": [],
      "TalkDialogGroupIDList": [],
      "ServerInteractVerificationIDList": []
    },
    {
      "ID": 300016,
      "PosX": -38.63,
      "PosY": 10.22442,
      "PosZ": -75.81,
      "Name": "Prop16",
      "PropID": 100,
      "IsOverrideInitLevelGraph": true,
      "Trigger": {
        "Radius": 5.0,
        "DimX": 2.0,
        "DimY": 1.0,
        "DimZ": 2.0,
        "PointList": []
      },
      "CampID": 4,
      "CustomTriggerMap": {},
      "BridgeStateRotations": [],
      "DialogueGroups": [],
      "TalkDialogGroupIDList": [],
      "ServerInteractVerificationIDList": []
    },
    {
      "ID": 300017,
      "PosX": -35.23186,
      "PosY": 10.22443,
      "PosZ": -81.18,
      "Name": "Prop17",
      "PropID": 100,
      "IsOverrideInitLevelGraph": true,
      "Trigger": {
        "Shape": "Box",
        "Radius": 4.0,
        "DimX": 5.0,
        "DimY": 1.0,
        "DimZ": 2.0,
        "PointList": []
      },
      "CampID": 4,
      "CustomTriggerMap": {},
      "BridgeStateRotations": [],
      "DialogueGroups": [],
      "TalkDialogGroupIDList": [],
      "ServerInteractVerificationIDList": []
    },
    {
      "ID": 300018,
      "PosX": -34.78,
      "PosY": 8.239964,
      "PosZ": -104.93,
      "Name": "Prop18",
      "PropID": 100,
      "IsOverrideInitLevelGraph": true,
      "Trigger": {
        "Shape": "Box",
        "Radius": 4.0,
        "DimX": 6.0,
        "DimY": 1.0,
        "DimZ": 2.0,
        "PointList": []
      },
      "CampID": 4,
      "CustomTriggerMap": {},
      "BridgeStateRotations": [],
      "DialogueGroups": [],
      "TalkDialogGroupIDList": [],
      "ServerInteractVerificationIDList": []
    },
    {
      "ID": 300019,
      "PosX": 103.27,
      "PosY": 13.7598,
      "PosZ": -60.23,
      "Name": "Prop19",
      "PropID": 100,
      "IsOverrideInitLevelGraph": true,
      "Trigger": {
        "Radius": 4.0,
        "DimX": 1.0,
        "DimY": 1.0,
        "DimZ": 1.0,
        "PointList": []
      },
      "CampID": 4,
      "CustomTriggerMap": {},
      "BridgeStateRotations": [],
      "DialogueGroups": [],
      "TalkDialogGroupIDList": [],
      "ServerInteractVerificationIDList": []
    },
    {
      "ID": 300020,
      "PosX": -55.73225,
      "PosY": 0.68496,
      "PosZ": 94.69609,
      "Name": "Prop20",
      "PropID": 100,
      "IsOverrideInitLevelGraph": true,
      "Trigger": {
        "Radius": 4.0,
        "DimX": 1.0,
        "DimY": 1.0,
        "DimZ": 1.0,
        "PointList": []
      },
      "CampID": 4,
      "CustomTriggerMap": {},
      "BridgeStateRotations": [],
      "DialogueGroups": [],
      "TalkDialogGroupIDList": [],
      "ServerInteractVerificationIDList": []
    }
  ],
  "NPCList": [
    {
      "ID": 400001,
      "PosX": -28.73,
      "PosY": 8.307144,
      "PosZ": -94.719,
      "Name": "NPC1",
      "RotY": 327.9642,
      "NPCID": 1005,
      "DialogueGroups": [],
      "ServerInteractVerificationIDList": [],
      "BoardShowList": [
        4,
        8
      ],
      "TalkDialogGroupIDList": [],
      "DefaultIdleFreeStyleMotionID": 310050215,
      "InitialHiddenNodeList": [],
      "Dialog": {
        "LevelGraph": "Config/Level/NPCDialogue/P20221/F20221001_G75/DialogueMain_F20221001_G75_N400001.json",
        "PackList": [],
        "EnableCondition": {
          "Conditions": [
            {
              "ID": 6020201
            }
          ]
        }
      },
      "SpawnConfig": {
        "EntitySpawnConfig": {},
        "CaptureDistanceTolerance": 10.0
      }
    },
    {
      "ID": 400002,
      "PosX": -25.491,
      "PosY": 8.72,
      "PosZ": -93.612,
      "Name": "NPC2",
      "RotY": 323.7887,
      "NPCID": 1214,
      "StaticNPC": true,
      "DialogueGroups": [],
      "ServerInteractVerificationIDList": [],
      "DefaultLookAtMode": "Closed",
      "BoardShowList": [],
      "TalkDialogGroupIDList": [],
      "DefaultIdleFreeStyleMotionID": 312050902,
      "InitialHiddenNodeList": []
    },
    {
      "ID": 400003,
      "PosX": -30.84,
      "PosY": 10.2927,
      "PosZ": -73.69,
      "Name": "NPC3",
      "RotY": 108.7523,
      "NPCID": 2201,
      "DialogueGroups": [],
      "ServerInteractVerificationIDList": [],
      "BoardShowList": [],
      "TalkDialogGroupIDList": [],
      "DefaultIdleFreeStyleMotionID": 200230218,
      "InitialHiddenNodeList": []
    },
    {
      "ID": 400004,
      "PosX": -29.346,
      "PosY": 10.2927,
      "PosZ": -75.642,
      "Name": "NPC4",
      "RotY": 213.0385,
      "NPCID": 2201,
      "DialogueGroups": [],
      "ServerInteractVerificationIDList": [],
      "BoardShowList": [],
      "TalkDialogGroupIDList": [],
      "DefaultIdleFreeStyleMotionID": 200230201,
      "InitialHiddenNodeList": []
    },
    {
      "ID": 400005,
      "PosX": -29.27,
      "PosY": 10.22442,
      "PosZ": -75.5,
      "Name": "NPC5",
      "RotY": 188.0504,
      "NPCID": 2201,
      "DialogueGroups": [],
      "ServerInteractVerificationIDList": [],
      "BoardShowList": [],
      "TalkDialogGroupIDList": [],
      "DefaultIdleFreeStyleMotionID": 200230000,
      "InitialHiddenNodeList": []
    },
    {
      "ID": 400006,
      "PosX": -29.7,
      "PosY": 10.22443,
      "PosZ": -79.18,
      "Name": "NPC6",
      "RotY": 1.974947,
      "NPCID": 2201,
      "DialogueGroups": [],
      "ServerInteractVerificationIDList": [],
      "BoardShowList": [],
      "TalkDialogGroupIDList": [],
      "DefaultIdleFreeStyleMotionID": 200230000,
      "InitialHiddenNodeList": []
    },
    {
      "ID": 400007,
      "PosX": -38.0,
      "PosY": 10.29269,
      "PosZ": -72.44,
      "Name": "NPC7",
      "RotY": 268.3818,
      "NPCID": 2201,
      "DialogueGroups": [],
      "ServerInteractVerificationIDList": [],
      "BoardShowList": [
        8
      ],
      "TalkDialogGroupIDList": [],
      "DefaultIdleFreeStyleMotionID": 200230000,
      "InitialHiddenNodeList": []
    },
    {
      "ID": 400008,
      "PosX": -38.65,
      "PosY": 10.22443,
      "PosZ": -77.93,
      "Name": "NPC8",
      "RotY": 8.614594,
      "NPCID": 2203,
      "DialogueGroups": [],
      "ServerInteractVerificationIDList": [],
      "BoardShowList": [],
      "TalkDialogGroupIDList": [],
      "DefaultIdleFreeStyleMotionID": 200260000,
      "InitialHiddenNodeList": []
    },
    {
      "ID": 400009,
      "PosX": -39.83,
      "PosY": 10.22443,
      "PosZ": -79.4,
      "Name": "NPC9",
      "RotY": 42.58187,
      "NPCID": 2201,
      "DialogueGroups": [],
      "ServerInteractVerificationIDList": [],
      "BoardShowList": [],
      "TalkDialogGroupIDList": [],
      "DefaultIdleFreeStyleMotionID": 200230000,
      "InitialHiddenNodeList": []
    },
    {
      "ID": 400010,
      "PosX": -40.122,
      "PosY": 10.22443,
      "PosZ": -77.1,
      "Name": "NPC10",
      "RotY": 116.8061,
      "NPCID": 2201,
      "DialogueGroups": [],
      "ServerInteractVerificationIDList": [],
      "BoardShowList": [],
      "TalkDialogGroupIDList": [],
      "DefaultIdleFreeStyleMotionID": 200230000,
      "InitialHiddenNodeList": []
    },
    {
      "ID": 400011,
      "PosX": -38.4,
      "PosY": 10.22443,
      "PosZ": -78.39,
      "Name": "NPC11",
      "RotY": 302.4753,
      "NPCID": 2203,
      "DialogueGroups": [],
      "ServerInteractVerificationIDList": [],
      "BoardShowList": [],
      "TalkDialogGroupIDList": [],
      "DefaultIdleFreeStyleMotionID": 200260208,
      "InitialHiddenNodeList": []
    },
    {
      "ID": 400012,
      "PosX": -38.45,
      "PosY": 10.29269,
      "PosZ": -67.133,
      "Name": "NPC12",
      "RotY": 244.4036,
      "NPCID": 12304,
      "DialogueGroups": [],
      "ServerInteractVerificationIDList": [],
      "DefaultIdleStateName": "Sob01Loop",
      "BoardShowList": [],
      "TalkDialogGroupIDList": [],
      "DefaultIdleFreeStyleMotionID": 100040289,
      "InitialHiddenNodeList": []
    },
    {
      "ID": 400013,
      "PosX": -28.766,
      "PosY": 8.307144,
      "PosZ": -94.014,
      "Name": "NPC13",
      "RotY": 80.15777,
      "NPCID": 1005,
      "DialogueGroups": [],
      "ServerInteractVerificationIDList": [],
      "DefaultLookAtMode": "Closed",
      "BoardShowList": [
        4,
        8
      ],
      "TalkDialogGroupIDList": [],
      "DefaultIdleFreeStyleMotionID": 310050245,
      "OverrideSeriesID": 4294967295,
      "InitialHiddenNodeList": [],
      "Dialog": {
        "LevelGraph": "Config/Level/NPCDialogue/P20221/F20221001_G75/DialogueMain_F20221001_G75_N400013.json",
        "PackList": []
      }
    },
    {
      "ID": 400014,
      "PosX": -29.73,
      "PosY": 8.307142,
      "PosZ": -94.62,
      "Name": "NPC14",
      "RotY": 25.42524,
      "NPCID": 1214,
      "DialogueGroups": [],
      "ServerInteractVerificationIDList": [],
      "BoardShowList": [],
      "TalkDialogGroupIDList": [],
      "DefaultIdleFreeStyleMotionID": 312050236,
      "InitialHiddenNodeList": []
    },
    {
      "ID": 400015,
      "PosX": -29.08,
      "PosY": 8.307146,
      "PosZ": -93.19,
      "Name": "NPC15",
      "RotY": 328.9752,
      "NPCID": 1992,
      "DialogueGroups": [],
      "ServerInteractVerificationIDList": [],
      "BoardShowList": [],
      "TalkDialogGroupIDList": [],
      "DefaultIdleFreeStyleMotionID": 380020000,
      "InitialHiddenNodeList": []
    },
    {
      "ID": 400016,
      "PosX": -30.542,
      "PosY": 10.22442,
      "PosZ": -76.812,
      "Name": "NPC16",
      "RotY": 35.88591,
      "NPCID": 1992,
      "DialogueGroups": [],
      "ServerInteractVerificationIDList": [],
      "BoardShowList": [],
      "TalkDialogGroupIDList": [],
      "DefaultIdleFreeStyleMotionID": 380020000,
      "InitialHiddenNodeList": []
    },
    {
      "ID": 400017,
      "PosX": -3.79,
      "PosY": 12.8349,
      "PosZ": 3.6,
      "Name": "NPC17",
      "RotY": 178.56,
      "NPCID": 2201,
      "AIConfig": {
        "AIFile": "Config/ConfigAI/Adventure/NPC_Patrol/Npc_Patrol_20221001.json",
        "PathwayList": [
          {
            "UseOwnerGroup": true,
            "UseGroup": 75,
            "UseID": 1
          }
        ],
        "SlaveConfigList": []
      },
      "DialogueGroups": [],
      "ServerInteractVerificationIDList": [],
      "BoardShowList": [],
      "OverrideNPCName": {
        "Hash": -326582797
      },
      "TalkDialogGroupIDList": [],
      "DefaultAnimationType": "IdleState",
      "DefaultIdleFreeStyleMotionID": 200230218,
      "InitialHiddenNodeList": [],
      "Dialog": {
        "LevelGraph": "Config/Level/NPCDialogue/P20221/F20221001_G75/DialogueMain_F20221001_G75_N400017.json",
        "PackList": []
      }
    },
    {
      "ID": 400018,
      "PosX": -27.24,
      "PosY": 4.789988,
      "PosZ": -157.87,
      "Name": "NPC18",
      "RotY": 89.53077,
      "NPCID": 2201,
      "AIConfig": {
        "AIFile": "Config/ConfigAI/Adventure/NPC_Patrol/Npc_Patrol_20221001.json",
        "PathwayList": [
          {
            "UseOwnerGroup": true,
            "UseGroup": 75,
            "UseID": 2
          }
        ],
        "SlaveConfigList": []
      },
      "DialogueGroups": [],
      "ServerInteractVerificationIDList": [],
      "BoardShowList": [],
      "OverrideNPCName": {
        "Hash": -326582797
      },
      "TalkDialogGroupIDList": [],
      "DefaultAnimationType": "IdleState",
      "DefaultIdleFreeStyleMotionID": 200230218,
      "InitialHiddenNodeList": [],
      "Dialog": {
        "LevelGraph": "Config/Level/NPCDialogue/P20221/F20221001_G75/DialogueMain_F20221001_G75_N400018.json",
        "PackList": []
      }
    }
  ]
}