{
  "GroupGUID": "62e57581-8618-42f3-ab6d-86642a91f3d3",
  "GroupName": "Crowd",
  "AreaAnchorName": "LevelArea_P20221_F20221001_G126",
  "SaveType": "Reset",
  "LoadOnInitial": true,
  "RandomInit": {
    "ControlList": [
      {
        "ControlID": 1,
        "Weight": 1.0,
        "NPCIDList": [
          400026,
          400027
        ],
        "PropIDList": [
          300003,
          300004,
          300007
        ],
        "CrowdIDList": []
      },
      {
        "ControlID": 2,
        "Weight": 1.0,
        "NPCIDList": [
          400008,
          400009
        ],
        "PropIDList": [
          300001,
          300002
        ],
        "CrowdIDList": []
      },
      {
        "ControlID": 3,
        "Weight": 1.0,
        "NPCIDList": [
          400001,
          400002
        ],
        "PropIDList": [
          300005,
          300006
        ],
        "CrowdIDList": []
      }
    ]
  },
  "ValueSource": {},
  "ConflictIDList": [],
  "AnchorList": [],
  "MonsterList": [],
  "PropList": [
    {
      "ID": 300003,
      "PosX": 106.52,
      "PosY": 16.31801,
      "PosZ": -71.28,
      "Name": "Prop3",
      "PropID": 100,
      "IsOverrideInitLevelGraph": true,
      "InitLevelGraph": "Config/Level/CrowdBubble/MunicipalChat_Play_Template.json",
      "ValueSource": {
        "Values": [
          {
            "$type": "SharedString",
            "Key": "PlayMunicipalChatPath",
            "Value": "Config/Level/MunicipalChatConfig/F20221001/MunicipalChatConfig_F20221001_0001.json"
          },
          {
            "$type": "SharedString",
            "Key": "PlayMunicipalChatName",
            "Value": "MunicipalChatConfig_F20221001_0001"
          },
          {
            "$type": "SharedJsonConfigList",
            "Key": "PlayMunicipalChatCharacterList",
            "Value": [
              {
                "$type": "MunicipalChatEntityInfo",
                "UniqueName": "1",
                "GroupInstanceID": 400026
              },
              {
                "$type": "MunicipalChatEntityInfo",
                "UniqueName": "2",
                "GroupInstanceID": 400027
              }
            ]
          }
        ]
      },
      "Trigger": {
        "Radius": 3.5,
        "DimX": 1.0,
        "DimY": 1.0,
        "DimZ": 1.0,
        "PointList": []
      },
      "CampID": 4,
      "CustomTriggerMap": {},
      "CustomTriggerMapV2": {},
      "BridgeStateRotations": [],
      "DialogueGroups": [],
      "TalkDialogGroupIDList": [],
      "ServerInteractVerificationIDList": []
    },
    {
      "ID": 300004,
      "PosX": 106.68,
      "PosY": 16.31801,
      "PosZ": -71.1,
      "Name": "Prop4",
      "PropID": 100,
      "IsOverrideInitLevelGraph": true,
      "InitLevelGraph": "Config/Level/CrowdBubble/MunicipalChat_Stop_Template.json",
      "ValueSource": {
        "Values": [
          {
            "$type": "SharedString",
            "Key": "StopMunicipalChatName",
            "Value": "MunicipalChatConfig_F20221001_0001"
          }
        ]
      },
      "Trigger": {
        "Radius": 3.5,
        "DimX": 1.0,
        "DimY": 1.0,
        "DimZ": 1.0,
        "PointList": []
      },
      "CampID": 4,
      "CustomTriggerMap": {},
      "CustomTriggerMapV2": {},
      "BridgeStateRotations": [],
      "DialogueGroups": [],
      "TalkDialogGroupIDList": [],
      "ServerInteractVerificationIDList": []
    },
    {
      "ID": 300001,
      "PosX": 80.25,
      "PosY": 16.40084,
      "PosZ": -79.12,
      "Name": "Prop1",
      "PropID": 100,
      "IsOverrideInitLevelGraph": true,
      "InitLevelGraph": "Config/Level/CrowdBubble/MunicipalChat_Play_Template.json",
      "ValueSource": {
        "Values": [
          {
            "$type": "SharedString",
            "Key": "PlayMunicipalChatPath",
            "Value": "Config/Level/MunicipalChatConfig/F20221001/MunicipalChatConfig_F20221001_0002.json"
          },
          {
            "$type": "SharedString",
            "Key": "PlayMunicipalChatName",
            "Value": "MunicipalChatConfig_F20221001_0002"
          },
          {
            "$type": "SharedJsonConfigList",
            "Key": "PlayMunicipalChatCharacterList",
            "Value": [
              {
                "$type": "MunicipalChatEntityInfo",
                "UniqueName": "1",
                "GroupInstanceID": 400008
              },
              {
                "$type": "MunicipalChatEntityInfo",
                "UniqueName": "2",
                "GroupInstanceID": 400009
              }
            ]
          }
        ]
      },
      "Trigger": {
        "Radius": 3.5,
        "DimX": 1.0,
        "DimY": 1.0,
        "DimZ": 1.0,
        "PointList": []
      },
      "CampID": 4,
      "CustomTriggerMap": {},
      "CustomTriggerMapV2": {},
      "BridgeStateRotations": [],
      "DialogueGroups": [],
      "TalkDialogGroupIDList": [],
      "ServerInteractVerificationIDList": []
    },
    {
      "ID": 300002,
      "PosX": 80.25,
      "PosY": 16.40084,
      "PosZ": -79.12,
      "Name": "Prop2",
      "PropID": 100,
      "IsOverrideInitLevelGraph": true,
      "InitLevelGraph": "Config/Level/CrowdBubble/MunicipalChat_Stop_Template.json",
      "ValueSource": {
        "Values": [
          {
            "$type": "SharedString",
            "Key": "StopMunicipalChatName",
            "Value": "MunicipalChatConfig_F20221001_0002"
          }
        ]
      },
      "Trigger": {
        "Radius": 3.5,
        "DimX": 1.0,
        "DimY": 1.0,
        "DimZ": 1.0,
        "PointList": []
      },
      "CampID": 4,
      "CustomTriggerMap": {},
      "CustomTriggerMapV2": {},
      "BridgeStateRotations": [],
      "DialogueGroups": [],
      "TalkDialogGroupIDList": [],
      "ServerInteractVerificationIDList": []
    },
    {
      "ID": 300005,
      "PosX": 95.99,
      "PosY": 16.39294,
      "PosZ": -66.13,
      "Name": "Prop5",
      "PropID": 100,
      "IsOverrideInitLevelGraph": true,
      "InitLevelGraph": "Config/Level/CrowdBubble/MunicipalChat_Play_Template.json",
      "ValueSource": {
        "Values": [
          {
            "$type": "SharedString",
            "Key": "PlayMunicipalChatPath",
            "Value": "Config/Level/MunicipalChatConfig/F20221001/MunicipalChatConfig_F20221001_0003.json"
          },
          {
            "$type": "SharedString",
            "Key": "PlayMunicipalChatName",
            "Value": "MunicipalChatConfig_F20221001_0003"
          },
          {
            "$type": "SharedJsonConfigList",
            "Key": "PlayMunicipalChatCharacterList",
            "Value": [
              {
                "$type": "MunicipalChatEntityInfo",
                "UniqueName": "1",
                "GroupInstanceID": 400001
              },
              {
                "$type": "MunicipalChatEntityInfo",
                "UniqueName": "2",
                "GroupInstanceID": 400002
              }
            ]
          }
        ]
      },
      "Trigger": {
        "Radius": 3.5,
        "DimX": 1.0,
        "DimY": 1.0,
        "DimZ": 1.0,
        "PointList": []
      },
      "CampID": 4,
      "CustomTriggerMap": {},
      "CustomTriggerMapV2": {},
      "BridgeStateRotations": [],
      "DialogueGroups": [],
      "TalkDialogGroupIDList": [],
      "ServerInteractVerificationIDList": []
    },
    {
      "ID": 300006,
      "PosX": 96.22359,
      "PosY": 16.31801,
      "PosZ": -65.28449,
      "Name": "Prop6",
      "PropID": 100,
      "IsOverrideInitLevelGraph": true,
      "InitLevelGraph": "Config/Level/CrowdBubble/MunicipalChat_Stop_Template.json",
      "ValueSource": {
        "Values": [
          {
            "$type": "SharedString",
            "Key": "StopMunicipalChatName",
            "Value": "MunicipalChatConfig_F20221001_0003"
          }
        ]
      },
      "Trigger": {
        "Radius": 3.5,
        "DimX": 1.0,
        "DimY": 1.0,
        "DimZ": 1.0,
        "PointList": []
      },
      "CampID": 4,
      "CustomTriggerMap": {},
      "CustomTriggerMapV2": {},
      "BridgeStateRotations": [],
      "DialogueGroups": [],
      "TalkDialogGroupIDList": [],
      "ServerInteractVerificationIDList": []
    },
    {
      "ID": 300007,
      "PosX": 106.52,
      "PosY": 16.31801,
      "PosZ": -71.28,
      "Name": "Prop7",
      "PropID": 100,
      "IsOverrideInitLevelGraph": true,
      "InitLevelGraph": "Config/Level/CrowdBubble/Crowd_Conversation_Template.json",
      "ValueSource": {
        "Values": [
          {
            "$type": "SharedString",
            "Key": "PlayPerformanceE",
            "Value": "502180001"
          }
        ]
      },
      "Trigger": {
        "Radius": 3.5,
        "DimX": 1.0,
        "DimY": 1.0,
        "DimZ": 1.0,
        "PointList": []
      },
      "CampID": 4,
      "CustomTriggerMap": {},
      "CustomTriggerMapV2": {},
      "BridgeStateRotations": [],
      "DialogueGroups": [],
      "TalkDialogGroupIDList": [],
      "ServerInteractVerificationIDList": []
    }
  ],
  "NPCList": [
    {
      "ID": 400001,
      "PosX": 96.49799,
      "PosY": 16.349,
      "PosZ": -66.252,
      "Name": "NPC1",
      "RotY": 216.7263,
      "NPCID": 12126,
      "DialogueGroups": [],
      "ServerInteractVerificationIDList": [],
      "DefaultLookAtMode": "Closed",
      "BoardShowList": [
        8
      ],
      "TalkDialogGroupIDList": [],
      "DefaultIdleFreeStyleMotionID": 100010298,
      "BornType": "Permanent",
      "InitialHiddenNodeList": []
    },
    {
      "ID": 400002,
      "PosX": 95.947,
      "PosY": 16.31801,
      "PosZ": -65.371,
      "Name": "NPC2",
      "RotY": 173.7795,
      "NPCID": 12128,
      "ValueSource": {},
      "DialogueGroups": [],
      "ServerInteractVerificationIDList": [],
      "DefaultIdleStateName": "Think01Loop",
      "BoardShowList": [
        8
      ],
      "TalkDialogGroupIDList": [],
      "DefaultIdleFreeStyleMotionID": 100010222,
      "BornType": "Permanent",
      "InitialHiddenNodeList": [],
      "SpawnConfig": {
        "EntitySpawnConfig": {}
      }
    },
    {
      "ID": 400003,
      "PosX": 90.4,
      "PosY": 16.31802,
      "PosZ": -84.03,
      "Name": "NPC3",
      "RotY": 179.6251,
      "NPCID": 12228,
      "DialogueGroups": [],
      "ServerInteractVerificationIDList": [],
      "DefaultIdleStateName": "Akimbo02Loop",
      "BoardShowList": [
        8
      ],
      "TalkDialogGroupIDList": [],
      "DefaultIdleFreeStyleMotionID": 100020216,
      "BornType": "Permanent",
      "InitialHiddenNodeList": []
    },
    {
      "ID": 400005,
      "PosX": 122.5,
      "PosY": 13.75981,
      "PosZ": -85.38,
      "Name": "NPC5",
      "RotY": 158.6721,
      "NPCID": 12127,
      "DialogueGroups": [],
      "ServerInteractVerificationIDList": [],
      "DefaultIdleStateName": "Think01Loop",
      "BoardShowList": [
        8
      ],
      "TalkDialogGroupIDList": [],
      "DefaultIdleFreeStyleMotionID": 100010222,
      "BornType": "Permanent",
      "InitialHiddenNodeList": []
    },
    {
      "ID": 400006,
      "PosX": 89.85,
      "PosY": 13.75981,
      "PosZ": -87.95,
      "Name": "NPC6",
      "RotY": 336.2318,
      "NPCID": 12230,
      "ValueSource": {},
      "DialogueGroups": [],
      "ServerInteractVerificationIDList": [],
      "DefaultIdleStateName": "Akimbo02Loop",
      "BoardShowList": [
        8
      ],
      "TalkDialogGroupIDList": [],
      "DefaultIdleFreeStyleMotionID": 100020216,
      "BornType": "Permanent",
      "InitialHiddenNodeList": [],
      "SpawnConfig": {
        "EntitySpawnConfig": {}
      }
    },
    {
      "ID": 400008,
      "PosX": 80.7,
      "PosY": 16.31801,
      "PosZ": -79.55,
      "Name": "NPC8",
      "RotY": 353.2418,
      "NPCID": 12127,
      "ValueSource": {},
      "DialogueGroups": [],
      "ServerInteractVerificationIDList": [],
      "DefaultLookAtMode": "LookTarget",
      "DefaultLookAtTargetInfo": {
        "GroupID": 126,
        "InstanceID": 400009
      },
      "BoardShowList": [
        8
      ],
      "TalkDialogGroupIDList": [],
      "DefaultIdleFreeStyleMotionID": 100010295,
      "BornType": "Permanent",
      "InitialHiddenNodeList": [],
      "SpawnConfig": {
        "EntitySpawnConfig": {}
      }
    },
    {
      "ID": 400009,
      "PosX": 79.956,
      "PosY": 16.31801,
      "PosZ": -78.519,
      "Name": "NPC9",
      "RotY": 133.2718,
      "NPCID": 12230,
      "DialogueGroups": [],
      "ServerInteractVerificationIDList": [],
      "DefaultLookAtMode": "LookTarget",
      "DefaultLookAtTargetInfo": {
        "GroupID": 126,
        "InstanceID": 400008
      },
      "BoardShowList": [
        8
      ],
      "TalkDialogGroupIDList": [],
      "DefaultIdleFreeStyleMotionID": 100020000,
      "BornType": "Permanent",
      "InitialHiddenNodeList": []
    },
    {
      "ID": 400012,
      "PosX": 122.91,
      "PosY": 21.63978,
      "PosZ": -77.34,
      "Name": "NPC12",
      "RotY": 66.5519,
      "NPCID": 2201,
      "ValueSource": {},
      "DialogueGroups": [],
      "ServerInteractVerificationIDList": [],
      "BoardShowList": [
        8
      ],
      "TalkDialogGroupIDList": [],
      "DefaultIdleFreeStyleMotionID": 200230000,
      "BornType": "Permanent",
      "InitialHiddenNodeList": [],
      "SpawnConfig": {
        "EntitySpawnConfig": {}
      }
    },
    {
      "ID": 400013,
      "PosX": 122.82,
      "PosY": 21.63979,
      "PosZ": -71.57,
      "Name": "NPC13",
      "RotY": 103.292,
      "NPCID": 2201,
      "ValueSource": {},
      "DialogueGroups": [],
      "ServerInteractVerificationIDList": [],
      "BoardShowList": [
        8
      ],
      "TalkDialogGroupIDList": [],
      "DefaultIdleFreeStyleMotionID": 200230000,
      "BornType": "Permanent",
      "InitialHiddenNodeList": [],
      "SpawnConfig": {
        "EntitySpawnConfig": {}
      }
    },
    {
      "ID": 400014,
      "PosX": 177.275,
      "PosY": 21.93948,
      "PosZ": -84.439,
      "Name": "NPC14",
      "RotY": 178.1136,
      "NPCID": 12131,
      "ValueSource": {},
      "DialogueGroups": [],
      "ServerInteractVerificationIDList": [],
      "BoardShowList": [
        8
      ],
      "TalkDialogGroupIDList": [],
      "DefaultIdleFreeStyleMotionID": 100010236,
      "BornType": "Permanent",
      "InitialHiddenNodeList": [],
      "SpawnConfig": {
        "EntitySpawnConfig": {}
      }
    },
    {
      "ID": 400016,
      "PosX": 188.171,
      "PosY": 21.59315,
      "PosZ": -81.179,
      "Name": "NPC16",
      "RotY": 87.52567,
      "NPCID": 12133,
      "ValueSource": {},
      "DialogueGroups": [],
      "ServerInteractVerificationIDList": [],
      "DefaultIdleStateName": "Praying01Loop",
      "BoardShowList": [
        8
      ],
      "TalkDialogGroupIDList": [],
      "DefaultIdleFreeStyleMotionID": 100010293,
      "BornType": "Permanent",
      "InitialHiddenNodeList": [],
      "SpawnConfig": {
        "EntitySpawnConfig": {}
      }
    },
    {
      "ID": 400017,
      "PosX": 181.031,
      "PosY": 21.59315,
      "PosZ": -65.021,
      "Name": "NPC17",
      "RotY": 207.7356,
      "NPCID": 12135,
      "ValueSource": {},
      "DialogueGroups": [],
      "ServerInteractVerificationIDList": [],
      "DefaultIdleStateName": "LeanLoop",
      "BoardShowList": [
        8
      ],
      "TalkDialogGroupIDList": [],
      "DefaultIdleFreeStyleMotionID": 100010292,
      "BornType": "Permanent",
      "InitialHiddenNodeList": [],
      "SpawnConfig": {
        "EntitySpawnConfig": {}
      }
    },
    {
      "ID": 400018,
      "PosX": 179.8,
      "PosY": 21.59315,
      "PosZ": -65.57,
      "Name": "NPC18",
      "RotY": 68.17802,
      "NPCID": 12238,
      "ValueSource": {},
      "DialogueGroups": [],
      "ServerInteractVerificationIDList": [],
      "DefaultIdleStateName": "Distress01Loop",
      "BoardShowList": [
        8
      ],
      "TalkDialogGroupIDList": [],
      "DefaultIdleFreeStyleMotionID": 100020291,
      "BornType": "Permanent",
      "InitialHiddenNodeList": [],
      "SpawnConfig": {
        "EntitySpawnConfig": {}
      }
    },
    {
      "ID": 400019,
      "PosX": 188.035,
      "PosY": 21.59315,
      "PosZ": -70.707,
      "Name": "NPC19",
      "RotY": 333.7841,
      "NPCID": 12128,
      "ValueSource": {},
      "DialogueGroups": [],
      "ServerInteractVerificationIDList": [],
      "DefaultIdleStateName": "SpeechLoop",
      "BoardShowList": [
        8
      ],
      "TalkDialogGroupIDList": [],
      "DefaultIdleFreeStyleMotionID": 100010295,
      "BornType": "Permanent",
      "InitialHiddenNodeList": [],
      "SpawnConfig": {
        "EntitySpawnConfig": {}
      }
    },
    {
      "ID": 400020,
      "PosX": 187.852,
      "PosY": 21.59315,
      "PosZ": -69.435,
      "Name": "NPC20",
      "RotY": 165.0262,
      "NPCID": 12134,
      "ValueSource": {},
      "DialogueGroups": [],
      "ServerInteractVerificationIDList": [],
      "BoardShowList": [
        8
      ],
      "TalkDialogGroupIDList": [],
      "DefaultIdleFreeStyleMotionID": 100010000,
      "BornType": "Permanent",
      "InitialHiddenNodeList": [],
      "SpawnConfig": {
        "EntitySpawnConfig": {}
      }
    },
    {
      "ID": 400021,
      "PosX": 163.72,
      "PosY": 21.63976,
      "PosZ": -69.26,
      "Name": "NPC21",
      "RotY": 298.9209,
      "NPCID": 12257,
      "ValueSource": {},
      "DialogueGroups": [],
      "ServerInteractVerificationIDList": [],
      "DefaultIdleStateName": "Think01Loop",
      "BoardShowList": [
        8
      ],
      "TalkDialogGroupIDList": [],
      "DefaultIdleFreeStyleMotionID": 100020222,
      "BornType": "Permanent",
      "InitialHiddenNodeList": [],
      "SpawnConfig": {
        "EntitySpawnConfig": {}
      }
    },
    {
      "ID": 400022,
      "PosX": 177.05,
      "PosY": 21.64168,
      "PosZ": -64.2,
      "Name": "NPC22",
      "NPCID": 12237,
      "ValueSource": {},
      "DialogueGroups": [],
      "ServerInteractVerificationIDList": [],
      "DefaultIdleStateName": "HoldArm01Loop",
      "BoardShowList": [
        8
      ],
      "TalkDialogGroupIDList": [],
      "DefaultIdleFreeStyleMotionID": 100020231,
      "BornType": "Permanent",
      "InitialHiddenNodeList": [],
      "SpawnConfig": {
        "EntitySpawnConfig": {}
      }
    },
    {
      "ID": 400023,
      "PosX": 84.41431,
      "PosY": 13.7598,
      "PosZ": -61.39375,
      "Name": "NPC23",
      "RotY": 191.3583,
      "NPCID": 12229,
      "ValueSource": {},
      "DialogueGroups": [],
      "ServerInteractVerificationIDList": [],
      "DefaultIdleStateName": "HoldArm01Loop",
      "BoardShowList": [
        8
      ],
      "TalkDialogGroupIDList": [],
      "DefaultIdleFreeStyleMotionID": 100020231,
      "BornType": "Permanent",
      "InitialHiddenNodeList": [],
      "SpawnConfig": {
        "EntitySpawnConfig": {}
      }
    },
    {
      "ID": 400024,
      "PosX": 123.7,
      "PosY": 13.7598,
      "PosZ": -60.69,
      "Name": "NPC24",
      "RotY": 80.80106,
      "NPCID": 12230,
      "ValueSource": {},
      "DialogueGroups": [],
      "ServerInteractVerificationIDList": [],
      "BoardShowList": [
        8
      ],
      "TalkDialogGroupIDList": [],
      "DefaultIdleFreeStyleMotionID": 100020000,
      "BornType": "Permanent",
      "InitialHiddenNodeList": [],
      "SpawnConfig": {
        "EntitySpawnConfig": {}
      }
    },
    {
      "ID": 400025,
      "PosX": 100.035,
      "PosY": 13.7598,
      "PosZ": -61.246,
      "Name": "NPC25",
      "RotY": 189.9593,
      "NPCID": 12127,
      "ValueSource": {},
      "DialogueGroups": [],
      "ServerInteractVerificationIDList": [],
      "DefaultIdleStateName": "HoldArm01Loop",
      "BoardShowList": [
        8
      ],
      "TalkDialogGroupIDList": [],
      "DefaultIdleFreeStyleMotionID": 100010231,
      "BornType": "Permanent",
      "InitialHiddenNodeList": [],
      "SpawnConfig": {
        "EntitySpawnConfig": {}
      }
    },
    {
      "ID": 400026,
      "PosX": 106.08,
      "PosY": 16.31801,
      "PosZ": -70.87,
      "Name": "NPC26",
      "RotY": 162.0424,
      "NPCID": 12128,
      "ValueSource": {},
      "DialogueGroups": [],
      "ServerInteractVerificationIDList": [],
      "DefaultIdleStateName": "SpeechLoop",
      "DefaultLookAtMode": "LookTarget",
      "DefaultLookAtTargetInfo": {
        "GroupID": 126,
        "InstanceID": 400027
      },
      "BoardShowList": [
        8
      ],
      "TalkDialogGroupIDList": [],
      "DefaultIdleFreeStyleMotionID": 100010295,
      "BornType": "Permanent",
      "InitialHiddenNodeList": [],
      "SpawnConfig": {
        "EntitySpawnConfig": {}
      }
    },
    {
      "ID": 400027,
      "PosX": 106.856,
      "PosY": 16.31801,
      "PosZ": -71.763,
      "Name": "NPC27",
      "RotY": 328.4857,
      "NPCID": 12309,
      "ValueSource": {},
      "DialogueGroups": [],
      "ServerInteractVerificationIDList": [],
      "DefaultIdleStateName": "Akimbo01Loop",
      "DefaultLookAtMode": "LookTarget",
      "DefaultLookAtTargetInfo": {
        "GroupID": 126,
        "InstanceID": 400026
      },
      "BoardShowList": [
        8
      ],
      "TalkDialogGroupIDList": [],
      "DefaultIdleFreeStyleMotionID": 100040210,
      "BornType": "Permanent",
      "InitialHiddenNodeList": [],
      "SpawnConfig": {
        "EntitySpawnConfig": {}
      }
    },
    {
      "ID": 400028,
      "PosX": 162.693,
      "PosY": 21.59315,
      "PosZ": -80.04,
      "Name": "NPC28",
      "RotY": 351.419,
      "NPCID": 12126,
      "ValueSource": {},
      "DialogueGroups": [],
      "ServerInteractVerificationIDList": [],
      "DefaultLookAtMode": "LookTarget",
      "DefaultLookAtTargetInfo": {
        "GroupID": 126,
        "InstanceID": 400029
      },
      "BoardShowList": [
        8
      ],
      "TalkDialogGroupIDList": [],
      "DefaultIdleFreeStyleMotionID": 100010221,
      "BornType": "Permanent",
      "InitialHiddenNodeList": [],
      "SpawnConfig": {
        "EntitySpawnConfig": {}
      }
    },
    {
      "ID": 400029,
      "PosX": 162.26,
      "PosY": 21.59315,
      "PosZ": -78.8485,
      "Name": "NPC29",
      "RotY": 147.158,
      "NPCID": 12236,
      "ValueSource": {},
      "DialogueGroups": [],
      "ServerInteractVerificationIDList": [],
      "DefaultLookAtMode": "LookTarget",
      "DefaultLookAtTargetInfo": {
        "GroupID": 126,
        "InstanceID": 400028
      },
      "BoardShowList": [
        8
      ],
      "TalkDialogGroupIDList": [],
      "DefaultIdleFreeStyleMotionID": 100020236,
      "BornType": "Permanent",
      "InitialHiddenNodeList": [],
      "SpawnConfig": {
        "EntitySpawnConfig": {}
      }
    },
    {
      "ID": 400004,
      "PosX": 69.812,
      "PosY": 14.63298,
      "PosZ": -71.792,
      "Name": "NPC4",
      "RotY": 276.5488,
      "NPCID": 2201,
      "ValueSource": {},
      "DialogueGroups": [],
      "ServerInteractVerificationIDList": [],
      "BoardShowList": [],
      "TalkDialogGroupIDList": [],
      "DefaultIdleFreeStyleMotionID": 200230000,
      "InitialHiddenNodeList": [],
      "SpawnConfig": {
        "EntitySpawnConfig": {}
      }
    },
    {
      "ID": 400007,
      "PosX": 69.812,
      "PosY": 14.63298,
      "PosZ": -76.491,
      "Name": "NPC7",
      "RotY": 276.5488,
      "NPCID": 2201,
      "ValueSource": {},
      "DialogueGroups": [],
      "ServerInteractVerificationIDList": [],
      "BoardShowList": [],
      "TalkDialogGroupIDList": [],
      "DefaultIdleFreeStyleMotionID": 200230000,
      "InitialHiddenNodeList": [],
      "SpawnConfig": {
        "EntitySpawnConfig": {}
      }
    },
    {
      "ID": 400010,
      "PosX": 106.525,
      "PosY": 13.68976,
      "PosZ": -35.086,
      "Name": "NPC10",
      "RotY": 333.7705,
      "NPCID": 2201,
      "ValueSource": {},
      "DialogueGroups": [],
      "ServerInteractVerificationIDList": [],
      "BoardShowList": [],
      "TalkDialogGroupIDList": [],
      "DefaultIdleFreeStyleMotionID": 200230000,
      "InitialHiddenNodeList": [],
      "SpawnConfig": {
        "EntitySpawnConfig": {}
      }
    }
  ]
}