{
  "GroupGUID": "cf8c3169-47b4-4c45-b1a6-25b8a231b0ed",
  "GroupName": "MainMission8021106_11",
  "Category": "Mission",
  "LevelGraph": "Config/Level/GroupGraph/F20311001/Group_F20311001_G627.json",
  "AreaAnchorName": "LevelArea_P20311_F20311001_G627",
  "SaveType": "Reset",
  "OwnerMainMissionID": 8021106,
  "ValueSource": {},
  "ConflictIDList": [
    627
  ],
  "IsHoyoGroup": true,
  "ConflictWhiteList": [],
  "EnableGroupAI": true,
  "TagContainer": {},
  "AnchorList": [],
  "MonsterList": [],
  "PropList": [
    {
      "ID": 300001,
      "PosX": -134.94,
      "PosY": 28.03189,
      "PosZ": -18.95,
      "Name": "Prop1",
      "RotY": 150.0,
      "PropID": 100,
      "ValueSource": {},
      "CampID": 4,
      "CustomTriggerMap": {},
      "CustomTriggerMapV2": {
        "MissionTrigger": {
          "Radius": 8.0,
          "PointList": []
        }
      },
      "BridgeStateRotations": [],
      "DialogueGroups": [],
      "TalkDialogGroupIDList": [],
      "ServerInteractVerificationIDList": [],
      "TriggerValidGuest": {},
      "TagContainer": {},
      "CameraCenterEntityList": [],
      "SpawnConfig": {
        "EntitySpawnConfig": {}
      }
    }
  ],
  "NPCList": []
}