{
  "GroupGUID": "43cc406a-0d12-4fba-932e-8711207be94e",
  "GroupName": "MainMission8021104_11",
  "Category": "Mission",
  "LevelGraph": "Config/Level/GroupGraph/F20311001/Group_F20311001_G609.json",
  "AreaAnchorName": "LevelArea_P20311_F20311001_G609",
  "SaveType": "Reset",
  "OwnerMainMissionID": 8021104,
  "ValueSource": {},
  "ConflictIDList": [
    609
  ],
  "IsHoyoGroup": true,
  "ConflictWhiteList": [],
  "TagContainer": {},
  "AnchorList": [],
  "MonsterList": [],
  "PropList": [
    {
      "ID": 300001,
      "PosX": -130.88,
      "PosY": 28.03189,
      "PosZ": -16.05,
      "Name": "Prop1",
      "RotY": 319.6741,
      "PropID": 100,
      "ValueSource": {},
      "CampID": 4,
      "CustomTriggerMap": {},
      "CustomTriggerMapV2": {
        "MissionTrigger": {
          "Radius": 5.0,
          "PointList": []
        }
      },
      "BridgeStateRotations": [],
      "DialogueGroups": [],
      "TalkDialogGroupIDList": [],
      "ServerInteractVerificationIDList": [],
      "TriggerValidGuest": {},
      "TagContainer": {},
      "CameraCenterEntityList": [],
      "SpawnConfig": {
        "EntitySpawnConfig": {}
      }
    }
  ],
  "NPCList": []
}