{
  "GroupGUID": "c346c501-559b-4dd8-ade9-1d50beb71a7a",
  "GroupName": "MainMission8021103_04",
  "Category": "Mission",
  "AreaAnchorName": "LevelArea_P20311_F20311001_G585",
  "SaveType": "Reset",
  "OwnerMainMissionID": 8021103,
  "ValueSource": {},
  "ConflictIDList": [
    585
  ],
  "IsHoyoGroup": true,
  "ConflictWhiteList": [],
  "TagContainer": {},
  "AnchorList": [],
  "MonsterList": [],
  "PropList": [
    {
      "ID": 300001,
      "PosX": -132.37,
      "PosY": 28.03189,
      "PosZ": -18.31,
      "Name": "Prop1",
      "RotY": 319.6741,
      "PropID": 100,
      "ValueSource": {},
      "CampID": 4,
      "CustomTriggerMap": {},
      "CustomTriggerMapV2": {
        "MissionTrigger": {
          "Radius": 3.0,
          "PointList": []
        }
      },
      "BridgeStateRotations": [],
      "DialogueGroups": [],
      "TalkDialogGroupIDList": [],
      "ServerInteractVerificationIDList": [],
      "TriggerValidGuest": {},
      "TagContainer": {},
      "CameraCenterEntityList": [],
      "SpawnConfig": {
        "EntitySpawnConfig": {}
      }
    }
  ],
  "NPCList": [
    {
      "ID": 400001,
      "PosX": -128.04,
      "PosY": 28.03189,
      "PosZ": -33.49,
      "Name": "NPC1",
      "RotY": 321.1362,
      "NPCID": 2304,
      "ValueSource": {},
      "DialogueGroups": [],
      "ServerInteractVerificationIDList": [],
      "BoardShowList": [
        128
      ],
      "OverrideNPCName": {
        "Hash": -1161704101
      },
      "TalkDialogGroupIDList": [],
      "DefaultIdleFreeStyleMotionID": 200390000,
      "InitialHiddenNodeList": [],
      "OverrideBehaviorType": "DreamlandActor",
      "TagContainer": {},
      "CameraCenterEntityList": [],
      "SpawnConfig": {
        "EntitySpawnConfig": {}
      },
      "TriggerValidGuest": {}
    }
  ]
}