{
  "GroupGUID": "62b9b3fc-9507-43a3-b69e-911049b1ea13",
  "GroupName": "MainMission8021106_01",
  "Category": "Mission",
  "LevelGraph": "Config/Level/GroupGraph/F20311001/Group_F20311001_G622.json",
  "AreaAnchorName": "LevelArea_P20311_F20311001_G622",
  "SaveType": "Reset",
  "OwnerMainMissionID": 8021106,
  "ValueSource": {},
  "ConflictIDList": [
    622
  ],
  "IsHoyoGroup": true,
  "ConflictWhiteList": [],
  "EnableGroupAI": true,
  "TagContainer": {},
  "AnchorList": [],
  "MonsterList": [],
  "PropList": [
    {
      "ID": 300001,
      "PosX": -140.752,
      "PosY": 28.03189,
      "PosZ": -1.036,
      "Name": "Prop1",
      "RotY": 150.0,
      "PropID": 100,
      "ValueSource": {},
      "CampID": 4,
      "CustomTriggerMap": {},
      "CustomTriggerMapV2": {
        "MissionTrigger": {
          "Radius": 3.5,
          "PointList": []
        }
      },
      "BridgeStateRotations": [],
      "DialogueGroups": [],
      "TalkDialogGroupIDList": [],
      "ServerInteractVerificationIDList": [],
      "TriggerValidGuest": {},
      "TagContainer": {},
      "CameraCenterEntityList": [],
      "SpawnConfig": {
        "EntitySpawnConfig": {}
      }
    }
  ],
  "NPCList": [
    {
      "ID": 400001,
      "PosX": -140.752,
      "PosY": 28.03189,
      "PosZ": -1.036,
      "Name": "NPC1",
      "RotY": 150.0,
      "NPCID": 2308,
      "ValueSource": {},
      "DialogueGroups": [],
      "ServerInteractVerificationIDList": [],
      "BoardShowList": [],
      "TalkDialogGroupIDList": [],
      "DefaultIdleFreeStyleMotionID": 200550000,
      "OverrideSeriesID": 230801,
      "InitialHiddenNodeList": [],
      "TagContainer": {},
      "CameraCenterEntityList": [],
      "SpawnConfig": {
        "EntitySpawnConfig": {}
      },
      "TriggerValidGuest": {}
    }
  ]
}