{
  "GroupGUID": "9aaaa21a-42ce-4d04-91e9-f71b1ad5777e",
  "GroupName": "EntranceAndExit",
  "AreaAnchorName": "LevelArea_P20311_F20311001_G302",
  "SaveDimensionFilter": {},
  "SavedValueCondition": {
    "Conditions": [],
    "Operation": "And"
  },
  "LoadSide": "Server",
  "LoadOnInitial": true,
  "ValueSource": {},
  "ConflictIDList": [],
  "IsHoyoGroup": true,
  "HoYoGroupType": "Container",
  "ConflictWhiteList": [],
  "TagContainer": {},
  "AnchorList": [],
  "MonsterList": [],
  "PropList": [
    {
      "ID": 300001,
      "PosX": 166.914,
      "PosY": 29.381,
      "PosZ": -130.89,
      "Name": "DreamingDevice",
      "PropID": 139,
      "ValueSource": {
        "Values": [
          {
            "$type": "SharedUint",
            "Key": "EntranceID",
            "Value": 2061004
          },
          {
            "$type": "SharedString",
            "Key": "InteractButtonIcon",
            "Value": "SpriteOutput/TalkIcon/ChatIcon.png"
          },
          {
            "$type": "SharedString",
            "Key": "InteractButtonText",
            "Value": "FloorName_10305001"
          }
        ]
      },
      "CampID": 4,
      "State": "Open",
      "CustomTriggerMap": {},
      "CustomTriggerMapV2": {
        "MissionTrigger": {
          "Shape": "Box",
          "Radius": 2.0,
          "DimX": 2.0,
          "DimY": 3.0,
          "DimZ": 6.0,
          "PointList": []
        },
        "InteractTrigger": {
          "Shape": "Box",
          "Radius": 1.5,
          "DimX": 2.0,
          "DimY": 3.0,
          "DimZ": 6.0,
          "PointList": []
        }
      },
      "BridgeStateRotations": [],
      "MappingInfoID": 1030502,
      "DialogueGroups": [],
      "TalkDialogGroupIDList": [],
      "ServerInteractVerificationIDList": [],
      "OverrideMapIconType": 190,
      "TriggerValidGuest": {
        "TargetList": []
      },
      "TagContainer": {
        "List": []
      },
      "CameraCenterEntityList": [],
      "SpawnConfig": {
        "EntitySpawnConfig": {}
      }
    },
    {
      "ID": 300002,
      "PosX": 110.155,
      "PosY": 18.067,
      "PosZ": -263.338,
      "Name": "Teleport_Billboard",
      "PropID": 100,
      "ValueSource": {},
      "CampID": 4,
      "CustomTriggerMap": {},
      "CustomTriggerMapV2": {},
      "BridgeStateRotations": [],
      "DialogueGroups": [],
      "TalkDialogGroupIDList": [],
      "ServerInteractVerificationIDList": [],
      "TriggerValidGuest": {},
      "TagContainer": {},
      "CameraCenterEntityList": [],
      "SpawnConfig": {
        "EntitySpawnConfig": {}
      }
    },
    {
      "ID": 300003,
      "PosX": 71.858,
      "PosY": -17.715,
      "PosZ": -569.984,
      "Name": "Teleport_Billboard",
      "PropID": 100,
      "ValueSource": {},
      "CampID": 4,
      "CustomTriggerMap": {},
      "CustomTriggerMapV2": {},
      "BridgeStateRotations": [],
      "DialogueGroups": [],
      "TalkDialogGroupIDList": [],
      "ServerInteractVerificationIDList": [],
      "TriggerValidGuest": {},
      "TagContainer": {},
      "CameraCenterEntityList": [],
      "SpawnConfig": {
        "EntitySpawnConfig": {}
      }
    },
    {
      "ID": 300004,
      "PosX": -179.152,
      "PosY": -2.932,
      "PosZ": -79.67,
      "Name": "Teleport_Billboard",
      "PropID": 100,
      "ValueSource": {},
      "CampID": 4,
      "CustomTriggerMap": {},
      "CustomTriggerMapV2": {},
      "BridgeStateRotations": [],
      "DialogueGroups": [],
      "TalkDialogGroupIDList": [],
      "ServerInteractVerificationIDList": [],
      "TriggerValidGuest": {},
      "TagContainer": {},
      "CameraCenterEntityList": [],
      "SpawnConfig": {
        "EntitySpawnConfig": {}
      }
    },
    {
      "ID": 300005,
      "PosX": 97.238,
      "PosY": 108.17,
      "PosZ": 160.214,
      "Name": "Teleport_Raid",
      "PropID": 100,
      "ValueSource": {},
      "CampID": 4,
      "CustomTriggerMap": {},
      "CustomTriggerMapV2": {},
      "BridgeStateRotations": [],
      "DialogueGroups": [],
      "TalkDialogGroupIDList": [],
      "ServerInteractVerificationIDList": [],
      "TriggerValidGuest": {},
      "TagContainer": {},
      "CameraCenterEntityList": [],
      "SpawnConfig": {
        "EntitySpawnConfig": {}
      }
    },
    {
      "ID": 300006,
      "PosX": 35.26,
      "PosY": -8.71,
      "PosZ": -531.03,
      "Name": "Teleport_Billboard",
      "PropID": 100,
      "ValueSource": {},
      "CampID": 4,
      "CustomTriggerMap": {},
      "CustomTriggerMapV2": {},
      "BridgeStateRotations": [],
      "DialogueGroups": [],
      "TalkDialogGroupIDList": [],
      "ServerInteractVerificationIDList": [],
      "TriggerValidGuest": {},
      "TagContainer": {},
      "CameraCenterEntityList": [],
      "SpawnConfig": {
        "EntitySpawnConfig": {}
      }
    }
  ],
  "NPCList": []
}