{
  "GroupGUID": "02aec23b-f680-4707-b6d5-04451b1210cd",
  "GroupName": "MainMission8021104_03",
  "Category": "Mission",
  "LevelGraph": "Config/Level/GroupGraph/F20311001/Group_F20311001_G603.json",
  "AreaAnchorName": "LevelArea_P20311_F20311001_G603",
  "SaveType": "Reset",
  "OwnerMainMissionID": 8021104,
  "ValueSource": {},
  "ConflictIDList": [
    603
  ],
  "IsHoyoGroup": true,
  "ConflictWhiteList": [],
  "TagContainer": {},
  "AnchorList": [],
  "MonsterList": [],
  "PropList": [
    {
      "ID": 300001,
      "PosX": -126.75,
      "PosY": 28.03189,
      "PosZ": -10.78,
      "Name": "Prop1",
      "RotY": 319.6741,
      "PropID": 100,
      "ValueSource": {},
      "CampID": 4,
      "CustomTriggerMap": {},
      "CustomTriggerMapV2": {
        "MissionTrigger": {
          "Radius": 3.0,
          "PointList": []
        }
      },
      "BridgeStateRotations": [],
      "DialogueGroups": [],
      "TalkDialogGroupIDList": [],
      "ServerInteractVerificationIDList": [],
      "TriggerValidGuest": {},
      "TagContainer": {},
      "CameraCenterEntityList": [],
      "SpawnConfig": {
        "EntitySpawnConfig": {}
      }
    }
  ],
  "NPCList": [
    {
      "ID": 400001,
      "PosX": -126.31,
      "PosY": 28.03189,
      "PosZ": -11.02,
      "Name": "NPC1",
      "RotY": 315.0,
      "NPCID": 2309,
      "ValueSource": {},
      "DialogueGroups": [],
      "ServerInteractVerificationIDList": [],
      "BoardShowList": [],
      "TalkDialogGroupIDList": [],
      "DefaultIdleFreeStyleMotionID": 200680000,
      "InitialHiddenNodeList": [],
      "TagContainer": {},
      "CameraCenterEntityList": [],
      "SpawnConfig": {
        "EntitySpawnConfig": {}
      },
      "TriggerValidGuest": {}
    },
    {
      "ID": 400002,
      "PosX": -127.6,
      "PosY": 28.03189,
      "PosZ": -9.87,
      "Name": "NPC2",
      "RotY": 119.9998,
      "NPCID": 2303,
      "ValueSource": {},
      "DialogueGroups": [],
      "ServerInteractVerificationIDList": [],
      "BoardShowList": [],
      "TalkDialogGroupIDList": [],
      "DefaultIdleFreeStyleMotionID": 200310000,
      "InitialHiddenNodeList": [],
      "TagContainer": {},
      "CameraCenterEntityList": [],
      "SpawnConfig": {
        "EntitySpawnConfig": {}
      },
      "TriggerValidGuest": {}
    }
  ]
}