{
  "GroupGUID": "8eca5987-fd5e-4ab1-9760-9108be0eefca",
  "GroupName": "MainMission1032401_New Group",
  "Category": "Mission",
  "LevelGraph": "Config/Level/GroupGraph/F20311001/Group_F20311001_G578.json",
  "AreaAnchorName": "LevelArea_P20311_F20311001_G578",
  "SaveType": "Reset",
  "OwnerMainMissionID": 1032401,
  "ValueSource": {},
  "ConflictIDList": [],
  "IsHoyoGroup": true,
  "ConflictWhiteList": [],
  "TagContainer": {},
  "AnchorList": [
    {
      "ID": 1,
      "PosX": 72.19116,
      "PosY": -19.5,
      "PosZ": -563.915,
      "Name": "Anchor1"
    }
  ],
  "MonsterList": [],
  "PropList": [],
  "NPCList": []
}