{
  "GroupGUID": "b32a3333-77d6-4033-8740-662ea85a7b5a",
  "GroupName": "MainMission1030601_06",
  "Category": "Mission",
  "LevelGraph": "Config/Level/GroupGraph/F20311001/Group_F20311001_G113.json",
  "AreaAnchorName": "LevelArea_P20311_F20311001_G113",
  "SaveType": "Reset",
  "OwnerMainMissionID": 1030601,
  "ValueSource": {},
  "ConflictIDList": [],
  "IsHoyoGroup": true,
  "ConflictWhiteList": [],
  "TagContainer": {},
  "AnchorList": [
    {
      "ID": 1,
      "PosX": 128.5726,
      "PosY": 22.13775,
      "PosZ": -196.8852,
      "Name": "Anchor1",
      "RotY": 270.0
    },
    {
      "ID": 2,
      "PosX": 128.1857,
      "PosY": 22.11153,
      "PosZ": -196.9709,
      "Name": "Anchor2",
      "RotY": 264.3
    },
    {
      "ID": 3,
      "PosX": 130.6,
      "PosY": 23.34,
      "PosZ": -196.8964,
      "Name": "Anchor3",
      "Usage": "Camera",
      "CustomParameter": {
        "$type": "LevelAnchorCameraParameter"
      }
    }
  ],
  "MonsterList": [],
  "PropList": [
    {
      "ID": 300001,
      "PosX": 145.9576,
      "PosY": 28.08369,
      "PosZ": -180.3093,
      "Name": "Prop1",
      "PropID": 100,
      "IsOverrideInitLevelGraph": true,
      "ValueSource": {},
      "Trigger": {
        "Shape": "Box",
        "Radius": 1.0,
        "DimX": 7.0,
        "DimY": 1.0,
        "DimZ": 1.0,
        "PointList": []
      },
      "CampID": 4,
      "CustomTriggerMap": {},
      "CustomTriggerMapV2": {},
      "BridgeStateRotations": [],
      "DialogueGroups": [],
      "TalkDialogGroupIDList": [],
      "ServerInteractVerificationIDList": [],
      "TriggerValidGuest": {},
      "TagContainer": {},
      "CameraCenterEntityList": [],
      "SpawnConfig": {
        "EntitySpawnConfig": {}
      }
    },
    {
      "ID": 300002,
      "PosX": 144.89,
      "PosY": 25.09001,
      "PosZ": -196.98,
      "Name": "Prop2",
      "PropID": 111,
      "IsOverrideInitLevelGraph": true,
      "ValueSource": {},
      "Trigger": {
        "Shape": "Box",
        "Radius": 3.0,
        "DimX": 3.0,
        "DimY": 1.0,
        "DimZ": 6.0,
        "PointList": []
      },
      "CampID": 4,
      "CustomTriggerMap": {},
      "CustomTriggerMapV2": {},
      "BridgeStateRotations": [],
      "DialogueGroups": [],
      "TalkDialogGroupIDList": [],
      "ServerInteractVerificationIDList": [],
      "TriggerValidGuest": {},
      "TagContainer": {},
      "CameraCenterEntityList": [],
      "SpawnConfig": {
        "EntitySpawnConfig": {}
      }
    },
    {
      "ID": 300003,
      "PosX": 145.9576,
      "PosY": 28.08369,
      "PosZ": -180.3093,
      "IsDelete": true,
      "Name": "Prop3",
      "PropID": 100,
      "IsOverrideInitLevelGraph": true,
      "InitLevelGraph": "Config/Level/Common_LG/TriggerCameraLookat.json",
      "ValueSource": {
        "Values": [
          {
            "$type": "SharedFloat",
            "Key": "LookatType",
            "Value": 1.0
          },
          {
            "$type": "SharedFloat",
            "Key": "Duration",
            "Value": 2.0
          },
          {
            "$type": "SharedString",
            "Key": "TargetAnchorName",
            "Value": "LevelArea_P20311_F20311001_G113,Anchor3"
          },
          {
            "$type": "SharedFloat",
            "Key": "OnlyOnce",
            "Value": 1.0
          }
        ]
      },
      "Trigger": {
        "Shape": "Box",
        "Radius": 1.0,
        "DimX": 7.0,
        "DimY": 1.0,
        "DimZ": 1.0,
        "PointList": []
      },
      "CampID": 4,
      "CustomTriggerMap": {},
      "CustomTriggerMapV2": {},
      "BridgeStateRotations": [],
      "DialogueGroups": [],
      "TalkDialogGroupIDList": [],
      "ServerInteractVerificationIDList": [],
      "TriggerValidGuest": {},
      "TagContainer": {},
      "CameraCenterEntityList": [],
      "SpawnConfig": {
        "EntitySpawnConfig": {}
      }
    }
  ],
  "NPCList": [
    {
      "ID": 400001,
      "PosX": 130.6,
      "PosY": 22.13775,
      "PosZ": -196.8964,
      "Name": "NPC1",
      "RotY": 270.0,
      "NPCID": 1308,
      "ValueSource": {},
      "DialogueGroups": [],
      "ServerInteractVerificationIDList": [],
      "BoardShowList": [],
      "TalkDialogGroupIDList": [],
      "DefaultIdleFreeStyleMotionID": 312120000,
      "InitialHiddenNodeList": [],
      "TagContainer": {},
      "CameraCenterEntityList": [],
      "SpawnConfig": {
        "EntitySpawnConfig": {}
      },
      "TriggerValidGuest": {}
    },
    {
      "ID": 400002,
      "PosX": 125.86,
      "PosY": 22.11153,
      "PosZ": -195.05,
      "Name": "NPC2",
      "RotY": 118.9,
      "NPCID": 2303,
      "ValueSource": {},
      "DialogueGroups": [],
      "ServerInteractVerificationIDList": [],
      "BoardShowList": [],
      "TalkDialogGroupIDList": [],
      "DefaultIdleFreeStyleMotionID": 200310000,
      "InitialHiddenNodeList": [],
      "TagContainer": {},
      "CameraCenterEntityList": [],
      "SpawnConfig": {
        "EntitySpawnConfig": {}
      },
      "TriggerValidGuest": {}
    },
    {
      "ID": 400003,
      "PosX": 125.98,
      "PosY": 22.13775,
      "PosZ": -199.14,
      "Name": "NPC3",
      "RotY": 44.44,
      "NPCID": 2308,
      "ValueSource": {},
      "DialogueGroups": [],
      "ServerInteractVerificationIDList": [],
      "BoardShowList": [],
      "TalkDialogGroupIDList": [],
      "DefaultIdleFreeStyleMotionID": 200550000,
      "InitialHiddenNodeList": [],
      "TagContainer": {},
      "CameraCenterEntityList": [],
      "SpawnConfig": {
        "EntitySpawnConfig": {}
      },
      "TriggerValidGuest": {}
    },
    {
      "ID": 400004,
      "PosX": 125.27,
      "PosY": 22.11153,
      "PosZ": -192.86,
      "Name": "NPC4",
      "RotY": 143.58,
      "NPCID": 2308,
      "ValueSource": {},
      "DialogueGroups": [],
      "ServerInteractVerificationIDList": [],
      "BoardShowList": [],
      "TalkDialogGroupIDList": [],
      "DefaultIdleFreeStyleMotionID": 200550000,
      "InitialHiddenNodeList": [],
      "TagContainer": {},
      "CameraCenterEntityList": [],
      "SpawnConfig": {
        "EntitySpawnConfig": {}
      },
      "TriggerValidGuest": {}
    }
  ]
}