{
  "GroupGUID": "a297d414-a0e8-4b96-8a0f-eeab4f160871",
  "GroupName": "MainMission8021103_06",
  "Category": "Mission",
  "LevelGraph": "Config/Level/GroupGraph/F20311001/Group_F20311001_G587.json",
  "AreaAnchorName": "LevelArea_P20311_F20311001_G587",
  "SaveType": "Reset",
  "OwnerMainMissionID": 8021103,
  "ValueSource": {},
  "ConflictIDList": [
    587
  ],
  "IsHoyoGroup": true,
  "ConflictWhiteList": [],
  "TagContainer": {},
  "AnchorList": [],
  "MonsterList": [],
  "PropList": [
    {
      "ID": 300001,
      "PosX": -128.22,
      "PosY": 28.03189,
      "PosZ": -33.76,
      "Name": "Prop1",
      "RotY": 319.6741,
      "PropID": 111,
      "ValueSource": {},
      "CampID": 4,
      "CustomTriggerMap": {},
      "CustomTriggerMapV2": {
        "MissionTrigger": {
          "Radius": 5.0,
          "PointList": []
        }
      },
      "BridgeStateRotations": [],
      "DialogueGroups": [],
      "TalkDialogGroupIDList": [],
      "ServerInteractVerificationIDList": [],
      "TriggerValidGuest": {},
      "TagContainer": {},
      "CameraCenterEntityList": [],
      "SpawnConfig": {
        "EntitySpawnConfig": {}
      }
    }
  ],
  "NPCList": [
    {
      "ID": 400001,
      "PosX": -148.42,
      "PosY": 21.03189,
      "PosZ": -32.37,
      "Name": "NPC1",
      "RotY": 135.0002,
      "NPCID": 2308,
      "ValueSource": {},
      "DialogueGroups": [],
      "ServerInteractVerificationIDList": [],
      "BoardShowList": [],
      "TalkDialogGroupIDList": [],
      "DefaultIdleFreeStyleMotionID": 200550000,
      "InitialHiddenNodeList": [],
      "TagContainer": {},
      "CameraCenterEntityList": [],
      "SpawnConfig": {
        "EntitySpawnConfig": {}
      },
      "TriggerValidGuest": {}
    },
    {
      "ID": 400002,
      "PosX": -145.86,
      "PosY": 21.03189,
      "PosZ": -33.86,
      "Name": "NPC2",
      "RotY": 300.0,
      "NPCID": 2307,
      "ValueSource": {},
      "DialogueGroups": [],
      "ServerInteractVerificationIDList": [],
      "BoardShowList": [],
      "TalkDialogGroupIDList": [],
      "DefaultIdleFreeStyleMotionID": 200570000,
      "InitialHiddenNodeList": [],
      "TagContainer": {},
      "CameraCenterEntityList": [],
      "SpawnConfig": {
        "EntitySpawnConfig": {}
      },
      "TriggerValidGuest": {}
    },
    {
      "ID": 400003,
      "PosX": -145.27,
      "PosY": 21.03189,
      "PosZ": -31.51,
      "Name": "NPC3",
      "RotY": 225.0,
      "NPCID": 2304,
      "ValueSource": {},
      "DialogueGroups": [],
      "ServerInteractVerificationIDList": [],
      "BoardShowList": [],
      "TalkDialogGroupIDList": [],
      "DefaultIdleFreeStyleMotionID": 200390000,
      "InitialHiddenNodeList": [],
      "TagContainer": {},
      "CameraCenterEntityList": [],
      "SpawnConfig": {
        "EntitySpawnConfig": {}
      },
      "TriggerValidGuest": {}
    }
  ]
}