{
  "GroupGUID": "3450a84f-2583-4420-910d-3496ecd778f6",
  "GroupName": "SubMission_202030811",
  "AreaAnchorName": "LevelArea_P42221_F42221001_G7",
  "SaveType": "Reset",
  "LoadCondition": {
    "Conditions": [
      {
        "Type": "SubMission",
        "ID": 202030811
      },
      {
        "Type": "SubMission",
        "ID": 202030812
      }
    ],
    "Operation": "Or"
  },
  "UnloadCondition": {
    "Conditions": [
      {
        "Type": "SubMission",
        "Phase": "Finish",
        "ID": 202030811
      }
    ]
  },
  "ValueSource": {},
  "ConflictIDList": [],
  "AnchorList": [
    {
      "ID": 1,
      "PosX": -2.3,
      "PosY": 6.758121,
      "PosZ": -137.9,
      "Name": "Anchor1",
      "RotY": 236.42
    },
    {
      "ID": 2,
      "PosX": -11.449,
      "PosY": 12.90501,
      "PosZ": -76.682,
      "Name": "Anchor2",
      "RotY": 163.4
    },
    {
      "ID": 3,
      "PosX": -10.07,
      "PosY": 9.296815,
      "PosZ": -111.0184,
      "Name": "Anchor3",
      "RotY": 91.94
    },
    {
      "ID": 4,
      "PosX": 5.62,
      "PosY": 6.806665,
      "PosZ": -139.62,
      "Name": "Anchor4",
      "RotY": 118.56
    },
    {
      "ID": 5,
      "PosX": 11.49223,
      "PosY": 6.758112,
      "PosZ": -135.2163,
      "Name": "Anchor5",
      "RotY": 268.1
    },
    {
      "ID": 6,
      "PosX": 2.18,
      "PosY": 6.806665,
      "PosZ": -139.736,
      "Name": "Anchor6",
      "RotY": 90.0
    },
    {
      "ID": 7,
      "PosX": -0.7,
      "PosY": 8.33,
      "PosZ": -133.7,
      "Name": "Anchor7",
      "RotY": 215.0562,
      "RotX": 9.31694,
      "RotZ": 359.5072,
      "Usage": "Camera",
      "CustomParameter": {
        "$type": "LevelAnchorCameraParameter"
      }
    },
    {
      "ID": 8,
      "PosX": -4.82,
      "PosY": 12.31,
      "PosZ": -132.76,
      "Name": "Anchor8",
      "RotY": 119.7693,
      "RotX": 16.48577,
      "RotZ": 359.4941,
      "Usage": "Camera",
      "CustomParameter": {
        "$type": "LevelAnchorCameraParameter"
      }
    }
  ],
  "MonsterList": [],
  "PropList": [
    {
      "ID": 300001,
      "PosX": -0.17,
      "PosY": 6.758143,
      "PosZ": -136.71,
      "Name": "Prop1",
      "RotY": 12.9,
      "PropID": 111,
      "IsOverrideInitLevelGraph": true,
      "Trigger": {
        "Radius": 7.0,
        "DimX": 1.0,
        "DimY": 1.0,
        "DimZ": 1.0,
        "PointList": []
      },
      "CampID": 4,
      "CustomTriggerMap": {},
      "CustomTriggerMapV2": {},
      "BridgeStateRotations": [],
      "DialogueGroups": [],
      "TalkDialogGroupIDList": [],
      "ServerInteractVerificationIDList": [],
      "Dialog": {
        "PackList": []
      }
    },
    {
      "ID": 300002,
      "PosX": -13.89,
      "PosY": 12.905,
      "PosZ": -76.01,
      "Name": "Prop2",
      "PropID": 100,
      "IsOverrideInitLevelGraph": true,
      "Trigger": {
        "Shape": "Box",
        "Radius": 1.0,
        "DimX": 1.0,
        "DimY": 1.0,
        "DimZ": 5.0,
        "PointList": []
      },
      "CampID": 4,
      "CustomTriggerMap": {},
      "CustomTriggerMapV2": {},
      "BridgeStateRotations": [],
      "DialogueGroups": [],
      "TalkDialogGroupIDList": [],
      "ServerInteractVerificationIDList": []
    },
    {
      "ID": 300003,
      "PosX": -14.51,
      "PosY": 9.296814,
      "PosZ": -110.8794,
      "Name": "Prop3",
      "PropID": 100,
      "IsOverrideInitLevelGraph": true,
      "Trigger": {
        "Shape": "Box",
        "Radius": 1.0,
        "DimX": 4.0,
        "DimY": 1.0,
        "DimZ": 5.0,
        "PointList": []
      },
      "CampID": 4,
      "CustomTriggerMap": {},
      "CustomTriggerMapV2": {},
      "BridgeStateRotations": [],
      "DialogueGroups": [],
      "TalkDialogGroupIDList": [],
      "ServerInteractVerificationIDList": []
    },
    {
      "ID": 300004,
      "PosX": 8.19,
      "PosY": 8.77,
      "PosZ": -139.71,
      "Name": "Prop4",
      "RotY": 282.1,
      "PropID": 102075,
      "IsOverrideInitLevelGraph": true,
      "CampID": 4,
      "CustomTriggerMap": {},
      "CustomTriggerMapV2": {},
      "BridgeStateRotations": [],
      "DialogueGroups": [],
      "TalkDialogGroupIDList": [],
      "ServerInteractVerificationIDList": []
    }
  ],
  "NPCList": [
    {
      "ID": 400001,
      "PosX": 40.30875,
      "PosY": 10.91274,
      "PosZ": -115.7936,
      "IsDelete": true,
      "Name": "NPC1",
      "RotY": 273.87,
      "NPCID": 3001,
      "ValueSource": {},
      "DialogueGroups": [],
      "ServerInteractVerificationIDList": [],
      "DefaultLookAtMode": "Closed",
      "BoardShowList": [],
      "TalkDialogGroupIDList": [],
      "DefaultIdleFreeStyleMotionID": 900010000,
      "InitialHiddenNodeList": [],
      "Dialog": {
        "PackList": []
      },
      "SpawnConfig": {}
    },
    {
      "ID": 400002,
      "PosX": -8.44,
      "PosY": 6.821702,
      "PosZ": -141.16,
      "Name": "NPC2",
      "RotY": 38.4,
      "NPCID": 2201,
      "ValueSource": {},
      "DialogueGroups": [],
      "ServerInteractVerificationIDList": [],
      "DefaultLookAtMode": "Closed",
      "BoardShowList": [],
      "TalkDialogGroupIDList": [],
      "DefaultIdleFreeStyleMotionID": 200230201,
      "InitialHiddenNodeList": [],
      "SpawnConfig": {
        "EntitySpawnConfig": {}
      }
    },
    {
      "ID": 400003,
      "PosX": -5.17,
      "PosY": 6.821702,
      "PosZ": -140.66,
      "Name": "NPC3",
      "RotY": 48.9,
      "NPCID": 2201,
      "ValueSource": {},
      "DialogueGroups": [],
      "ServerInteractVerificationIDList": [],
      "DefaultLookAtMode": "Closed",
      "BoardShowList": [],
      "TalkDialogGroupIDList": [],
      "DefaultIdleFreeStyleMotionID": 200230201,
      "InitialHiddenNodeList": [],
      "SpawnConfig": {
        "EntitySpawnConfig": {}
      }
    },
    {
      "ID": 400004,
      "PosX": -6.75,
      "PosY": 6.821703,
      "PosZ": -137.74,
      "Name": "NPC4",
      "RotY": 83.4,
      "NPCID": 2201,
      "ValueSource": {},
      "DialogueGroups": [],
      "ServerInteractVerificationIDList": [],
      "DefaultLookAtMode": "Closed",
      "BoardShowList": [],
      "TalkDialogGroupIDList": [],
      "DefaultIdleFreeStyleMotionID": 200230201,
      "InitialHiddenNodeList": [],
      "SpawnConfig": {
        "EntitySpawnConfig": {}
      }
    },
    {
      "ID": 400005,
      "PosX": 1.2,
      "PosY": 6.758121,
      "PosZ": -137.02,
      "Name": "NPC5",
      "RotY": 118.7,
      "NPCID": 1204,
      "ValueSource": {},
      "DialogueGroups": [],
      "ServerInteractVerificationIDList": [],
      "BoardShowList": [],
      "TalkDialogGroupIDList": [],
      "InitialHiddenNodeList": [],
      "SpawnConfig": {}
    },
    {
      "ID": 400006,
      "PosX": 9.37,
      "PosY": 6.806672,
      "PosZ": -149.56,
      "Name": "NPC6",
      "RotY": 317.6,
      "NPCID": 2201,
      "ValueSource": {},
      "DialogueGroups": [],
      "ServerInteractVerificationIDList": [],
      "DefaultLookAtMode": "Closed",
      "BoardShowList": [],
      "TalkDialogGroupIDList": [],
      "DefaultIdleFreeStyleMotionID": 200230201,
      "InitialHiddenNodeList": [],
      "SpawnConfig": {
        "EntitySpawnConfig": {}
      }
    },
    {
      "ID": 400007,
      "PosX": 10.93,
      "PosY": 6.758114,
      "PosZ": -136.85,
      "Name": "NPC7",
      "RotY": 289.1,
      "NPCID": 2201,
      "ValueSource": {},
      "DialogueGroups": [],
      "ServerInteractVerificationIDList": [],
      "DefaultLookAtMode": "Closed",
      "BoardShowList": [],
      "TalkDialogGroupIDList": [],
      "DefaultIdleFreeStyleMotionID": 200230216,
      "InitialHiddenNodeList": [],
      "SpawnConfig": {
        "EntitySpawnConfig": {}
      }
    },
    {
      "ID": 400008,
      "PosX": 11.02,
      "PosY": 12.90502,
      "PosZ": -82.04,
      "Name": "NPC8",
      "RotY": 214.5,
      "NPCID": 3001,
      "ValueSource": {},
      "DialogueGroups": [],
      "ServerInteractVerificationIDList": [],
      "BoardShowList": [],
      "TalkDialogGroupIDList": [],
      "DefaultIdleFreeStyleMotionID": 900010000,
      "IsNeedFade": true,
      "InitialHiddenNodeList": [],
      "SpawnConfig": {}
    }
  ]
}