{
  "GroupGUID": "90a8a4d2-20cc-41c4-96de-77d54b3a6250",
  "GroupName": "MainMission8015163_801516314",
  "Category": "Mission",
  "LevelGraph": "Config/Level/GroupGraph/F20232001/Group_F20232001_G124.json",
  "AreaAnchorName": "LevelArea_P20232_F20232001_G124",
  "SaveType": "Reset",
  "OwnerMainMissionID": 8015163,
  "ValueSource": {},
  "ConflictIDList": [],
  "IsHoyoGroup": true,
  "ConflictWhiteList": [],
  "AnchorList": [],
  "MonsterList": [],
  "PropList": [
    {
      "ID": 300001,
      "PosX": -523.923,
      "PosY": -51.24532,
      "PosZ": 3.566,
      "Name": "Prop1",
      "RotY": 272.6233,
      "PropID": 102210,
      "ValueSource": {
        "Values": []
      },
      "CampID": 4,
      "CustomTriggerMap": {},
      "CustomTriggerMapV2": {},
      "BridgeStateRotations": [],
      "DialogueGroups": [],
      "TalkDialogGroupIDList": [],
      "ServerInteractVerificationIDList": [],
      "TriggerValidGuest": {},
      "SpawnConfig": {
        "EntitySpawnConfig": {}
      }
    }
  ],
  "NPCList": [
    {
      "ID": 400001,
      "PosX": -525.719,
      "PosY": -51.24532,
      "PosZ": 4.858,
      "Name": "NPC1",
      "RotY": 283.7022,
      "NPCID": 2202,
      "ValueSource": {},
      "DialogueGroups": [],
      "ServerInteractVerificationIDList": [],
      "DefaultLookAtMode": "Closed",
      "BoardShowList": [],
      "TalkDialogGroupIDList": [],
      "DefaultAnimationType": "IdleState",
      "DefaultIdleFreeStyleMotionID": 200160209,
      "InitialHiddenNodeList": [],
      "SpawnConfig": {
        "EntitySpawnConfig": {}
      },
      "TriggerValidGuest": {}
    },
    {
      "ID": 400002,
      "PosX": -526.536,
      "PosY": -51.24531,
      "PosZ": 5.74,
      "Name": "NPC2",
      "RotY": 130.7195,
      "NPCID": 3068,
      "ValueSource": {},
      "DialogueGroups": [],
      "ServerInteractVerificationIDList": [],
      "BoardShowList": [],
      "TalkDialogGroupIDList": [],
      "DefaultIdleFreeStyleMotionID": 900110000,
      "InitialHiddenNodeList": [],
      "SpawnConfig": {
        "EntitySpawnConfig": {}
      },
      "TriggerValidGuest": {}
    }
  ]
}