{
  "GroupGUID": "d7110900-3722-449f-8556-818d52e9ac17",
  "GroupName": "MainMission1032801_03",
  "Category": "Mission",
  "AreaAnchorName": "LevelArea_P20331_F20331001_G77",
  "SaveType": "Reset",
  "OwnerMainMissionID": 1032801,
  "ValueSource": {},
  "ConflictIDList": [],
  "IsHoyoGroup": true,
  "HoYoGroupType": "Container",
  "ConflictWhiteList": [],
  "TagContainer": {},
  "AnchorList": [],
  "MonsterList": [],
  "PropList": [],
  "NPCList": []
}