{
  "GroupGUID": "030936d0-ff32-4094-8f10-e696536fdd76",
  "GroupName": "MainMission8022401_24",
  "Category": "Mission",
  "LevelGraph": "Config/Level/GroupGraph/F20331001/Group_F20331001_G235.json",
  "AreaAnchorName": "LevelArea_P20331_F20331001_G235",
  "SaveType": "Reset",
  "OwnerMainMissionID": 8022401,
  "ValueSource": {},
  "ConflictIDList": [],
  "IsHoyoGroup": true,
  "ConflictWhiteList": [],
  "TagContainer": {},
  "AnchorList": [],
  "MonsterList": [],
  "PropList": [],
  "NPCList": []
}