{
  "GroupGUID": "c6709b3f-676b-43f5-b36b-822a2a65cabc",
  "GroupName": "MainMission1032703_45",
  "Category": "Mission",
  "LevelGraph": "Config/Level/GroupGraph/F20331001/Group_F20331001_G413.json",
  "AreaAnchorName": "LevelArea_P20331_F20331001_G413",
  "SaveType": "Reset",
  "OwnerMainMissionID": 1032703,
  "ValueSource": {},
  "ConflictIDList": [],
  "IsHoyoGroup": true,
  "ConflictWhiteList": [],
  "TagContainer": {},
  "AnchorList": [],
  "MonsterList": [],
  "PropList": [],
  "NPCList": []
}