{
  "GroupGUID": "feb07706-c3ea-4fcb-abf7-c7ee345fb7e9",
  "GroupName": "MainMission8022402_17",
  "Category": "Mission",
  "LevelGraph": "Config/Level/GroupGraph/F20331001/Group_F20331001_G375.json",
  "AreaAnchorName": "LevelArea_P20331_F20331001_G375",
  "SaveType": "Reset",
  "OwnerMainMissionID": 8022402,
  "ValueSource": {
    "Values": [
      {
        "$type": "SharedString",
        "Key": "Camera",
        "Value": "LevelArea_P20331_F20331001_G375,Anchor1"
      },
      {
        "$type": "SharedString",
        "Key": "LookAt",
        "Value": "375,300001"
      }
    ]
  },
  "ConflictIDList": [],
  "IsHoyoGroup": true,
  "ConflictWhiteList": [],
  "TagContainer": {},
  "AnchorList": [
    {
      "ID": 1,
      "PosX": -445.01,
      "PosY": 8.75,
      "PosZ": 835.912,
      "Name": "Anchor1",
      "Usage": "Camera",
      "CustomParameter": {
        "$type": "LevelAnchorCameraParameter"
      }
    }
  ],
  "MonsterList": [],
  "PropList": [
    {
      "ID": 300001,
      "PosX": -445.05,
      "PosY": 6.374623,
      "PosZ": 841.6,
      "Name": "Prop1",
      "PropID": 100,
      "ValueSource": {},
      "CampID": 4,
      "CustomTriggerMap": {},
      "CustomTriggerMapV2": {},
      "BridgeStateRotations": [],
      "DialogueGroups": [],
      "TalkDialogGroupIDList": [],
      "ServerInteractVerificationIDList": [],
      "TriggerValidGuest": {},
      "TagContainer": {},
      "CameraCenterEntityList": [],
      "SpawnConfig": {
        "EntitySpawnConfig": {}
      }
    }
  ],
  "NPCList": []
}