{
  "GroupGUID": "56e98fef-79a3-44ee-b9d4-c79428971e3e",
  "GroupName": "JigsawPuzzle_P301_Mission_03_GangTreasure",
  "LevelGraph": "Config/Level/GroupGraph/F20331001/Group_F20331001_G201.json",
  "AreaAnchorName": "LevelArea_P20331_F20331001_G201",
  "SaveDimensionFilter": {},
  "SavedValueCondition": {
    "Conditions": [
      {
        "SavedValueName": "B1MonsterWave",
        "Operation": "GreaterEqual",
        "Value": 4
      }
    ],
    "Operation": "And"
  },
  "LoadSide": "Server",
  "LoadOnInitial": true,
  "GroupStateList": [
    {
      "DstState": 13
    },
    {
      "DstState": 12
    },
    {
      "DstState": 11
    },
    {
      "DstState": 10
    },
    {
      "SrcState": 10,
      "DstState": 20
    },
    {
      "SrcState": 13,
      "DstState": 12
    },
    {
      "SrcState": 12,
      "DstState": 11
    },
    {
      "SrcState": 11,
      "DstState": 10
    }
  ],
  "ValueSource": {},
  "ConflictIDList": [],
  "IsHoyoGroup": true,
  "ConflictWhiteList": [],
  "TagContainer": {},
  "AnchorList": [
    {
      "ID": 1,
      "PosX": 371.167,
      "PosY": 60.51934,
      "PosZ": 413.882,
      "Name": "SnapCamera",
      "RotY": 2.1E-5,
      "RotX": 15.00002,
      "RotZ": 4.0E-6,
      "Usage": "Camera",
      "CustomParameter": {
        "$type": "LevelAnchorCameraParameter",
        "fov": 40.0
      }
    },
    {
      "ID": 2,
      "PosX": 371.167,
      "PosY": 60.51934,
      "PosZ": 413.882,
      "Name": "GameplayCamera",
      "RotY": 2.1E-5,
      "RotX": 15.00002,
      "RotZ": 4.0E-6,
      "Usage": "Camera",
      "CustomParameter": {
        "$type": "LevelAnchorCameraParameter",
        "fov": 40.0
      }
    },
    {
      "ID": 3,
      "Name": "Anchor3"
    },
    {
      "ID": 4,
      "PosX": 371.167,
      "PosY": 60.51934,
      "PosZ": 413.882,
      "Name": "GameplayCamera2",
      "RotY": 2.1E-5,
      "RotX": 15.00002,
      "RotZ": 4.0E-6,
      "Usage": "Camera",
      "CustomParameter": {
        "$type": "LevelAnchorCameraParameter",
        "fov": 50.0
      }
    }
  ],
  "MonsterList": [],
  "PropList": [
    {
      "ID": 300001,
      "PosX": 371.16,
      "PosY": 57.96999,
      "PosZ": 417.0,
      "Name": "JigsawSir",
      "RotY": 180.0,
      "PropID": 103012,
      "ValueSource": {
        "Values": [
          {
            "$type": "SharedString",
            "Key": "PuzzleBoardPath",
            "Value": "Gameplays/JigsawPuzzle/JigsawPuzzle_P301_Mission_03_GangTreasure.prefab"
          },
          {
            "$type": "SharedString",
            "Key": "PuzzleCameraAnchor",
            "Value": "LevelArea_P20331_F20331001_G201,GameplayCamera"
          },
          {
            "$type": "SharedString",
            "Key": "JigsawResult_String",
            "Value": "JigsawPuzzle_Complete"
          },
          {
            "$type": "SharedString",
            "Key": "SnapCamera",
            "Value": "LevelArea_P20331_F20331001_G201,SnapCamera"
          },
          {
            "$type": "SharedFloat",
            "Key": "IsH"
          },
          {
            "$type": "SharedString",
            "Key": "PoseType",
            "Value": "V4_0M7_15"
          },
          {
            "$type": "SharedString",
            "Key": "PuzzleCameraAnchor2",
            "Value": "LevelArea_P20331_F20331001_G201,GameplayCamera2"
          }
        ]
      },
      "CampID": 4,
      "State": "TriggerEnable",
      "CustomTriggerMap": {},
      "CustomTriggerMapV2": {},
      "BridgeStateRotations": [],
      "MappingInfoID": 10061,
      "DialogueGroups": [],
      "TalkDialogGroupIDList": [],
      "ServerInteractVerificationIDList": [],
      "OverrideMapStateIcons": [
        {
          "State": "TriggerDisable",
          "IconID": 89
        },
        {
          "State": "TriggerEnable",
          "IconID": 89
        },
        {
          "State": "Locked",
          "IconID": 89
        },
        {
          "State": "Open",
          "IconID": 89
        }
      ],
      "TriggerValidGuest": {},
      "TagContainer": {},
      "CameraCenterEntityList": [],
      "SpawnConfig": {
        "OverrideSpawn": true,
        "EntitySpawnConfig": {}
      }
    },
    {
      "ID": 300002,
      "PosX": 371.16,
      "PosY": 57.96999,
      "PosZ": 417.0,
      "Name": "JigsawPiece1",
      "PropID": 103109,
      "ValueSource": {
        "Values": [
          {
            "$type": "SharedString",
            "Key": "ListenTriggerCustomString",
            "Value": "Mission_777_1"
          },
          {
            "$type": "SharedFloat",
            "Key": "ControlByMission"
          },
          {
            "$type": "SharedFloat",
            "Key": "EffIndex",
            "Value": 1.0
          }
        ]
      },
      "CampID": 4,
      "CustomTriggerMap": {},
      "CustomTriggerMapV2": {},
      "BridgeStateRotations": [],
      "DialogueGroups": [],
      "TalkDialogGroupIDList": [],
      "ServerInteractVerificationIDList": [],
      "TriggerValidGuest": {},
      "TagContainer": {},
      "CameraCenterEntityList": [],
      "SpawnConfig": {
        "OverrideSpawn": true,
        "EntitySpawnConfig": {}
      }
    },
    {
      "ID": 300003,
      "PosX": 371.16,
      "PosY": 57.96999,
      "PosZ": 417.0,
      "Name": "JigsawPiece2",
      "PropID": 103109,
      "ValueSource": {
        "Values": [
          {
            "$type": "SharedString",
            "Key": "ListenTriggerCustomString",
            "Value": "Mission_777_2"
          },
          {
            "$type": "SharedFloat",
            "Key": "ControlByMission"
          },
          {
            "$type": "SharedFloat",
            "Key": "EffIndex",
            "Value": 2.0
          }
        ]
      },
      "CampID": 4,
      "CustomTriggerMap": {},
      "CustomTriggerMapV2": {},
      "BridgeStateRotations": [],
      "DialogueGroups": [],
      "TalkDialogGroupIDList": [],
      "ServerInteractVerificationIDList": [],
      "TriggerValidGuest": {},
      "TagContainer": {},
      "CameraCenterEntityList": [],
      "SpawnConfig": {
        "OverrideSpawn": true,
        "EntitySpawnConfig": {}
      }
    },
    {
      "ID": 300004,
      "PosX": 371.16,
      "PosY": 57.96999,
      "PosZ": 417.0,
      "Name": "JigsawPiece3",
      "PropID": 103109,
      "ValueSource": {
        "Values": [
          {
            "$type": "SharedString",
            "Key": "ListenTriggerCustomString",
            "Value": "Mission_id_piece"
          },
          {
            "$type": "SharedFloat",
            "Key": "ControlByMission"
          },
          {
            "$type": "SharedFloat",
            "Key": "EffIndex",
            "Value": 3.0
          }
        ]
      },
      "CampID": 4,
      "CustomTriggerMap": {},
      "CustomTriggerMapV2": {},
      "BridgeStateRotations": [],
      "DialogueGroups": [],
      "TalkDialogGroupIDList": [],
      "ServerInteractVerificationIDList": [],
      "TriggerValidGuest": {},
      "TagContainer": {},
      "CameraCenterEntityList": [],
      "SpawnConfig": {
        "OverrideSpawn": true,
        "EntitySpawnConfig": {}
      }
    },
    {
      "ID": 300005,
      "PosX": 371.16,
      "PosY": 57.96999,
      "PosZ": 417.0,
      "IsDelete": true,
      "Name": "JigsawResult_Controller",
      "PropID": 100,
      "IsOverrideInitLevelGraph": true,
      "InitLevelGraph": "Config/Level/Props/Chap03/InitLevelGraph_Prop_Chap03_JigsawPuzzle_SimpleResultController.json",
      "ValueSource": {
        "Values": [
          {
            "$type": "SharedString",
            "Key": "TargetProp"
          },
          {
            "$type": "SharedFloat",
            "Key": "HandleTrigger"
          }
        ]
      },
      "CampID": 4,
      "CustomTriggerMap": {},
      "CustomTriggerMapV2": {},
      "BridgeStateRotations": [],
      "DialogueGroups": [],
      "TalkDialogGroupIDList": [],
      "ServerInteractVerificationIDList": [],
      "TriggerValidGuest": {},
      "TagContainer": {},
      "CameraCenterEntityList": [],
      "SpawnConfig": {
        "EntitySpawnConfig": {}
      }
    },
    {
      "ID": 300006,
      "PosX": 371.16,
      "PosY": 57.96999,
      "PosZ": 417.0,
      "Name": "JigsawResult_Controller",
      "RotY": 180.0,
      "PropID": 100,
      "IsOverrideInitLevelGraph": true,
      "InitLevelGraph": "Config/Level/Props/Chap03/InitLevelGraph_Prop_Chap03_JigsawPuzzle_TreasureAppearSFXTrigger.json",
      "ValueSource": {
        "Values": [
          {
            "$type": "SharedString",
            "Key": "TargetProp",
            "Value": "201,300007"
          },
          {
            "$type": "SharedString",
            "Key": "GameplayProp",
            "Value": "201,300001"
          }
        ]
      },
      "CampID": 4,
      "CustomTriggerMap": {},
      "CustomTriggerMapV2": {},
      "BridgeStateRotations": [],
      "DialogueGroups": [],
      "TalkDialogGroupIDList": [],
      "ServerInteractVerificationIDList": [],
      "TriggerValidGuest": {},
      "TagContainer": {},
      "CameraCenterEntityList": [],
      "SpawnConfig": {
        "OverrideSpawn": true,
        "EntitySpawnConfig": {}
      }
    },
    {
      "ID": 300007,
      "PosX": 371.39,
      "PosY": 50.12,
      "PosZ": 439.01,
      "Name": "JigsawResult_TreasureBox",
      "RotY": 180.0,
      "PropID": 60303,
      "ValueSource": {},
      "CampID": 4,
      "State": "Hidden",
      "CustomTriggerMap": {},
      "CustomTriggerMapV2": {},
      "BridgeStateRotations": [],
      "ChestID": 20331663,
      "DialogueGroups": [],
      "TalkDialogGroupIDList": [],
      "ServerInteractVerificationIDList": [],
      "OverrideTriggerValidGuestConfig": true,
      "TriggerValidGuest": {
        "FakePlayer": true
      },
      "TagContainer": {},
      "CameraCenterEntityList": [],
      "SpawnConfig": {
        "OverrideSpawn": true,
        "EntitySpawnConfig": {}
      }
    },
    {
      "ID": 300008,
      "PosX": 371.39,
      "PosY": 50.12,
      "PosZ": 439.01,
      "Name": "TreasureIcon",
      "RotY": 180.0,
      "PropID": 211,
      "IsOverrideInitLevelGraph": true,
      "InitLevelGraph": "Config/Level/Maze/Chapter03/JigsawPuzzle/Maze_Prop_JigsawPuzzleTreasureGameplayIcon.json",
      "ValueSource": {
        "Values": [
          {
            "$type": "SharedString",
            "Key": "Chest",
            "Value": "201,300007"
          }
        ]
      },
      "CampID": 4,
      "CustomTriggerMap": {},
      "CustomTriggerMapV2": {},
      "BridgeStateRotations": [],
      "MappingInfoID": 10061,
      "DialogueGroups": [],
      "TalkDialogGroupIDList": [],
      "ServerInteractVerificationIDList": [],
      "TriggerValidGuest": {},
      "TagContainer": {},
      "CameraCenterEntityList": [],
      "SpawnConfig": {
        "OverrideSpawn": true,
        "EntitySpawnConfig": {}
      }
    },
    {
      "ID": 300009,
      "PosX": 371.16,
      "PosY": 57.96999,
      "PosZ": 417.0,
      "Name": "JigsawResult_Controller",
      "RotY": 180.0,
      "PropID": 100,
      "IsOverrideInitLevelGraph": true,
      "InitLevelGraph": "Config/Level/Props/Chap03/InitLevelGraph_Prop_Chap03_JigsawPuzzle_TreasureAppearSFXTrigger.json",
      "ValueSource": {
        "Values": [
          {
            "$type": "SharedString",
            "Key": "TargetProp",
            "Value": "201,300010"
          },
          {
            "$type": "SharedString",
            "Key": "GameplayProp",
            "Value": "201,300001"
          },
          {
            "$type": "SharedFloat",
            "Key": "ShowWaypointOnJigsawSir"
          }
        ]
      },
      "CampID": 4,
      "CustomTriggerMap": {},
      "CustomTriggerMapV2": {},
      "BridgeStateRotations": [],
      "DialogueGroups": [],
      "TalkDialogGroupIDList": [],
      "ServerInteractVerificationIDList": [],
      "TriggerValidGuest": {},
      "TagContainer": {},
      "CameraCenterEntityList": [],
      "SpawnConfig": {
        "OverrideSpawn": true,
        "EntitySpawnConfig": {}
      }
    },
    {
      "ID": 300010,
      "PosX": 369.35,
      "PosY": 50.12,
      "PosZ": 439.01,
      "Name": "JigsawResult_TreasureBox",
      "RotY": 180.0,
      "PropID": 60301,
      "ValueSource": {},
      "CampID": 4,
      "State": "Hidden",
      "CustomTriggerMap": {},
      "CustomTriggerMapV2": {},
      "BridgeStateRotations": [],
      "ChestID": 20331666,
      "DialogueGroups": [],
      "TalkDialogGroupIDList": [],
      "ServerInteractVerificationIDList": [],
      "OverrideTriggerValidGuestConfig": true,
      "TriggerValidGuest": {
        "FakePlayer": true
      },
      "TagContainer": {},
      "CameraCenterEntityList": [],
      "SpawnConfig": {
        "OverrideSpawn": true,
        "EntitySpawnConfig": {}
      }
    },
    {
      "ID": 300011,
      "PosX": 371.16,
      "PosY": 57.96999,
      "PosZ": 417.0,
      "Name": "JigsawResult_Controller",
      "RotY": 180.0,
      "PropID": 100,
      "IsOverrideInitLevelGraph": true,
      "InitLevelGraph": "Config/Level/Props/Chap03/InitLevelGraph_Prop_Chap03_JigsawPuzzle_TreasureAppearSFXTrigger.json",
      "ValueSource": {
        "Values": [
          {
            "$type": "SharedString",
            "Key": "TargetProp",
            "Value": "201,300012"
          },
          {
            "$type": "SharedString",
            "Key": "GameplayProp",
            "Value": "201,300001"
          },
          {
            "$type": "SharedFloat",
            "Key": "ShowWaypointOnJigsawSir"
          }
        ]
      },
      "CampID": 4,
      "CustomTriggerMap": {},
      "CustomTriggerMapV2": {},
      "BridgeStateRotations": [],
      "DialogueGroups": [],
      "TalkDialogGroupIDList": [],
      "ServerInteractVerificationIDList": [],
      "TriggerValidGuest": {},
      "TagContainer": {},
      "CameraCenterEntityList": [],
      "SpawnConfig": {
        "OverrideSpawn": true,
        "EntitySpawnConfig": {}
      }
    },
    {
      "ID": 300012,
      "PosX": 373.37,
      "PosY": 50.12,
      "PosZ": 439.01,
      "Name": "JigsawResult_TreasureBox",
      "RotY": 180.0,
      "PropID": 60301,
      "ValueSource": {},
      "CampID": 4,
      "State": "Hidden",
      "CustomTriggerMap": {},
      "CustomTriggerMapV2": {},
      "BridgeStateRotations": [],
      "ChestID": 20331667,
      "DialogueGroups": [],
      "TalkDialogGroupIDList": [],
      "ServerInteractVerificationIDList": [],
      "OverrideTriggerValidGuestConfig": true,
      "TriggerValidGuest": {
        "FakePlayer": true
      },
      "TagContainer": {},
      "CameraCenterEntityList": [],
      "SpawnConfig": {
        "OverrideSpawn": true,
        "EntitySpawnConfig": {}
      }
    }
  ],
  "NPCList": []
}