{
  "GroupGUID": "cb297a2d-2313-4a51-a39a-dba3c7fbb4c3",
  "GroupName": "Default_Chest_Special",
  "LevelGraph": "Config/Level/GroupGraph/F20331001/Group_F20331001_G330.json",
  "AreaAnchorName": "LevelArea_P20331_F20331001_G330",
  "SaveDimensionFilter": {},
  "SavedValueCondition": {
    "Conditions": [],
    "Operation": "And"
  },
  "LoadSide": "Server",
  "LoadOnInitial": true,
  "ValueSource": {},
  "ConflictIDList": [],
  "IsHoyoGroup": true,
  "ConflictWhiteList": [],
  "TagContainer": {},
  "AnchorList": [],
  "MonsterList": [],
  "PropList": [
    {
      "ID": 300001,
      "PosX": 371.2599,
      "PosY": 50.12003,
      "PosZ": 428.107,
      "Name": "Ches",
      "RotY": 180.0,
      "PropID": 60303,
      "ValueSource": {
        "Values": []
      },
      "Trigger": {
        "Radius": 1.5,
        "DimX": 1.0,
        "DimY": 1.0,
        "DimZ": 1.0,
        "PointList": []
      },
      "CampID": 4,
      "State": "Hidden",
      "CustomTriggerMap": {},
      "CustomTriggerMapV2": {},
      "BridgeStateRotations": [],
      "ChestID": 20331626,
      "DialogueGroups": [],
      "TalkDialogGroupIDList": [],
      "ServerInteractVerificationIDList": [],
      "OverrideTriggerValidGuestConfig": true,
      "TriggerValidGuest": {
        "FakePlayer": true
      },
      "TagContainer": {},
      "CameraCenterEntityList": [],
      "SpawnConfig": {
        "EntitySpawnConfig": {}
      }
    }
  ],
  "NPCList": []
}