{
  "GroupGUID": "ea3b22ec-0c84-4c35-9b46-c43529bd3aba",
  "GroupName": "MainMission8021505_New Group",
  "Category": "Mission",
  "LevelGraph": "Config/Level/GroupGraph/F20331001/Group_F20331001_G341.json",
  "AreaAnchorName": "LevelArea_P20331_F20331001_G341",
  "SaveType": "Reset",
  "OwnerMainMissionID": 8021505,
  "ValueSource": {},
  "ConflictIDList": [],
  "IsHoyoGroup": true,
  "ConflictWhiteList": [],
  "TagContainer": {},
  "AnchorList": [
    {
      "ID": 1,
      "PosX": 371.187,
      "PosY": -13.716,
      "PosZ": 431.466,
      "Name": "Anchor1",
      "RotY": 315.3546,
      "Usage": "Actor"
    }
  ],
  "MonsterList": [],
  "PropList": [],
  "NPCList": [
    {
      "ID": 400001,
      "PosX": 370.1723,
      "PosY": -13.71597,
      "PosZ": 432.4801,
      "Name": "NPC1",
      "RotY": 123.44,
      "NPCID": 13333,
      "ValueSource": {},
      "DialogueGroups": [],
      "ServerInteractVerificationIDList": [],
      "BoardShowList": [],
      "TalkDialogGroupIDList": [],
      "DefaultIdleFreeStyleMotionID": 100040000,
      "OverrideSeriesID": 4294967295,
      "InitialHiddenNodeList": [],
      "TagContainer": {},
      "CameraCenterEntityList": [],
      "SpawnConfig": {
        "EntitySpawnConfig": {}
      },
      "TriggerValidGuest": {}
    }
  ]
}