{
  "GroupGUID": "a818f018-6572-43d1-a6d9-94ff0c76433c",
  "GroupName": "EndRoomScreen",
  "AreaAnchorName": "LevelArea_P20331_F20331001_G203",
  "SaveType": "Reset",
  "SavedValueCondition": {
    "Conditions": [],
    "Operation": "And"
  },
  "LoadOnInitial": true,
  "ValueSource": {},
  "ConflictIDList": [],
  "IsHoyoGroup": true,
  "StreamingTemplateType": "UltraFar",
  "ConflictWhiteList": [],
  "TagContainer": {},
  "AnchorList": [],
  "MonsterList": [],
  "PropList": [
    {
      "ID": 300001,
      "PosX": 232.359,
      "PosY": -27.92,
      "PosZ": 266.5299,
      "Name": "EndRoomScreen",
      "PropID": 100,
      "IsOverrideInitLevelGraph": true,
      "InitLevelGraph": "Config/Level/Props/Common/InitLevelGraph_Prop_Common_Gender2State_01.json",
      "ValueSource": {},
      "CampID": 4,
      "CustomTriggerMap": {},
      "CustomTriggerMapV2": {},
      "BridgeStateRotations": [],
      "DialogueGroups": [],
      "TalkDialogGroupIDList": [],
      "ServerInteractVerificationIDList": [],
      "StageObjectCapture": {
        "BlockAlias": "Chap03_CloseView_MAZ_P301_EndRoom01_BlockData",
        "PrefabAlias": "Resha_FinishRoom_Screen0"
      },
      "TriggerValidGuest": {},
      "TagContainer": {},
      "CameraCenterEntityList": [],
      "SpawnConfig": {
        "EntitySpawnConfig": {}
      }
    },
    {
      "ID": 300002,
      "PosX": 232.359,
      "PosY": -27.92,
      "PosZ": 266.5299,
      "Name": "EndRoomScreen",
      "PropID": 103098,
      "IsOverrideInitLevelGraph": true,
      "InitLevelGraph": "Config/Level/Props/Common/InitLevelGraph_Prop_Common_Gender2State_01.json",
      "ValueSource": {},
      "CampID": 4,
      "CustomTriggerMap": {},
      "CustomTriggerMapV2": {},
      "BridgeStateRotations": [],
      "DialogueGroups": [],
      "TalkDialogGroupIDList": [],
      "ServerInteractVerificationIDList": [],
      "StageObjectCapture": {
        "BlockAlias": "Chap03_CloseView_MAZ_P301_EndRoom01_BlockData",
        "PrefabAlias": "Chap03_HS_DisplayScreen_00"
      },
      "TriggerValidGuest": {},
      "TagContainer": {},
      "CameraCenterEntityList": [],
      "SpawnConfig": {
        "EntitySpawnConfig": {}
      }
    }
  ],
  "NPCList": []
}