{
  "GroupGUID": "ffe964c3-3c9c-4d98-aabd-eff0bf4bc73d",
  "GroupName": "Tpl_InteractivePlanetC",
  "LevelGraph": "Config/Level/GroupTemplateGraph/02_Puzzle/InteractivePlanet/InteractivePlanet.json",
  "AreaAnchorName": "LevelArea_P20331_F20331001_G101",
  "SaveDimensionFilter": {},
  "SavedValueCondition": {
    "Conditions": [],
    "Operation": "And"
  },
  "LoadSide": "Server",
  "LoadOnInitial": true,
  "GroupStateList": [
    {
      "SrcState": 1,
      "DstState": 2
    },
    {
      "SrcState": 1,
      "DstState": 3
    },
    {
      "SrcState": 2,
      "DstState": 4
    },
    {
      "SrcState": 3,
      "DstState": 4
    },
    {
      "DstState": 5
    },
    {
      "DstState": 6
    },
    {
      "SrcState": 5,
      "DstState": 1
    },
    {
      "SrcState": 6,
      "DstState": 1
    }
  ],
  "ValueSource": {
    "Values": [
      {
        "$type": "SharedString",
        "Key": "Easter1",
        "Value": "EasterC1"
      },
      {
        "$type": "SharedString",
        "Key": "Easter2",
        "Value": "EasterC2"
      },
      {
        "$type": "SharedString",
        "Key": "MasterProp",
        "Value": "101,300001"
      },
      {
        "$type": "SharedString",
        "Key": "Button1",
        "Value": "101,300002"
      },
      {
        "$type": "SharedString",
        "Key": "Button2",
        "Value": "101,300003"
      },
      {
        "$type": "SharedString",
        "Key": "React",
        "Value": "101,300004"
      },
      {
        "$type": "SharedString",
        "Key": "Easter1_Prop",
        "Value": "101,300005"
      },
      {
        "$type": "SharedString",
        "Key": "Easter2_Prop",
        "Value": "101,300006"
      },
      {
        "$type": "SharedString",
        "Key": "Easter3_Prop",
        "Value": "101,300007"
      },
      {
        "$type": "SharedString",
        "Key": "Easter4_Prop",
        "Value": "101,300008"
      },
      {
        "$type": "SharedString",
        "Key": "Unlock1",
        "Value": "101,300009"
      },
      {
        "$type": "SharedString",
        "Key": "Unlock2",
        "Value": "101,300010"
      },
      {
        "$type": "SharedString",
        "Key": "Interact1",
        "Value": "101,300011"
      },
      {
        "$type": "SharedString",
        "Key": "Interact2",
        "Value": "101,300012"
      },
      {
        "$type": "SharedString",
        "Key": "RailBall",
        "Value": "101,300013"
      },
      {
        "$type": "SharedFloat",
        "Key": "PlanetDisplayID",
        "Value": 3.0
      }
    ]
  },
  "ConflictIDList": [],
  "IsHoyoGroup": true,
  "StreamingTemplateType": "None",
  "ConflictWhiteList": [],
  "TagContainer": {},
  "AnchorList": [
    {
      "ID": 1,
      "PosX": 81.7,
      "PosY": 214.0,
      "PosZ": 683.7,
      "Name": "Camera",
      "RotY": 291.9999,
      "RotX": 23.04001,
      "RotZ": 3.800012,
      "Usage": "Camera",
      "CustomParameter": {
        "$type": "LevelAnchorCameraParameter",
        "fov": 30.0
      }
    },
    {
      "ID": 2,
      "PosX": -445.011,
      "PosY": 2.89288,
      "PosZ": 741.7839,
      "Name": "Level1"
    },
    {
      "ID": 3,
      "PosX": -277.007,
      "PosY": 2.89288,
      "PosZ": 741.8679,
      "Name": "Level2"
    },
    {
      "ID": 4,
      "PosX": 81.7,
      "PosY": 214.0,
      "PosZ": 683.7,
      "Name": "Camera_NormalFOV",
      "RotY": 291.9999,
      "RotX": 23.04001,
      "RotZ": 3.800012,
      "Usage": "Camera",
      "CustomParameter": {
        "$type": "LevelAnchorCameraParameter",
        "fov": 45.0
      }
    }
  ],
  "MonsterList": [],
  "PropList": [
    {
      "ID": 300001,
      "PosX": 383.3971,
      "PosY": 53.52085,
      "PosZ": 516.231,
      "Name": "MasterProp",
      "PropID": 100,
      "IsOverrideInitLevelGraph": true,
      "InitLevelGraph": "Config/Level/Props/Chap03/InitLevelGraph_Prop_Chap03_HSMasterProp_01.json",
      "ValueSource": {
        "Values": [
          {
            "$type": "SharedString",
            "Key": "Camera",
            "Value": "LevelArea_P20331_F20331001_G101,Camera"
          },
          {
            "$type": "SharedString",
            "Key": "Btn1",
            "Value": "101,300002"
          },
          {
            "$type": "SharedString",
            "Key": "Btn2",
            "Value": "101,300003"
          },
          {
            "$type": "SharedString",
            "Key": "Easter1",
            "Value": "101,300005"
          },
          {
            "$type": "SharedString",
            "Key": "Easter2",
            "Value": "101,300006"
          },
          {
            "$type": "SharedString",
            "Key": "Easter3",
            "Value": "101,300007"
          },
          {
            "$type": "SharedString",
            "Key": "Easter4",
            "Value": "101,300008"
          },
          {
            "$type": "SharedString",
            "Key": "RouteDisplayID1",
            "Value": "5"
          },
          {
            "$type": "SharedString",
            "Key": "RouteDisplayID2",
            "Value": "6"
          },
          {
            "$type": "SharedString",
            "Key": "PlanetDisplayID",
            "Value": "3"
          },
          {
            "$type": "SharedString",
            "Key": "React",
            "Value": "101,300004"
          },
          {
            "$type": "SharedString",
            "Key": "ReactCollider1",
            "Value": "101,300014"
          },
          {
            "$type": "SharedString",
            "Key": "ReactCollider2",
            "Value": "101,300015"
          },
          {
            "$type": "SharedString",
            "Key": "FailSound1",
            "Value": "Ev_sfx_penacony_interactiveprop_level03_a_common"
          },
          {
            "$type": "SharedString",
            "Key": "FailSound2",
            "Value": "Ev_sfx_penacony_interactiveprop_level03_b_common"
          },
          {
            "$type": "SharedString",
            "Key": "FailSound3",
            "Value": "Ev_sfx_penacony_interactiveprop_level03_c_common"
          },
          {
            "$type": "SharedString",
            "Key": "SuccessSound1",
            "Value": "Ev_sfx_penacony_interactiveprop_level03_a_special"
          },
          {
            "$type": "SharedString",
            "Key": "SuccessSound2",
            "Value": "Ev_sfx_penacony_interactiveprop_level03_b_special"
          },
          {
            "$type": "SharedString",
            "Key": "SuccessSound3",
            "Value": "Ev_sfx_penacony_interactiveprop_level03_c_special"
          }
        ]
      },
      "CampID": 4,
      "CustomTriggerMap": {},
      "CustomTriggerMapV2": {},
      "BridgeStateRotations": [],
      "DialogueGroups": [],
      "TalkDialogGroupIDList": [],
      "ServerInteractVerificationIDList": [],
      "TriggerValidGuest": {},
      "TagContainer": {},
      "CameraCenterEntityList": [],
      "SpawnConfig": {
        "EntitySpawnConfig": {}
      }
    },
    {
      "ID": 300002,
      "PosX": -116.621,
      "PosY": 95.297,
      "PosZ": 690.433,
      "Name": "Button_1",
      "RotY": 83.09943,
      "RotX": 8.961445,
      "RotZ": 358.0181,
      "PropID": 103176,
      "IsOverrideInitLevelGraph": true,
      "InitLevelGraph": "Config/Level/Props/Chap03/InitLevelGraph_Prop_Chap03_HSButton_01.json",
      "ValueSource": {
        "Values": [
          {
            "$type": "SharedString",
            "Key": "AreaName",
            "Value": "LevelArea_P20331_F20331001_G101"
          },
          {
            "$type": "SharedString",
            "Key": "AnchorName",
            "Value": "Level1"
          },
          {
            "$type": "SharedString",
            "Key": "Camera",
            "Value": "LevelArea_P20331_F20331001_G101,Camera"
          },
          {
            "$type": "SharedString",
            "Key": "Camera_NormalFOV",
            "Value": "LevelArea_P20331_F20331001_G101,Camera_NormalFOV"
          }
        ]
      },
      "CampID": 4,
      "CustomTriggerMap": {},
      "CustomTriggerMapV2": {},
      "BridgeStateRotations": [],
      "DialogueGroups": [],
      "TalkDialogGroupIDList": [],
      "ServerInteractVerificationIDList": [],
      "StageObjectCapture": {
        "BlockAlias": "HS_Planet_C",
        "PrefabAlias": "HS_C_Button_1"
      },
      "TriggerValidGuest": {},
      "TagContainer": {},
      "CameraCenterEntityList": [],
      "SpawnConfig": {
        "EntitySpawnConfig": {}
      }
    },
    {
      "ID": 300003,
      "PosX": -118.747,
      "PosY": 95.928,
      "PosZ": 708.846,
      "Name": "Button_2",
      "RotY": 83.09943,
      "RotX": 8.961445,
      "RotZ": 358.0181,
      "PropID": 103177,
      "IsOverrideInitLevelGraph": true,
      "InitLevelGraph": "Config/Level/Props/Chap03/InitLevelGraph_Prop_Chap03_HSButton_01.json",
      "ValueSource": {
        "Values": [
          {
            "$type": "SharedString",
            "Key": "AreaName",
            "Value": "LevelArea_P20331_F20331001_G101"
          },
          {
            "$type": "SharedString",
            "Key": "AnchorName",
            "Value": "Level2"
          },
          {
            "$type": "SharedString",
            "Key": "Camera",
            "Value": "LevelArea_P20331_F20331001_G101,Camera"
          },
          {
            "$type": "SharedString",
            "Key": "Camera_NormalFOV",
            "Value": "LevelArea_P20331_F20331001_G101,Camera_NormalFOV"
          }
        ]
      },
      "CampID": 4,
      "CustomTriggerMap": {},
      "CustomTriggerMapV2": {},
      "BridgeStateRotations": [],
      "DialogueGroups": [],
      "TalkDialogGroupIDList": [],
      "ServerInteractVerificationIDList": [],
      "StageObjectCapture": {
        "BlockAlias": "HS_Planet_C",
        "PrefabAlias": "HS_C_Button_2"
      },
      "TriggerValidGuest": {},
      "TagContainer": {},
      "CameraCenterEntityList": [],
      "SpawnConfig": {
        "EntitySpawnConfig": {}
      }
    },
    {
      "ID": 300004,
      "PosX": -125.9,
      "PosY": 127.7,
      "PosZ": 800.5,
      "Name": "React",
      "RotY": 137.6974,
      "RotX": 8.45511,
      "RotZ": 19.23383,
      "PropID": 103178,
      "IsOverrideInitLevelGraph": true,
      "InitLevelGraph": "Config/Level/Props/Chap03/InitLevelGraph_Prop_Chap03_HSReact_01.json",
      "ValueSource": {
        "Values": []
      },
      "CampID": 4,
      "CustomTriggerMap": {},
      "CustomTriggerMapV2": {},
      "BridgeStateRotations": [],
      "DialogueGroups": [],
      "TalkDialogGroupIDList": [],
      "ServerInteractVerificationIDList": [],
      "StageObjectCapture": {
        "BlockAlias": "HS_Planet_C",
        "PrefabAlias": "HS_C_React"
      },
      "TriggerValidGuest": {},
      "TagContainer": {},
      "CameraCenterEntityList": [],
      "SpawnConfig": {
        "EntitySpawnConfig": {}
      }
    },
    {
      "ID": 300005,
      "PosX": -125.9,
      "PosY": 127.7,
      "PosZ": 800.5,
      "Name": "Easter_1",
      "RotY": 137.6974,
      "RotX": 8.455112,
      "RotZ": 19.23383,
      "PropID": 103179,
      "IsOverrideInitLevelGraph": true,
      "InitLevelGraph": "Config/Level/Props/Chap03/InitLevelGraph_Prop_Chap03_HSEaster_01.json",
      "ValueSource": {
        "Values": [
          {
            "$type": "SharedFloat",
            "Key": "UIStateNum",
            "Value": 2.0
          },
          {
            "$type": "SharedString",
            "Key": "SoundName",
            "Value": "Ev_sfx_penacony_interactiveprop_level03_easter01_anim"
          }
        ]
      },
      "CampID": 4,
      "CustomTriggerMap": {},
      "CustomTriggerMapV2": {},
      "BridgeStateRotations": [],
      "DialogueGroups": [],
      "TalkDialogGroupIDList": [],
      "ServerInteractVerificationIDList": [],
      "StageObjectCapture": {
        "BlockAlias": "HS_Planet_C",
        "PrefabAlias": "HS_C_Easter_1"
      },
      "TriggerValidGuest": {},
      "TagContainer": {},
      "CameraCenterEntityList": [],
      "SpawnConfig": {
        "EntitySpawnConfig": {}
      }
    },
    {
      "ID": 300006,
      "PosX": -125.9,
      "PosY": 127.7,
      "PosZ": 800.5,
      "Name": "Easter_2",
      "RotY": 137.6974,
      "RotX": 8.455112,
      "RotZ": 19.23383,
      "PropID": 103180,
      "IsOverrideInitLevelGraph": true,
      "InitLevelGraph": "Config/Level/Props/Chap03/InitLevelGraph_Prop_Chap03_HSEaster_01.json",
      "ValueSource": {
        "Values": [
          {
            "$type": "SharedFloat",
            "Key": "StateNum",
            "Value": 6.0
          },
          {
            "$type": "SharedString",
            "Key": "SoundName",
            "Value": "Ev_sfx_penacony_interactiveprop_level03_easter02_anim"
          }
        ]
      },
      "CampID": 4,
      "CustomTriggerMap": {},
      "CustomTriggerMapV2": {},
      "BridgeStateRotations": [],
      "DialogueGroups": [],
      "TalkDialogGroupIDList": [],
      "ServerInteractVerificationIDList": [],
      "StageObjectCapture": {
        "BlockAlias": "HS_Planet_C",
        "PrefabAlias": "HS_C_Easter_2"
      },
      "TriggerValidGuest": {},
      "TagContainer": {},
      "CameraCenterEntityList": [],
      "SpawnConfig": {
        "EntitySpawnConfig": {}
      }
    },
    {
      "ID": 300007,
      "PosX": -125.9,
      "PosY": 127.7,
      "PosZ": 800.5,
      "Name": "Easter_3",
      "RotY": 137.6974,
      "RotX": 8.455112,
      "RotZ": 19.23383,
      "PropID": 103181,
      "IsOverrideInitLevelGraph": true,
      "InitLevelGraph": "Config/Level/Props/Chap03/InitLevelGraph_Prop_Chap03_HSEaster_01.json",
      "ValueSource": {
        "Values": [
          {
            "$type": "SharedString",
            "Key": "SoundName",
            "Value": "Ev_sfx_penacony_interactiveprop_level03_easter03_anim"
          }
        ]
      },
      "CampID": 4,
      "CustomTriggerMap": {},
      "CustomTriggerMapV2": {},
      "BridgeStateRotations": [],
      "DialogueGroups": [],
      "TalkDialogGroupIDList": [],
      "ServerInteractVerificationIDList": [],
      "StageObjectCapture": {
        "BlockAlias": "HS_Planet_C",
        "PrefabAlias": "HS_C_Easter_3"
      },
      "TriggerValidGuest": {},
      "TagContainer": {},
      "CameraCenterEntityList": [],
      "SpawnConfig": {
        "EntitySpawnConfig": {}
      }
    },
    {
      "ID": 300008,
      "PosX": -125.9,
      "PosY": 127.7,
      "PosZ": 800.5,
      "Name": "Easter_4",
      "RotY": 137.6974,
      "RotX": 8.455112,
      "RotZ": 19.23383,
      "PropID": 103182,
      "IsOverrideInitLevelGraph": true,
      "InitLevelGraph": "Config/Level/Props/Chap03/InitLevelGraph_Prop_Chap03_HSEaster_01.json",
      "ValueSource": {
        "Values": [
          {
            "$type": "SharedString",
            "Key": "SoundName",
            "Value": "Ev_sfx_penacony_interactiveprop_level03_easter04_anim"
          }
        ]
      },
      "CampID": 4,
      "CustomTriggerMap": {},
      "CustomTriggerMapV2": {},
      "BridgeStateRotations": [],
      "DialogueGroups": [],
      "TalkDialogGroupIDList": [],
      "ServerInteractVerificationIDList": [],
      "StageObjectCapture": {
        "BlockAlias": "HS_Planet_C",
        "PrefabAlias": "HS_C_Easter_4"
      },
      "TriggerValidGuest": {},
      "TagContainer": {},
      "CameraCenterEntityList": [],
      "SpawnConfig": {
        "EntitySpawnConfig": {}
      }
    },
    {
      "ID": 300009,
      "PosX": -125.9,
      "PosY": 127.7,
      "PosZ": 800.5,
      "Name": "Unlock_1",
      "RotY": 137.6974,
      "RotX": 8.455112,
      "RotZ": 19.23383,
      "PropID": 103183,
      "IsOverrideInitLevelGraph": true,
      "InitLevelGraph": "Config/Level/Props/Chap03/InitLevelGraph_Prop_Chap03_HSUnlock_01.json",
      "ValueSource": {
        "Values": [
          {
            "$type": "SharedFloat",
            "Key": "IsUnlock1",
            "Value": 1.0
          }
        ]
      },
      "CampID": 4,
      "CustomTriggerMap": {},
      "CustomTriggerMapV2": {},
      "BridgeStateRotations": [],
      "DialogueGroups": [],
      "TalkDialogGroupIDList": [],
      "ServerInteractVerificationIDList": [],
      "StageObjectCapture": {
        "BlockAlias": "HS_Planet_C",
        "PrefabAlias": "HS_C_Base"
      },
      "TriggerValidGuest": {},
      "TagContainer": {},
      "CameraCenterEntityList": [],
      "SpawnConfig": {
        "EntitySpawnConfig": {}
      }
    },
    {
      "ID": 300010,
      "PosX": -125.9,
      "PosY": 127.7,
      "PosZ": 800.5,
      "Name": "Unlock_2",
      "RotY": 137.6974,
      "RotX": 8.455112,
      "RotZ": 19.23383,
      "PropID": 103184,
      "IsOverrideInitLevelGraph": true,
      "InitLevelGraph": "Config/Level/Props/Chap03/InitLevelGraph_Prop_Chap03_HSUnlock_01.json",
      "ValueSource": {
        "Values": [
          {
            "$type": "SharedFloat",
            "Key": "IsUnlock1",
            "Value": -1.0
          }
        ]
      },
      "CampID": 4,
      "CustomTriggerMap": {},
      "CustomTriggerMapV2": {},
      "BridgeStateRotations": [],
      "DialogueGroups": [],
      "TalkDialogGroupIDList": [],
      "ServerInteractVerificationIDList": [],
      "StageObjectCapture": {
        "BlockAlias": "HS_Planet_C",
        "PrefabAlias": "HS_C_Unlock_2"
      },
      "TriggerValidGuest": {},
      "TagContainer": {},
      "CameraCenterEntityList": [],
      "SpawnConfig": {
        "EntitySpawnConfig": {}
      }
    },
    {
      "ID": 300011,
      "PosX": 383.286,
      "PosY": 52.873,
      "PosZ": 519.0401,
      "Name": "Interact_1",
      "PropID": 103247,
      "IsOverrideInitLevelGraph": true,
      "InitLevelGraph": "Config/Level/Props/Chap03/InitLevelGraph_Prop_Chap03_HSInteract_01.json",
      "ValueSource": {
        "Values": [
          {
            "$type": "SharedString",
            "Key": "PerformanceID",
            "Value": "103270303"
          },
          {
            "$type": "SharedFloat",
            "Key": "PlanetDisplayID",
            "Value": 3.0
          }
        ]
      },
      "CampID": 4,
      "CustomTriggerMap": {},
      "CustomTriggerMapV2": {
        "InteractTrigger": {
          "Radius": 2.0,
          "Offset": {
            "y": 1.0,
            "z": -2.0
          },
          "PointList": []
        }
      },
      "BridgeStateRotations": [],
      "MappingInfoID": 10068,
      "DialogueGroups": [],
      "TalkDialogGroupIDList": [],
      "ServerInteractVerificationIDList": [],
      "StageObjectCapture": {
        "BlockAlias": "Chap03_CloseView_MAZ_P301_B01_BlockData",
        "PrefabAlias": "HS_C_Interact_1"
      },
      "TriggerValidGuest": {},
      "TagContainer": {},
      "CameraCenterEntityList": [],
      "SpawnConfig": {
        "EntitySpawnConfig": {}
      }
    },
    {
      "ID": 300012,
      "PosX": 279.816,
      "PosY": 51.653,
      "PosZ": 863.71,
      "Name": "Interact_2",
      "PropID": 103247,
      "IsOverrideInitLevelGraph": true,
      "InitLevelGraph": "Config/Level/Props/Chap03/InitLevelGraph_Prop_Chap03_HSInteract_01.json",
      "ValueSource": {
        "Values": [
          {
            "$type": "SharedString",
            "Key": "PerformanceID",
            "Value": "103270304"
          },
          {
            "$type": "SharedFloat",
            "Key": "PlanetDisplayID",
            "Value": 3.0
          }
        ]
      },
      "CampID": 4,
      "CustomTriggerMap": {},
      "CustomTriggerMapV2": {
        "InteractTrigger": {
          "Radius": 2.0,
          "Offset": {
            "y": 1.0,
            "z": -2.0
          },
          "PointList": []
        }
      },
      "BridgeStateRotations": [],
      "MappingInfoID": 10068,
      "DialogueGroups": [],
      "TalkDialogGroupIDList": [],
      "ServerInteractVerificationIDList": [],
      "StageObjectCapture": {
        "BlockAlias": "Chap03_CloseView_MAZ_P301_B02_BlockData",
        "PrefabAlias": "HS_C_Interact_2"
      },
      "TriggerValidGuest": {},
      "TagContainer": {},
      "CameraCenterEntityList": [],
      "SpawnConfig": {
        "EntitySpawnConfig": {}
      }
    },
    {
      "ID": 300013,
      "PosX": 3.4,
      "PosY": -3.2,
      "Name": "RailBall",
      "PropID": 103213,
      "ValueSource": {
        "Values": [
          {
            "$type": "SharedString",
            "Key": "PlanetDisplayID",
            "Value": "3"
          },
          {
            "$type": "SharedString",
            "Key": "SoundName",
            "Value": "Ev_sfx_penacony_interactiveprop_level03_launch"
          }
        ]
      },
      "CampID": 4,
      "CustomTriggerMap": {},
      "CustomTriggerMapV2": {},
      "BridgeStateRotations": [],
      "DialogueGroups": [],
      "TalkDialogGroupIDList": [],
      "ServerInteractVerificationIDList": [],
      "TriggerValidGuest": {},
      "TagContainer": {},
      "CameraCenterEntityList": [],
      "SpawnConfig": {
        "EntitySpawnConfig": {}
      }
    },
    {
      "ID": 300014,
      "PosX": -125.9,
      "PosY": 127.7,
      "PosZ": 800.5,
      "Name": "ReactCollider_1",
      "RotY": 137.6974,
      "RotX": 8.45511,
      "RotZ": 19.23383,
      "PropID": 103234,
      "IsOverrideInitLevelGraph": true,
      "InitLevelGraph": "Config/Level/Props/Chap03/InitLevelGraph_Prop_Chap03_HSReactCollider_01.json",
      "ValueSource": {
        "Values": [
          {
            "$type": "SharedString",
            "Key": "React",
            "Value": "101,300004"
          }
        ]
      },
      "CampID": 4,
      "CustomTriggerMap": {},
      "CustomTriggerMapV2": {},
      "BridgeStateRotations": [],
      "DialogueGroups": [],
      "TalkDialogGroupIDList": [],
      "ServerInteractVerificationIDList": [],
      "TriggerValidGuest": {},
      "TagContainer": {},
      "CameraCenterEntityList": [],
      "SpawnConfig": {
        "EntitySpawnConfig": {}
      }
    },
    {
      "ID": 300015,
      "PosX": -125.9,
      "PosY": 127.7,
      "PosZ": 800.5,
      "Name": "ReactCollider_2",
      "RotY": 137.6974,
      "RotX": 8.45511,
      "RotZ": 19.23383,
      "PropID": 103235,
      "IsOverrideInitLevelGraph": true,
      "InitLevelGraph": "Config/Level/Props/Chap03/InitLevelGraph_Prop_Chap03_HSReactCollider_01.json",
      "ValueSource": {
        "Values": [
          {
            "$type": "SharedString",
            "Key": "React",
            "Value": "101,300004"
          }
        ]
      },
      "CampID": 4,
      "CustomTriggerMap": {},
      "CustomTriggerMapV2": {},
      "BridgeStateRotations": [],
      "DialogueGroups": [],
      "TalkDialogGroupIDList": [],
      "ServerInteractVerificationIDList": [],
      "TriggerValidGuest": {},
      "TagContainer": {},
      "CameraCenterEntityList": [],
      "SpawnConfig": {
        "EntitySpawnConfig": {}
      }
    }
  ],
  "NPCList": []
}