{
  "GroupGUID": "615c892c-7940-4743-b7f3-62fc8326dc10",
  "GroupName": "MainMission1032801_09",
  "Category": "Mission",
  "LevelGraph": "Config/Level/GroupGraph/F20331001/Group_F20331001_G128.json",
  "AreaAnchorName": "LevelArea_P20331_F20331001_G128",
  "SaveType": "Reset",
  "OwnerMainMissionID": 1032801,
  "ValueSource": {},
  "ConflictIDList": [],
  "IsHoyoGroup": true,
  "ConflictWhiteList": [],
  "TagContainer": {},
  "AnchorList": [],
  "MonsterList": [],
  "PropList": [
    {
      "ID": 300001,
      "PosX": 252.2136,
      "PosY": -27.95172,
      "PosZ": 276.34,
      "Name": "Prop1",
      "PropID": 111,
      "ValueSource": {},
      "CustomTriggerMap": {},
      "CustomTriggerMapV2": {
        "MissionTrigger": {
          "Radius": 10.0,
          "PointList": []
        }
      },
      "BridgeStateRotations": [],
      "DialogueGroups": [],
      "TalkDialogGroupIDList": [],
      "ServerInteractVerificationIDList": [],
      "PerformanceHideFlags": 6,
      "TriggerValidGuest": {},
      "TagContainer": {},
      "CameraCenterEntityList": [],
      "SpawnConfig": {
        "EntitySpawnConfig": {}
      }
    },
    {
      "ID": 300002,
      "PosX": 256.96,
      "PosY": -21.76,
      "PosZ": 278.17,
      "Name": "Prop2",
      "RotY": 60.0,
      "RotX": 340.0,
      "RotZ": 1.0E-6,
      "Scale": {
        "x": 6.0,
        "y": 6.0,
        "z": 6.0
      },
      "PropID": 103074,
      "ValueSource": {
        "Values": [
          {
            "$type": "SharedUint",
            "Key": "SDFTextID",
            "Value": 206579804
          },
          {
            "$type": "SharedFloat",
            "Key": "TallTypeScale",
            "Value": 0.7
          },
          {
            "$type": "SharedFloat",
            "Key": "EnglishLikeScale",
            "Value": 0.7
          }
        ]
      },
      "CampID": 4,
      "State": "Open",
      "CustomTriggerMap": {},
      "CustomTriggerMapV2": {},
      "BridgeStateRotations": [],
      "DialogueGroups": [],
      "TalkDialogGroupIDList": [],
      "ServerInteractVerificationIDList": [],
      "TriggerValidGuest": {},
      "TagContainer": {},
      "CameraCenterEntityList": [],
      "SpawnConfig": {
        "EntitySpawnConfig": {}
      }
    }
  ],
  "NPCList": []
}