{
  "GroupGUID": "d1003dcb-a9b5-4d8f-a210-d368b54513ea",
  "GroupName": "MainMission1032801_09",
  "Category": "Mission",
  "LevelGraph": "Config/Level/GroupGraph/F20331001/Group_F20331001_G127.json",
  "AreaAnchorName": "LevelArea_P20331_F20331001_G127",
  "SaveType": "Reset",
  "OwnerMainMissionID": 1032801,
  "ValueSource": {},
  "ConflictIDList": [],
  "IsHoyoGroup": true,
  "ConflictWhiteList": [],
  "TagContainer": {},
  "AnchorList": [],
  "MonsterList": [],
  "PropList": [
    {
      "ID": 300001,
      "PosX": 212.83,
      "PosY": -27.98037,
      "PosZ": 279.71,
      "Name": "Prop1",
      "PropID": 111,
      "ValueSource": {},
      "CampID": 4,
      "CustomTriggerMap": {},
      "CustomTriggerMapV2": {
        "MissionTrigger": {
          "Radius": 10.0,
          "PointList": []
        }
      },
      "BridgeStateRotations": [],
      "DialogueGroups": [],
      "TalkDialogGroupIDList": [],
      "ServerInteractVerificationIDList": [],
      "PerformanceHideFlags": 6,
      "TriggerValidGuest": {},
      "TagContainer": {},
      "CameraCenterEntityList": [],
      "SpawnConfig": {
        "EntitySpawnConfig": {}
      }
    },
    {
      "ID": 300002,
      "PosX": 212.45,
      "PosY": -21.34,
      "PosZ": 284.89,
      "Name": "Prop2",
      "RotY": 300.0,
      "RotX": 335.0,
      "Scale": {
        "x": 6.0,
        "y": 6.0,
        "z": 6.0
      },
      "PropID": 103074,
      "ValueSource": {
        "Values": [
          {
            "$type": "SharedUint",
            "Key": "SDFTextID",
            "Value": 206579802
          },
          {
            "$type": "SharedFloat",
            "Key": "TallTypeScale",
            "Value": 0.7
          },
          {
            "$type": "SharedFloat",
            "Key": "EnglishLikeScale",
            "Value": 0.7
          }
        ]
      },
      "CampID": 4,
      "State": "Open",
      "CustomTriggerMap": {},
      "CustomTriggerMapV2": {},
      "BridgeStateRotations": [],
      "DialogueGroups": [],
      "TalkDialogGroupIDList": [],
      "ServerInteractVerificationIDList": [],
      "TriggerValidGuest": {},
      "TagContainer": {},
      "CameraCenterEntityList": [],
      "SpawnConfig": {
        "EntitySpawnConfig": {}
      }
    }
  ],
  "NPCList": []
}