{
  "GroupGUID": "5aae92f2-8bf8-45d9-8abc-74a3236ddf65",
  "GroupName": "JigsawPuzzle_P301_Mission_02_ClockBoy_Gold",
  "LevelGraph": "Config/Level/GroupGraph/F20331001/Group_F20331001_G200.json",
  "AreaAnchorName": "LevelArea_P20331_F20331001_G200",
  "SaveDimensionFilter": {},
  "SavedValueCondition": {
    "Conditions": [],
    "Operation": "And"
  },
  "LoadSide": "Server",
  "LoadOnInitial": true,
  "GroupStateList": [
    {
      "DstState": 13
    },
    {
      "DstState": 12
    },
    {
      "DstState": 11
    },
    {
      "DstState": 10
    },
    {
      "SrcState": 10,
      "DstState": 20
    },
    {
      "SrcState": 13,
      "DstState": 12
    },
    {
      "SrcState": 12,
      "DstState": 11
    },
    {
      "SrcState": 11,
      "DstState": 10
    }
  ],
  "ValueSource": {},
  "ConflictIDList": [],
  "IsHoyoGroup": true,
  "ConflictWhiteList": [],
  "TagContainer": {},
  "AnchorList": [
    {
      "ID": 1,
      "PosX": 456.5113,
      "PosY": -0.793783,
      "PosZ": 757.4789,
      "Name": "SnapCamera",
      "RotY": 2.0E-5,
      "RotX": 10.00002,
      "RotZ": 3.0E-6,
      "Usage": "Camera",
      "CustomParameter": {
        "$type": "LevelAnchorCameraParameter",
        "fov": 40.0
      }
    },
    {
      "ID": 2,
      "PosX": 456.5113,
      "PosY": -0.793783,
      "PosZ": 757.4789,
      "Name": "GameplayCamera",
      "RotY": 2.0E-5,
      "RotX": 10.00002,
      "RotZ": 3.0E-6,
      "Usage": "Camera",
      "CustomParameter": {
        "$type": "LevelAnchorCameraParameter",
        "fov": 40.0
      }
    },
    {
      "ID": 3,
      "Name": "Anchor3"
    },
    {
      "ID": 4,
      "PosX": 456.5113,
      "PosY": -0.793783,
      "PosZ": 757.4789,
      "Name": "GameplayCamera2",
      "RotY": 2.0E-5,
      "RotX": 10.00002,
      "RotZ": 3.0E-6,
      "Usage": "Camera",
      "CustomParameter": {
        "$type": "LevelAnchorCameraParameter",
        "fov": 50.0
      }
    }
  ],
  "MonsterList": [],
  "PropList": [
    {
      "ID": 300001,
      "PosX": 456.5043,
      "PosY": -3.103121,
      "PosZ": 760.65,
      "Name": "JigsawSir",
      "RotY": 180.0,
      "PropID": 103012,
      "ValueSource": {
        "Values": [
          {
            "$type": "SharedString",
            "Key": "PuzzleBoardPath",
            "Value": "Gameplays/JigsawPuzzle/JigsawPuzzle_P301_Mission_02_ClockBoy_Gold.prefab"
          },
          {
            "$type": "SharedString",
            "Key": "PuzzleCameraAnchor",
            "Value": "LevelArea_P20331_F20331001_G200,GameplayCamera"
          },
          {
            "$type": "SharedString",
            "Key": "JigsawResult_String",
            "Value": "JigsawPuzzle_Complete"
          },
          {
            "$type": "SharedString",
            "Key": "SnapCamera",
            "Value": "LevelArea_P20331_F20331001_G200,SnapCamera"
          },
          {
            "$type": "SharedFloat",
            "Key": "IsH"
          },
          {
            "$type": "SharedString",
            "Key": "PoseType",
            "Value": "V2_0M7_10"
          },
          {
            "$type": "SharedString",
            "Key": "PuzzleCameraAnchor2",
            "Value": "LevelArea_P20331_F20331001_G200,GameplayCamera2"
          },
          {
            "$type": "SharedFloat",
            "Key": "UseToast"
          },
          {
            "$type": "SharedFloat",
            "Key": "AutoInit"
          }
        ]
      },
      "CampID": 4,
      "State": "TriggerEnable",
      "CustomTriggerMap": {},
      "CustomTriggerMapV2": {},
      "BridgeStateRotations": [],
      "MappingInfoID": 10061,
      "DialogueGroups": [],
      "TalkDialogGroupIDList": [],
      "ServerInteractVerificationIDList": [],
      "OverrideMapStateIcons": [
        {
          "State": "TriggerDisable",
          "IconID": 89
        },
        {
          "State": "TriggerEnable",
          "IconID": 89
        },
        {
          "State": "Locked",
          "IconID": 89
        },
        {
          "State": "Open",
          "IconID": 89
        }
      ],
      "TriggerValidGuest": {},
      "TagContainer": {},
      "CameraCenterEntityList": [],
      "SpawnConfig": {
        "EntitySpawnConfig": {}
      }
    },
    {
      "ID": 300002,
      "PosX": 456.5043,
      "PosY": -3.103121,
      "PosZ": 760.65,
      "Name": "JigsawPiece1",
      "PropID": 103109,
      "ValueSource": {
        "Values": [
          {
            "$type": "SharedString",
            "Key": "ListenTriggerCustomString",
            "Value": "Mission_777_1"
          },
          {
            "$type": "SharedFloat",
            "Key": "ControlByMission"
          },
          {
            "$type": "SharedFloat",
            "Key": "EffIndex",
            "Value": 1.0
          }
        ]
      },
      "CampID": 4,
      "CustomTriggerMap": {},
      "CustomTriggerMapV2": {},
      "BridgeStateRotations": [],
      "DialogueGroups": [],
      "TalkDialogGroupIDList": [],
      "ServerInteractVerificationIDList": [],
      "TriggerValidGuest": {},
      "TagContainer": {},
      "CameraCenterEntityList": [],
      "SpawnConfig": {
        "EntitySpawnConfig": {}
      }
    },
    {
      "ID": 300003,
      "PosX": 456.5043,
      "PosY": -3.103121,
      "PosZ": 760.65,
      "Name": "JigsawPiece2",
      "PropID": 103109,
      "ValueSource": {
        "Values": [
          {
            "$type": "SharedString",
            "Key": "ListenTriggerCustomString",
            "Value": "Mission_777_2"
          },
          {
            "$type": "SharedFloat",
            "Key": "ControlByMission"
          },
          {
            "$type": "SharedFloat",
            "Key": "EffIndex",
            "Value": 2.0
          }
        ]
      },
      "CampID": 4,
      "CustomTriggerMap": {},
      "CustomTriggerMapV2": {},
      "BridgeStateRotations": [],
      "DialogueGroups": [],
      "TalkDialogGroupIDList": [],
      "ServerInteractVerificationIDList": [],
      "TriggerValidGuest": {},
      "TagContainer": {},
      "CameraCenterEntityList": [],
      "SpawnConfig": {
        "EntitySpawnConfig": {}
      }
    },
    {
      "ID": 300004,
      "PosX": 456.5043,
      "PosY": -3.103121,
      "PosZ": 760.65,
      "Name": "JigsawPiece3",
      "PropID": 103109,
      "ValueSource": {
        "Values": [
          {
            "$type": "SharedString",
            "Key": "ListenTriggerCustomString",
            "Value": "Mission_id_piece"
          },
          {
            "$type": "SharedFloat",
            "Key": "ControlByMission"
          },
          {
            "$type": "SharedFloat",
            "Key": "EffIndex",
            "Value": 3.0
          }
        ]
      },
      "CampID": 4,
      "CustomTriggerMap": {},
      "CustomTriggerMapV2": {},
      "BridgeStateRotations": [],
      "DialogueGroups": [],
      "TalkDialogGroupIDList": [],
      "ServerInteractVerificationIDList": [],
      "TriggerValidGuest": {},
      "TagContainer": {},
      "CameraCenterEntityList": [],
      "SpawnConfig": {
        "EntitySpawnConfig": {}
      }
    },
    {
      "ID": 300005,
      "PosX": 456.5043,
      "PosY": -3.103121,
      "PosZ": 760.65,
      "IsDelete": true,
      "Name": "JigsawResult_Controller",
      "PropID": 100,
      "IsOverrideInitLevelGraph": true,
      "InitLevelGraph": "Config/Level/Props/Chap03/InitLevelGraph_Prop_Chap03_JigsawPuzzle_SimpleResultController.json",
      "ValueSource": {
        "Values": [
          {
            "$type": "SharedString",
            "Key": "TargetProp"
          },
          {
            "$type": "SharedFloat",
            "Key": "HandleTrigger"
          }
        ]
      },
      "CampID": 4,
      "CustomTriggerMap": {},
      "CustomTriggerMapV2": {},
      "BridgeStateRotations": [],
      "DialogueGroups": [],
      "TalkDialogGroupIDList": [],
      "ServerInteractVerificationIDList": [],
      "TriggerValidGuest": {},
      "TagContainer": {},
      "CameraCenterEntityList": [],
      "SpawnConfig": {
        "EntitySpawnConfig": {}
      }
    }
  ],
  "NPCList": []
}