{
  "GroupGUID": "cb45941c-b162-4d1d-8df1-81ca828e0bed",
  "GroupName": "MainMission1032901_18",
  "Category": "Mission",
  "LevelGraph": "Config/Level/GroupGraph/F20331001/Group_F20331001_G370.json",
  "AreaAnchorName": "LevelArea_P20331_F20331001_G370",
  "SaveType": "Reset",
  "OwnerMainMissionID": 1032901,
  "ValueSource": {},
  "ConflictIDList": [],
  "IsHoyoGroup": true,
  "ConflictWhiteList": [],
  "TagContainer": {},
  "AnchorList": [
    {
      "ID": 1,
      "PosX": 185.4362,
      "PosY": -24.58591,
      "PosZ": 236.6536,
      "Name": "Anchor1"
    }
  ],
  "MonsterList": [],
  "PropList": [],
  "NPCList": [
    {
      "ID": 400001,
      "PosX": 232.275,
      "PosY": -27.89952,
      "PosZ": 258.793,
      "Name": "NPC1",
      "RotY": 184.9429,
      "NPCID": 1310,
      "ValueSource": {},
      "DialogueGroups": [],
      "ServerInteractVerificationIDList": [],
      "BoardShowList": [],
      "TalkDialogGroupIDList": [],
      "DefaultIdleFreeStyleMotionID": 313100000,
      "InitialHiddenNodeList": [],
      "Dialog": {
        "LevelGraph": "Config/Level/NPCDialogue/P20331/F20331001_G370/DialogueMain_F20331001_G370_N400001.json",
        "PackList": []
      },
      "TagContainer": {},
      "CameraCenterEntityList": [],
      "SpawnConfig": {
        "EntitySpawnConfig": {}
      },
      "TriggerValidGuest": {}
    },
    {
      "ID": 400002,
      "PosX": 232.897,
      "PosY": -27.89952,
      "PosZ": 257.601,
      "Name": "NPC2",
      "RotY": 318.6251,
      "NPCID": 1001,
      "ValueSource": {},
      "DialogueGroups": [],
      "ServerInteractVerificationIDList": [],
      "BoardShowList": [],
      "TalkDialogGroupIDList": [],
      "DefaultIdleFreeStyleMotionID": 310010000,
      "InitialHiddenNodeList": [],
      "Dialog": {
        "LevelGraph": "Config/Level/NPCDialogue/P20331/F20331001_G370/DialogueMain_F20331001_G370_N400002.json",
        "PackList": []
      },
      "TagContainer": {},
      "CameraCenterEntityList": [],
      "SpawnConfig": {
        "EntitySpawnConfig": {}
      },
      "TriggerValidGuest": {}
    },
    {
      "ID": 400003,
      "PosX": 231.596,
      "PosY": -27.89952,
      "PosZ": 257.474,
      "Name": "NPC3",
      "RotY": 29.66141,
      "NPCID": 1003,
      "ValueSource": {},
      "DialogueGroups": [],
      "ServerInteractVerificationIDList": [],
      "BoardShowList": [],
      "TalkDialogGroupIDList": [],
      "DefaultIdleFreeStyleMotionID": 310030000,
      "InitialHiddenNodeList": [],
      "Dialog": {
        "LevelGraph": "Config/Level/NPCDialogue/P20331/F20331001_G370/DialogueMain_F20331001_G370_N400003.json",
        "PackList": []
      },
      "TagContainer": {},
      "CameraCenterEntityList": [],
      "SpawnConfig": {
        "EntitySpawnConfig": {}
      },
      "TriggerValidGuest": {}
    }
  ]
}