{
  "GroupGUID": "04bb062c-997d-40e7-9c07-4b5aaafd29a9",
  "GroupName": "Elevator",
  "LevelGraph": "Config/Level/GroupGraph/F20331001/Group_F20331001_G112.json",
  "AreaAnchorName": "LevelArea_P20331_F20331001_G112",
  "SaveDimensionFilter": {},
  "SavedValueCondition": {
    "Conditions": [
      {
        "SavedValueName": "B1MonsterWave",
        "Operation": "Equal",
        "Value": 4
      }
    ],
    "Operation": "And"
  },
  "LoadSide": "Server",
  "LoadOnInitial": true,
  "GroupStateList": [
    {
      "Comment": "1层到2层",
      "DstState": 1
    },
    {
      "Comment": "1层到3层",
      "DstState": 2
    },
    {
      "Comment": "1层到4层",
      "DstState": 3
    },
    {
      "Comment": "锁在1层",
      "DstState": 4
    },
    {
      "Comment": "2层到1层",
      "SrcState": 1
    },
    {
      "Comment": "2层到3层",
      "SrcState": 1,
      "DstState": 2
    },
    {
      "Comment": "2层到4层",
      "SrcState": 1,
      "DstState": 3
    },
    {
      "Comment": "锁在2层",
      "SrcState": 1,
      "DstState": 5
    },
    {
      "Comment": "3层到1层",
      "SrcState": 2
    },
    {
      "Comment": "3层到2层",
      "SrcState": 2,
      "DstState": 1
    },
    {
      "Comment": "3层到4层",
      "SrcState": 2,
      "DstState": 3
    },
    {
      "Comment": "锁在3层",
      "SrcState": 2,
      "DstState": 6
    },
    {
      "Comment": "4层到1层",
      "SrcState": 3
    },
    {
      "Comment": "4层到2层",
      "SrcState": 3,
      "DstState": 1
    },
    {
      "Comment": "4层到3层",
      "SrcState": 3,
      "DstState": 2
    },
    {
      "Comment": "锁在4层",
      "SrcState": 3,
      "DstState": 7
    },
    {
      "Comment": "解锁在1层",
      "SrcState": 4
    },
    {
      "Comment": "解锁在2层",
      "SrcState": 5,
      "DstState": 1
    },
    {
      "Comment": "解锁在3层",
      "SrcState": 6,
      "DstState": 2
    },
    {
      "Comment": "解锁在4层",
      "SrcState": 7,
      "DstState": 3
    }
  ],
  "ValueSource": {
    "Values": [
      {
        "$type": "SharedString",
        "Key": "1stFloorAnchor",
        "Value": "LevelArea_P20331_F20331001_G112,4thFloorAnchor"
      },
      {
        "$type": "SharedString",
        "Key": "2ndFloorAnchor",
        "Value": "LevelArea_P20331_F20331001_G112,3rdFloorAnchor"
      },
      {
        "$type": "SharedString",
        "Key": "3rdFloorAnchor",
        "Value": "LevelArea_P20331_F20331001_G112,2ndFloorAnchor"
      },
      {
        "$type": "SharedString",
        "Key": "4thFloorAnchor",
        "Value": "LevelArea_P20331_F20331001_G112,1stFloorAnchor"
      }
    ]
  },
  "ConflictIDList": [],
  "IsHoyoGroup": true,
  "ConflictWhiteList": [],
  "TagContainer": {
    "List": []
  },
  "AnchorList": [
    {
      "ID": 1,
      "PosX": 371.39,
      "PosY": -14.98,
      "PosZ": 403.568,
      "Name": "1stFloorAnchor"
    },
    {
      "ID": 2,
      "PosX": 371.39,
      "PosY": 31.07699,
      "PosZ": 403.568,
      "Name": "2ndFloorAnchor"
    },
    {
      "ID": 3,
      "PosX": 371.39,
      "PosY": 43.07699,
      "PosZ": 403.568,
      "Name": "3rdFloorAnchor"
    },
    {
      "ID": 4,
      "PosX": 371.39,
      "PosY": 49.887,
      "PosZ": 403.568,
      "Name": "4thFloorAnchor"
    }
  ],
  "MonsterList": [],
  "PropList": [
    {
      "ID": 300001,
      "PosX": 371.39,
      "PosY": 49.92,
      "PosZ": 403.568,
      "Name": "Elevator",
      "PropID": 103135,
      "ValueSource": {
        "Values": []
      },
      "CampID": 4,
      "CustomTriggerMap": {},
      "CustomTriggerMapV2": {},
      "BridgeStateRotations": [],
      "DialogueGroups": [],
      "TalkDialogGroupIDList": [],
      "ServerInteractVerificationIDList": [],
      "IsClientOnly": true,
      "TriggerValidGuest": {},
      "TagContainer": {},
      "CameraCenterEntityList": [],
      "SpawnConfig": {
        "EntitySpawnConfig": {}
      }
    },
    {
      "ID": 300002,
      "PosX": 369.087,
      "PosY": -14.30699,
      "PosZ": 407.284,
      "Name": "ElvConsole01",
      "PropID": 103202,
      "ValueSource": {
        "Values": [
          {
            "$type": "SharedString",
            "Key": "1stFloorButtonIcon",
            "Value": "SpriteOutput/TalkIcon/TriggerProp.png"
          },
          {
            "$type": "SharedString",
            "Key": "1stFloorButtonText",
            "Value": "MazeText_Maze_GamePlay_Resha_Station_Area03_1F"
          },
          {
            "$type": "SharedUint",
            "Key": "Value1stFloor"
          },
          {
            "$type": "SharedString",
            "Key": "2ndFloorButtonIcon",
            "Value": "SpriteOutput/TalkIcon/TriggerProp.png"
          },
          {
            "$type": "SharedString",
            "Key": "2ndFloorButtonText",
            "Value": "MazeText_Maze_GamePlay_Resha_Station_Area03_0F"
          },
          {
            "$type": "SharedUint",
            "Key": "Value2ndFloor",
            "Value": 2
          },
          {
            "$type": "SharedString",
            "Key": "3rdFloorButtonIcon",
            "Value": "SpriteOutput/TalkIcon/TriggerProp.png"
          },
          {
            "$type": "SharedString",
            "Key": "3rdFloorButtonText",
            "Value": "MazeText_Maze_GamePlay_Resha_Station_Area03_-1F"
          },
          {
            "$type": "SharedUint",
            "Key": "Value3rdFloor",
            "Value": 4
          },
          {
            "$type": "SharedString",
            "Key": "SecretFloorButtonIcon",
            "Value": "SpriteOutput/TalkIcon/TriggerProp.png"
          },
          {
            "$type": "SharedString",
            "Key": "SecretFloorButtonText",
            "Value": "MazeText_Maze_GamePlay_Resha_Station_Area03_2F"
          }
        ]
      },
      "CampID": 4,
      "CustomTriggerMap": {},
      "CustomTriggerMapV2": {},
      "BridgeStateRotations": [],
      "DialogueGroups": [],
      "TalkDialogGroupIDList": [],
      "ServerInteractVerificationIDList": [],
      "IsClientOnly": true,
      "TriggerValidGuest": {},
      "TagContainer": {},
      "CameraCenterEntityList": [],
      "SpawnConfig": {
        "EntitySpawnConfig": {}
      }
    },
    {
      "ID": 300003,
      "PosX": 369.087,
      "PosY": 31.75,
      "PosZ": 407.284,
      "Name": "ElvConsole02",
      "PropID": 103202,
      "ValueSource": {
        "Values": [
          {
            "$type": "SharedString",
            "Key": "1stFloorButtonIcon",
            "Value": "SpriteOutput/TalkIcon/TriggerProp.png"
          },
          {
            "$type": "SharedString",
            "Key": "1stFloorButtonText",
            "Value": "MazeText_Maze_GamePlay_Resha_Station_Area03_1F"
          },
          {
            "$type": "SharedUint",
            "Key": "Value1stFloor"
          },
          {
            "$type": "SharedString",
            "Key": "2ndFloorButtonIcon",
            "Value": "SpriteOutput/TalkIcon/TriggerProp.png"
          },
          {
            "$type": "SharedString",
            "Key": "2ndFloorButtonText",
            "Value": "MazeText_Maze_GamePlay_Resha_Station_Area03_0F"
          },
          {
            "$type": "SharedUint",
            "Key": "Value2ndFloor",
            "Value": 2
          },
          {
            "$type": "SharedString",
            "Key": "3rdFloorButtonIcon",
            "Value": "SpriteOutput/TalkIcon/WolfBroIcon.png"
          },
          {
            "$type": "SharedString",
            "Key": "3rdFloorButtonText",
            "Value": "MazeText_Maze_GamePlay_Resha_Station_Area03_2F"
          },
          {
            "$type": "SharedUint",
            "Key": "Value3rdFloor",
            "Value": 6
          },
          {
            "$type": "SharedString",
            "Key": "SecretFloorButtonIcon",
            "Value": "SpriteOutput/TalkIcon/WolfBroIcon.png"
          },
          {
            "$type": "SharedString",
            "Key": "SecretFloorButtonText",
            "Value": "MazeText_Maze_GamePlay_Resha_Station_Area03_2F"
          }
        ]
      },
      "CampID": 4,
      "CustomTriggerMap": {},
      "CustomTriggerMapV2": {},
      "BridgeStateRotations": [],
      "DialogueGroups": [],
      "TalkDialogGroupIDList": [],
      "ServerInteractVerificationIDList": [],
      "IsClientOnly": true,
      "TriggerValidGuest": {},
      "TagContainer": {},
      "CameraCenterEntityList": [],
      "SpawnConfig": {
        "EntitySpawnConfig": {}
      }
    },
    {
      "ID": 300004,
      "PosX": 369.087,
      "PosY": 43.75,
      "PosZ": 407.284,
      "Name": "ElvConsole03",
      "PropID": 103202,
      "ValueSource": {
        "Values": [
          {
            "$type": "SharedString",
            "Key": "1stFloorButtonIcon",
            "Value": "SpriteOutput/TalkIcon/TriggerProp.png"
          },
          {
            "$type": "SharedString",
            "Key": "1stFloorButtonText",
            "Value": "MazeText_Maze_GamePlay_Resha_Station_Area03_1F"
          },
          {
            "$type": "SharedUint",
            "Key": "Value1stFloor"
          },
          {
            "$type": "SharedString",
            "Key": "2ndFloorButtonIcon",
            "Value": "SpriteOutput/TalkIcon/TriggerProp.png"
          },
          {
            "$type": "SharedString",
            "Key": "2ndFloorButtonText",
            "Value": "MazeText_Maze_GamePlay_Resha_Station_Area03_-1F "
          },
          {
            "$type": "SharedUint",
            "Key": "Value2ndFloor",
            "Value": 4
          },
          {
            "$type": "SharedString",
            "Key": "3rdFloorButtonIcon",
            "Value": "SpriteOutput/TalkIcon/WolfBroIcon.png"
          },
          {
            "$type": "SharedString",
            "Key": "3rdFloorButtonText",
            "Value": "MazeText_Maze_GamePlay_Resha_Station_Area03_2F"
          },
          {
            "$type": "SharedUint",
            "Key": "Value3rdFloor",
            "Value": 6
          },
          {
            "$type": "SharedString",
            "Key": "SecretFloorButtonIcon",
            "Value": "SpriteOutput/TalkIcon/WolfBroIcon.png"
          },
          {
            "$type": "SharedString",
            "Key": "SecretFloorButtonText",
            "Value": "MazeText_Maze_GamePlay_Resha_Station_Area03_2F"
          }
        ]
      },
      "CampID": 4,
      "CustomTriggerMap": {},
      "CustomTriggerMapV2": {},
      "BridgeStateRotations": [],
      "DialogueGroups": [],
      "TalkDialogGroupIDList": [],
      "ServerInteractVerificationIDList": [],
      "IsClientOnly": true,
      "TriggerValidGuest": {},
      "TagContainer": {},
      "CameraCenterEntityList": [],
      "SpawnConfig": {
        "EntitySpawnConfig": {}
      }
    },
    {
      "ID": 300005,
      "PosX": 369.087,
      "PosY": 50.56001,
      "PosZ": 407.284,
      "Name": "ElvConsole04",
      "PropID": 103202,
      "ValueSource": {
        "Values": [
          {
            "$type": "SharedString",
            "Key": "1stFloorButtonIcon",
            "Value": "SpriteOutput/TalkIcon/TriggerProp.png"
          },
          {
            "$type": "SharedString",
            "Key": "1stFloorButtonText",
            "Value": "MazeText_Maze_GamePlay_Resha_Station_Area03_0F"
          },
          {
            "$type": "SharedUint",
            "Key": "Value1stFloor",
            "Value": 2
          },
          {
            "$type": "SharedString",
            "Key": "2ndFloorButtonIcon",
            "Value": "SpriteOutput/TalkIcon/TriggerProp.png"
          },
          {
            "$type": "SharedString",
            "Key": "2ndFloorButtonText",
            "Value": "MazeText_Maze_GamePlay_Resha_Station_Area03_-1F "
          },
          {
            "$type": "SharedUint",
            "Key": "Value2ndFloor",
            "Value": 4
          },
          {
            "$type": "SharedString",
            "Key": "3rdFloorButtonIcon",
            "Value": "SpriteOutput/TalkIcon/WolfBroIcon.png"
          },
          {
            "$type": "SharedString",
            "Key": "3rdFloorButtonText",
            "Value": "MazeText_Maze_GamePlay_Resha_Station_Area03_2F"
          },
          {
            "$type": "SharedUint",
            "Key": "Value3rdFloor",
            "Value": 6
          },
          {
            "$type": "SharedString",
            "Key": "SecretFloorButtonIcon",
            "Value": "SpriteOutput/TalkIcon/WolfBroIcon.png"
          },
          {
            "$type": "SharedString",
            "Key": "SecretFloorButtonText",
            "Value": "MazeText_Maze_GamePlay_Resha_Station_Area03_2F"
          }
        ]
      },
      "CampID": 4,
      "CustomTriggerMap": {},
      "CustomTriggerMapV2": {},
      "BridgeStateRotations": [],
      "DialogueGroups": [],
      "TalkDialogGroupIDList": [],
      "ServerInteractVerificationIDList": [],
      "IsClientOnly": true,
      "TriggerValidGuest": {},
      "TagContainer": {},
      "CameraCenterEntityList": [],
      "SpawnConfig": {
        "EntitySpawnConfig": {}
      }
    },
    {
      "ID": 300006,
      "PosX": 371.4,
      "PosY": -14.305,
      "PosZ": 406.4,
      "Name": "Airwall01",
      "Scale": {
        "x": 1.5,
        "y": 1.5,
        "z": 0.5
      },
      "PropID": 102,
      "ValueSource": {},
      "CampID": 4,
      "CustomTriggerMap": {},
      "CustomTriggerMapV2": {},
      "BridgeStateRotations": [],
      "DialogueGroups": [],
      "TalkDialogGroupIDList": [],
      "ServerInteractVerificationIDList": [],
      "IsClientOnly": true,
      "TriggerValidGuest": {},
      "TagContainer": {},
      "CameraCenterEntityList": [],
      "SpawnConfig": {
        "EntitySpawnConfig": {}
      }
    },
    {
      "ID": 300007,
      "PosX": 371.4,
      "PosY": 31.75,
      "PosZ": 406.4,
      "Name": "Airwall02",
      "Scale": {
        "x": 1.5,
        "y": 1.5,
        "z": 0.5
      },
      "PropID": 102,
      "ValueSource": {},
      "CampID": 4,
      "CustomTriggerMap": {},
      "CustomTriggerMapV2": {},
      "BridgeStateRotations": [],
      "DialogueGroups": [],
      "TalkDialogGroupIDList": [],
      "ServerInteractVerificationIDList": [],
      "IsClientOnly": true,
      "TriggerValidGuest": {},
      "TagContainer": {},
      "CameraCenterEntityList": [],
      "SpawnConfig": {
        "EntitySpawnConfig": {}
      }
    },
    {
      "ID": 300008,
      "PosX": 371.4,
      "PosY": 43.75,
      "PosZ": 406.4,
      "Name": "Airwall03",
      "Scale": {
        "x": 1.5,
        "y": 1.5,
        "z": 0.5
      },
      "PropID": 102,
      "ValueSource": {},
      "CampID": 4,
      "CustomTriggerMap": {},
      "CustomTriggerMapV2": {},
      "BridgeStateRotations": [],
      "DialogueGroups": [],
      "TalkDialogGroupIDList": [],
      "ServerInteractVerificationIDList": [],
      "IsClientOnly": true,
      "TriggerValidGuest": {},
      "TagContainer": {},
      "CameraCenterEntityList": [],
      "SpawnConfig": {
        "EntitySpawnConfig": {}
      }
    },
    {
      "ID": 300009,
      "PosX": 371.4,
      "PosY": 50.56001,
      "PosZ": 406.4,
      "Name": "Airwall04",
      "Scale": {
        "x": 1.5,
        "y": 1.5,
        "z": 0.5
      },
      "PropID": 102,
      "ValueSource": {},
      "CampID": 4,
      "CustomTriggerMap": {},
      "CustomTriggerMapV2": {},
      "BridgeStateRotations": [],
      "DialogueGroups": [],
      "TalkDialogGroupIDList": [],
      "ServerInteractVerificationIDList": [],
      "IsClientOnly": true,
      "TriggerValidGuest": {},
      "TagContainer": {},
      "CameraCenterEntityList": [],
      "SpawnConfig": {
        "EntitySpawnConfig": {}
      }
    },
    {
      "ID": 300010,
      "PosX": 371.4,
      "PosY": 50.56001,
      "PosZ": 400.63,
      "Name": "Airwall05",
      "Scale": {
        "x": 1.5,
        "y": 1.5,
        "z": 0.5
      },
      "PropID": 102,
      "ValueSource": {},
      "CampID": 4,
      "CustomTriggerMap": {},
      "CustomTriggerMapV2": {},
      "BridgeStateRotations": [],
      "DialogueGroups": [],
      "TalkDialogGroupIDList": [],
      "ServerInteractVerificationIDList": [],
      "IsClientOnly": true,
      "TriggerValidGuest": {},
      "TagContainer": {},
      "CameraCenterEntityList": [],
      "SpawnConfig": {
        "EntitySpawnConfig": {}
      }
    }
  ],
  "NPCList": []
}