{
  "GroupGUID": "e1ab35a8-b59b-4593-a836-130caf5bf049",
  "GroupName": "Room_B3_Case2Airwalls",
  "LevelGraph": "Config/Level/GroupGraph/F20331001/Group_F20331001_G24.json",
  "AreaAnchorName": "LevelArea_P20331_F20331001_G24",
  "SaveType": "Reset",
  "SavedValueCondition": {
    "Conditions": [],
    "Operation": "And"
  },
  "LoadOnInitial": true,
  "ValueSource": {},
  "ConflictIDList": [],
  "IsHoyoGroup": true,
  "StreamingTemplateType": "None",
  "ConflictWhiteList": [],
  "TagContainer": {},
  "AnchorList": [],
  "MonsterList": [],
  "PropList": [
    {
      "ID": 300001,
      "PosX": 425.48,
      "PosY": -18.87815,
      "PosZ": 843.45,
      "Name": "wall1",
      "Scale": {
        "x": 1.83388,
        "y": 1.0,
        "z": 1.0
      },
      "PropID": 103040,
      "ValueSource": {
        "Values": []
      },
      "CampID": 4,
      "State": "Open",
      "CustomTriggerMap": {},
      "CustomTriggerMapV2": {},
      "BridgeStateRotations": [],
      "DialogueGroups": [],
      "TalkDialogGroupIDList": [],
      "ServerInteractVerificationIDList": [],
      "TriggerValidGuest": {},
      "TagContainer": {},
      "CameraCenterEntityList": [],
      "SpawnConfig": {
        "EntitySpawnConfig": {}
      }
    },
    {
      "ID": 300002,
      "PosX": 436.78,
      "PosY": -15.73501,
      "PosZ": 812.2,
      "Name": "wall2",
      "RotY": 270.0,
      "Scale": {
        "x": 0.858089,
        "y": 1.0,
        "z": 1.0
      },
      "PropID": 103040,
      "ValueSource": {
        "Values": []
      },
      "CampID": 4,
      "State": "Open",
      "CustomTriggerMap": {},
      "CustomTriggerMapV2": {},
      "BridgeStateRotations": [],
      "DialogueGroups": [],
      "TalkDialogGroupIDList": [],
      "ServerInteractVerificationIDList": [],
      "TriggerValidGuest": {},
      "TagContainer": {},
      "CameraCenterEntityList": [],
      "SpawnConfig": {
        "EntitySpawnConfig": {}
      }
    },
    {
      "ID": 300003,
      "PosX": 415.09,
      "PosY": -18.86533,
      "PosZ": 839.86,
      "Name": "wall3",
      "RotY": 90.0,
      "Scale": {
        "x": 0.992279,
        "y": 1.0,
        "z": 1.0
      },
      "PropID": 103040,
      "ValueSource": {
        "Values": []
      },
      "CampID": 4,
      "State": "Open",
      "CustomTriggerMap": {},
      "CustomTriggerMapV2": {},
      "BridgeStateRotations": [],
      "DialogueGroups": [],
      "TalkDialogGroupIDList": [],
      "ServerInteractVerificationIDList": [],
      "TriggerValidGuest": {},
      "TagContainer": {},
      "CameraCenterEntityList": [],
      "SpawnConfig": {
        "EntitySpawnConfig": {}
      }
    }
  ],
  "NPCList": []
}