{
  "GroupGUID": "aeae7516-1625-49a1-9f53-f77fc539e4a2",
  "GroupName": "MainMission8022402_New Group",
  "Category": "Mission",
  "LevelGraph": "Config/Level/GroupGraph/F20331001/Group_F20331001_G279.json",
  "AreaAnchorName": "LevelArea_P20331_F20331001_G279",
  "SaveType": "Reset",
  "OwnerMainMissionID": 8022402,
  "ValueSource": {},
  "ConflictIDList": [],
  "IsHoyoGroup": true,
  "ConflictWhiteList": [],
  "TagContainer": {},
  "AnchorList": [],
  "MonsterList": [],
  "PropList": [],
  "NPCList": []
}