{
  "GroupGUID": "9d082de9-f6be-4c88-8af2-cbe513467104",
  "GroupName": "MainMission1032801_05",
  "Category": "Mission",
  "LevelGraph": "Config/Level/GroupGraph/F20331001/Group_F20331001_G92.json",
  "AreaAnchorName": "LevelArea_P20331_F20331001_G92",
  "SaveType": "Reset",
  "OwnerMainMissionID": 1032801,
  "ValueSource": {},
  "ConflictIDList": [],
  "IsHoyoGroup": true,
  "ConflictWhiteList": [],
  "TagContainer": {},
  "AnchorList": [],
  "MonsterList": [],
  "PropList": [],
  "NPCList": []
}