{
  "GroupGUID": "94171e4f-5509-4b65-bb00-1116b32225a9",
  "GroupName": "Room_B3_IsoCam01_StaticConnector",
  "AreaAnchorName": "LevelArea_P20331_F20331001_G15",
  "SaveType": "Reset",
  "SavedValueCondition": {
    "Conditions": [],
    "Operation": "And"
  },
  "LoadOnInitial": true,
  "ValueSource": {},
  "ConflictIDList": [],
  "IsHoyoGroup": true,
  "StreamingTemplateType": "None",
  "ConflictWhiteList": [],
  "TagContainer": {},
  "AnchorList": [],
  "MonsterList": [],
  "PropList": [
    {
      "ID": 300001,
      "PosX": 338.281,
      "PosY": 42.926,
      "PosZ": 802.689,
      "Name": "Prop1",
      "RotY": 90.0,
      "Scale": {
        "x": 6.0,
        "y": 1.0,
        "z": 1.0
      },
      "PropID": 103115,
      "ValueSource": {
        "Values": [
          {
            "$type": "SharedString",
            "Key": "IsoCamera",
            "Value": "LevelArea_P20331_F20331001_G11,cam"
          },
          {
            "$type": "SharedFloat",
            "Key": "DiffHeight",
            "Value": -68.503
          }
        ]
      },
      "CampID": 4,
      "State": "Open",
      "CustomTriggerMap": {},
      "CustomTriggerMapV2": {},
      "BridgeStateRotations": [],
      "DialogueGroups": [],
      "TalkDialogGroupIDList": [],
      "ServerInteractVerificationIDList": [],
      "TriggerValidGuest": {},
      "TagContainer": {},
      "CameraCenterEntityList": [],
      "SpawnConfig": {
        "EntitySpawnConfig": {}
      }
    }
  ],
  "NPCList": []
}