{
  "GroupGUID": "0a03fdc8-b698-43ce-af2e-a454db7f7e6f",
  "GroupName": "MainMission1032801_10",
  "Category": "Mission",
  "LevelGraph": "Config/Level/GroupGraph/F20331001/Group_F20331001_G129.json",
  "AreaAnchorName": "LevelArea_P20331_F20331001_G129",
  "SaveType": "Reset",
  "OwnerMainMissionID": 1032801,
  "ValueSource": {},
  "ConflictIDList": [],
  "IsHoyoGroup": true,
  "ConflictWhiteList": [],
  "TagContainer": {},
  "AnchorList": [
    {
      "ID": 1,
      "PosX": 232.59,
      "PosY": -27.96946,
      "PosZ": 249.27,
      "Name": "Anchor1",
      "Usage": "Actor"
    }
  ],
  "MonsterList": [],
  "PropList": [],
  "NPCList": []
}