{
  "GroupGUID": "d43fc1b0-b078-4e4b-b96a-2839148a5566",
  "GroupName": "MainMission1032702_A11",
  "Category": "Mission",
  "LevelGraph": "Config/Level/GroupGraph/F20331001/Group_F20331001_G387.json",
  "AreaAnchorName": "LevelArea_P20331_F20331001_G387",
  "SaveType": "Reset",
  "OwnerMainMissionID": 1032702,
  "ValueSource": {
    "Values": [
      {
        "$type": "SharedString",
        "Key": "Camera",
        "Value": "LevelArea_P20331_F20331001_G387,Anchor1"
      },
      {
        "$type": "SharedString",
        "Key": "FaceTo",
        "Value": "387,300001"
      }
    ]
  },
  "ConflictIDList": [],
  "IsHoyoGroup": true,
  "ConflictWhiteList": [],
  "TagContainer": {},
  "AnchorList": [
    {
      "ID": 1,
      "PosX": -450.044,
      "PosY": -117.111,
      "PosZ": 420.485,
      "Name": "Anchor1",
      "RotY": 22.0,
      "Usage": "Camera",
      "CustomParameter": {
        "$type": "LevelAnchorCameraParameter"
      }
    },
    {
      "ID": 2,
      "PosX": -447.855,
      "PosY": -118.724,
      "PosZ": 426.875,
      "Name": "Anchor2",
      "RotY": 22.0,
      "Usage": "Actor"
    }
  ],
  "MonsterList": [],
  "PropList": [
    {
      "ID": 300001,
      "PosX": -447.59,
      "PosY": -118.05,
      "PosZ": 427.86,
      "Name": "Prop1",
      "PropID": 100,
      "ValueSource": {},
      "CampID": 4,
      "CustomTriggerMap": {},
      "CustomTriggerMapV2": {},
      "BridgeStateRotations": [],
      "DialogueGroups": [],
      "TalkDialogGroupIDList": [],
      "ServerInteractVerificationIDList": [],
      "TriggerValidGuest": {},
      "TagContainer": {},
      "CameraCenterEntityList": [],
      "SpawnConfig": {
        "EntitySpawnConfig": {}
      }
    }
  ],
  "NPCList": []
}