{
  "GroupGUID": "f1143b78-475c-4551-9ac1-476c8f917b46",
  "GroupName": "MainMission1032704_17",
  "Category": "Mission",
  "LevelGraph": "Config/Level/GroupGraph/F20331001/Group_F20331001_G366.json",
  "AreaAnchorName": "LevelArea_P20331_F20331001_G366",
  "SaveType": "Reset",
  "OwnerMainMissionID": 1032704,
  "ValueSource": {
    "Values": [
      {
        "$type": "SharedString",
        "Key": "CamAnchor1",
        "Value": "LevelArea_P20331_F20331001_G366,Anchor1"
      },
      {
        "$type": "SharedString",
        "Key": "LookAt",
        "Value": "366,300001"
      }
    ]
  },
  "ConflictIDList": [],
  "IsHoyoGroup": true,
  "ConflictWhiteList": [],
  "TagContainer": {},
  "AnchorList": [
    {
      "ID": 1,
      "PosX": -445.01,
      "PosY": 8.75,
      "PosZ": 835.912,
      "Name": "Anchor1",
      "Usage": "Camera",
      "CustomParameter": {
        "$type": "LevelAnchorCameraParameter"
      }
    }
  ],
  "MonsterList": [],
  "PropList": [
    {
      "ID": 300001,
      "PosX": -445.05,
      "PosY": 6.374623,
      "PosZ": 841.6,
      "Name": "Prop1",
      "PropID": 100,
      "ValueSource": {},
      "CampID": 4,
      "CustomTriggerMap": {},
      "CustomTriggerMapV2": {},
      "BridgeStateRotations": [],
      "DialogueGroups": [],
      "TalkDialogGroupIDList": [],
      "ServerInteractVerificationIDList": [],
      "TriggerValidGuest": {},
      "TagContainer": {},
      "CameraCenterEntityList": [],
      "SpawnConfig": {
        "EntitySpawnConfig": {}
      }
    }
  ],
  "NPCList": []
}