{
  "GroupGUID": "e299d1af-78eb-4329-827f-6888203dc839",
  "GroupName": "MainMission1032702_A12",
  "Category": "Mission",
  "LevelGraph": "Config/Level/GroupGraph/F20331001/Group_F20331001_G391.json",
  "AreaAnchorName": "LevelArea_P20331_F20331001_G391",
  "SaveType": "Reset",
  "OwnerMainMissionID": 1032702,
  "ValueSource": {
    "Values": [
      {
        "$type": "SharedString",
        "Key": "Camera",
        "Value": "LevelArea_P20331_F20331001_G391,Anchor1"
      },
      {
        "$type": "SharedString",
        "Key": "FaceTo",
        "Value": "391,300001"
      }
    ]
  },
  "ConflictIDList": [],
  "IsHoyoGroup": true,
  "ConflictWhiteList": [],
  "TagContainer": {},
  "AnchorList": [
    {
      "ID": 1,
      "PosX": -429.863,
      "PosY": -114.477,
      "PosZ": 435.662,
      "Name": "Anchor1",
      "RotY": 8.938131,
      "Usage": "Camera",
      "CustomParameter": {
        "$type": "LevelAnchorCameraParameter"
      }
    },
    {
      "ID": 2,
      "PosX": -427.464,
      "PosY": -116.5042,
      "PosZ": 445.622,
      "Name": "Anchor2",
      "RotY": 22.0,
      "Usage": "Actor"
    }
  ],
  "MonsterList": [],
  "PropList": [
    {
      "ID": 300001,
      "PosX": -428.02,
      "PosY": -116.576,
      "PosZ": 444.33,
      "Name": "Prop1",
      "PropID": 100,
      "ValueSource": {},
      "CampID": 4,
      "CustomTriggerMap": {},
      "CustomTriggerMapV2": {},
      "BridgeStateRotations": [],
      "DialogueGroups": [],
      "TalkDialogGroupIDList": [],
      "ServerInteractVerificationIDList": [],
      "TriggerValidGuest": {},
      "TagContainer": {},
      "CameraCenterEntityList": [],
      "SpawnConfig": {
        "EntitySpawnConfig": {}
      }
    }
  ],
  "NPCList": []
}