{
  "GroupGUID": "a9354118-e76a-4bf1-938c-9cce2c0a95b0",
  "GroupName": "ClockToy",
  "AreaAnchorName": "LevelArea_P20331_F20331001_G218",
  "SaveDimensionFilter": {},
  "SavedValueCondition": {
    "Conditions": [],
    "Operation": "And"
  },
  "LoadSide": "Server",
  "LoadOnInitial": true,
  "ValueSource": {},
  "ConflictIDList": [],
  "IsHoyoGroup": true,
  "HoYoGroupType": "Container",
  "ConflictWhiteList": [],
  "TagContainer": {},
  "AnchorList": [],
  "MonsterList": [],
  "PropList": [
    {
      "ID": 300001,
      "PosX": -452.5718,
      "PosY": -109.5164,
      "PosZ": 499.4008,
      "Name": "Entrance",
      "RotY": 180.0,
      "PropID": 103018,
      "ValueSource": {
        "Values": [
          {
            "$type": "SharedString",
            "Key": "PuzzlePrefabRef",
            "Value": "Gameplays/ClockBox/ClockBoxPuzzles/ClockBox_Standard_G_01.prefab"
          },
          {
            "$type": "SharedString",
            "Key": "ControlledPawnKey",
            "Value": ",400001"
          },
          {
            "$type": "SharedString",
            "Key": "PerformanceID_01",
            "Value": "703030107"
          },
          {
            "$type": "SharedString",
            "Key": "PerformanceID_02",
            "Value": "703030108"
          }
        ]
      },
      "CampID": 4,
      "State": "ChestLocked",
      "CustomTriggerMap": {},
      "CustomTriggerMapV2": {},
      "BridgeStateRotations": [],
      "ChestID": 20331654,
      "MappingInfoID": 10060,
      "DialogueGroups": [],
      "TalkDialogGroupIDList": [],
      "ServerInteractVerificationIDList": [],
      "TriggerValidGuest": {},
      "TagContainer": {},
      "CameraCenterEntityList": [],
      "SpawnConfig": {
        "EntitySpawnConfig": {}
      }
    }
  ],
  "NPCList": [
    {
      "ID": 400001,
      "IsDelete": true,
      "Name": "ClockKid",
      "NPCID": 3102,
      "ValueSource": {},
      "DialogueGroups": [],
      "ServerInteractVerificationIDList": [],
      "BoardShowList": [],
      "TalkDialogGroupIDList": [],
      "DefaultIdleFreeStyleMotionID": 900160000,
      "InitialHiddenNodeList": [],
      "TagContainer": {},
      "CameraCenterEntityList": [],
      "SpawnConfig": {
        "EntitySpawnConfig": {},
        "CaptureDistanceTolerance": 10.0
      },
      "TriggerValidGuest": {}
    }
  ]
}