{
  "GroupGUID": "7d2ded00-3b73-4c3e-b109-a73421f576f6",
  "GroupName": "MainMission8022402_New Group",
  "Category": "Mission",
  "AreaAnchorName": "LevelArea_P20331_F20331001_G289",
  "SaveType": "Reset",
  "OwnerMainMissionID": 8022402,
  "ValueSource": {},
  "ConflictIDList": [],
  "IsHoyoGroup": true,
  "HoYoGroupType": "Container",
  "ConflictWhiteList": [],
  "TagContainer": {},
  "AnchorList": [
    {
      "ID": 1,
      "PosX": 232.593,
      "PosY": -24.13644,
      "PosZ": 188.421,
      "Name": "Anchor1"
    }
  ],
  "MonsterList": [],
  "PropList": [],
  "NPCList": []
}