{
  "GroupGUID": "effade56-77fc-4d21-8b66-edf2a28c770d",
  "GroupName": "DefaultMonster",
  "AreaAnchorName": "LevelArea_P20331_F20331001_G207",
  "SaveDimensionFilter": {},
  "SavedValueCondition": {
    "Conditions": [
      {
        "SavedValueName": "SceneStateByMainMission",
        "Operation": "Equal",
        "Value": 1
      }
    ],
    "Operation": "And"
  },
  "LoadSide": "Server",
  "GroupRefreshID": 1001,
  "ValueSource": {},
  "ConflictIDList": [],
  "IsHoyoGroup": true,
  "ConflictWhiteList": [],
  "TagContainer": {},
  "AnchorList": [],
  "MonsterList": [
    {
      "ID": 200001,
      "PosX": -251.88,
      "PosY": -109.5167,
      "PosZ": 488.34,
      "Name": "Monster1",
      "RotY": 230.0,
      "NPCMonsterID": 3002020,
      "AIConfig": {
        "PathwayList": [
          {
            "UseOwnerGroup": true,
            "UseGroup": 207,
            "UseID": 1,
            "StartAt": 1
          }
        ],
        "SlaveConfigList": []
      },
      "AIVariableSource": {},
      "ValueSource": {},
      "CampID": 3,
      "BattleArea": {
        "GroupID": 1,
        "ID": 1
      },
      "EventID": 20331111,
      "BoardShowList": [
        4
      ],
      "TagList": [],
      "SpawnConfig": {
        "EntitySpawnConfig": {}
      },
      "TagContainer": {}
    },
    {
      "ID": 200002,
      "PosX": -250.0079,
      "PosY": -109.5167,
      "PosZ": 483.8802,
      "Name": "Monster2",
      "RotY": 260.0,
      "NPCMonsterID": 3002010,
      "AIConfig": {
        "PathwayList": [],
        "SlaveConfigList": []
      },
      "AIVariableSource": {},
      "ValueSource": {},
      "CampID": 3,
      "BattleArea": {
        "GroupID": 1,
        "ID": 1
      },
      "EventID": 20331112,
      "BoardShowList": [
        4
      ],
      "TagList": [],
      "SpawnConfig": {
        "EntitySpawnConfig": {}
      },
      "TagContainer": {}
    }
  ],
  "PropList": [],
  "NPCList": []
}