{
  "GroupGUID": "b5164b0a-9ad5-4330-8f1e-95dd682e6ff1",
  "GroupName": "MainMission8021121_NPC1",
  "Category": "Mission",
  "LevelGraph": "Config/Level/GroupGraph/F44302001/Group_F44302001_G15.json",
  "AreaAnchorName": "LevelArea_P44302_F44302001_G15",
  "SaveType": "Reset",
  "OwnerMainMissionID": 8021121,
  "ValueSource": {},
  "ConflictIDList": [],
  "IsHoyoGroup": true,
  "ConflictWhiteList": [],
  "TagContainer": {},
  "AnchorList": [],
  "MonsterList": [],
  "PropList": [
    {
      "ID": 300001,
      "PosX": 72.55,
      "PosY": 98.0,
      "PosZ": 81.57,
      "Name": "Prop1",
      "PropID": 100,
      "ValueSource": {},
      "CampID": 4,
      "CustomTriggerMap": {},
      "CustomTriggerMapV2": {
        "MissionTrigger": {
          "Radius": 3.0,
          "PointList": []
        }
      },
      "BridgeStateRotations": [],
      "DialogueGroups": [],
      "TalkDialogGroupIDList": [],
      "ServerInteractVerificationIDList": [],
      "TriggerValidGuest": {},
      "TagContainer": {},
      "CameraCenterEntityList": [],
      "SpawnConfig": {
        "EntitySpawnConfig": {}
      }
    },
    {
      "ID": 300002,
      "PosX": 72.43,
      "PosY": 99.1,
      "PosZ": 99.16,
      "Name": "Prop2",
      "RotY": 90.0,
      "PropID": 103074,
      "ValueSource": {
        "Values": [
          {
            "$type": "SharedUint",
            "Key": "SDFTextID",
            "Value": 1604222004
          },
          {
            "$type": "SharedUint",
            "Key": "AnimatorParam",
            "Value": 12
          }
        ]
      },
      "CampID": 4,
      "State": "Open",
      "CustomTriggerMap": {},
      "CustomTriggerMapV2": {},
      "BridgeStateRotations": [],
      "DialogueGroups": [],
      "TalkDialogGroupIDList": [],
      "ServerInteractVerificationIDList": [],
      "TriggerValidGuest": {},
      "TagContainer": {},
      "CameraCenterEntityList": [],
      "SpawnConfig": {
        "EntitySpawnConfig": {}
      }
    },
    {
      "ID": 300003,
      "PosX": 82.16655,
      "PosY": 99.312,
      "PosZ": 99.766,
      "Name": "Prop3",
      "RotY": 90.0,
      "PropID": 103074,
      "ValueSource": {
        "Values": [
          {
            "$type": "SharedUint",
            "Key": "SDFTextID",
            "Value": 1604222006
          },
          {
            "$type": "SharedUint",
            "Key": "AnimatorParam",
            "Value": 12
          }
        ]
      },
      "CampID": 4,
      "State": "Open",
      "CustomTriggerMap": {},
      "CustomTriggerMapV2": {},
      "BridgeStateRotations": [],
      "DialogueGroups": [],
      "TalkDialogGroupIDList": [],
      "ServerInteractVerificationIDList": [],
      "TriggerValidGuest": {},
      "TagContainer": {},
      "CameraCenterEntityList": [],
      "SpawnConfig": {
        "EntitySpawnConfig": {}
      }
    },
    {
      "ID": 300004,
      "PosX": 56.85,
      "PosY": 104.0001,
      "PosZ": 81.74248,
      "Name": "Prop4",
      "PropID": 111,
      "ValueSource": {},
      "CampID": 4,
      "CustomTriggerMap": {},
      "CustomTriggerMapV2": {
        "MissionTrigger": {
          "Radius": 2.0,
          "PointList": []
        }
      },
      "BridgeStateRotations": [],
      "DialogueGroups": [],
      "TalkDialogGroupIDList": [],
      "ServerInteractVerificationIDList": [],
      "TriggerValidGuest": {},
      "TagContainer": {},
      "CameraCenterEntityList": [],
      "SpawnConfig": {
        "EntitySpawnConfig": {}
      }
    }
  ],
  "NPCList": [
    {
      "ID": 400001,
      "PosX": 72.55,
      "PosY": 98.0,
      "PosZ": 81.57,
      "Name": "NPC1",
      "NPCID": 2307,
      "ValueSource": {},
      "DialogueGroups": [],
      "ServerInteractVerificationIDList": [],
      "BoardShowList": [],
      "TalkDialogGroupIDList": [],
      "DefaultIdleFreeStyleMotionID": 200570000,
      "InitialHiddenNodeList": [],
      "TagContainer": {},
      "CameraCenterEntityList": [],
      "SpawnConfig": {
        "EntitySpawnConfig": {}
      },
      "TriggerValidGuest": {}
    }
  ]
}