{
  "GroupGUID": "b3300ba6-409f-4563-ad5f-f2edc59c0587",
  "GroupName": "MainMission2010904_",
  "Category": "Mission",
  "AreaAnchorName": "LevelArea_P10102_F10102004_G7",
  "SaveType": "Reset",
  "LoadCondition": {
    "Conditions": [
      {
        "Type": "SubMission",
        "ID": 201090402
      }
    ]
  },
  "UnloadCondition": {
    "Conditions": [
      {
        "Type": "SubMission",
        "Phase": "Finish",
        "ID": 201090402
      }
    ]
  },
  "OwnerMainMissionID": 2010904,
  "ConflictIDList": [],
  "AnchorList": [
    {
      "ID": 1,
      "PosX": -2.757,
      "PosY": -1.0E-6,
      "PosZ": 10.433,
      "Name": "Anchor1",
      "RotY": 222.8
    },
    {
      "ID": 2,
      "PosX": -0.365,
      "PosY": 2.984,
      "PosZ": 7.935,
      "Name": "Anchor2",
      "RotY": 300.0523,
      "RotX": 28.61898,
      "RotZ": 0.117916,
      "Usage": "Camera"
    }
  ],
  "MonsterList": [],
  "PropList": [],
  "NPCList": [
    {
      "ID": 400001,
      "PosX": -3.903,
      "PosY": 0.044443,
      "PosZ": 9.653,
      "Name": "NPC1",
      "RotY": 89.35,
      "NPCID": 2109,
      "DialogueGroups": [
        201090402
      ],
      "ServerInteractVerificationIDList": [],
      "DefaultLookAtMode": "Closed",
      "BoardShowList": [
        1,
        4,
        64
      ],
      "OverrideNPCName": {
        "Hash": 1698982860
      },
      "TalkDialogGroupIDList": [],
      "DefaultIdleFreeStyleMotionID": 200500000,
      "OverrideSeriesID": 210901,
      "InitialHiddenNodeList": [],
      "Dialog": {
        "LevelGraph": "Config/Level/NPCDialogue/P10102/F10102004_G7/DialogueMain_F10102004_G7_N400001.json",
        "PackList": [],
        "EnableCondition": {
          "Conditions": [
            {
              "Type": "SubMission",
              "ID": 201090402
            }
          ]
        }
      }
    },
    {
      "ID": 400002,
      "PosX": -3.498,
      "PosY": 0.044444,
      "PosZ": 8.014,
      "Name": "NPC2",
      "RotY": 333.9,
      "NPCID": 2102,
      "DialogueGroups": [],
      "ServerInteractVerificationIDList": [],
      "DefaultLookAtMode": "Closed",
      "BoardShowList": [
        4
      ],
      "OverrideNPCName": {
        "Hash": 1698982862
      },
      "TalkDialogGroupIDList": [],
      "DefaultIdleFreeStyleMotionID": 200510000,
      "InitialHiddenNodeList": []
    },
    {
      "ID": 400003,
      "PosX": -3.688,
      "PosY": 0.044443,
      "PosZ": 9.5,
      "Name": "NPC3",
      "RotY": 89.35,
      "NPCID": 2109,
      "DialogueGroups": [],
      "ServerInteractVerificationIDList": [],
      "DefaultIdleStateName": "Maze_StandBy_01",
      "DefaultLookAtMode": "Closed",
      "BoardShowList": [
        1,
        4,
        64
      ],
      "OverrideNPCName": {
        "Hash": 1698982860
      },
      "TalkDialogGroupIDList": [],
      "DefaultIdleFreeStyleMotionID": 200500214,
      "OverrideSeriesID": 210901,
      "InitialHiddenNodeList": []
    }
  ]
}