{
  "GroupGUID": "b9fc80ab-f3ca-44ea-ae48-b424e5e037ff",
  "GroupName": "RogueTemplate210_BaseTripleMonster_Event",
  "Category": "Custom",
  "AreaAnchorName": "LevelArea_P81311_F81311001_G93",
  "SaveDimensionFilter": {},
  "LoadSide": "Server",
  "ValueSource": {},
  "ConflictIDList": [],
  "IsHoyoGroup": true,
  "ConflictWhiteList": [],
  "TagContainer": {},
  "AnchorList": [],
  "MonsterList": [],
  "PropList": [],
  "NPCList": [
    {
      "ID": 400001,
      "PosX": 150.343,
      "PosY": 47.05,
      "PosZ": -273.12,
      "Name": "NPC1",
      "RotY": 345.0,
      "NPCID": 3013,
      "LevelGraph": "Config/Level/Maze/MazeRogue/Maze_Rogue_NPC_EventPainting.json",
      "ValueSource": {},
      "DialogueGroups": [],
      "ServerInteractVerificationIDList": [],
      "BoardShowList": [],
      "TalkDialogGroupIDList": [],
      "DefaultAnimationType": "IdleState",
      "IsMapContent": true,
      "MiniMapIconType": 55,
      "InitialHiddenNodeList": [],
      "Dialog": {
        "PackList": []
      },
      "TagContainer": {},
      "CameraCenterEntityList": [],
      "SpawnConfig": {
        "EntitySpawnConfig": {}
      },
      "TriggerValidGuest": {}
    }
  ]
}