{
  "GroupGUID": "06b22e7e-f8c5-4ccc-88a8-5825c23fc7f1",
  "GroupName": "MainMission1030501_06",
  "Category": "Mission",
  "LevelGraph": "Config/Level/GroupGraph/F20312001/Group_F20312001_G102.json",
  "AreaAnchorName": "LevelArea_P20312_F20312001_G102",
  "SaveType": "Reset",
  "OwnerMainMissionID": 1030501,
  "ValueSource": {},
  "ConflictIDList": [],
  "IsHoyoGroup": true,
  "ConflictWhiteList": [],
  "TagContainer": {},
  "AnchorList": [
    {
      "ID": 1,
      "PosX": -117.436,
      "PosY": 11.563,
      "PosZ": -127.608,
      "Name": "Anchor1"
    }
  ],
  "MonsterList": [],
  "PropList": [
    {
      "ID": 300001,
      "PosX": -117.85,
      "PosY": 11.5106,
      "PosZ": -157.97,
      "Name": "Prop1",
      "PropID": 100,
      "IsOverrideInitLevelGraph": true,
      "ValueSource": {},
      "Trigger": {
        "Shape": "Box",
        "Radius": 1.0,
        "DimX": 20.0,
        "DimY": 1.0,
        "DimZ": 3.0,
        "PointList": []
      },
      "CampID": 4,
      "CustomTriggerMap": {},
      "CustomTriggerMapV2": {},
      "BridgeStateRotations": [],
      "DialogueGroups": [],
      "TalkDialogGroupIDList": [],
      "ServerInteractVerificationIDList": [],
      "TriggerValidGuest": {},
      "TagContainer": {},
      "CameraCenterEntityList": [],
      "SpawnConfig": {
        "EntitySpawnConfig": {}
      }
    }
  ],
  "NPCList": []
}