{
  "GroupGUID": "029b7047-be99-4b08-b54d-30693ebdfea4",
  "GroupName": "BAT_Prop",
  "Category": "BattleProps",
  "AreaAnchorName": "LevelArea_P43322_F43322002_G10",
  "SaveType": "Reset",
  "LoadOnInitial": true,
  "ValueSource": {},
  "ConflictIDList": [],
  "HoYoGroupType": "Container",
  "ConflictWhiteList": [],
  "TagContainer": {},
  "AnchorList": [],
  "MonsterList": [],
  "PropList": [
    {
      "ID": 300001,
      "PosX": -0.016613,
      "PosY": 3.51564,
      "PosZ": 26.60809,
      "Name": "Prop1",
      "RotY": 90.13084,
      "PropID": 103098,
      "ValueSource": {
        "Values": [
          {
            "$type": "SharedUint",
            "Key": "MenuID",
            "Value": 16
          }
        ]
      },
      "CampID": 4,
      "CustomTriggerMap": {},
      "CustomTriggerMapV2": {},
      "BridgeStateRotations": [],
      "DialogueGroups": [],
      "TalkDialogGroupIDList": [],
      "ServerInteractVerificationIDList": [],
      "StageObjectCapture": {
        "BlockAlias": "Chap03_CloseView_BAT_P201_Boss_BlockData",
        "PrefabAlias": "BAT_BigScreen_0"
      },
      "TriggerValidGuest": {},
      "TagContainer": {},
      "CameraCenterEntityList": [],
      "SpawnConfig": {
        "EntitySpawnConfig": {}
      }
    }
  ],
  "NPCList": []
}