{
  "GroupGUID": "cac42e65-3921-4ce3-9501-5536af03c38c",
  "GroupName": "PinBall_4",
  "AreaAnchorName": "LevelArea_P43322_F43322002_G6",
  "SavedValueCondition": {
    "Conditions": [],
    "Operation": "And"
  },
  "LoadSide": "Server",
  "LoadOnInitial": true,
  "ValueSource": {},
  "ConflictIDList": [],
  "IsHoyoGroup": true,
  "ConflictWhiteList": [],
  "TagContainer": {},
  "AnchorList": [
    {
      "ID": 1,
      "PosX": -100.961,
      "PosY": 88.854,
      "PosZ": -86.355,
      "Name": "PinBallCam_Setting",
      "RotY": 288.9476,
      "RotX": 58.2793,
      "RotZ": 0.0101,
      "Usage": "Camera",
      "CustomParameter": {
        "$type": "LevelAnchorCameraParameter",
        "fov": 60.0
      }
    },
    {
      "ID": 2,
      "PosX": -121.823,
      "PosY": 56.107,
      "PosZ": -107.298,
      "Name": "PinballCam_Start_Station_1",
      "RotY": 8.0066,
      "RotX": 351.0974,
      "RotZ": 0.003078,
      "Usage": "Camera",
      "CustomParameter": {
        "$type": "LevelAnchorCameraParameter"
      }
    },
    {
      "ID": 3,
      "PosX": -131.08,
      "PosY": 62.33,
      "PosZ": -48.85,
      "Name": "PinballCam_Start_Station_2",
      "RotY": 153.9389,
      "RotX": 347.0986,
      "RotZ": 0.003151,
      "Usage": "Camera",
      "CustomParameter": {
        "$type": "LevelAnchorCameraParameter"
      }
    },
    {
      "ID": 4,
      "PosX": -118.76,
      "PosY": 55.39,
      "PosZ": -106.39,
      "Name": "Anchor4",
      "RotY": 163.5652
    },
    {
      "ID": 5,
      "PosX": -132.376,
      "PosY": 62.12645,
      "PosZ": -55.83259,
      "Name": "Anchor5",
      "RotY": 19.27573
    },
    {
      "ID": 6,
      "PosX": -141.4775,
      "PosY": 82.28216,
      "PosZ": -89.85663,
      "Name": "ShootingCam",
      "RotY": 61.29162,
      "RotX": 46.10141,
      "RotZ": -0.001684,
      "Usage": "LookAtCamera",
      "LookAtCameraTemplate": "Level/Common_Adventure/Camera_Module/PinballPuzzleCam01.prefab"
    }
  ],
  "MonsterList": [],
  "PropList": [
    {
      "ID": 300001,
      "PosX": -142.3792,
      "PosY": 58.42852,
      "PosZ": -103.9907,
      "Name": "PinballController",
      "RotY": 349.8018,
      "RotX": 351.3288,
      "PropID": 103008,
      "IsOverrideInitLevelGraph": true,
      "InitLevelGraph": "Config/Level/Props/Chap03/InitLevelGraph_Prop_Chap03_PinBall_Controller.json",
      "ValueSource": {
        "Values": [
          {
            "$type": "SharedString",
            "Key": "VcamAnchor",
            "Value": "LevelArea_P43322_F43322002_G6,PinBallCam_Setting"
          },
          {
            "$type": "SharedString",
            "Key": "PinBallPuzzleConfigPrefab",
            "Value": "Props/Outputs/Chap03/Chap03_PuzzlePrefab_Pinball/Chap03_PuzzlePrefab_Pinball_20321001_04.prefab"
          }
        ]
      },
      "CampID": 4,
      "CustomTriggerMap": {},
      "CustomTriggerMapV2": {},
      "BridgeStateRotations": [],
      "DialogueGroups": [],
      "TalkDialogGroupIDList": [],
      "ServerInteractVerificationIDList": [],
      "TriggerValidGuest": {},
      "TagContainer": {},
      "CameraCenterEntityList": [],
      "SpawnConfig": {
        "EntitySpawnConfig": {}
      }
    },
    {
      "ID": 300002,
      "PosX": -120.14,
      "PosY": 55.3264,
      "PosZ": -99.99,
      "Name": "Station_1",
      "PropID": 103005,
      "IsOverrideInitLevelGraph": true,
      "InitLevelGraph": "Config/Level/Props/Chap03/InitLevelGraph_Prop_Chap03_PinBall_Station.json",
      "ValueSource": {
        "Values": [
          {
            "$type": "SharedString",
            "Key": "PinballPuzzleController",
            "Value": ",300001"
          }
        ]
      },
      "Trigger": {
        "Radius": 6.0,
        "PointList": []
      },
      "CampID": 4,
      "State": "Open",
      "CustomTriggerMap": {},
      "CustomTriggerMapV2": {},
      "BridgeStateRotations": [],
      "DialogueGroups": [],
      "TalkDialogGroupIDList": [],
      "ServerInteractVerificationIDList": [],
      "TriggerValidGuest": {},
      "TagContainer": {},
      "CameraCenterEntityList": [],
      "SpawnConfig": {
        "EntitySpawnConfig": {}
      }
    },
    {
      "ID": 300003,
      "PosX": -128.05,
      "PosY": 62.13977,
      "PosZ": -56.02,
      "Name": "Station_2",
      "PropID": 103005,
      "IsOverrideInitLevelGraph": true,
      "InitLevelGraph": "Config/Level/Props/Chap03/InitLevelGraph_Prop_Chap03_PinBall_Station.json",
      "ValueSource": {
        "Values": [
          {
            "$type": "SharedString",
            "Key": "PinballPuzzleController",
            "Value": ",300001"
          }
        ]
      },
      "Trigger": {
        "Radius": 6.0,
        "PointList": []
      },
      "CampID": 4,
      "State": "Open",
      "CustomTriggerMap": {},
      "CustomTriggerMapV2": {},
      "BridgeStateRotations": [],
      "DialogueGroups": [],
      "TalkDialogGroupIDList": [],
      "ServerInteractVerificationIDList": [],
      "TriggerValidGuest": {},
      "TagContainer": {},
      "CameraCenterEntityList": [],
      "SpawnConfig": {
        "EntitySpawnConfig": {}
      }
    },
    {
      "ID": 300006,
      "PosX": -135.3637,
      "PosY": 63.87921,
      "PosZ": -66.41429,
      "Name": "Plate_1",
      "RotY": 169.8018,
      "RotX": 8.671184,
      "RotZ": 1.0E-6,
      "PropID": 103006,
      "IsOverrideInitLevelGraph": true,
      "InitLevelGraph": "Config/Level/Props/Chap03/InitLevelGraph_Prop_Chap03_PinBall_Plate.json",
      "ValueSource": {},
      "CampID": 4,
      "State": "BridgeState1",
      "CustomTriggerMap": {},
      "CustomTriggerMapV2": {},
      "BridgeStateRotations": [],
      "DialogueGroups": [],
      "TalkDialogGroupIDList": [],
      "ServerInteractVerificationIDList": [],
      "TriggerValidGuest": {},
      "TagContainer": {},
      "CameraCenterEntityList": [],
      "SpawnConfig": {
        "EntitySpawnConfig": {}
      }
    },
    {
      "ID": 300004,
      "PosX": -146.3342,
      "PosY": 61.8352,
      "PosZ": -82.00573,
      "Name": "Plate_2",
      "RotY": 79.80183,
      "RotZ": 351.3288,
      "PropID": 103006,
      "IsOverrideInitLevelGraph": true,
      "InitLevelGraph": "Config/Level/Props/Chap03/InitLevelGraph_Prop_Chap03_PinBall_Plate.json",
      "ValueSource": {},
      "CampID": 4,
      "State": "BridgeState1",
      "CustomTriggerMap": {},
      "CustomTriggerMapV2": {},
      "BridgeStateRotations": [],
      "DialogueGroups": [],
      "TalkDialogGroupIDList": [],
      "ServerInteractVerificationIDList": [],
      "TriggerValidGuest": {},
      "TagContainer": {},
      "CameraCenterEntityList": [],
      "SpawnConfig": {
        "EntitySpawnConfig": {}
      }
    },
    {
      "ID": 300005,
      "PosX": -135.8565,
      "PosY": 60.47253,
      "PosZ": -89.19944,
      "Name": "Plate_3",
      "RotY": 169.8018,
      "RotX": 8.671184,
      "RotZ": 1.0E-6,
      "PropID": 103006,
      "IsOverrideInitLevelGraph": true,
      "InitLevelGraph": "Config/Level/Props/Chap03/InitLevelGraph_Prop_Chap03_PinBall_Plate.json",
      "ValueSource": {},
      "CampID": 4,
      "State": "BridgeState1",
      "CustomTriggerMap": {},
      "CustomTriggerMapV2": {},
      "BridgeStateRotations": [],
      "DialogueGroups": [],
      "TalkDialogGroupIDList": [],
      "ServerInteractVerificationIDList": [],
      "TriggerValidGuest": {},
      "TagContainer": {},
      "CameraCenterEntityList": [],
      "SpawnConfig": {
        "EntitySpawnConfig": {}
      }
    },
    {
      "ID": 300007,
      "PosX": -128.5428,
      "PosY": 61.8352,
      "PosZ": -78.80515,
      "Name": "Plate_4",
      "RotY": 79.80183,
      "RotZ": 351.3288,
      "PropID": 103006,
      "IsOverrideInitLevelGraph": true,
      "InitLevelGraph": "Config/Level/Props/Chap03/InitLevelGraph_Prop_Chap03_PinBall_Plate.json",
      "ValueSource": {},
      "CampID": 4,
      "State": "BridgeState1",
      "CustomTriggerMap": {},
      "CustomTriggerMapV2": {},
      "BridgeStateRotations": [],
      "DialogueGroups": [],
      "TalkDialogGroupIDList": [],
      "ServerInteractVerificationIDList": [],
      "TriggerValidGuest": {},
      "TagContainer": {},
      "CameraCenterEntityList": [],
      "SpawnConfig": {
        "EntitySpawnConfig": {}
      }
    },
    {
      "ID": 300008,
      "PosX": -112.8263,
      "PosY": 59.79119,
      "PosZ": -89.59571,
      "Name": "Plate_5",
      "RotY": 169.8018,
      "RotX": 8.671184,
      "RotZ": 1.0E-6,
      "PropID": 103006,
      "IsOverrideInitLevelGraph": true,
      "InitLevelGraph": "Config/Level/Props/Chap03/InitLevelGraph_Prop_Chap03_PinBall_Plate.json",
      "ValueSource": {},
      "CampID": 4,
      "State": "BridgeState1",
      "CustomTriggerMap": {},
      "CustomTriggerMapV2": {},
      "BridgeStateRotations": [],
      "DialogueGroups": [],
      "TalkDialogGroupIDList": [],
      "ServerInteractVerificationIDList": [],
      "TriggerValidGuest": {},
      "TagContainer": {},
      "CameraCenterEntityList": [],
      "SpawnConfig": {
        "EntitySpawnConfig": {}
      }
    },
    {
      "ID": 300009,
      "PosX": -114.4083,
      "PosY": 61.15386,
      "PosZ": -80.80171,
      "Name": "Plate_6",
      "RotY": 169.8018,
      "RotX": 8.671184,
      "RotZ": 1.0E-6,
      "PropID": 103006,
      "IsOverrideInitLevelGraph": true,
      "InitLevelGraph": "Config/Level/Props/Chap03/InitLevelGraph_Prop_Chap03_PinBall_Plate.json",
      "ValueSource": {},
      "CampID": 4,
      "State": "BridgeState1",
      "CustomTriggerMap": {},
      "CustomTriggerMapV2": {},
      "BridgeStateRotations": [],
      "DialogueGroups": [],
      "TalkDialogGroupIDList": [],
      "ServerInteractVerificationIDList": [],
      "TriggerValidGuest": {},
      "TagContainer": {},
      "CameraCenterEntityList": [],
      "SpawnConfig": {
        "EntitySpawnConfig": {}
      }
    },
    {
      "ID": 300010,
      "PosX": -107.0947,
      "PosY": 62.51654,
      "PosZ": -70.40741,
      "Name": "Plate_7",
      "RotY": 79.80183,
      "RotZ": 351.3288,
      "PropID": 103006,
      "IsOverrideInitLevelGraph": true,
      "InitLevelGraph": "Config/Level/Props/Chap03/InitLevelGraph_Prop_Chap03_PinBall_Plate.json",
      "ValueSource": {},
      "CampID": 4,
      "State": "BridgeState1",
      "CustomTriggerMap": {},
      "CustomTriggerMapV2": {},
      "BridgeStateRotations": [],
      "DialogueGroups": [],
      "TalkDialogGroupIDList": [],
      "ServerInteractVerificationIDList": [],
      "TriggerValidGuest": {},
      "TagContainer": {},
      "CameraCenterEntityList": [],
      "SpawnConfig": {
        "EntitySpawnConfig": {}
      }
    }
  ],
  "NPCList": []
}