{
  "GroupGUID": "d553ec7e-c31b-4594-a4ae-41cf67ffc0ca",
  "GroupName": "Monster_1",
  "LevelGraph": "Config/Level/GroupGraph/F30500001/Group_F30500001_G18.json",
  "AreaAnchorName": "LevelArea_P30500_F30500001_G18",
  "SaveDimensionFilter": {},
  "SavedValueCondition": {
    "Conditions": [],
    "Operation": "And"
  },
  "LoadSide": "Server",
  "LoadOnInitial": true,
  "ValueSource": {},
  "ConflictIDList": [],
  "IsHoyoGroup": true,
  "ConflictWhiteList": [],
  "TagContainer": {},
  "AnchorList": [],
  "MonsterList": [
    {
      "ID": 200001,
      "PosX": -38.85,
      "PosY": 56.84298,
      "PosZ": 6.31,
      "Name": "Monster1",
      "RotY": 270.0,
      "NPCMonsterID": 3002030,
      "AIConfig": {
        "PathwayList": [],
        "SlaveConfigList": []
      },
      "AIVariableSource": {},
      "ValueSource": {},
      "CampID": 3,
      "BattleArea": {
        "GroupID": 21,
        "ID": 1
      },
      "InitialAnimState": "SpecialStandBy1",
      "EventID": 313084,
      "BoardShowList": [
        4
      ],
      "TagList": [],
      "SpawnConfig": {
        "EntitySpawnConfig": {}
      },
      "TagContainer": {}
    }
  ],
  "PropList": [
    {
      "ID": 300001,
      "PosX": -36.67,
      "PosY": 56.79644,
      "PosZ": 6.24,
      "Name": "Prop1",
      "Scale": {
        "x": 1.038,
        "y": 1.0,
        "z": 1.0
      },
      "PropID": 100,
      "IsOverrideInitLevelGraph": true,
      "InitLevelGraph": "Config/Level/LevelInstanceGraph/F30500001/LG_Prop_F30500001_G18_300001.json",
      "ValueSource": {},
      "CampID": 4,
      "CustomTriggerMap": {},
      "CustomTriggerMapV2": {
        "MissionTrigger": {
          "Shape": "Box",
          "Radius": 2.0,
          "DimX": 7.06,
          "DimY": 5.58,
          "DimZ": 11.25,
          "PointList": []
        }
      },
      "BridgeStateRotations": [],
      "DialogueGroups": [],
      "TalkDialogGroupIDList": [],
      "ServerInteractVerificationIDList": [],
      "TriggerValidGuest": {},
      "TagContainer": {},
      "CameraCenterEntityList": [],
      "SpawnConfig": {
        "EntitySpawnConfig": {}
      }
    }
  ],
  "NPCList": []
}