{
  "GroupGUID": "119e950c-b364-4167-ba89-75cab6b7a4d4",
  "GroupName": "Anchor_Raid",
  "AreaAnchorName": "LevelArea_P44302_F44302002_G36",
  "SaveDimensionFilter": {},
  "SavedValueCondition": {
    "Conditions": [],
    "Operation": "And"
  },
  "LoadSide": "Server",
  "LoadOnInitial": true,
  "ValueSource": {},
  "ConflictIDList": [],
  "IsHoyoGroup": true,
  "HoYoGroupType": "Container",
  "ConflictWhiteList": [],
  "TagContainer": {},
  "AnchorList": [
    {
      "ID": 1,
      "PosX": 16.316,
      "PosY": 98.00006,
      "PosZ": 93.198,
      "Name": "Anchor1",
      "RotY": 160.0
    }
  ],
  "MonsterList": [],
  "PropList": [
    {
      "ID": 300001,
      "PosX": 14.93,
      "PosY": 98.30006,
      "PosZ": 90.31,
      "Name": "Prop1",
      "PropID": 3002,
      "ValueSource": {},
      "CampID": 4,
      "State": "CheckPointDisable",
      "CustomTriggerMap": {
        "CustomTrigger_Spring": {
          "Radius": 5.0,
          "Offset": {
            "y": 1.0
          },
          "PointList": [],
          "Server": true
        }
      },
      "CustomTriggerMapV2": {},
      "BridgeStateRotations": [],
      "AnchorGroupID": 36,
      "AnchorID": 1,
      "MappingInfoID": 2102,
      "DialogueGroups": [],
      "TalkDialogGroupIDList": [],
      "ServerInteractVerificationIDList": [],
      "TriggerValidGuest": {},
      "TagContainer": {},
      "CameraCenterEntityList": [],
      "SpawnConfig": {
        "EntitySpawnConfig": {}
      }
    }
  ],
  "NPCList": []
}