{
  "GroupGUID": "e690a2d2-7fd9-4d05-94c7-e9f3c3b2d72d",
  "GroupName": "MainMission1032602_12",
  "Category": "Mission",
  "LevelGraph": "Config/Level/GroupGraph/F10305001/Group_F10305001_G127.json",
  "AreaAnchorName": "LevelArea_P10305_F10305001_G127",
  "SaveType": "Reset",
  "OwnerMainMissionID": 1032602,
  "ValueSource": {},
  "ConflictIDList": [],
  "IsHoyoGroup": true,
  "ConflictWhiteList": [],
  "TagContainer": {},
  "AnchorList": [],
  "MonsterList": [],
  "PropList": [],
  "NPCList": []
}