{
  "GroupGUID": "67fc2f7b-4f0a-4235-b0e4-1b6b944495b3",
  "GroupName": "MainMission4040303_BlackCard",
  "Category": "Mission",
  "AreaAnchorName": "LevelArea_P10305_F10305001_G106",
  "SaveType": "Reset",
  "OwnerMainMissionID": 4040303,
  "ValueSource": {},
  "ConflictIDList": [],
  "IsHoyoGroup": true,
  "HoYoGroupType": "Container",
  "ConflictWhiteList": [],
  "TagContainer": {},
  "AnchorList": [],
  "MonsterList": [],
  "PropList": [
    {
      "ID": 300001,
      "PosX": 30.181,
      "PosY": 8.323,
      "PosZ": -450.526,
      "Name": "Prop1",
      "PropID": 100,
      "ValueSource": {},
      "Trigger": {
        "Radius": 2.0,
        "DimX": 1.0,
        "DimY": 1.0,
        "DimZ": 1.0,
        "PointList": []
      },
      "CampID": 4,
      "OverrideHintRange": 30.0,
      "CustomTriggerMap": {},
      "CustomTriggerMapV2": {},
      "BridgeStateRotations": [],
      "DialogueGroups": [],
      "TalkDialogGroupIDList": [],
      "ServerInteractVerificationIDList": [],
      "Dialog": {
        "LevelGraph": "Config/Level/PropDialogue/P10305/F10305001_G106/DialogueMain_F10305001_G106_P300001.json",
        "PackList": []
      },
      "InteractIconType": "SecretMissionIcon",
      "InteractTitle": {
        "Hash": 278713937
      },
      "TriggerValidGuest": {},
      "TagContainer": {},
      "CameraCenterEntityList": [],
      "SpawnConfig": {
        "EntitySpawnConfig": {}
      }
    }
  ],
  "NPCList": []
}