{
  "GroupGUID": "9f05f3a7-86c3-4f24-a3c6-f9db337cb4cb",
  "GroupName": "MainMission2010206_24_25",
  "Category": "Mission",
  "AreaAnchorName": "LevelArea_P10102_F10102001_G151",
  "SaveType": "Reset",
  "LoadCondition": {
    "Conditions": [
      {
        "Type": "SubMission",
        "ID": 201020124
      },
      {
        "Type": "SubMission",
        "ID": 201020125
      }
    ],
    "Operation": "Or"
  },
  "UnloadCondition": {
    "Conditions": [
      {
        "Type": "SubMission",
        "Phase": "Finish",
        "ID": 201020125
      }
    ]
  },
  "SystemUnlockCondition": {},
  "OwnerMainMissionID": 2010206,
  "ConflictIDList": [],
  "AnchorList": [
    {
      "ID": 1,
      "PosX": -65.493,
      "PosY": 4.585747,
      "PosZ": -20.377,
      "Name": "Anchor1",
      "RotY": 168.94,
      "Usage": "Actor"
    },
    {
      "ID": 2,
      "PosX": -67.134,
      "PosY": 7.205,
      "PosZ": -17.976,
      "Name": "Anchor2",
      "RotY": 148.911,
      "RotX": 19.56,
      "Usage": "Camera",
      "CustomParameter": {
        "$type": "LevelAnchorCameraParameter"
      }
    }
  ],
  "MonsterList": [],
  "PropList": [
    {
      "ID": 300001,
      "PosX": -64.95,
      "PosY": 4.716765,
      "PosZ": -23.108,
      "Name": "Prop1",
      "PropID": 111,
      "IsOverrideInitLevelGraph": true,
      "Trigger": {
        "Radius": 5.0,
        "DimX": 1.0,
        "DimY": 1.0,
        "DimZ": 1.0,
        "PointList": []
      },
      "CampID": 4,
      "CustomTriggerMap": {},
      "CustomTriggerMapV2": {},
      "BridgeStateRotations": [],
      "DialogueGroups": [],
      "TalkDialogGroupIDList": [],
      "ServerInteractVerificationIDList": [],
      "HideInCutScene": true,
      "HideInStory": true,
      "PerformanceHideFlags": -8
    },
    {
      "ID": 300002,
      "PosX": -67.27,
      "PosY": 4.420227,
      "PosZ": -15.45,
      "Name": "Prop2",
      "PropID": 100,
      "IsOverrideInitLevelGraph": true,
      "InitLevelGraph": "Config/Level/LevelInstanceGraph/F10102001/LG_Prop_F10102001_G150_300002.json",
      "Trigger": {
        "Radius": 7.0,
        "DimX": 1.0,
        "DimY": 1.0,
        "DimZ": 1.0,
        "PointList": []
      },
      "CampID": 4,
      "CustomTriggerMap": {},
      "CustomTriggerMapV2": {},
      "BridgeStateRotations": [],
      "DialogueGroups": [],
      "TalkDialogGroupIDList": [],
      "ServerInteractVerificationIDList": []
    }
  ],
  "NPCList": [
    {
      "ID": 400001,
      "PosX": -65.88,
      "PosY": 4.730826,
      "PosZ": -23.13,
      "Name": "NPC1",
      "RotY": 13.47,
      "NPCID": 2213,
      "DialogueGroups": [],
      "ServerInteractVerificationIDList": [],
      "BoardShowList": [],
      "TalkDialogGroupIDList": [],
      "DefaultIdleFreeStyleMotionID": 200520000,
      "InitialHiddenNodeList": [],
      "SpawnConfig": {
        "EntitySpawnConfig": {},
        "CaptureDistanceTolerance": 10.0
      }
    },
    {
      "ID": 400002,
      "PosX": -63.90001,
      "PosY": 4.717462,
      "PosZ": -23.26,
      "Name": "NPC2",
      "RotY": 341.8,
      "NPCID": 2213,
      "DialogueGroups": [],
      "ServerInteractVerificationIDList": [],
      "BoardShowList": [],
      "TalkDialogGroupIDList": [],
      "DefaultIdleFreeStyleMotionID": 200520000,
      "InitialHiddenNodeList": [],
      "SpawnConfig": {
        "EntitySpawnConfig": {},
        "CaptureDistanceTolerance": 10.0
      }
    },
    {
      "ID": 400003,
      "PosX": -64.226,
      "PosY": 4.795156,
      "PosZ": -20.89,
      "Name": "NPC3",
      "RotY": 200.57,
      "NPCID": 1102,
      "DialogueGroups": [],
      "ServerInteractVerificationIDList": [],
      "BoardShowList": [],
      "TalkDialogGroupIDList": [],
      "DefaultIdleFreeStyleMotionID": 311020231,
      "InitialHiddenNodeList": [],
      "SpawnConfig": {
        "EntitySpawnConfig": {},
        "CaptureDistanceTolerance": 10.0
      }
    },
    {
      "ID": 400004,
      "PosX": -64.61,
      "PosY": 4.53802,
      "PosZ": -19.92,
      "Name": "NPC4",
      "RotY": 196.7,
      "NPCID": 1001,
      "DialogueGroups": [],
      "ServerInteractVerificationIDList": [],
      "BoardShowList": [],
      "TalkDialogGroupIDList": [],
      "DefaultIdleFreeStyleMotionID": 310010000,
      "InitialHiddenNodeList": [],
      "SpawnConfig": {
        "EntitySpawnConfig": {},
        "CaptureDistanceTolerance": 10.0
      }
    },
    {
      "ID": 400005,
      "PosX": -64.81,
      "PosY": 4.716659,
      "PosZ": -21.88,
      "Name": "NPC5",
      "RotY": 351.1,
      "NPCID": 1102,
      "DialogueGroups": [],
      "ServerInteractVerificationIDList": [],
      "BoardShowList": [],
      "TalkDialogGroupIDList": [],
      "DefaultIdleFreeStyleMotionID": 311020000,
      "InitialHiddenNodeList": [],
      "SpawnConfig": {
        "EntitySpawnConfig": {},
        "CaptureDistanceTolerance": 10.0
      }
    },
    {
      "ID": 400006,
      "PosX": -70.66,
      "PosY": 4.568148,
      "PosZ": -18.76,
      "Name": "NPC6",
      "RotY": 118.3,
      "NPCID": 11106,
      "DialogueGroups": [],
      "ServerInteractVerificationIDList": [],
      "BoardShowList": [],
      "TalkDialogGroupIDList": [],
      "DefaultIdleFreeStyleMotionID": 100010222,
      "InitialHiddenNodeList": [],
      "SpawnConfig": {
        "EntitySpawnConfig": {},
        "CaptureDistanceTolerance": 10.0
      }
    },
    {
      "ID": 400007,
      "PosX": -69.4,
      "PosY": 4.568148,
      "PosZ": -18.04,
      "Name": "NPC7",
      "RotY": 146.7,
      "NPCID": 11107,
      "DialogueGroups": [],
      "ServerInteractVerificationIDList": [],
      "BoardShowList": [],
      "TalkDialogGroupIDList": [],
      "DefaultIdleFreeStyleMotionID": 100010210,
      "InitialHiddenNodeList": [],
      "SpawnConfig": {
        "EntitySpawnConfig": {},
        "CaptureDistanceTolerance": 10.0
      }
    },
    {
      "ID": 400008,
      "PosX": -64.29,
      "PosY": 4.443457,
      "PosZ": -15.78,
      "Name": "NPC8",
      "RotY": 189.3,
      "NPCID": 11103,
      "DialogueGroups": [],
      "ServerInteractVerificationIDList": [],
      "BoardShowList": [],
      "TalkDialogGroupIDList": [],
      "DefaultIdleFreeStyleMotionID": 100010231,
      "InitialHiddenNodeList": [],
      "SpawnConfig": {
        "EntitySpawnConfig": {},
        "CaptureDistanceTolerance": 10.0
      }
    },
    {
      "ID": 400009,
      "PosX": -62.33,
      "PosY": 4.506916,
      "PosZ": -16.53,
      "Name": "NPC9",
      "RotY": 196.5,
      "NPCID": 11105,
      "DialogueGroups": [],
      "ServerInteractVerificationIDList": [],
      "BoardShowList": [],
      "TalkDialogGroupIDList": [],
      "DefaultIdleFreeStyleMotionID": 100010000,
      "InitialHiddenNodeList": [],
      "SpawnConfig": {
        "EntitySpawnConfig": {},
        "CaptureDistanceTolerance": 10.0
      }
    }
  ]
}