{
  "GroupGUID": "be1e0a9e-6538-4bab-adfa-a63d2fa2c42f",
  "GroupName": "DefaultGroup",
  "AreaAnchorName": "LevelArea_P30123_F30123001_G1",
  "SaveType": "Reset",
  "SavedValueCondition": {
    "Conditions": [],
    "Operation": "And"
  },
  "LoadOnInitial": true,
  "ValueSource": {},
  "ConflictIDList": [],
  "IsHoyoGroup": true,
  "HoYoGroupType": "Container",
  "ConflictWhiteList": [],
  "TagContainer": {},
  "AnchorList": [
    {
      "ID": 1,
      "PosX": -0.033905,
      "PosY": 4.614647,
      "PosZ": 261.7123,
      "Name": "PlayerStart"
    }
  ],
  "MonsterList": [],
  "PropList": [
    {
      "ID": 300001,
      "PosX": 29.39,
      "PosY": 4.466377,
      "PosZ": 266.81,
      "Name": "Prop1",
      "RotY": 110.0,
      "Scale": {
        "x": 1.6,
        "y": 1.0,
        "z": 1.0
      },
      "PropID": 1030,
      "ValueSource": {},
      "CampID": 4,
      "CustomTriggerMap": {},
      "CustomTriggerMapV2": {},
      "BridgeStateRotations": [],
      "DialogueGroups": [],
      "TalkDialogGroupIDList": [],
      "ServerInteractVerificationIDList": [],
      "TriggerValidGuest": {},
      "TagContainer": {},
      "CameraCenterEntityList": [],
      "SpawnConfig": {
        "EntitySpawnConfig": {}
      }
    },
    {
      "ID": 300002,
      "PosX": -29.46,
      "PosY": 4.466362,
      "PosZ": 266.9,
      "Name": "Prop2",
      "RotY": 70.0,
      "Scale": {
        "x": 1.6,
        "y": 1.0,
        "z": 1.0
      },
      "PropID": 1030,
      "ValueSource": {},
      "CampID": 4,
      "CustomTriggerMap": {},
      "CustomTriggerMapV2": {},
      "BridgeStateRotations": [],
      "DialogueGroups": [],
      "TalkDialogGroupIDList": [],
      "ServerInteractVerificationIDList": [],
      "TriggerValidGuest": {},
      "TagContainer": {},
      "CameraCenterEntityList": [],
      "SpawnConfig": {
        "EntitySpawnConfig": {}
      }
    },
    {
      "ID": 300003,
      "PosY": -0.077927,
      "PosZ": 222.2265,
      "Name": "Prop3",
      "Scale": {
        "x": 1.5,
        "y": 1.0,
        "z": 1.0
      },
      "PropID": 1030,
      "ValueSource": {},
      "CampID": 4,
      "CustomTriggerMap": {},
      "CustomTriggerMapV2": {},
      "BridgeStateRotations": [],
      "DialogueGroups": [],
      "TalkDialogGroupIDList": [],
      "ServerInteractVerificationIDList": [],
      "TriggerValidGuest": {},
      "TagContainer": {},
      "CameraCenterEntityList": [],
      "SpawnConfig": {
        "EntitySpawnConfig": {}
      }
    }
  ],
  "NPCList": []
}