{
  "GroupGUID": "babf78a0-4133-46a6-9569-ff0453e37553",
  "GroupName": "NPC_SW",
  "AreaAnchorName": "LevelArea_P20135_F20135001_G28",
  "SaveType": "Reset",
  "SavedValueCondition": {
    "Conditions": [
      {
        "SavedValueName": "G27NPC",
        "Operation": "Equal",
        "Value": 1
      }
    ],
    "Operation": "And"
  },
  "IsPendedLoad": true,
  "LoadOnInitial": true,
  "ValueSource": {},
  "ConflictIDList": [],
  "IsHoyoGroup": true,
  "HoYoGroupType": "Container",
  "ConflictWhiteList": [],
  "AnchorList": [],
  "MonsterList": [],
  "PropList": [
    {
      "ID": 300001,
      "PosX": 62.77999,
      "PosY": 2.416852,
      "PosZ": -21.98,
      "Name": "Prop1",
      "RotY": 18.27051,
      "PropID": 100,
      "IsOverrideInitLevelGraph": true,
      "InitLevelGraph": "Config/Level/CrowdBubble/MunicipalChat_Play_Template.json",
      "ValueSource": {
        "Values": [
          {
            "$type": "SharedString",
            "Key": "PlayMunicipalChatPath",
            "Value": "Config/Level/MunicipalChatConfig/F20135001/MunicipalChatConfig_F20135001_0013.json"
          },
          {
            "$type": "SharedString",
            "Key": "PlayMunicipalChatName",
            "Value": "MunicipalChatConfig_F20135001_0013"
          },
          {
            "$type": "SharedJsonConfigList",
            "Key": "PlayMunicipalChatCharacterList",
            "Value": [
              {
                "$type": "MunicipalChatEntityInfo",
                "UniqueName": "1",
                "GroupInstanceID": 400001
              },
              {
                "$type": "MunicipalChatEntityInfo",
                "UniqueName": "2",
                "GroupInstanceID": 400002
              }
            ]
          }
        ]
      },
      "Trigger": {
        "Radius": 6.0,
        "DimX": 4.0,
        "DimY": 2.0,
        "DimZ": 14.0,
        "PointList": []
      },
      "CampID": 4,
      "CustomTriggerMap": {},
      "CustomTriggerMapV2": {},
      "BridgeStateRotations": [],
      "DialogueGroups": [],
      "TalkDialogGroupIDList": [],
      "ServerInteractVerificationIDList": []
    },
    {
      "ID": 300002,
      "PosX": 62.78,
      "PosY": 2.451775,
      "PosZ": -21.88,
      "Name": "Prop2",
      "RotY": 18.27051,
      "PropID": 100,
      "IsOverrideInitLevelGraph": true,
      "InitLevelGraph": "Config/Level/CrowdBubble/MunicipalChat_Stop_Template.json",
      "ValueSource": {
        "Values": [
          {
            "$type": "SharedString",
            "Key": "StopMunicipalChatName",
            "Value": "MunicipalChatConfig_F20135001_0013"
          }
        ]
      },
      "Trigger": {
        "Radius": 7.0,
        "DimX": 4.0,
        "DimY": 2.0,
        "DimZ": 14.0,
        "PointList": []
      },
      "CampID": 4,
      "CustomTriggerMap": {},
      "CustomTriggerMapV2": {},
      "BridgeStateRotations": [],
      "DialogueGroups": [],
      "TalkDialogGroupIDList": [],
      "ServerInteractVerificationIDList": []
    }
  ],
  "NPCList": [
    {
      "ID": 400001,
      "PosX": 66.964,
      "PosY": 2.743767,
      "PosZ": -20.763,
      "Name": "NPC1",
      "RotY": 247.703,
      "NPCID": 2101,
      "StaticNPC": true,
      "DialogueGroups": [],
      "ServerInteractVerificationIDList": [],
      "BoardShowList": [
        8
      ],
      "TalkDialogGroupIDList": [],
      "DefaultIdleFreeStyleMotionID": 200110000,
      "InitialHiddenNodeList": [],
      "SpawnConfig": {
        "EntitySpawnConfig": {},
        "CaptureDistanceTolerance": 10.0
      }
    },
    {
      "ID": 400002,
      "PosX": 57.73056,
      "PosY": 2.526402,
      "PosZ": -22.74479,
      "Name": "NPC2",
      "RotY": 83.98077,
      "NPCID": 2102,
      "StaticNPC": true,
      "DialogueGroups": [],
      "ServerInteractVerificationIDList": [],
      "BoardShowList": [
        8
      ],
      "TalkDialogGroupIDList": [],
      "DefaultIdleFreeStyleMotionID": 200510000,
      "InitialHiddenNodeList": [],
      "SpawnConfig": {
        "EntitySpawnConfig": {},
        "CaptureDistanceTolerance": 10.0
      }
    }
  ]
}