{
  "GroupGUID": "b4252077-5552-4c1d-88f3-0a6cf6af6e1a",
  "GroupName": "MainMission8014103_Mission",
  "Category": "Mission",
  "AreaAnchorName": "LevelArea_P10101_F10101005_G39",
  "SaveType": "Reset",
  "LoadCondition": {
    "Conditions": [
      {
        "Type": "SubMission",
        "ID": 801410301
      }
    ]
  },
  "UnloadCondition": {
    "Conditions": [
      {
        "Type": "SubMission",
        "Phase": "Finish",
        "ID": 801410301
      }
    ]
  },
  "ForceUnloadCondition": {
    "Conditions": [
      {
        "Phase": "Cancel",
        "ID": 8014103
      }
    ]
  },
  "OwnerMainMissionID": 8014103,
  "ValueSource": {},
  "ConflictIDList": [],
  "AnchorList": [
    {
      "ID": 1,
      "PosX": 5.54,
      "PosY": 1.34,
      "PosZ": -0.78,
      "Name": "Anchor1",
      "RotY": 107.0227,
      "RotX": 5.0,
      "Usage": "Camera",
      "CustomParameter": {
        "$type": "LevelAnchorCameraParameter"
      }
    },
    {
      "ID": 2,
      "PosX": 7.11,
      "PosZ": -1.54,
      "Name": "Anchor2",
      "RotY": 67.79169,
      "Usage": "Actor"
    }
  ],
  "MonsterList": [],
  "PropList": [],
  "NPCList": [
    {
      "ID": 400001,
      "PosX": 7.87,
      "PosZ": -1.06,
      "Name": "NPC1",
      "RotY": 250.1008,
      "NPCID": 1001,
      "ValueSource": {},
      "DialogueGroups": [],
      "ServerInteractVerificationIDList": [],
      "BoardShowList": [],
      "TalkDialogGroupIDList": [],
      "DefaultIdleFreeStyleMotionID": 310010000,
      "InitialHiddenNodeList": [],
      "Dialog": {
        "LevelGraph": "Config/Level/NPCDialogue/P10101/F10101001_G220/DialogueMain_F10101001_G220_N400001.json",
        "PackList": []
      },
      "SpawnConfig": {
        "EntitySpawnConfig": {},
        "CaptureDistanceTolerance": 10.0
      }
    },
    {
      "ID": 400002,
      "PosX": 7.148,
      "PosZ": -2.245,
      "Name": "NPC2",
      "RotY": 53.08941,
      "NPCID": 3025,
      "ValueSource": {},
      "DialogueGroups": [],
      "ServerInteractVerificationIDList": [],
      "BoardShowList": [],
      "TalkDialogGroupIDList": [],
      "DefaultIdleFreeStyleMotionID": 200690000,
      "InitialHiddenNodeList": [],
      "SpawnConfig": {
        "EntitySpawnConfig": {},
        "CaptureDistanceTolerance": 10.0
      }
    }
  ]
}