{
  "GroupGUID": "4cc8f653-4d94-42fb-bfb3-3d240e3eb089",
  "GroupName": "normal npc8",
  "Category": "Atmosphere",
  "AreaAnchorName": "LevelArea_P20004_F20004001_G61",
  "SaveType": "Reset",
  "AtmosphereCondition": {
    "Conditions": [
      {
        "$type": "LevelGroupSubMissionCompleteCondition",
        "SubMissionID": 200100139
      }
    ]
  },
  "LoadOnInitial": true,
  "ValueSource": {},
  "ConflictIDList": [],
  "IsHoyoGroup": true,
  "ConflictWhiteList": [],
  "AnchorList": [],
  "MonsterList": [],
  "PropList": [],
  "NPCList": [
    {
      "ID": 400001,
      "PosX": 48.821,
      "PosY": 173.0098,
      "PosZ": 57.722,
      "Name": "NPC1",
      "RotY": 276.7,
      "NPCID": 3042,
      "ValueSource": {},
      "StaticNPC": true,
      "DialogueGroups": [],
      "ServerInteractVerificationIDList": [],
      "BoardShowList": [
        1,
        64
      ],
      "OverrideNPCName": {
        "Hash": 909530670
      },
      "OverrideNPCTitle": {
        "Hash": -1797375976
      },
      "TalkDialogGroupIDList": [],
      "DefaultIdleFreeStyleMotionID": 900140000,
      "InitialHiddenNodeList": [],
      "Dialog": {
        "LevelGraph": "Config/Level/NPCDialogue/P20004/F20004001_G61/DialogueMain_F20004001_G61_N400001.json",
        "PackList": []
      },
      "SpawnConfig": {
        "EntitySpawnConfig": {}
      },
      "TriggerValidGuest": {}
    }
  ]
}