{
  "GroupGUID": "0890f43b-4c88-4be2-a765-1f615be75bcd",
  "GroupName": "FindRoom1",
  "Category": "Atmosphere",
  "AreaAnchorName": "LevelArea_P20004_F20004001_G159",
  "SaveType": "Reset",
  "AtmosphereCondition": {
    "Conditions": [
      {
        "$type": "LevelGroupSubMissionCompleteCondition",
        "SubMissionID": 801620501
      }
    ]
  },
  "LoadOnInitial": true,
  "ValueSource": {},
  "ConflictIDList": [],
  "IsHoyoGroup": true,
  "HoYoGroupType": "Container",
  "ConflictWhiteList": [],
  "AnchorList": [],
  "MonsterList": [],
  "PropList": [
    {
      "ID": 300001,
      "PosX": -16.591,
      "PosY": 173.375,
      "PosZ": 84.58,
      "Name": "Prop1",
      "PropID": 100,
      "ValueSource": {},
      "Trigger": {
        "Radius": 2.0,
        "DimX": 1.0,
        "DimY": 1.0,
        "DimZ": 1.0,
        "Offset": {
          "x": 0.2,
          "y": -1.0
        },
        "PointList": []
      },
      "CampID": 4,
      "CustomTriggerMap": {},
      "CustomTriggerMapV2": {},
      "BridgeStateRotations": [],
      "DialogueGroups": [],
      "TalkDialogGroupIDList": [],
      "ServerInteractVerificationIDList": [],
      "Dialog": {
        "LevelGraph": "Config/Level/PropDialogue/P20004/F20004001_G159/DialogueMain_F20004001_G159_P300001.json",
        "PackList": []
      },
      "InteractIconType": "CheckIcon",
      "InteractTitle": {
        "Hash": -347318505
      },
      "TriggerValidGuest": {},
      "SpawnConfig": {
        "EntitySpawnConfig": {}
      }
    }
  ],
  "NPCList": []
}