{
  "GroupGUID": "56fede86-d5ff-42be-85d0-4635f449a731",
  "GroupName": "normal npc12",
  "Category": "Atmosphere",
  "AreaAnchorName": "LevelArea_P20004_F20004001_G65",
  "SaveType": "Reset",
  "AtmosphereCondition": {
    "Conditions": [
      {
        "$type": "LevelGroupSubMissionCompleteCondition",
        "SubMissionID": 200100139
      }
    ]
  },
  "LoadOnInitial": true,
  "ValueSource": {},
  "ConflictIDList": [],
  "IsHoyoGroup": true,
  "ConflictWhiteList": [],
  "AnchorList": [],
  "MonsterList": [],
  "PropList": [],
  "NPCList": [
    {
      "ID": 400001,
      "PosX": -47.875,
      "PosY": 412.699,
      "PosZ": -18.549,
      "Name": "npc1",
      "RotY": 350.5,
      "NPCID": 3042,
      "ValueSource": {},
      "StaticNPC": true,
      "DialogueGroups": [],
      "ServerInteractVerificationIDList": [],
      "BoardShowList": [
        1,
        64
      ],
      "OverrideNPCName": {
        "Hash": -319040719
      },
      "OverrideNPCTitle": {
        "Hash": -1797375976
      },
      "TalkDialogGroupIDList": [],
      "DefaultIdleFreeStyleMotionID": 900140000,
      "InitialHiddenNodeList": [],
      "Dialog": {
        "LevelGraph": "Config/Level/NPCDialogue/P20004/F20004001_G65/DialogueMain_F20004001_G65_N400001.json",
        "PackList": [
          {
            "Name": "common",
            "LevelGraph": "Config/Level/NPCDialogue/P20004/F20004001_G65/DialoguePack_common_F20004001_G65_N400001.json"
          }
        ]
      },
      "SpawnConfig": {
        "EntitySpawnConfig": {}
      },
      "TriggerValidGuest": {}
    }
  ]
}