{
  "GroupGUID": "53e2aed5-bc7d-46d0-8582-bd1600c569c3",
  "GroupName": "MainMission4072121_",
  "Category": "Mission",
  "AreaAnchorName": "LevelArea_P40212_F40212001_G12",
  "LoadCondition": {
    "Conditions": [
      {
        "Type": "SubMission",
        "ID": 407212108
      }
    ]
  },
  "LoadSide": "Server",
  "OwnerMainMissionID": 4072121,
  "ConflictIDList": [],
  "AnchorList": [
    {
      "ID": 1,
      "PosX": 44.84,
      "PosY": -31.15,
      "PosZ": -94.88,
      "Name": "Anchor1",
      "RotY": 267.6557
    }
  ],
  "MonsterList": [],
  "PropList": [],
  "NPCList": [
    {
      "ID": 400001,
      "PosX": 43.78,
      "PosY": -31.15,
      "PosZ": -96.5,
      "Name": "NPC1",
      "RotY": 25.6232,
      "NPCID": 2201,
      "DialogueGroups": [],
      "ServerInteractVerificationIDList": [],
      "DefaultLookAtMode": "Closed",
      "BoardShowList": [],
      "TalkDialogGroupIDList": [],
      "DefaultIdleFreeStyleMotionID": 200230000,
      "InitialHiddenNodeList": []
    },
    {
      "ID": 400002,
      "PosX": 44.35,
      "PosY": -31.38,
      "PosZ": -97.98,
      "Name": "NPC2",
      "RotY": 11.85594,
      "NPCID": 2201,
      "DialogueGroups": [],
      "ServerInteractVerificationIDList": [],
      "DefaultLookAtMode": "Closed",
      "BoardShowList": [],
      "TalkDialogGroupIDList": [],
      "DefaultIdleFreeStyleMotionID": 200230000,
      "InitialHiddenNodeList": []
    }
  ]
}