{
  "GroupGUID": "83a76325-b8e9-44f4-82a5-44062d4ad1e5",
  "GroupName": "MainDoors",
  "LevelGraph": "Config/Level/GroupGraph/F43322003/Group_F43322003_G19.json",
  "AreaAnchorName": "LevelArea_P43322_F43322003_G19",
  "SaveType": "Reset",
  "SavedValueCondition": {
    "Conditions": [],
    "Operation": "And"
  },
  "LoadOnInitial": true,
  "ValueSource": {},
  "ConflictIDList": [],
  "IsHoyoGroup": true,
  "ConflictWhiteList": [],
  "TagContainer": {},
  "AnchorList": [],
  "MonsterList": [],
  "PropList": [
    {
      "ID": 300003,
      "PosX": -117.3899,
      "PosY": 11.52729,
      "PosZ": 47.05093,
      "Name": "GhostDoor1",
      "PropID": 103031,
      "IsOverrideInitLevelGraph": true,
      "InitLevelGraph": "Config/Level/Props/Chap03/InitLevelGraph_Prop_Chap03_Door_02.json",
      "ValueSource": {
        "Values": []
      },
      "CampID": 4,
      "State": "Open",
      "CustomTriggerMap": {},
      "CustomTriggerMapV2": {
        "ExitTrigger": {
          "Radius": 4.0,
          "PointList": []
        }
      },
      "BridgeStateRotations": [],
      "DialogueGroups": [],
      "TalkDialogGroupIDList": [],
      "ServerInteractVerificationIDList": [],
      "TriggerValidGuest": {},
      "TagContainer": {},
      "CameraCenterEntityList": [],
      "SpawnConfig": {
        "EntitySpawnConfig": {}
      }
    },
    {
      "ID": 300004,
      "PosX": -117.3899,
      "PosY": 11.52727,
      "PosZ": 77.05092,
      "Name": "GhostDoor2",
      "PropID": 103031,
      "IsOverrideInitLevelGraph": true,
      "InitLevelGraph": "Config/Level/Props/Chap03/InitLevelGraph_Prop_Chap03_Door_02.json",
      "ValueSource": {
        "Values": [
          {
            "$type": "SharedUint",
            "Key": "IsAutoDoor"
          }
        ]
      },
      "CampID": 4,
      "CustomTriggerMap": {},
      "CustomTriggerMapV2": {
        "ExitTrigger": {
          "Radius": 4.0,
          "PointList": []
        }
      },
      "BridgeStateRotations": [],
      "DialogueGroups": [],
      "TalkDialogGroupIDList": [],
      "ServerInteractVerificationIDList": [],
      "OverrideMapStateIcons": [
        {
          "State": "Locked",
          "Color": "#4b4b4b"
        },
        {
          "Color": "#b74a4a"
        },
        {
          "State": "Open",
          "Color": "#4b4b4b"
        }
      ],
      "TriggerValidGuest": {},
      "TagContainer": {},
      "CameraCenterEntityList": [],
      "SpawnConfig": {
        "EntitySpawnConfig": {}
      }
    },
    {
      "ID": 300005,
      "PosX": -104.3995,
      "PosY": 11.52729,
      "PosZ": 54.55087,
      "Name": "GhostDoor3",
      "RotY": 300.0,
      "PropID": 103031,
      "IsOverrideInitLevelGraph": true,
      "InitLevelGraph": "Config/Level/Props/Chap03/InitLevelGraph_Prop_Chap03_Door_02.json",
      "ValueSource": {
        "Values": [
          {
            "$type": "SharedUint",
            "Key": "IsAutoDoor"
          }
        ]
      },
      "CampID": 4,
      "CustomTriggerMap": {},
      "CustomTriggerMapV2": {
        "ExitTrigger": {
          "Radius": 4.0,
          "PointList": []
        }
      },
      "BridgeStateRotations": [],
      "DialogueGroups": [],
      "TalkDialogGroupIDList": [],
      "ServerInteractVerificationIDList": [],
      "OverrideMapStateIcons": [
        {
          "State": "Locked",
          "Color": "#4b4b4b"
        },
        {
          "Color": "#b74a4a"
        },
        {
          "State": "Open",
          "Color": "#4b4b4b"
        }
      ],
      "TriggerValidGuest": {},
      "TagContainer": {},
      "CameraCenterEntityList": [],
      "SpawnConfig": {
        "EntitySpawnConfig": {}
      }
    },
    {
      "ID": 300006,
      "PosX": -130.3803,
      "PosY": 11.52728,
      "PosZ": 69.55088,
      "Name": "GhostDoor4",
      "RotY": 300.0,
      "PropID": 103031,
      "IsOverrideInitLevelGraph": true,
      "InitLevelGraph": "Config/Level/Props/Chap03/InitLevelGraph_Prop_Chap03_Door_02.json",
      "ValueSource": {
        "Values": [
          {
            "$type": "SharedUint",
            "Key": "IsAutoDoor"
          }
        ]
      },
      "CampID": 4,
      "CustomTriggerMap": {},
      "CustomTriggerMapV2": {
        "ExitTrigger": {
          "Radius": 4.0,
          "PointList": []
        }
      },
      "BridgeStateRotations": [],
      "DialogueGroups": [],
      "TalkDialogGroupIDList": [],
      "ServerInteractVerificationIDList": [],
      "OverrideMapStateIcons": [
        {
          "State": "Locked",
          "Color": "#4b4b4b"
        },
        {
          "Color": "#b74a4a"
        },
        {
          "State": "Open",
          "Color": "#4b4b4b"
        }
      ],
      "TriggerValidGuest": {},
      "TagContainer": {},
      "CameraCenterEntityList": [],
      "SpawnConfig": {
        "EntitySpawnConfig": {}
      }
    },
    {
      "ID": 300007,
      "PosX": -104.388,
      "PosY": 11.52728,
      "PosZ": 69.547,
      "Name": "GhostDoor5",
      "RotY": 240.0,
      "PropID": 103031,
      "IsOverrideInitLevelGraph": true,
      "InitLevelGraph": "Config/Level/Props/Chap03/InitLevelGraph_Prop_Chap03_Door_02.json",
      "ValueSource": {
        "Values": [
          {
            "$type": "SharedUint",
            "Key": "IsAutoDoor"
          }
        ]
      },
      "CampID": 4,
      "CustomTriggerMap": {},
      "CustomTriggerMapV2": {
        "ExitTrigger": {
          "Radius": 4.0,
          "PointList": []
        }
      },
      "BridgeStateRotations": [],
      "DialogueGroups": [],
      "TalkDialogGroupIDList": [],
      "ServerInteractVerificationIDList": [],
      "OverrideMapStateIcons": [
        {
          "State": "Locked",
          "Color": "#4b4b4b"
        },
        {
          "Color": "#b74a4a"
        },
        {
          "State": "Open",
          "Color": "#4b4b4b"
        }
      ],
      "TriggerValidGuest": {},
      "TagContainer": {},
      "CameraCenterEntityList": [],
      "SpawnConfig": {
        "EntitySpawnConfig": {}
      }
    },
    {
      "ID": 300008,
      "PosX": -130.3803,
      "PosY": 11.52729,
      "PosZ": 54.55087,
      "Name": "GhostDoor6",
      "RotY": 240.0,
      "PropID": 103031,
      "IsOverrideInitLevelGraph": true,
      "InitLevelGraph": "Config/Level/Props/Chap03/InitLevelGraph_Prop_Chap03_Door_02.json",
      "ValueSource": {
        "Values": [
          {
            "$type": "SharedUint",
            "Key": "IsAutoDoor"
          }
        ]
      },
      "CampID": 4,
      "CustomTriggerMap": {},
      "CustomTriggerMapV2": {
        "ExitTrigger": {
          "Radius": 4.0,
          "PointList": []
        }
      },
      "BridgeStateRotations": [],
      "DialogueGroups": [],
      "TalkDialogGroupIDList": [],
      "ServerInteractVerificationIDList": [],
      "OverrideMapStateIcons": [
        {
          "State": "Locked",
          "Color": "#4b4b4b"
        },
        {
          "Color": "#b74a4a"
        },
        {
          "State": "Open",
          "Color": "#4b4b4b"
        }
      ],
      "TriggerValidGuest": {},
      "TagContainer": {},
      "CameraCenterEntityList": [],
      "SpawnConfig": {
        "EntitySpawnConfig": {}
      }
    },
    {
      "ID": 300001,
      "PosX": -117.3899,
      "PosY": 11.52731,
      "PosZ": 5.050841,
      "Name": "GhostDoor1",
      "PropID": 103031,
      "IsOverrideInitLevelGraph": true,
      "InitLevelGraph": "Config/Level/Props/Chap03/InitLevelGraph_Prop_Chap03_Door_02.json",
      "ValueSource": {
        "Values": []
      },
      "CampID": 4,
      "State": "Open",
      "CustomTriggerMap": {},
      "CustomTriggerMapV2": {
        "ExitTrigger": {
          "Radius": 4.0,
          "PointList": []
        }
      },
      "BridgeStateRotations": [],
      "DialogueGroups": [],
      "TalkDialogGroupIDList": [],
      "ServerInteractVerificationIDList": [],
      "TriggerValidGuest": {},
      "TagContainer": {},
      "CameraCenterEntityList": [],
      "SpawnConfig": {
        "EntitySpawnConfig": {}
      }
    },
    {
      "ID": 300002,
      "PosX": -117.3899,
      "PosY": 17.51402,
      "PosZ": -42.94951,
      "Name": "AirlockDoor",
      "RotY": 180.0,
      "PropID": 103031,
      "IsOverrideInitLevelGraph": true,
      "InitLevelGraph": "Config/Level/Props/Chap03/InitLevelGraph_Prop_Chap03_Door_02.json",
      "ValueSource": {
        "Values": []
      },
      "CampID": 4,
      "State": "Open",
      "CustomTriggerMap": {},
      "CustomTriggerMapV2": {
        "ExitTrigger": {
          "Radius": 4.0,
          "PointList": []
        }
      },
      "BridgeStateRotations": [],
      "DialogueGroups": [],
      "TalkDialogGroupIDList": [],
      "ServerInteractVerificationIDList": [],
      "TriggerValidGuest": {},
      "TagContainer": {},
      "CameraCenterEntityList": [],
      "SpawnConfig": {
        "EntitySpawnConfig": {}
      }
    },
    {
      "ID": 300014,
      "PosX": -117.3899,
      "PosY": 11.52733,
      "PosZ": -18.94951,
      "Name": "AirlockDoor",
      "RotY": 180.0,
      "PropID": 103031,
      "IsOverrideInitLevelGraph": true,
      "InitLevelGraph": "Config/Level/Props/Chap03/InitLevelGraph_Prop_Chap03_Door_02.json",
      "ValueSource": {
        "Values": []
      },
      "CampID": 4,
      "CustomTriggerMap": {},
      "CustomTriggerMapV2": {
        "ExitTrigger": {
          "Radius": 4.0,
          "PointList": []
        }
      },
      "BridgeStateRotations": [],
      "DialogueGroups": [],
      "TalkDialogGroupIDList": [],
      "ServerInteractVerificationIDList": [],
      "TriggerValidGuest": {},
      "TagContainer": {},
      "CameraCenterEntityList": [],
      "SpawnConfig": {
        "EntitySpawnConfig": {}
      }
    },
    {
      "ID": 300015,
      "PosX": -117.3899,
      "PosY": 17.52127,
      "PosZ": -102.9495,
      "Name": "AirlockDoor",
      "RotY": 180.0,
      "PropID": 103031,
      "IsOverrideInitLevelGraph": true,
      "InitLevelGraph": "Config/Level/Props/Chap03/InitLevelGraph_Prop_Chap03_Door_02.json",
      "ValueSource": {
        "Values": []
      },
      "CampID": 4,
      "State": "Open",
      "CustomTriggerMap": {},
      "CustomTriggerMapV2": {
        "ExitTrigger": {
          "Radius": 4.0,
          "PointList": []
        }
      },
      "BridgeStateRotations": [],
      "DialogueGroups": [],
      "TalkDialogGroupIDList": [],
      "ServerInteractVerificationIDList": [],
      "TriggerValidGuest": {},
      "TagContainer": {},
      "CameraCenterEntityList": [],
      "SpawnConfig": {
        "EntitySpawnConfig": {}
      }
    },
    {
      "ID": 300016,
      "PosX": -117.3899,
      "PosY": 11.51068,
      "PosZ": -126.9499,
      "Name": "AirlockDoor",
      "RotY": 180.0,
      "PropID": 103031,
      "IsOverrideInitLevelGraph": true,
      "InitLevelGraph": "Config/Level/Props/Chap03/InitLevelGraph_Prop_Chap03_Door_02.json",
      "ValueSource": {
        "Values": []
      },
      "CampID": 4,
      "State": "Open",
      "CustomTriggerMap": {},
      "CustomTriggerMapV2": {
        "ExitTrigger": {
          "Radius": 4.0,
          "PointList": []
        }
      },
      "BridgeStateRotations": [],
      "DialogueGroups": [],
      "TalkDialogGroupIDList": [],
      "ServerInteractVerificationIDList": [],
      "TriggerValidGuest": {},
      "TagContainer": {},
      "CameraCenterEntityList": [],
      "SpawnConfig": {
        "EntitySpawnConfig": {}
      }
    }
  ],
  "NPCList": []
}