{
  "GroupGUID": "626ea813-e523-41d6-ba16-f3911f772ece",
  "GroupName": "BoardCover_5",
  "LevelGraph": "Config/Level/GroupGraph/F44305001/Group_F44305001_G31.json",
  "AreaAnchorName": "LevelArea_P44305_F44305001_G31",
  "SaveDimensionFilter": {},
  "SavedValueCondition": {
    "Conditions": [
      {
        "SavedValueName": "Cover",
        "Operation": "Equal",
        "Value": 1
      }
    ],
    "Operation": "And"
  },
  "LoadSide": "Server",
  "LoadOnInitial": true,
  "GroupStateList": [
    {
      "DstState": 1
    }
  ],
  "ValueSource": {},
  "ConflictIDList": [],
  "IsHoyoGroup": true,
  "ConflictWhiteList": [],
  "TagContainer": {},
  "AnchorList": [],
  "MonsterList": [],
  "PropList": [],
  "NPCList": [
    {
      "ID": 400001,
      "PosX": 375.33,
      "PosY": 50.08,
      "PosZ": 434.7,
      "Name": "NPC1",
      "RotY": 235.4509,
      "NPCID": 3123,
      "LevelGraph": "Config/Level/LevelInstanceGraph/F44305001/LG_NPC_F44305001_G11_400005.json",
      "ValueSource": {},
      "DialogueGroups": [],
      "ServerInteractVerificationIDList": [],
      "BoardShowList": [
        8
      ],
      "TalkDialogGroupIDList": [],
      "DefaultIdleFreeStyleMotionID": 900180000,
      "InitialHiddenNodeList": [],
      "TagContainer": {},
      "CameraCenterEntityList": [],
      "SpawnConfig": {
        "EntitySpawnConfig": {}
      },
      "TriggerValidGuest": {}
    }
  ]
}