{
  "GroupGUID": "c0d90f8f-1fe2-4680-82e7-77f79918a476",
  "GroupName": "MainMission8022121_03",
  "Category": "Mission",
  "LevelGraph": "Config/Level/GroupGraph/F44305001/Group_F44305001_G21.json",
  "AreaAnchorName": "LevelArea_P44305_F44305001_G21",
  "SaveType": "Reset",
  "OwnerMainMissionID": 8022121,
  "ValueSource": {},
  "ConflictIDList": [],
  "IsHoyoGroup": true,
  "ConflictWhiteList": [],
  "TagContainer": {},
  "AnchorList": [],
  "MonsterList": [],
  "PropList": [],
  "NPCList": []
}