{
  "GroupGUID": "bb490953-ed75-4e7c-8a20-9a2749cc3b82",
  "GroupName": "Board",
  "LevelGraph": "Config/Level/GroupGraph/F44305001/Group_F44305001_G4.json",
  "AreaAnchorName": "LevelArea_P44305_F44305001_G4",
  "SaveDimensionFilter": {},
  "SavedValueCondition": {
    "Conditions": [
      {
        "SavedValueName": "Board_Floor_1",
        "Operation": "Equal",
        "Value": 1
      }
    ],
    "Operation": "And"
  },
  "LoadSide": "Server",
  "LoadOnInitial": true,
  "ValueSource": {},
  "ConflictIDList": [],
  "IsHoyoGroup": true,
  "ConflictWhiteList": [],
  "TagContainer": {},
  "AnchorList": [],
  "MonsterList": [],
  "PropList": [
    {
      "ID": 300001,
      "PosX": 338.726,
      "PosY": 31.72,
      "PosZ": 417.971,
      "Name": "Prop1",
      "PropID": 100,
      "IsOverrideInitLevelGraph": true,
      "InitLevelGraph": "Config/Level/LevelInstanceGraph/F44305001/LG_Prop_F44305001_G4_300001.json",
      "ValueSource": {},
      "Trigger": {
        "Radius": 1.5,
        "DimX": 1.0,
        "DimY": 1.0,
        "DimZ": 1.0,
        "PointList": []
      },
      "CampID": 4,
      "CustomTriggerMap": {},
      "CustomTriggerMapV2": {},
      "BridgeStateRotations": [],
      "DialogueGroups": [],
      "TalkDialogGroupIDList": [],
      "ServerInteractVerificationIDList": [],
      "TriggerValidGuest": {},
      "TagContainer": {},
      "CameraCenterEntityList": [],
      "SpawnConfig": {
        "EntitySpawnConfig": {}
      }
    },
    {
      "ID": 300002,
      "PosX": 359.591,
      "PosY": 31.72,
      "PosZ": 410.11,
      "Name": "Prop2",
      "PropID": 100,
      "IsOverrideInitLevelGraph": true,
      "InitLevelGraph": "Config/Level/LevelInstanceGraph/F44305001/LG_Prop_F44305001_G4_300002.json",
      "ValueSource": {},
      "Trigger": {
        "Radius": 1.5,
        "DimX": 1.0,
        "DimY": 1.0,
        "DimZ": 1.0,
        "PointList": []
      },
      "CampID": 4,
      "CustomTriggerMap": {},
      "CustomTriggerMapV2": {},
      "BridgeStateRotations": [],
      "DialogueGroups": [],
      "TalkDialogGroupIDList": [],
      "ServerInteractVerificationIDList": [],
      "TriggerValidGuest": {},
      "TagContainer": {},
      "CameraCenterEntityList": [],
      "SpawnConfig": {
        "EntitySpawnConfig": {}
      }
    },
    {
      "ID": 300003,
      "PosX": 335.97,
      "PosY": 31.72,
      "PosZ": 423.85,
      "Name": "SavePoint",
      "RotY": 138.6968,
      "PropID": 100,
      "IsOverrideInitLevelGraph": true,
      "InitLevelGraph": "Config/Level/Props/Chap03/InitLevelGraph_Prop_Chap03_WolfBroSavePoint_01.json",
      "ValueSource": {
        "Values": [
          {
            "$type": "SharedString",
            "Key": "PuzzleInit_Obj",
            "Value": "3,300001"
          }
        ]
      },
      "Trigger": {
        "Radius": 3.0,
        "DimX": 1.0,
        "DimY": 1.0,
        "DimZ": 1.0,
        "PointList": []
      },
      "CampID": 4,
      "CustomTriggerMap": {},
      "CustomTriggerMapV2": {},
      "BridgeStateRotations": [],
      "DialogueGroups": [],
      "TalkDialogGroupIDList": [],
      "ServerInteractVerificationIDList": [],
      "TriggerValidGuest": {},
      "TagContainer": {},
      "CameraCenterEntityList": [],
      "SpawnConfig": {
        "EntitySpawnConfig": {}
      }
    }
  ],
  "NPCList": [
    {
      "ID": 400001,
      "PosX": 338.421,
      "PosY": 31.72,
      "PosZ": 417.298,
      "Name": "NPC1",
      "RotY": 208.126,
      "NPCID": 3119,
      "ValueSource": {},
      "UseDistrictTriggerType": true,
      "DialogueGroups": [],
      "ServerInteractVerificationIDList": [],
      "BoardShowList": [],
      "TalkDialogGroupIDList": [],
      "DefaultIdleFreeStyleMotionID": 900180287,
      "InitialHiddenNodeList": [],
      "TagContainer": {},
      "CameraCenterEntityList": [],
      "SpawnConfig": {
        "EntitySpawnConfig": {}
      },
      "OverrideTriggerValidGuestConfig": true,
      "TriggerValidGuest": {}
    },
    {
      "ID": 400002,
      "PosX": 359.741,
      "PosY": 31.72,
      "PosZ": 410.508,
      "Name": "NPC2",
      "RotY": 12.27038,
      "NPCID": 3121,
      "ValueSource": {},
      "DialogueGroups": [],
      "ServerInteractVerificationIDList": [],
      "BoardShowList": [],
      "TalkDialogGroupIDList": [],
      "DefaultIdleFreeStyleMotionID": 900180287,
      "InitialHiddenNodeList": [],
      "TagContainer": {},
      "CameraCenterEntityList": [],
      "SpawnConfig": {
        "EntitySpawnConfig": {}
      },
      "TriggerValidGuest": {}
    }
  ]
}