{
  "GroupGUID": "28893aac-043b-4dc7-93c2-e6aabbb50253",
  "GroupName": "BossControl",
  "Category": "BattleProps",
  "LevelGraph": "Config/Level/GroupGraph/F20332001/Group_F20332001_G179.json",
  "AreaAnchorName": "LevelArea_P20332_F20332001_G179",
  "SaveType": "Reset",
  "SystemUnlockCondition": {},
  "LoadOnInitial": true,
  "ValueSource": {},
  "ConflictIDList": [],
  "ConflictWhiteList": [],
  "TagContainer": {},
  "AnchorList": [],
  "MonsterList": [],
  "PropList": [
    {
      "ID": 300001,
      "Name": "stagecontroller",
      "PropID": 301082,
      "IsOverrideInitLevelGraph": true,
      "InitLevelGraph": "Config/Level/Props/Chap03/InitLevelGraph_Prop_Chap03_P302BossTransit_01.json",
      "ValueSource": {},
      "CampID": 4,
      "State": "CustomState01",
      "CustomTriggerMap": {},
      "CustomTriggerMapV2": {},
      "BridgeStateRotations": [],
      "DialogueGroups": [],
      "TalkDialogGroupIDList": [],
      "ServerInteractVerificationIDList": [],
      "StageObjectCapture": {
        "BlockAlias": "BossRoom",
        "PrefabAlias": "Transfer0"
      },
      "TriggerValidGuest": {},
      "TagContainer": {},
      "CameraCenterEntityList": [],
      "SpawnConfig": {
        "EntitySpawnConfig": {}
      }
    }
  ],
  "NPCList": []
}