{
  "GroupGUID": "ab38fad4-7ce2-4f5d-9d80-81caf5059936",
  "GroupName": "WolfGroup",
  "LevelGraph": "Config/Level/GroupGraph/F20332001/Group_F20332001_G81.json",
  "AreaAnchorName": "LevelArea_P20332_F20332001_G81",
  "SaveDimensionFilter": {},
  "SavedValueCondition": {
    "Conditions": [],
    "Operation": "And"
  },
  "UseCustomSaveData": true,
  "LoadSide": "Server",
  "LoadOnInitial": true,
  "ValueSource": {
    "Values": [
      {
        "$type": "SharedString",
        "Key": "IsWolfBro",
        "Value": "227,300003"
      }
    ]
  },
  "ConflictIDList": [],
  "IsHoyoGroup": true,
  "ConflictWhiteList": [],
  "TagContainer": {},
  "AnchorList": [
    {
      "ID": 1,
      "PosX": -125.711,
      "PosY": 19.34251,
      "PosZ": -137.328,
      "Name": "Anchor1"
    },
    {
      "ID": 2,
      "PosX": -126.3865,
      "PosY": 16.077,
      "PosZ": -138.817,
      "Name": "Anchor2",
      "RotY": 270.0
    },
    {
      "ID": 3,
      "PosX": 17.9124,
      "PosY": 0.25,
      "PosZ": 42.993,
      "Name": "Anchor3",
      "RotY": 180.0
    },
    {
      "ID": 4,
      "PosX": 18.983,
      "PosY": 2.230593,
      "PosZ": 44.535,
      "Name": "Anchor4",
      "RotY": 90.0
    },
    {
      "ID": 5,
      "PosX": -133.802,
      "PosY": 16.077,
      "PosZ": -150.339,
      "Name": "Born01",
      "RotY": 180.0
    },
    {
      "ID": 6,
      "PosX": 27.271,
      "PosY": 0.25,
      "PosZ": 43.73449,
      "Name": "Born02"
    },
    {
      "ID": 7,
      "PosX": -133.7913,
      "PosY": 16.077,
      "PosZ": -149.2789,
      "Name": "ReBorn1"
    },
    {
      "ID": 8,
      "PosX": 32.8245,
      "PosY": 2.217754,
      "PosZ": 44.45829,
      "Name": "ReBorn2"
    },
    {
      "ID": 9,
      "PosX": -148.055,
      "PosY": 16.077,
      "PosZ": -150.6552,
      "Name": "Anchor9",
      "RotY": 209.2919
    },
    {
      "ID": 10,
      "PosX": -147.547,
      "PosY": 16.077,
      "PosZ": -149.87,
      "Name": "Anchor10",
      "RotY": 209.2919
    },
    {
      "ID": 11,
      "PosX": -133.02,
      "PosY": 20.42,
      "PosZ": -138.0,
      "Name": "PushCamera",
      "RotY": 63.20608,
      "RotX": 16.71,
      "RotZ": 1.0E-6,
      "Usage": "Camera",
      "CustomParameter": {
        "$type": "LevelAnchorCameraParameter"
      }
    },
    {
      "ID": 12,
      "PosX": -128.7014,
      "PosY": 20.4,
      "PosZ": -137.4696,
      "Name": "MoveCamera01",
      "RotY": 63.20608,
      "Usage": "Camera",
      "CustomParameter": {
        "$type": "LevelAnchorCameraParameter",
        "fov": 50.0
      }
    },
    {
      "ID": 13,
      "PosX": -133.48,
      "PosY": 17.84,
      "PosZ": -145.54,
      "Name": "TVCam01",
      "RotY": 180.0,
      "RotX": 10.58606,
      "Usage": "Camera",
      "CustomParameter": {
        "$type": "LevelAnchorCameraParameter"
      }
    }
  ],
  "MonsterList": [],
  "PropList": [
    {
      "ID": 300011,
      "PosX": -154.16,
      "PosY": 11.37,
      "PosZ": -149.39,
      "Name": "Prop11",
      "RotY": 90.0,
      "PropID": 100,
      "IsOverrideInitLevelGraph": true,
      "InitLevelGraph": "Config/Level/Props/Chap03/InitLevelGraph_Prop_Chap03_TriggerG_01.json.json",
      "ValueSource": {
        "Values": [
          {
            "$type": "SharedString",
            "Key": "Gid",
            "Value": "6058"
          }
        ]
      },
      "Trigger": {
        "Radius": 10.0,
        "DimX": 1.0,
        "DimY": 1.0,
        "DimZ": 1.0,
        "PointList": []
      },
      "CampID": 4,
      "CustomTriggerMap": {},
      "CustomTriggerMapV2": {},
      "BridgeStateRotations": [],
      "DialogueGroups": [],
      "TalkDialogGroupIDList": [],
      "ServerInteractVerificationIDList": [],
      "TriggerValidGuest": {},
      "TagContainer": {},
      "CameraCenterEntityList": [],
      "SpawnConfig": {
        "EntitySpawnConfig": {}
      }
    },
    {
      "ID": 300001,
      "PosX": -140.368,
      "PosY": 16.077,
      "PosZ": -146.218,
      "Name": "Prop1",
      "RotY": 90.0,
      "PropID": 100,
      "IsOverrideInitLevelGraph": true,
      "InitLevelGraph": "Config/Level/Props/Chap03/InitLevelGraph_Prop_Chap03_TriggerTalk_01.json",
      "ValueSource": {
        "Values": []
      },
      "Trigger": {
        "Shape": "Box",
        "Radius": 1.0,
        "DimX": 1.0,
        "DimY": 1.0,
        "DimZ": 6.0,
        "PointList": []
      },
      "CampID": 4,
      "CustomTriggerMap": {},
      "CustomTriggerMapV2": {},
      "BridgeStateRotations": [],
      "DialogueGroups": [],
      "TalkDialogGroupIDList": [],
      "ServerInteractVerificationIDList": [],
      "TriggerValidGuest": {},
      "TagContainer": {},
      "CameraCenterEntityList": [],
      "SpawnConfig": {
        "EntitySpawnConfig": {}
      }
    },
    {
      "ID": 300003,
      "PosX": 149.2939,
      "PosY": 14.2169,
      "PosZ": 115.0203,
      "Name": "Prop3",
      "RotY": 315.0,
      "PropID": 103055,
      "ValueSource": {
        "Values": [
          {
            "$type": "SharedString",
            "Key": "Eff_Type",
            "Value": "NoWall"
          }
        ]
      },
      "CampID": 4,
      "CustomTriggerMap": {},
      "CustomTriggerMapV2": {},
      "BridgeStateRotations": [],
      "DialogueGroups": [],
      "TalkDialogGroupIDList": [],
      "ServerInteractVerificationIDList": [],
      "TriggerValidGuest": {},
      "TagContainer": {},
      "CameraCenterEntityList": [],
      "SpawnConfig": {
        "EntitySpawnConfig": {}
      }
    },
    {
      "ID": 300004,
      "PosX": 157.8838,
      "PosY": 14.24393,
      "PosZ": 131.0838,
      "Name": "Prop4",
      "RotY": 315.0,
      "PropID": 103055,
      "ValueSource": {
        "Values": [
          {
            "$type": "SharedString",
            "Key": "Eff_Type",
            "Value": "NoWall"
          }
        ]
      },
      "CampID": 4,
      "CustomTriggerMap": {},
      "CustomTriggerMapV2": {},
      "BridgeStateRotations": [],
      "DialogueGroups": [],
      "TalkDialogGroupIDList": [],
      "ServerInteractVerificationIDList": [],
      "TriggerValidGuest": {},
      "TagContainer": {},
      "CameraCenterEntityList": [],
      "SpawnConfig": {
        "EntitySpawnConfig": {}
      }
    },
    {
      "ID": 300005,
      "PosX": 133.5108,
      "PosY": 14.22298,
      "PosZ": 130.0941,
      "Name": "Prop5",
      "RotY": 135.0,
      "PropID": 103055,
      "ValueSource": {
        "Values": [
          {
            "$type": "SharedString",
            "Key": "Eff_Type",
            "Value": "NoWall"
          }
        ]
      },
      "CampID": 4,
      "CustomTriggerMap": {},
      "CustomTriggerMapV2": {},
      "BridgeStateRotations": [],
      "DialogueGroups": [],
      "TalkDialogGroupIDList": [],
      "ServerInteractVerificationIDList": [],
      "TriggerValidGuest": {},
      "TagContainer": {},
      "CameraCenterEntityList": [],
      "SpawnConfig": {
        "EntitySpawnConfig": {}
      }
    },
    {
      "ID": 300006,
      "PosX": 158.4,
      "PosY": 14.2169,
      "PosZ": 128.8758,
      "Name": "Prop6",
      "PropID": 100,
      "ValueSource": {},
      "CampID": 4,
      "CustomTriggerMap": {},
      "CustomTriggerMapV2": {},
      "BridgeStateRotations": [],
      "DialogueGroups": [],
      "TalkDialogGroupIDList": [],
      "ServerInteractVerificationIDList": [],
      "TriggerValidGuest": {},
      "TagContainer": {},
      "CameraCenterEntityList": [],
      "SpawnConfig": {
        "EntitySpawnConfig": {}
      }
    },
    {
      "ID": 300007,
      "PosX": 133.2077,
      "PosY": 14.26614,
      "PosZ": 101.4169,
      "Name": "Prop7",
      "PropID": 103068,
      "ValueSource": {},
      "CampID": 4,
      "CustomTriggerMap": {},
      "CustomTriggerMapV2": {},
      "BridgeStateRotations": [],
      "DialogueGroups": [],
      "TalkDialogGroupIDList": [],
      "ServerInteractVerificationIDList": [],
      "TriggerValidGuest": {},
      "TagContainer": {},
      "CameraCenterEntityList": [],
      "SpawnConfig": {
        "EntitySpawnConfig": {}
      }
    },
    {
      "ID": 300010,
      "PosX": 125.9725,
      "PosY": 14.21294,
      "PosZ": 107.9838,
      "Name": "Prop10",
      "PropID": 103055,
      "ValueSource": {
        "Values": [
          {
            "$type": "SharedString",
            "Key": "Eff_Type",
            "Value": "NoWall"
          }
        ]
      },
      "CampID": 4,
      "CustomTriggerMap": {},
      "CustomTriggerMapV2": {},
      "BridgeStateRotations": [],
      "DialogueGroups": [],
      "TalkDialogGroupIDList": [],
      "ServerInteractVerificationIDList": [],
      "TriggerValidGuest": {},
      "TagContainer": {},
      "CameraCenterEntityList": [],
      "SpawnConfig": {
        "EntitySpawnConfig": {}
      }
    },
    {
      "ID": 300002,
      "PosX": 149.3,
      "PosY": 14.26614,
      "PosZ": 115.0,
      "Name": "Prop2",
      "RotY": 90.0,
      "PropID": 100,
      "IsOverrideInitLevelGraph": true,
      "InitLevelGraph": "Config/Level/Props/Chap03/InitLevelGraph_Prop_Chap03_TriggerG_01.json.json",
      "ValueSource": {
        "Values": [
          {
            "$type": "SharedString",
            "Key": "Gid",
            "Value": "6058"
          }
        ]
      },
      "Trigger": {
        "Radius": 10.0,
        "DimX": 1.0,
        "DimY": 1.0,
        "DimZ": 1.0,
        "PointList": []
      },
      "CampID": 4,
      "CustomTriggerMap": {},
      "CustomTriggerMapV2": {},
      "BridgeStateRotations": [],
      "DialogueGroups": [],
      "TalkDialogGroupIDList": [],
      "ServerInteractVerificationIDList": [],
      "TriggerValidGuest": {},
      "TagContainer": {},
      "CameraCenterEntityList": [],
      "SpawnConfig": {
        "EntitySpawnConfig": {}
      }
    }
  ],
  "NPCList": []
}