{
  "GroupGUID": "25e2e3cd-eae2-4e49-a45f-a4ad7b97360b",
  "GroupName": "OneWayBridge",
  "LevelGraph": "Config/Level/GroupGraph/F20332001/Group_F20332001_G247.json",
  "AreaAnchorName": "LevelArea_P20332_F20332001_G247",
  "SavedValueCondition": {
    "Conditions": [
      {
        "SavedValueName": "GravityChallengeDifficulty",
        "Operation": "Equal",
        "Value": 2
      }
    ],
    "Operation": "And"
  },
  "LoadSide": "Server",
  "LoadOnInitial": true,
  "ValueSource": {},
  "ConflictIDList": [],
  "IsHoyoGroup": true,
  "ConflictWhiteList": [],
  "TagContainer": {},
  "AnchorList": [],
  "MonsterList": [],
  "PropList": [
    {
      "ID": 300001,
      "PosX": -467.91,
      "PosY": -2.95,
      "PosZ": -300.0,
      "Name": "Prop1",
      "RotZ": 89.99998,
      "PropID": 103033,
      "IsOverrideInitLevelGraph": true,
      "InitLevelGraph": "Config/Level/Props/Chap03/InitLevelGraph_Prop_Chap03_MazeBridge_01.json",
      "ValueSource": {
        "Values": [
          {
            "$type": "SharedUint",
            "Key": "FloorID",
            "Value": 2
          }
        ]
      },
      "CampID": 4,
      "CustomTriggerMap": {},
      "CustomTriggerMapV2": {},
      "BridgeStateRotations": [],
      "DialogueGroups": [],
      "TalkDialogGroupIDList": [],
      "ServerInteractVerificationIDList": [],
      "TriggerValidGuest": {},
      "TagContainer": {},
      "CameraCenterEntityList": [],
      "SpawnConfig": {
        "EntitySpawnConfig": {}
      }
    },
    {
      "ID": 300002,
      "PosX": -467.91,
      "PosY": -2.95,
      "PosZ": -288.0,
      "Name": "Prop2",
      "RotZ": 89.99998,
      "PropID": 103033,
      "IsOverrideInitLevelGraph": true,
      "InitLevelGraph": "Config/Level/Props/Chap03/InitLevelGraph_Prop_Chap03_MazeBridge_01.json",
      "ValueSource": {
        "Values": [
          {
            "$type": "SharedUint",
            "Key": "FloorID",
            "Value": 2
          }
        ]
      },
      "CampID": 4,
      "CustomTriggerMap": {},
      "CustomTriggerMapV2": {},
      "BridgeStateRotations": [],
      "DialogueGroups": [],
      "TalkDialogGroupIDList": [],
      "ServerInteractVerificationIDList": [],
      "TriggerValidGuest": {},
      "TagContainer": {},
      "CameraCenterEntityList": [],
      "SpawnConfig": {
        "EntitySpawnConfig": {}
      }
    },
    {
      "ID": 300003,
      "PosX": -467.91,
      "PosY": -8.08,
      "PosZ": -281.08,
      "Name": "Prop3",
      "RotY": -5.0E-6,
      "RotX": 7.0E-6,
      "RotZ": 90.0,
      "PropID": 103039,
      "IsOverrideInitLevelGraph": true,
      "InitLevelGraph": "Config/Level/Props/Common/InitLevelGraph_Prop_Common_Console_01.json",
      "ValueSource": {
        "Values": []
      },
      "CampID": 4,
      "CustomTriggerMap": {},
      "CustomTriggerMapV2": {},
      "BridgeStateRotations": [],
      "DialogueGroups": [],
      "TalkDialogGroupIDList": [],
      "ServerInteractVerificationIDList": [],
      "TriggerValidGuest": {
        "TargetList": []
      },
      "TagContainer": {
        "List": []
      },
      "CameraCenterEntityList": [],
      "SpawnConfig": {
        "EntitySpawnConfig": {}
      }
    },
    {
      "ID": 300004,
      "PosX": -467.91,
      "PosY": -2.95,
      "PosZ": -294.0,
      "Name": "Prop4",
      "RotZ": 89.99998,
      "PropID": 103033,
      "IsOverrideInitLevelGraph": true,
      "InitLevelGraph": "Config/Level/Props/Chap03/InitLevelGraph_Prop_Chap03_MazeBridge_01.json",
      "ValueSource": {
        "Values": [
          {
            "$type": "SharedUint",
            "Key": "FloorID",
            "Value": 2
          }
        ]
      },
      "CampID": 4,
      "CustomTriggerMap": {},
      "CustomTriggerMapV2": {},
      "BridgeStateRotations": [],
      "DialogueGroups": [],
      "TalkDialogGroupIDList": [],
      "ServerInteractVerificationIDList": [],
      "TriggerValidGuest": {},
      "TagContainer": {},
      "CameraCenterEntityList": [],
      "SpawnConfig": {
        "EntitySpawnConfig": {}
      }
    }
  ],
  "NPCList": []
}