{
  "GroupGUID": "50168222-fcae-4f71-b55e-009758d95473",
  "GroupName": "VolumeIn_MPF_02",
  "LevelGraph": "Config/Level/GroupGraph/F20332001/Group_F20332001_G223.json",
  "AreaAnchorName": "LevelArea_P20332_F20332001_G223",
  "SaveDimensionFilter": {},
  "SavedValueCondition": {
    "Conditions": [
      {
        "SavedValueName": "GravityChallengeDifficulty",
        "Operation": "Equal",
        "Value": 3
      }
    ],
    "Operation": "And"
  },
  "LoadSide": "Server",
  "LoadOnInitial": true,
  "GroupStateList": [
    {
      "DstState": 1
    },
    {
      "SrcState": 1
    }
  ],
  "ValueSource": {
    "Values": []
  },
  "ConflictIDList": [],
  "IsHoyoGroup": true,
  "ConflictWhiteList": [],
  "TagContainer": {},
  "AnchorList": [
    {
      "ID": 1,
      "PosX": -494.99,
      "PosY": 15.03,
      "PosZ": -323.99,
      "Name": "Anchor1",
      "RotY": 90.00001
    },
    {
      "ID": 2,
      "PosX": -470.99,
      "PosY": 15.03,
      "PosZ": -323.99,
      "Name": "Anchor2",
      "RotY": 90.00001
    },
    {
      "ID": 3,
      "PosX": -497.93,
      "PosY": 21.07,
      "PosZ": -324.03,
      "Name": "MPF_Pos1",
      "RotZ": 180.0
    },
    {
      "ID": 4,
      "PosX": -497.93,
      "PosY": 21.07,
      "PosZ": -294.03,
      "Name": "MPF_Pos2",
      "RotZ": 180.0
    },
    {
      "ID": 5,
      "PosX": -513.91,
      "PosY": 26.0,
      "PosZ": -326.47,
      "Name": "ControllerCam",
      "RotY": 47.44427,
      "RotX": 14.16195,
      "RotZ": 181.8113,
      "Usage": "Camera",
      "CustomParameter": {
        "$type": "LevelAnchorCameraParameter",
        "fov": 55.0
      }
    }
  ],
  "MonsterList": [],
  "PropList": [
    {
      "ID": 300001,
      "PosX": -495.03,
      "PosY": 15.03,
      "PosZ": -323.99,
      "Name": "VolumeIn-2Point",
      "RotY": 90.00001,
      "RotZ": 180.0,
      "PropID": 103147,
      "ValueSource": {
        "Values": [
          {
            "$type": "SharedString",
            "Key": "Anchor01",
            "Value": "LevelArea_P20332_F20332001_G223,Anchor1"
          },
          {
            "$type": "SharedString",
            "Key": "Anchor02",
            "Value": "LevelArea_P20332_F20332001_G223,Anchor2"
          },
          {
            "$type": "SharedFloat",
            "Key": "CustomState01_Usable"
          }
        ]
      },
      "CampID": 4,
      "State": "CustomState01",
      "CustomTriggerMap": {},
      "CustomTriggerMapV2": {},
      "BridgeStateRotations": [],
      "DialogueGroups": [],
      "TalkDialogGroupIDList": [],
      "ServerInteractVerificationIDList": [],
      "OverrideMapStateIcons": [
        {
          "State": "CustomState01",
          "IconID": 171,
          "Color": "#ffffff",
          "AnchorKey": "LevelArea_P20332_F20332001_G223,Anchor1"
        },
        {
          "State": "CustomState02",
          "IconID": 171,
          "Color": "#ffffff",
          "AnchorKey": "LevelArea_P20332_F20332001_G223,Anchor2"
        }
      ],
      "TriggerValidGuest": {},
      "TagContainer": {},
      "CameraCenterEntityList": [],
      "SpawnConfig": {
        "EntitySpawnConfig": {}
      }
    },
    {
      "ID": 300002,
      "PosX": -505.07,
      "PosY": 26.97997,
      "PosZ": -298.02,
      "Name": "Controller_GravityMPF",
      "RotY": 90.0,
      "RotZ": 180.0,
      "PropID": 103192,
      "IsOverrideInitLevelGraph": true,
      "InitLevelGraph": "Config/Level/Props/Chap03/InitLevelGraph_Prop_Chap03_ControllerGravityMPF_01.json",
      "ValueSource": {
        "Values": [
          {
            "$type": "SharedString",
            "Key": "ControllerCam",
            "Value": "LevelArea_P20332_F20332001_G223,ControllerCam"
          }
        ]
      },
      "CampID": 4,
      "CustomTriggerMap": {},
      "CustomTriggerMapV2": {},
      "BridgeStateRotations": [],
      "DialogueGroups": [],
      "TalkDialogGroupIDList": [],
      "ServerInteractVerificationIDList": [],
      "TriggerValidGuest": {},
      "TagContainer": {},
      "CameraCenterEntityList": [],
      "SpawnConfig": {
        "EntitySpawnConfig": {}
      }
    },
    {
      "ID": 300003,
      "PosX": -497.93,
      "PosY": 21.07,
      "PosZ": -324.03,
      "Name": "GravityMPF",
      "RotZ": 180.0,
      "PropID": 103191,
      "ValueSource": {
        "Values": [
          {
            "$type": "SharedString",
            "Key": "Pos1",
            "Value": "LevelArea_P20332_F20332001_G223,MPF_Pos1"
          },
          {
            "$type": "SharedString",
            "Key": "Pos2",
            "Value": "LevelArea_P20332_F20332001_G223,MPF_Pos2"
          },
          {
            "$type": "SharedFloat",
            "Key": "MoveDuration",
            "Value": 3.0
          },
          {
            "$type": "SharedUint",
            "Key": "NoBubbleBridge",
            "Value": 2
          }
        ]
      },
      "CampID": 4,
      "CustomTriggerMap": {},
      "CustomTriggerMapV2": {},
      "BridgeStateRotations": [],
      "DialogueGroups": [],
      "TalkDialogGroupIDList": [],
      "ServerInteractVerificationIDList": [],
      "OverrideMapStateIcons": [
        {
          "IconID": 179,
          "AnchorKey": "LevelArea_P20332_F20332001_G223,MPF_Pos1"
        },
        {
          "State": "Open",
          "IconID": 179,
          "AnchorKey": "LevelArea_P20332_F20332001_G223,MPF_Pos2"
        }
      ],
      "TriggerValidGuest": {},
      "TagContainer": {},
      "CameraCenterEntityList": [],
      "SpawnConfig": {
        "EntitySpawnConfig": {}
      }
    },
    {
      "ID": 300004,
      "PosX": -497.81,
      "PosY": 18.09,
      "PosZ": -306.57,
      "Name": "TrackingEff_01",
      "RotY": 180.0,
      "RotZ": 90.0,
      "Scale": {
        "x": 1.0,
        "y": 1.0,
        "z": 1.94
      },
      "PropID": 103092,
      "IsOverrideInitLevelGraph": true,
      "InitLevelGraph": "Config/Level/Props/Chap03/InitLevelGraph_Prop_Chap03_GravityMpfTrackEff_01.json",
      "ValueSource": {},
      "CampID": 4,
      "CustomTriggerMap": {},
      "CustomTriggerMapV2": {},
      "BridgeStateRotations": [],
      "DialogueGroups": [],
      "TalkDialogGroupIDList": [],
      "ServerInteractVerificationIDList": [],
      "TriggerValidGuest": {},
      "TagContainer": {},
      "CameraCenterEntityList": [],
      "SpawnConfig": {
        "EntitySpawnConfig": {}
      }
    },
    {
      "ID": 300005,
      "PosX": -497.81,
      "PosY": 18.09,
      "PosZ": -305.49,
      "Name": "TrackingEff_02",
      "RotZ": 270.0,
      "Scale": {
        "x": 1.0,
        "y": 1.0,
        "z": 1.94
      },
      "PropID": 103092,
      "IsOverrideInitLevelGraph": true,
      "InitLevelGraph": "Config/Level/Props/Chap03/InitLevelGraph_Prop_Chap03_GravityMpfTrackEff_01.json",
      "ValueSource": {},
      "CampID": 4,
      "CustomTriggerMap": {},
      "CustomTriggerMapV2": {},
      "BridgeStateRotations": [],
      "DialogueGroups": [],
      "TalkDialogGroupIDList": [],
      "ServerInteractVerificationIDList": [],
      "TriggerValidGuest": {},
      "TagContainer": {},
      "CameraCenterEntityList": [],
      "SpawnConfig": {
        "EntitySpawnConfig": {}
      }
    },
    {
      "ID": 300006,
      "PosX": -494.93,
      "PosY": 21.07,
      "PosZ": -324.03,
      "Name": "FitEff_01",
      "RotX": 270.0,
      "PropID": 103085,
      "IsOverrideInitLevelGraph": true,
      "InitLevelGraph": "Config/Level/Props/Chap03/InitLevelGraph_Prop_Chap03_GravityMpfFitEff_01.json",
      "ValueSource": {},
      "CampID": 4,
      "CustomTriggerMap": {},
      "CustomTriggerMapV2": {},
      "BridgeStateRotations": [],
      "DialogueGroups": [],
      "TalkDialogGroupIDList": [],
      "ServerInteractVerificationIDList": [],
      "TriggerValidGuest": {},
      "TagContainer": {},
      "CameraCenterEntityList": [],
      "SpawnConfig": {
        "EntitySpawnConfig": {}
      }
    },
    {
      "ID": 300007,
      "PosX": -494.93,
      "PosY": 21.07,
      "PosZ": -294.03,
      "Name": "FitEff_02",
      "RotX": 270.0,
      "PropID": 103085,
      "IsOverrideInitLevelGraph": true,
      "InitLevelGraph": "Config/Level/Props/Chap03/InitLevelGraph_Prop_Chap03_GravityMpfFitEff_01.json",
      "ValueSource": {},
      "CampID": 4,
      "CustomTriggerMap": {},
      "CustomTriggerMapV2": {},
      "BridgeStateRotations": [],
      "DialogueGroups": [],
      "TalkDialogGroupIDList": [],
      "ServerInteractVerificationIDList": [],
      "TriggerValidGuest": {},
      "TagContainer": {},
      "CameraCenterEntityList": [],
      "SpawnConfig": {
        "EntitySpawnConfig": {}
      }
    },
    {
      "ID": 300008,
      "PosX": -494.93,
      "PosY": 15.07,
      "PosZ": -324.03,
      "Name": "FitEff_01",
      "RotY": 180.0,
      "RotX": 90.0,
      "PropID": 103085,
      "IsOverrideInitLevelGraph": true,
      "InitLevelGraph": "Config/Level/Props/Chap03/InitLevelGraph_Prop_Chap03_GravityMpfFitEff_01.json",
      "ValueSource": {},
      "CampID": 4,
      "CustomTriggerMap": {},
      "CustomTriggerMapV2": {},
      "BridgeStateRotations": [],
      "DialogueGroups": [],
      "TalkDialogGroupIDList": [],
      "ServerInteractVerificationIDList": [],
      "TriggerValidGuest": {},
      "TagContainer": {},
      "CameraCenterEntityList": [],
      "SpawnConfig": {
        "EntitySpawnConfig": {}
      }
    },
    {
      "ID": 300009,
      "PosX": -494.93,
      "PosY": 15.07,
      "PosZ": -294.03,
      "Name": "FitEff_02",
      "RotY": 180.0,
      "RotX": 90.0,
      "PropID": 103085,
      "IsOverrideInitLevelGraph": true,
      "InitLevelGraph": "Config/Level/Props/Chap03/InitLevelGraph_Prop_Chap03_GravityMpfFitEff_01.json",
      "ValueSource": {},
      "CampID": 4,
      "CustomTriggerMap": {},
      "CustomTriggerMapV2": {},
      "BridgeStateRotations": [],
      "DialogueGroups": [],
      "TalkDialogGroupIDList": [],
      "ServerInteractVerificationIDList": [],
      "TriggerValidGuest": {},
      "TagContainer": {},
      "CameraCenterEntityList": [],
      "SpawnConfig": {
        "EntitySpawnConfig": {}
      }
    },
    {
      "ID": 300010,
      "PosX": -494.93,
      "PosY": 21.07,
      "PosZ": -318.03,
      "Name": "FitEff_01",
      "RotY": 180.0,
      "RotX": 270.0198,
      "PropID": 103085,
      "IsOverrideInitLevelGraph": true,
      "InitLevelGraph": "Config/Level/Props/Chap03/InitLevelGraph_Prop_Chap03_GravityMpfFitEff_01.json",
      "ValueSource": {},
      "CampID": 4,
      "CustomTriggerMap": {},
      "CustomTriggerMapV2": {},
      "BridgeStateRotations": [],
      "DialogueGroups": [],
      "TalkDialogGroupIDList": [],
      "ServerInteractVerificationIDList": [],
      "TriggerValidGuest": {},
      "TagContainer": {},
      "CameraCenterEntityList": [],
      "SpawnConfig": {
        "EntitySpawnConfig": {}
      }
    },
    {
      "ID": 300011,
      "PosX": -494.93,
      "PosY": 21.07,
      "PosZ": -288.03,
      "Name": "FitEff_02",
      "RotY": 180.0,
      "RotX": 270.0,
      "PropID": 103085,
      "IsOverrideInitLevelGraph": true,
      "InitLevelGraph": "Config/Level/Props/Chap03/InitLevelGraph_Prop_Chap03_GravityMpfFitEff_01.json",
      "ValueSource": {},
      "CampID": 4,
      "CustomTriggerMap": {},
      "CustomTriggerMapV2": {},
      "BridgeStateRotations": [],
      "DialogueGroups": [],
      "TalkDialogGroupIDList": [],
      "ServerInteractVerificationIDList": [],
      "TriggerValidGuest": {},
      "TagContainer": {},
      "CameraCenterEntityList": [],
      "SpawnConfig": {
        "EntitySpawnConfig": {}
      }
    },
    {
      "ID": 300012,
      "PosX": -494.93,
      "PosY": 15.07,
      "PosZ": -318.03,
      "Name": "FitEff_01",
      "RotY": -5.8E-5,
      "RotX": 89.98022,
      "PropID": 103085,
      "IsOverrideInitLevelGraph": true,
      "InitLevelGraph": "Config/Level/Props/Chap03/InitLevelGraph_Prop_Chap03_GravityMpfFitEff_01.json",
      "ValueSource": {},
      "CampID": 4,
      "CustomTriggerMap": {},
      "CustomTriggerMapV2": {},
      "BridgeStateRotations": [],
      "DialogueGroups": [],
      "TalkDialogGroupIDList": [],
      "ServerInteractVerificationIDList": [],
      "TriggerValidGuest": {},
      "TagContainer": {},
      "CameraCenterEntityList": [],
      "SpawnConfig": {
        "EntitySpawnConfig": {}
      }
    },
    {
      "ID": 300013,
      "PosX": -494.93,
      "PosY": 15.07,
      "PosZ": -288.03,
      "Name": "FitEff_02",
      "RotY": -1.0E-6,
      "RotX": 90.0,
      "PropID": 103085,
      "IsOverrideInitLevelGraph": true,
      "InitLevelGraph": "Config/Level/Props/Chap03/InitLevelGraph_Prop_Chap03_GravityMpfFitEff_01.json",
      "ValueSource": {},
      "CampID": 4,
      "CustomTriggerMap": {},
      "CustomTriggerMapV2": {},
      "BridgeStateRotations": [],
      "DialogueGroups": [],
      "TalkDialogGroupIDList": [],
      "ServerInteractVerificationIDList": [],
      "TriggerValidGuest": {},
      "TagContainer": {},
      "CameraCenterEntityList": [],
      "SpawnConfig": {
        "EntitySpawnConfig": {}
      }
    },
    {
      "ID": 300014,
      "PosX": -491.93,
      "PosY": 21.07,
      "PosZ": -321.03,
      "Name": "FitEff_01",
      "RotY": 270.0,
      "RotX": 270.0,
      "PropID": 103085,
      "IsOverrideInitLevelGraph": true,
      "InitLevelGraph": "Config/Level/Props/Chap03/InitLevelGraph_Prop_Chap03_GravityMpfFitEff_01.json",
      "ValueSource": {},
      "CampID": 4,
      "CustomTriggerMap": {},
      "CustomTriggerMapV2": {},
      "BridgeStateRotations": [],
      "DialogueGroups": [],
      "TalkDialogGroupIDList": [],
      "ServerInteractVerificationIDList": [],
      "TriggerValidGuest": {},
      "TagContainer": {},
      "CameraCenterEntityList": [],
      "SpawnConfig": {
        "EntitySpawnConfig": {}
      }
    },
    {
      "ID": 300015,
      "PosX": -491.93,
      "PosY": 15.07,
      "PosZ": -321.03,
      "Name": "FitEff_01",
      "RotY": 90.00007,
      "RotX": 90.0,
      "PropID": 103085,
      "IsOverrideInitLevelGraph": true,
      "InitLevelGraph": "Config/Level/Props/Chap03/InitLevelGraph_Prop_Chap03_GravityMpfFitEff_01.json",
      "ValueSource": {},
      "CampID": 4,
      "CustomTriggerMap": {},
      "CustomTriggerMapV2": {},
      "BridgeStateRotations": [],
      "DialogueGroups": [],
      "TalkDialogGroupIDList": [],
      "ServerInteractVerificationIDList": [],
      "TriggerValidGuest": {},
      "TagContainer": {},
      "CameraCenterEntityList": [],
      "SpawnConfig": {
        "EntitySpawnConfig": {}
      }
    },
    {
      "ID": 300016,
      "PosX": -497.93,
      "PosY": 21.07,
      "PosZ": -321.03,
      "Name": "FitEff_01",
      "RotY": 90.0,
      "RotX": 270.0,
      "PropID": 103085,
      "IsOverrideInitLevelGraph": true,
      "InitLevelGraph": "Config/Level/Props/Chap03/InitLevelGraph_Prop_Chap03_GravityMpfFitEff_01.json",
      "ValueSource": {},
      "CampID": 4,
      "CustomTriggerMap": {},
      "CustomTriggerMapV2": {},
      "BridgeStateRotations": [],
      "DialogueGroups": [],
      "TalkDialogGroupIDList": [],
      "ServerInteractVerificationIDList": [],
      "TriggerValidGuest": {},
      "TagContainer": {},
      "CameraCenterEntityList": [],
      "SpawnConfig": {
        "EntitySpawnConfig": {}
      }
    },
    {
      "ID": 300017,
      "PosX": -497.93,
      "PosY": 15.07,
      "PosZ": -321.03,
      "Name": "FitEff_01",
      "RotY": 269.9999,
      "RotX": 90.0,
      "PropID": 103085,
      "IsOverrideInitLevelGraph": true,
      "InitLevelGraph": "Config/Level/Props/Chap03/InitLevelGraph_Prop_Chap03_GravityMpfFitEff_01.json",
      "ValueSource": {},
      "CampID": 4,
      "CustomTriggerMap": {},
      "CustomTriggerMapV2": {},
      "BridgeStateRotations": [],
      "DialogueGroups": [],
      "TalkDialogGroupIDList": [],
      "ServerInteractVerificationIDList": [],
      "TriggerValidGuest": {},
      "TagContainer": {},
      "CameraCenterEntityList": [],
      "SpawnConfig": {
        "EntitySpawnConfig": {}
      }
    },
    {
      "ID": 300018,
      "PosX": -491.93,
      "PosY": 21.07,
      "PosZ": -291.03,
      "Name": "FitEff_02",
      "RotY": 270.0,
      "RotX": 270.0,
      "PropID": 103085,
      "IsOverrideInitLevelGraph": true,
      "InitLevelGraph": "Config/Level/Props/Chap03/InitLevelGraph_Prop_Chap03_GravityMpfFitEff_01.json",
      "ValueSource": {},
      "CampID": 4,
      "CustomTriggerMap": {},
      "CustomTriggerMapV2": {},
      "BridgeStateRotations": [],
      "DialogueGroups": [],
      "TalkDialogGroupIDList": [],
      "ServerInteractVerificationIDList": [],
      "TriggerValidGuest": {},
      "TagContainer": {},
      "CameraCenterEntityList": [],
      "SpawnConfig": {
        "EntitySpawnConfig": {}
      }
    },
    {
      "ID": 300019,
      "PosX": -491.93,
      "PosY": 15.07,
      "PosZ": -291.03,
      "Name": "FitEff_02",
      "RotY": 90.00007,
      "RotX": 90.0,
      "PropID": 103085,
      "IsOverrideInitLevelGraph": true,
      "InitLevelGraph": "Config/Level/Props/Chap03/InitLevelGraph_Prop_Chap03_GravityMpfFitEff_01.json",
      "ValueSource": {},
      "CampID": 4,
      "CustomTriggerMap": {},
      "CustomTriggerMapV2": {},
      "BridgeStateRotations": [],
      "DialogueGroups": [],
      "TalkDialogGroupIDList": [],
      "ServerInteractVerificationIDList": [],
      "TriggerValidGuest": {},
      "TagContainer": {},
      "CameraCenterEntityList": [],
      "SpawnConfig": {
        "EntitySpawnConfig": {}
      }
    },
    {
      "ID": 300020,
      "PosX": -497.93,
      "PosY": 21.07,
      "PosZ": -291.03,
      "Name": "FitEff_02",
      "RotY": 89.99998,
      "RotX": 270.0,
      "PropID": 103085,
      "IsOverrideInitLevelGraph": true,
      "InitLevelGraph": "Config/Level/Props/Chap03/InitLevelGraph_Prop_Chap03_GravityMpfFitEff_01.json",
      "ValueSource": {},
      "CampID": 4,
      "CustomTriggerMap": {},
      "CustomTriggerMapV2": {},
      "BridgeStateRotations": [],
      "DialogueGroups": [],
      "TalkDialogGroupIDList": [],
      "ServerInteractVerificationIDList": [],
      "TriggerValidGuest": {},
      "TagContainer": {},
      "CameraCenterEntityList": [],
      "SpawnConfig": {
        "EntitySpawnConfig": {}
      }
    },
    {
      "ID": 300021,
      "PosX": -497.93,
      "PosY": 15.07,
      "PosZ": -291.03,
      "Name": "FitEff_02",
      "RotY": 270.0,
      "RotX": 90.0,
      "PropID": 103085,
      "IsOverrideInitLevelGraph": true,
      "InitLevelGraph": "Config/Level/Props/Chap03/InitLevelGraph_Prop_Chap03_GravityMpfFitEff_01.json",
      "ValueSource": {},
      "CampID": 4,
      "CustomTriggerMap": {},
      "CustomTriggerMapV2": {},
      "BridgeStateRotations": [],
      "DialogueGroups": [],
      "TalkDialogGroupIDList": [],
      "ServerInteractVerificationIDList": [],
      "TriggerValidGuest": {},
      "TagContainer": {},
      "CameraCenterEntityList": [],
      "SpawnConfig": {
        "EntitySpawnConfig": {}
      }
    }
  ],
  "NPCList": []
}