{
  "GroupGUID": "edd833c5-0a0a-469c-944e-dad829035460",
  "GroupName": "MainMission8021501_New Group",
  "Category": "Mission",
  "LevelGraph": "Config/Level/GroupGraph/F20332001/Group_F20332001_G340.json",
  "AreaAnchorName": "LevelArea_P20332_F20332001_G340",
  "SaveType": "Reset",
  "OwnerMainMissionID": 8021501,
  "ValueSource": {},
  "ConflictIDList": [],
  "IsHoyoGroup": true,
  "ConflictWhiteList": [],
  "TagContainer": {},
  "AnchorList": [],
  "MonsterList": [],
  "PropList": [
    {
      "ID": 300001,
      "PosX": -436.7317,
      "PosY": 3.006001,
      "PosZ": -291.1665,
      "Name": "Prop1",
      "PropID": 100,
      "ValueSource": {},
      "CampID": 4,
      "CustomTriggerMap": {},
      "CustomTriggerMapV2": {
        "MissionTrigger": {
          "Radius": 10.0,
          "PointList": []
        }
      },
      "BridgeStateRotations": [],
      "DialogueGroups": [],
      "TalkDialogGroupIDList": [],
      "ServerInteractVerificationIDList": [],
      "TriggerValidGuest": {},
      "TagContainer": {},
      "CameraCenterEntityList": [],
      "SpawnConfig": {
        "EntitySpawnConfig": {}
      }
    }
  ],
  "NPCList": []
}