{
  "GroupGUID": "d1ef8fe5-9264-42a7-8060-30843d521b96",
  "GroupName": "MainMission8022103_04",
  "Category": "Mission",
  "LevelGraph": "Config/Level/GroupGraph/F20332001/Group_F20332001_G241.json",
  "AreaAnchorName": "LevelArea_P20332_F20332001_G241",
  "SaveType": "Reset",
  "OwnerMainMissionID": 8022103,
  "ValueSource": {},
  "ConflictIDList": [],
  "IsHoyoGroup": true,
  "ConflictWhiteList": [],
  "TagContainer": {},
  "AnchorList": [],
  "MonsterList": [],
  "PropList": [],
  "NPCList": [
    {
      "ID": 400001,
      "PosX": 113.882,
      "PosY": 13.74995,
      "PosZ": 154.491,
      "Name": "NPC1",
      "RotY": 44.97736,
      "NPCID": 13257,
      "ValueSource": {},
      "DialogueGroups": [],
      "ServerInteractVerificationIDList": [],
      "DefaultLookAtMode": "Closed",
      "BoardShowList": [
        1,
        128
      ],
      "TalkDialogGroupIDList": [],
      "DefaultIdleFreeStyleMotionID": 100020000,
      "InitialHiddenNodeList": [],
      "Dialog": {
        "LevelGraph": "Config/Level/NPCDialogue/P20332/F20332001_G241/DialogueMain_F20332001_G241_N400001.json",
        "PackList": []
      },
      "OverrideBehaviorType": "DreamlandActor",
      "TagContainer": {},
      "CameraCenterEntityList": [],
      "SpawnConfig": {
        "EntitySpawnConfig": {}
      },
      "TriggerValidGuest": {}
    }
  ]
}