{
  "GroupGUID": "d9d41b1a-7c7a-4dd8-bf5b-3d850d5cdce0",
  "GroupName": "DefaultMonster",
  "AreaAnchorName": "LevelArea_P20332_F20332001_G374",
  "SaveDimensionFilter": {},
  "SavedValueCondition": {
    "Conditions": [
      {
        "SavedValueName": "SceneStateByMainMission",
        "Operation": "Equal",
        "Value": 1
      }
    ],
    "Operation": "And"
  },
  "LoadSide": "Server",
  "GroupRefreshID": 1001,
  "ValueSource": {},
  "ConflictIDList": [],
  "IsHoyoGroup": true,
  "ConflictWhiteList": [],
  "TagContainer": {},
  "AnchorList": [],
  "MonsterList": [
    {
      "ID": 200001,
      "PosX": -20.56533,
      "PosY": 4.20211,
      "PosZ": 165.8146,
      "Name": "Monster1",
      "RotY": 15.0,
      "NPCMonsterID": 3002040,
      "AIConfig": {
        "PathwayList": [],
        "SlaveConfigList": []
      },
      "AIVariableSource": {},
      "ValueSource": {},
      "CampID": 3,
      "BattleArea": {
        "GroupID": 1,
        "ID": 2
      },
      "InitialAnimState": "SpecialStandBy1",
      "EventID": 20332110,
      "BoardShowList": [
        4
      ],
      "TagList": [],
      "SpawnConfig": {
        "EntitySpawnConfig": {}
      },
      "TagContainer": {}
    },
    {
      "ID": 200002,
      "PosX": -56.85,
      "PosY": 2.432137,
      "PosZ": 183.83,
      "Name": "Monster2",
      "RotY": 30.0,
      "NPCMonsterID": 3002030,
      "AIConfig": {
        "PathwayList": [],
        "SlaveConfigList": []
      },
      "AIVariableSource": {},
      "ValueSource": {},
      "CampID": 3,
      "BattleArea": {
        "GroupID": 1,
        "ID": 2
      },
      "InitialAnimState": "SpecialStandBy1",
      "EventID": 20332111,
      "BoardShowList": [
        4
      ],
      "TagList": [],
      "SpawnConfig": {
        "EntitySpawnConfig": {}
      },
      "TagContainer": {}
    },
    {
      "ID": 200003,
      "PosX": -76.07674,
      "PosY": 0.670059,
      "PosZ": 245.6967,
      "Name": "Monster3",
      "NPCMonsterID": 3002020,
      "AIConfig": {
        "PathwayList": [
          {
            "UseOwnerGroup": true,
            "UseGroup": 374,
            "UseID": 1,
            "StartAt": 1
          }
        ],
        "SlaveConfigList": []
      },
      "AIVariableSource": {},
      "ValueSource": {},
      "CampID": 3,
      "BattleArea": {
        "GroupID": 1,
        "ID": 2
      },
      "EventID": 20332112,
      "BoardShowList": [
        4
      ],
      "TagList": [],
      "SpawnConfig": {
        "EntitySpawnConfig": {}
      },
      "TagContainer": {}
    },
    {
      "ID": 200004,
      "PosX": -104.418,
      "PosY": 0.670052,
      "PosZ": 246.1549,
      "Name": "Monster4",
      "RotY": 69.75388,
      "NPCMonsterID": 3002030,
      "AIConfig": {
        "PathwayList": [],
        "SlaveConfigList": []
      },
      "AIVariableSource": {},
      "ValueSource": {},
      "CampID": 3,
      "BattleArea": {
        "GroupID": 1,
        "ID": 2
      },
      "EventID": 20332113,
      "BoardShowList": [
        4
      ],
      "TagList": [],
      "SpawnConfig": {
        "EntitySpawnConfig": {}
      },
      "TagContainer": {}
    },
    {
      "ID": 200005,
      "PosX": -103.8548,
      "PosY": 0.670044,
      "PosZ": 240.7584,
      "Name": "Monster5",
      "RotY": 67.50707,
      "NPCMonsterID": 3002040,
      "AIConfig": {
        "PathwayList": [],
        "SlaveConfigList": []
      },
      "AIVariableSource": {},
      "ValueSource": {},
      "CampID": 3,
      "BattleArea": {
        "GroupID": 1,
        "ID": 2
      },
      "InitialAnimState": "SpecialStandBy1",
      "EventID": 20332114,
      "BoardShowList": [
        4
      ],
      "TagList": [],
      "SpawnConfig": {
        "EntitySpawnConfig": {}
      },
      "TagContainer": {}
    },
    {
      "ID": 200006,
      "PosX": 53.9471,
      "PosY": 2.432144,
      "PosZ": 187.784,
      "Name": "Monster6",
      "RotY": 329.2877,
      "NPCMonsterID": 3002040,
      "AIConfig": {
        "PathwayList": [],
        "SlaveConfigList": []
      },
      "AIVariableSource": {},
      "ValueSource": {},
      "CampID": 3,
      "BattleArea": {
        "GroupID": 1,
        "ID": 2
      },
      "EventID": 20332115,
      "BoardShowList": [
        4
      ],
      "TagList": [],
      "SpawnConfig": {
        "EntitySpawnConfig": {}
      },
      "TagContainer": {}
    },
    {
      "ID": 200007,
      "PosX": 57.23264,
      "PosY": 2.432137,
      "PosZ": 188.1857,
      "Name": "Monster7",
      "RotY": 321.0177,
      "NPCMonsterID": 3002030,
      "AIConfig": {
        "PathwayList": [],
        "SlaveConfigList": []
      },
      "AIVariableSource": {},
      "ValueSource": {},
      "CampID": 3,
      "BattleArea": {
        "GroupID": 1,
        "ID": 2
      },
      "EventID": 20332116,
      "BoardShowList": [
        4
      ],
      "TagList": [],
      "SpawnConfig": {
        "EntitySpawnConfig": {}
      },
      "TagContainer": {}
    },
    {
      "ID": 200008,
      "PosX": 73.4733,
      "PosY": 0.670059,
      "PosZ": 225.8682,
      "Name": "Monster8",
      "RotY": 301.863,
      "NPCMonsterID": 3002020,
      "AIConfig": {
        "PathwayList": [],
        "SlaveConfigList": []
      },
      "AIVariableSource": {},
      "ValueSource": {},
      "CampID": 3,
      "BattleArea": {
        "GroupID": 1,
        "ID": 2
      },
      "EventID": 20332117,
      "BoardShowList": [
        4
      ],
      "TagList": [],
      "SpawnConfig": {
        "EntitySpawnConfig": {}
      },
      "TagContainer": {}
    },
    {
      "ID": 200009,
      "PosX": 97.29607,
      "PosY": 0.670044,
      "PosZ": 235.9014,
      "Name": "Monster9",
      "RotY": 321.0177,
      "NPCMonsterID": 3002030,
      "AIConfig": {
        "PathwayList": [
          {
            "UseOwnerGroup": true,
            "UseGroup": 374,
            "UseID": 2,
            "StartAt": 3
          }
        ],
        "SlaveConfigList": []
      },
      "AIVariableSource": {},
      "ValueSource": {},
      "CampID": 3,
      "BattleArea": {
        "GroupID": 1,
        "ID": 2
      },
      "EventID": 20332118,
      "BoardShowList": [
        4
      ],
      "TagList": [],
      "SpawnConfig": {
        "EntitySpawnConfig": {}
      },
      "TagContainer": {}
    },
    {
      "ID": 200010,
      "PosX": 115.7156,
      "PosY": 0.670044,
      "PosZ": 259.1633,
      "Name": "Monster10",
      "RotY": 202.5469,
      "NPCMonsterID": 3002020,
      "AIConfig": {
        "PathwayList": [],
        "SlaveConfigList": []
      },
      "AIVariableSource": {},
      "ValueSource": {},
      "CampID": 3,
      "BattleArea": {
        "GroupID": 1,
        "ID": 2
      },
      "InitialAnimState": "SpecialStandBy1",
      "EventID": 20332119,
      "BoardShowList": [
        4
      ],
      "TagList": [],
      "SpawnConfig": {
        "EntitySpawnConfig": {}
      },
      "TagContainer": {}
    },
    {
      "ID": 200011,
      "PosX": -62.95,
      "PosY": 0.733223,
      "PosZ": 229.19,
      "Name": "Monster11",
      "RotY": 60.0,
      "NPCMonsterID": 3002030,
      "AIConfig": {
        "PathwayList": [],
        "SlaveConfigList": []
      },
      "AIVariableSource": {},
      "ValueSource": {},
      "CampID": 3,
      "BattleArea": {
        "GroupID": 1,
        "ID": 2
      },
      "EventID": 20332108,
      "BoardShowList": [
        4
      ],
      "TagList": [],
      "SpawnConfig": {
        "EntitySpawnConfig": {}
      },
      "TagContainer": {}
    },
    {
      "ID": 200012,
      "PosX": 61.85,
      "PosY": 0.633606,
      "PosZ": 230.57,
      "Name": "Monster12",
      "RotY": 310.0,
      "NPCMonsterID": 3002030,
      "AIConfig": {
        "PathwayList": [],
        "SlaveConfigList": []
      },
      "AIVariableSource": {},
      "ValueSource": {},
      "CampID": 3,
      "BattleArea": {
        "GroupID": 1,
        "ID": 2
      },
      "InitialAnimState": "SpecialStandBy1",
      "EventID": 20332109,
      "BoardShowList": [
        4
      ],
      "TagList": [],
      "SpawnConfig": {
        "EntitySpawnConfig": {}
      },
      "TagContainer": {}
    }
  ],
  "PropList": [],
  "NPCList": []
}