{
  "GroupGUID": "6c5a7006-25fd-4311-be5d-50a615e8d038",
  "GroupName": "VolumeIn_MPF_02",
  "LevelGraph": "Config/Level/GroupGraph/F20332001/Group_F20332001_G245.json",
  "AreaAnchorName": "LevelArea_P20332_F20332001_G245",
  "SaveDimensionFilter": {},
  "SavedValueCondition": {
    "Conditions": [
      {
        "SavedValueName": "GravityChallengeDifficulty",
        "Operation": "Equal",
        "Value": 3
      }
    ],
    "Operation": "And"
  },
  "LoadSide": "Server",
  "LoadOnInitial": true,
  "GroupStateList": [
    {
      "DstState": 1
    },
    {
      "SrcState": 1
    }
  ],
  "ValueSource": {
    "Values": []
  },
  "ConflictIDList": [],
  "IsHoyoGroup": true,
  "ConflictWhiteList": [],
  "TagContainer": {},
  "AnchorList": [
    {
      "ID": 1,
      "PosX": -494.98,
      "PosY": 9.11,
      "PosZ": -264.03,
      "Name": "Anchor1",
      "RotY": 270.0,
      "RotZ": 90.0
    },
    {
      "ID": 2,
      "PosX": -494.98,
      "PosY": 9.11,
      "PosZ": -294.03,
      "Name": "Anchor2",
      "RotY": 270.0,
      "RotZ": 90.0
    },
    {
      "ID": 3,
      "PosX": -497.92,
      "PosY": 15.15,
      "PosZ": -257.99,
      "Name": "MPF_Pos1",
      "RotY": 180.0,
      "RotX": 90.0
    },
    {
      "ID": 4,
      "PosX": -497.92,
      "PosY": 15.15,
      "PosZ": -287.99,
      "Name": "MPF_Pos2",
      "RotY": 180.0,
      "RotX": 90.0
    },
    {
      "ID": 5,
      "PosX": -515.63,
      "PosY": 23.57,
      "PosZ": -252.43,
      "Name": "ControllerCam",
      "RotY": 137.1263,
      "RotX": 15.59541,
      "RotZ": 178.2077,
      "Usage": "Camera",
      "CustomParameter": {
        "$type": "LevelAnchorCameraParameter",
        "fov": 55.0
      }
    },
    {
      "ID": 6,
      "PosX": -498.02,
      "PosY": 9.11,
      "PosZ": -261.03,
      "Name": "Anchor3",
      "RotY": -2.4E-5,
      "RotZ": 90.0
    },
    {
      "ID": 7,
      "PosX": -498.02,
      "PosY": 9.11,
      "PosZ": -291.03,
      "Name": "Anchor4",
      "RotY": -2.4E-5,
      "RotZ": 90.0
    }
  ],
  "MonsterList": [],
  "PropList": [
    {
      "ID": 300001,
      "PosX": -495.02,
      "PosY": 9.11,
      "PosZ": -264.03,
      "Name": "VolumeIn-2Point",
      "RotY": 270.0,
      "RotZ": 90.0,
      "PropID": 103147,
      "ValueSource": {
        "Values": [
          {
            "$type": "SharedString",
            "Key": "Anchor01",
            "Value": "LevelArea_P20332_F20332001_G245,Anchor1"
          },
          {
            "$type": "SharedString",
            "Key": "Anchor02",
            "Value": "LevelArea_P20332_F20332001_G245,Anchor2"
          },
          {
            "$type": "SharedFloat",
            "Key": "CustomState02_Usable"
          },
          {
            "$type": "SharedUint",
            "Key": "IsExtraReverseBubble",
            "Value": 2
          }
        ]
      },
      "CampID": 4,
      "State": "CustomState01",
      "CustomTriggerMap": {},
      "CustomTriggerMapV2": {},
      "BridgeStateRotations": [],
      "DialogueGroups": [],
      "TalkDialogGroupIDList": [],
      "ServerInteractVerificationIDList": [],
      "OverrideMapStateIcons": [
        {
          "State": "CustomState01",
          "IconID": 171,
          "Color": "#ffffff",
          "AnchorKey": "LevelArea_P20332_F20332001_G245,Anchor1"
        },
        {
          "State": "CustomState02",
          "IconID": 171,
          "Color": "#ffffff",
          "AnchorKey": "LevelArea_P20332_F20332001_G245,Anchor2"
        }
      ],
      "TriggerValidGuest": {},
      "TagContainer": {},
      "CameraCenterEntityList": [],
      "SpawnConfig": {
        "EntitySpawnConfig": {}
      }
    },
    {
      "ID": 300002,
      "PosX": -505.07,
      "PosY": 26.97997,
      "PosZ": -284.02,
      "Name": "Controller_GravityMPF",
      "RotY": 270.0,
      "RotZ": 180.0,
      "PropID": 103192,
      "IsOverrideInitLevelGraph": true,
      "InitLevelGraph": "Config/Level/Props/Chap03/InitLevelGraph_Prop_Chap03_ControllerGravityMPF_01.json",
      "ValueSource": {
        "Values": [
          {
            "$type": "SharedString",
            "Key": "ControllerCam",
            "Value": "LevelArea_P20332_F20332001_G245,ControllerCam"
          }
        ]
      },
      "CampID": 4,
      "CustomTriggerMap": {},
      "CustomTriggerMapV2": {},
      "BridgeStateRotations": [],
      "DialogueGroups": [],
      "TalkDialogGroupIDList": [],
      "ServerInteractVerificationIDList": [],
      "TriggerValidGuest": {},
      "TagContainer": {},
      "CameraCenterEntityList": [],
      "SpawnConfig": {
        "EntitySpawnConfig": {}
      }
    },
    {
      "ID": 300003,
      "PosX": -497.92,
      "PosY": 15.15,
      "PosZ": -257.99,
      "Name": "GravityMPF",
      "RotY": 180.0,
      "RotX": 90.0,
      "PropID": 103191,
      "ValueSource": {
        "Values": [
          {
            "$type": "SharedString",
            "Key": "Pos1",
            "Value": "LevelArea_P20332_F20332001_G245,MPF_Pos1"
          },
          {
            "$type": "SharedString",
            "Key": "Pos2",
            "Value": "LevelArea_P20332_F20332001_G245,MPF_Pos2"
          },
          {
            "$type": "SharedFloat",
            "Key": "MoveDuration",
            "Value": 3.0
          }
        ]
      },
      "CampID": 4,
      "CustomTriggerMap": {},
      "CustomTriggerMapV2": {},
      "BridgeStateRotations": [],
      "DialogueGroups": [],
      "TalkDialogGroupIDList": [],
      "ServerInteractVerificationIDList": [],
      "OverrideMapStateIcons": [
        {
          "IconID": 179,
          "AnchorKey": "LevelArea_P20332_F20332001_G245,MPF_Pos1"
        },
        {
          "State": "Open",
          "IconID": 179,
          "AnchorKey": "LevelArea_P20332_F20332001_G245,MPF_Pos2"
        }
      ],
      "TriggerValidGuest": {},
      "TagContainer": {},
      "CameraCenterEntityList": [],
      "SpawnConfig": {
        "EntitySpawnConfig": {}
      }
    },
    {
      "ID": 300004,
      "PosX": -497.81,
      "PosY": 12.09,
      "PosZ": -275.54,
      "Name": "TrackingEff_01",
      "RotZ": 270.0,
      "Scale": {
        "x": 1.0,
        "y": 1.0,
        "z": 1.94
      },
      "PropID": 103092,
      "IsOverrideInitLevelGraph": true,
      "InitLevelGraph": "Config/Level/Props/Chap03/InitLevelGraph_Prop_Chap03_GravityMpfTrackEff_01.json",
      "ValueSource": {},
      "CampID": 4,
      "CustomTriggerMap": {},
      "CustomTriggerMapV2": {},
      "BridgeStateRotations": [],
      "DialogueGroups": [],
      "TalkDialogGroupIDList": [],
      "ServerInteractVerificationIDList": [],
      "TriggerValidGuest": {},
      "TagContainer": {},
      "CameraCenterEntityList": [],
      "SpawnConfig": {
        "EntitySpawnConfig": {}
      }
    },
    {
      "ID": 300005,
      "PosX": -497.81,
      "PosY": 12.09,
      "PosZ": -276.62,
      "Name": "TrackingEff_02",
      "RotY": 180.0,
      "RotZ": 90.0,
      "Scale": {
        "x": 1.0,
        "y": 1.0,
        "z": 1.94
      },
      "PropID": 103092,
      "IsOverrideInitLevelGraph": true,
      "InitLevelGraph": "Config/Level/Props/Chap03/InitLevelGraph_Prop_Chap03_GravityMpfTrackEff_01.json",
      "ValueSource": {},
      "CampID": 4,
      "CustomTriggerMap": {},
      "CustomTriggerMapV2": {},
      "BridgeStateRotations": [],
      "DialogueGroups": [],
      "TalkDialogGroupIDList": [],
      "ServerInteractVerificationIDList": [],
      "TriggerValidGuest": {},
      "TagContainer": {},
      "CameraCenterEntityList": [],
      "SpawnConfig": {
        "EntitySpawnConfig": {}
      }
    },
    {
      "ID": 300006,
      "PosX": -498.02,
      "PosY": 9.11,
      "PosZ": -261.03,
      "Name": "VolumeIn-2Point",
      "RotY": -2.4E-5,
      "RotZ": 90.0,
      "PropID": 103147,
      "ValueSource": {
        "Values": [
          {
            "$type": "SharedString",
            "Key": "Anchor01",
            "Value": "LevelArea_P20332_F20332001_G245,Anchor3"
          },
          {
            "$type": "SharedString",
            "Key": "Anchor02",
            "Value": "LevelArea_P20332_F20332001_G245,Anchor4"
          },
          {
            "$type": "SharedFloat",
            "Key": "CustomState01_Usable"
          },
          {
            "$type": "SharedUint",
            "Key": "IsExtraReverseBubble",
            "Value": 2
          }
        ]
      },
      "CampID": 4,
      "State": "CustomState01",
      "CustomTriggerMap": {},
      "CustomTriggerMapV2": {},
      "BridgeStateRotations": [],
      "DialogueGroups": [],
      "TalkDialogGroupIDList": [],
      "ServerInteractVerificationIDList": [],
      "OverrideMapStateIcons": [
        {
          "State": "CustomState01",
          "IconID": 171,
          "Color": "#ffffff",
          "AnchorKey": "LevelArea_P20332_F20332001_G245,Anchor3"
        },
        {
          "State": "CustomState02",
          "IconID": 171,
          "Color": "#ffffff",
          "AnchorKey": "LevelArea_P20332_F20332001_G245,Anchor4"
        }
      ],
      "TriggerValidGuest": {},
      "TagContainer": {},
      "CameraCenterEntityList": [],
      "SpawnConfig": {
        "EntitySpawnConfig": {}
      }
    },
    {
      "ID": 300007,
      "PosX": 437.71,
      "PosY": 7.979996,
      "PosZ": 146.5051,
      "IsDelete": true,
      "Name": "Controller_GravityMPF",
      "RotY": 180.0,
      "RotX": 270.0,
      "PropID": 103192,
      "IsOverrideInitLevelGraph": true,
      "InitLevelGraph": "Config/Level/Props/Chap03/InitLevelGraph_Prop_Chap03_ControllerGravityMPF_01.json",
      "ValueSource": {
        "Values": [
          {
            "$type": "SharedString",
            "Key": "ControllerCam",
            "Value": "LevelArea_P20332_F20332001_G245,ControllerCam"
          }
        ]
      },
      "CampID": 4,
      "CustomTriggerMap": {},
      "CustomTriggerMapV2": {},
      "BridgeStateRotations": [],
      "DialogueGroups": [],
      "TalkDialogGroupIDList": [],
      "ServerInteractVerificationIDList": [],
      "TriggerValidGuest": {},
      "TagContainer": {},
      "CameraCenterEntityList": [],
      "SpawnConfig": {
        "EntitySpawnConfig": {}
      }
    },
    {
      "ID": 300008,
      "PosX": -494.93,
      "PosY": 15.06999,
      "PosZ": -264.03,
      "Name": "FitEff_01",
      "RotX": 270.0,
      "PropID": 103085,
      "IsOverrideInitLevelGraph": true,
      "InitLevelGraph": "Config/Level/Props/Chap03/InitLevelGraph_Prop_Chap03_GravityMpfFitEff_01.json",
      "ValueSource": {},
      "CampID": 4,
      "CustomTriggerMap": {},
      "CustomTriggerMapV2": {},
      "BridgeStateRotations": [],
      "DialogueGroups": [],
      "TalkDialogGroupIDList": [],
      "ServerInteractVerificationIDList": [],
      "TriggerValidGuest": {},
      "TagContainer": {},
      "CameraCenterEntityList": [],
      "SpawnConfig": {
        "EntitySpawnConfig": {}
      }
    },
    {
      "ID": 300009,
      "PosX": -494.93,
      "PosY": 15.07,
      "PosZ": -294.03,
      "Name": "FitEff_02",
      "RotX": 270.0,
      "PropID": 103085,
      "IsOverrideInitLevelGraph": true,
      "InitLevelGraph": "Config/Level/Props/Chap03/InitLevelGraph_Prop_Chap03_GravityMpfFitEff_01.json",
      "ValueSource": {},
      "CampID": 4,
      "CustomTriggerMap": {},
      "CustomTriggerMapV2": {},
      "BridgeStateRotations": [],
      "DialogueGroups": [],
      "TalkDialogGroupIDList": [],
      "ServerInteractVerificationIDList": [],
      "TriggerValidGuest": {},
      "TagContainer": {},
      "CameraCenterEntityList": [],
      "SpawnConfig": {
        "EntitySpawnConfig": {}
      }
    },
    {
      "ID": 300010,
      "PosX": -494.93,
      "PosY": 9.06999,
      "PosZ": -264.03,
      "Name": "FitEff_01",
      "RotY": 180.0,
      "RotX": 90.0,
      "PropID": 103085,
      "IsOverrideInitLevelGraph": true,
      "InitLevelGraph": "Config/Level/Props/Chap03/InitLevelGraph_Prop_Chap03_GravityMpfFitEff_01.json",
      "ValueSource": {},
      "CampID": 4,
      "CustomTriggerMap": {},
      "CustomTriggerMapV2": {},
      "BridgeStateRotations": [],
      "DialogueGroups": [],
      "TalkDialogGroupIDList": [],
      "ServerInteractVerificationIDList": [],
      "TriggerValidGuest": {},
      "TagContainer": {},
      "CameraCenterEntityList": [],
      "SpawnConfig": {
        "EntitySpawnConfig": {}
      }
    },
    {
      "ID": 300011,
      "PosX": -494.93,
      "PosY": 9.069998,
      "PosZ": -294.03,
      "Name": "FitEff_02",
      "RotY": 180.0,
      "RotX": 90.0,
      "PropID": 103085,
      "IsOverrideInitLevelGraph": true,
      "InitLevelGraph": "Config/Level/Props/Chap03/InitLevelGraph_Prop_Chap03_GravityMpfFitEff_01.json",
      "ValueSource": {},
      "CampID": 4,
      "CustomTriggerMap": {},
      "CustomTriggerMapV2": {},
      "BridgeStateRotations": [],
      "DialogueGroups": [],
      "TalkDialogGroupIDList": [],
      "ServerInteractVerificationIDList": [],
      "TriggerValidGuest": {},
      "TagContainer": {},
      "CameraCenterEntityList": [],
      "SpawnConfig": {
        "EntitySpawnConfig": {}
      }
    },
    {
      "ID": 300012,
      "PosX": -494.93,
      "PosY": 15.06999,
      "PosZ": -258.03,
      "Name": "FitEff_01",
      "RotY": 180.0,
      "RotX": 270.0198,
      "PropID": 103085,
      "IsOverrideInitLevelGraph": true,
      "InitLevelGraph": "Config/Level/Props/Chap03/InitLevelGraph_Prop_Chap03_GravityMpfFitEff_01.json",
      "ValueSource": {},
      "CampID": 4,
      "CustomTriggerMap": {},
      "CustomTriggerMapV2": {},
      "BridgeStateRotations": [],
      "DialogueGroups": [],
      "TalkDialogGroupIDList": [],
      "ServerInteractVerificationIDList": [],
      "TriggerValidGuest": {},
      "TagContainer": {},
      "CameraCenterEntityList": [],
      "SpawnConfig": {
        "EntitySpawnConfig": {}
      }
    },
    {
      "ID": 300013,
      "PosX": -494.93,
      "PosY": 15.07,
      "PosZ": -288.03,
      "Name": "FitEff_02",
      "RotY": 180.0,
      "RotX": 270.0,
      "PropID": 103085,
      "IsOverrideInitLevelGraph": true,
      "InitLevelGraph": "Config/Level/Props/Chap03/InitLevelGraph_Prop_Chap03_GravityMpfFitEff_01.json",
      "ValueSource": {},
      "CampID": 4,
      "CustomTriggerMap": {},
      "CustomTriggerMapV2": {},
      "BridgeStateRotations": [],
      "DialogueGroups": [],
      "TalkDialogGroupIDList": [],
      "ServerInteractVerificationIDList": [],
      "TriggerValidGuest": {},
      "TagContainer": {},
      "CameraCenterEntityList": [],
      "SpawnConfig": {
        "EntitySpawnConfig": {}
      }
    },
    {
      "ID": 300014,
      "PosX": -494.93,
      "PosY": 9.06999,
      "PosZ": -258.03,
      "Name": "FitEff_01",
      "RotY": -5.8E-5,
      "RotX": 89.98022,
      "PropID": 103085,
      "IsOverrideInitLevelGraph": true,
      "InitLevelGraph": "Config/Level/Props/Chap03/InitLevelGraph_Prop_Chap03_GravityMpfFitEff_01.json",
      "ValueSource": {},
      "CampID": 4,
      "CustomTriggerMap": {},
      "CustomTriggerMapV2": {},
      "BridgeStateRotations": [],
      "DialogueGroups": [],
      "TalkDialogGroupIDList": [],
      "ServerInteractVerificationIDList": [],
      "TriggerValidGuest": {},
      "TagContainer": {},
      "CameraCenterEntityList": [],
      "SpawnConfig": {
        "EntitySpawnConfig": {}
      }
    },
    {
      "ID": 300015,
      "PosX": -494.93,
      "PosY": 9.069998,
      "PosZ": -288.03,
      "Name": "FitEff_02",
      "RotY": -1.0E-6,
      "RotX": 90.0,
      "PropID": 103085,
      "IsOverrideInitLevelGraph": true,
      "InitLevelGraph": "Config/Level/Props/Chap03/InitLevelGraph_Prop_Chap03_GravityMpfFitEff_01.json",
      "ValueSource": {},
      "CampID": 4,
      "CustomTriggerMap": {},
      "CustomTriggerMapV2": {},
      "BridgeStateRotations": [],
      "DialogueGroups": [],
      "TalkDialogGroupIDList": [],
      "ServerInteractVerificationIDList": [],
      "TriggerValidGuest": {},
      "TagContainer": {},
      "CameraCenterEntityList": [],
      "SpawnConfig": {
        "EntitySpawnConfig": {}
      }
    },
    {
      "ID": 300016,
      "PosX": -491.93,
      "PosY": 15.06999,
      "PosZ": -261.03,
      "Name": "FitEff_01",
      "RotY": 270.0,
      "RotX": 270.0,
      "PropID": 103085,
      "IsOverrideInitLevelGraph": true,
      "InitLevelGraph": "Config/Level/Props/Chap03/InitLevelGraph_Prop_Chap03_GravityMpfFitEff_01.json",
      "ValueSource": {},
      "CampID": 4,
      "CustomTriggerMap": {},
      "CustomTriggerMapV2": {},
      "BridgeStateRotations": [],
      "DialogueGroups": [],
      "TalkDialogGroupIDList": [],
      "ServerInteractVerificationIDList": [],
      "TriggerValidGuest": {},
      "TagContainer": {},
      "CameraCenterEntityList": [],
      "SpawnConfig": {
        "EntitySpawnConfig": {}
      }
    },
    {
      "ID": 300017,
      "PosX": -491.93,
      "PosY": 9.069989,
      "PosZ": -261.03,
      "Name": "FitEff_01",
      "RotY": 90.00007,
      "RotX": 90.0,
      "PropID": 103085,
      "IsOverrideInitLevelGraph": true,
      "InitLevelGraph": "Config/Level/Props/Chap03/InitLevelGraph_Prop_Chap03_GravityMpfFitEff_01.json",
      "ValueSource": {},
      "CampID": 4,
      "CustomTriggerMap": {},
      "CustomTriggerMapV2": {},
      "BridgeStateRotations": [],
      "DialogueGroups": [],
      "TalkDialogGroupIDList": [],
      "ServerInteractVerificationIDList": [],
      "TriggerValidGuest": {},
      "TagContainer": {},
      "CameraCenterEntityList": [],
      "SpawnConfig": {
        "EntitySpawnConfig": {}
      }
    },
    {
      "ID": 300018,
      "PosX": -497.93,
      "PosY": 15.06999,
      "PosZ": -261.03,
      "Name": "FitEff_01",
      "RotY": 90.0,
      "RotX": 270.0,
      "PropID": 103085,
      "IsOverrideInitLevelGraph": true,
      "InitLevelGraph": "Config/Level/Props/Chap03/InitLevelGraph_Prop_Chap03_GravityMpfFitEff_01.json",
      "ValueSource": {},
      "CampID": 4,
      "CustomTriggerMap": {},
      "CustomTriggerMapV2": {},
      "BridgeStateRotations": [],
      "DialogueGroups": [],
      "TalkDialogGroupIDList": [],
      "ServerInteractVerificationIDList": [],
      "TriggerValidGuest": {},
      "TagContainer": {},
      "CameraCenterEntityList": [],
      "SpawnConfig": {
        "EntitySpawnConfig": {}
      }
    },
    {
      "ID": 300019,
      "PosX": -497.93,
      "PosY": 9.069991,
      "PosZ": -261.03,
      "Name": "FitEff_01",
      "RotY": 269.9999,
      "RotX": 90.0,
      "PropID": 103085,
      "IsOverrideInitLevelGraph": true,
      "InitLevelGraph": "Config/Level/Props/Chap03/InitLevelGraph_Prop_Chap03_GravityMpfFitEff_01.json",
      "ValueSource": {},
      "CampID": 4,
      "CustomTriggerMap": {},
      "CustomTriggerMapV2": {},
      "BridgeStateRotations": [],
      "DialogueGroups": [],
      "TalkDialogGroupIDList": [],
      "ServerInteractVerificationIDList": [],
      "TriggerValidGuest": {},
      "TagContainer": {},
      "CameraCenterEntityList": [],
      "SpawnConfig": {
        "EntitySpawnConfig": {}
      }
    },
    {
      "ID": 300020,
      "PosX": -491.93,
      "PosY": 15.07,
      "PosZ": -291.03,
      "Name": "FitEff_02",
      "RotY": 270.0,
      "RotX": 270.0,
      "PropID": 103085,
      "IsOverrideInitLevelGraph": true,
      "InitLevelGraph": "Config/Level/Props/Chap03/InitLevelGraph_Prop_Chap03_GravityMpfFitEff_01.json",
      "ValueSource": {},
      "CampID": 4,
      "CustomTriggerMap": {},
      "CustomTriggerMapV2": {},
      "BridgeStateRotations": [],
      "DialogueGroups": [],
      "TalkDialogGroupIDList": [],
      "ServerInteractVerificationIDList": [],
      "TriggerValidGuest": {},
      "TagContainer": {},
      "CameraCenterEntityList": [],
      "SpawnConfig": {
        "EntitySpawnConfig": {}
      }
    },
    {
      "ID": 300021,
      "PosX": -491.93,
      "PosY": 9.069997,
      "PosZ": -291.03,
      "Name": "FitEff_02",
      "RotY": 90.00007,
      "RotX": 90.0,
      "PropID": 103085,
      "IsOverrideInitLevelGraph": true,
      "InitLevelGraph": "Config/Level/Props/Chap03/InitLevelGraph_Prop_Chap03_GravityMpfFitEff_01.json",
      "ValueSource": {},
      "CampID": 4,
      "CustomTriggerMap": {},
      "CustomTriggerMapV2": {},
      "BridgeStateRotations": [],
      "DialogueGroups": [],
      "TalkDialogGroupIDList": [],
      "ServerInteractVerificationIDList": [],
      "TriggerValidGuest": {},
      "TagContainer": {},
      "CameraCenterEntityList": [],
      "SpawnConfig": {
        "EntitySpawnConfig": {}
      }
    },
    {
      "ID": 300022,
      "PosX": -497.93,
      "PosY": 15.07,
      "PosZ": -291.03,
      "Name": "FitEff_02",
      "RotY": 89.99998,
      "RotX": 270.0,
      "PropID": 103085,
      "IsOverrideInitLevelGraph": true,
      "InitLevelGraph": "Config/Level/Props/Chap03/InitLevelGraph_Prop_Chap03_GravityMpfFitEff_01.json",
      "ValueSource": {},
      "CampID": 4,
      "CustomTriggerMap": {},
      "CustomTriggerMapV2": {},
      "BridgeStateRotations": [],
      "DialogueGroups": [],
      "TalkDialogGroupIDList": [],
      "ServerInteractVerificationIDList": [],
      "TriggerValidGuest": {},
      "TagContainer": {},
      "CameraCenterEntityList": [],
      "SpawnConfig": {
        "EntitySpawnConfig": {}
      }
    },
    {
      "ID": 300023,
      "PosX": -497.93,
      "PosY": 9.069999,
      "PosZ": -291.03,
      "Name": "FitEff_02",
      "RotY": 270.0,
      "RotX": 90.0,
      "PropID": 103085,
      "IsOverrideInitLevelGraph": true,
      "InitLevelGraph": "Config/Level/Props/Chap03/InitLevelGraph_Prop_Chap03_GravityMpfFitEff_01.json",
      "ValueSource": {},
      "CampID": 4,
      "CustomTriggerMap": {},
      "CustomTriggerMapV2": {},
      "BridgeStateRotations": [],
      "DialogueGroups": [],
      "TalkDialogGroupIDList": [],
      "ServerInteractVerificationIDList": [],
      "TriggerValidGuest": {},
      "TagContainer": {},
      "CameraCenterEntityList": [],
      "SpawnConfig": {
        "EntitySpawnConfig": {}
      }
    }
  ],
  "NPCList": []
}