{
  "GroupGUID": "5cca3402-0d25-4901-b456-95c2f9a3feef",
  "GroupName": "OrigamiBird_Normal",
  "LevelGraph": "Config/Level/GroupTemplateGraph/Puzzle/OrigamiBird/OrigamiBird_Normal.json",
  "AreaAnchorName": "LevelArea_P20332_F20332001_G307",
  "SaveDimensionFilter": {},
  "SavedValueCondition": {
    "Conditions": [],
    "Operation": "And"
  },
  "IsPendedUnload": true,
  "LoadSide": "Server",
  "ValueSource": {
    "Values": [
      {
        "$type": "SharedString",
        "Key": "TriggerPerformance",
        "Value": "414032210"
      }
    ]
  },
  "ConflictIDList": [],
  "IsHoyoGroup": true,
  "ConflictWhiteList": [],
  "TagContainer": {},
  "AnchorList": [],
  "MonsterList": [],
  "PropList": [
    {
      "ID": 300001,
      "PosX": 85.82,
      "PosY": 8.945,
      "PosZ": 117.178,
      "Name": "Prop1",
      "RotY": 8.823973,
      "RotX": 25.21304,
      "RotZ": 93.63963,
      "Scale": {
        "x": 0.5,
        "y": 0.5,
        "z": 0.5
      },
      "PropID": 103025,
      "ValueSource": {
        "Values": [
          {
            "$type": "SharedString",
            "Key": "OverrideButtonText",
            "Value": "MazeText_Maze_OrigamiBird_Normal_PullOut"
          },
          {
            "$type": "SharedString",
            "Key": "OverrideButtonIcon",
            "Value": "SpriteOutput/TalkIcon/PickUpIcon.png"
          },
          {
            "$type": "SharedUint",
            "Key": "DefaultIsOverrideButton"
          }
        ]
      },
      "CampID": 4,
      "State": "EventClose",
      "EventID": 20332710,
      "CustomTriggerMap": {},
      "CustomTriggerMapV2": {
        "InteractTrigger": {
          "Radius": 4.0,
          "DimX": 2.0,
          "DimY": 2.0,
          "DimZ": 2.0,
          "PointList": []
        }
      },
      "BridgeStateRotations": [],
      "DialogueGroups": [],
      "TalkDialogGroupIDList": [],
      "ServerInteractVerificationIDList": [],
      "TriggerValidGuest": {},
      "TagContainer": {},
      "CameraCenterEntityList": [],
      "SpawnConfig": {
        "EntitySpawnConfig": {}
      }
    },
    {
      "ID": 300002,
      "PosX": 85.20259,
      "PosY": 7.263252,
      "PosZ": 117.1134,
      "Name": "Prop2",
      "PropID": 211,
      "IsOverrideInitLevelGraph": true,
      "ValueSource": {
        "Values": []
      },
      "CampID": 4,
      "State": "Open",
      "CustomTriggerMap": {},
      "CustomTriggerMapV2": {
        "InteractTrigger": {
          "Radius": 15.0,
          "PointList": []
        }
      },
      "BridgeStateRotations": [],
      "MappingInfoID": 10055,
      "DialogueGroups": [],
      "TalkDialogGroupIDList": [],
      "ServerInteractVerificationIDList": [],
      "OverrideMapIconType": 158,
      "OverrideMapStateIcons": [
        {
          "IconID": 158
        }
      ],
      "TriggerValidGuest": {},
      "TagContainer": {},
      "CameraCenterEntityList": [],
      "SpawnConfig": {
        "EntitySpawnConfig": {}
      }
    }
  ],
  "NPCList": [
    {
      "ID": 400001,
      "PosX": 82.248,
      "PosY": 7.259285,
      "PosZ": 114.287,
      "Name": "NPC1",
      "RotY": 217.6231,
      "NPCID": 3028,
      "ValueSource": {
        "Values": []
      },
      "CampID": 1,
      "StaticNPC": true,
      "DialogueGroups": [],
      "ServerInteractVerificationIDList": [],
      "BoardShowList": [
        2,
        4,
        8
      ],
      "TalkDialogGroupIDList": [],
      "DefaultAnimationType": "IdleState",
      "DefaultIdleFreeStyleMotionID": 900090266,
      "InitialHiddenNodeList": [],
      "TagContainer": {},
      "CameraCenterEntityList": [],
      "SpawnConfig": {
        "EntitySpawnConfig": {},
        "CaptureDistanceTolerance": 10.0
      },
      "IsClientOnly": true,
      "TriggerValidGuest": {}
    }
  ]
}