{
  "GroupGUID": "7086e24d-99c1-46da-a129-a6d43b4b073d",
  "GroupName": "MainMission8021501_New Group",
  "Category": "Mission",
  "LevelGraph": "Config/Level/GroupGraph/F20332001/Group_F20332001_G349.json",
  "AreaAnchorName": "LevelArea_P20332_F20332001_G349",
  "SaveType": "Reset",
  "OwnerMainMissionID": 8021501,
  "ValueSource": {},
  "ConflictIDList": [],
  "IsHoyoGroup": true,
  "ConflictWhiteList": [],
  "TagContainer": {},
  "AnchorList": [],
  "MonsterList": [],
  "PropList": [],
  "NPCList": []
}