{
  "GroupGUID": "f673f617-933e-44f9-9dd3-e92b880cbcd7",
  "GroupName": "MainMission8022103_05",
  "Category": "Mission",
  "LevelGraph": "Config/Level/GroupGraph/F20332001/Group_F20332001_G242.json",
  "AreaAnchorName": "LevelArea_P20332_F20332001_G242",
  "SaveType": "Reset",
  "OwnerMainMissionID": 8022103,
  "ValueSource": {},
  "ConflictIDList": [],
  "IsHoyoGroup": true,
  "ConflictWhiteList": [],
  "TagContainer": {},
  "AnchorList": [],
  "MonsterList": [],
  "PropList": [],
  "NPCList": []
}