{
  "GroupGUID": "ccc92b4b-16d6-4f56-a8b0-e082d168a846",
  "GroupName": "WolfMonster",
  "LevelGraph": "Config/Level/GroupGraph/F20332001/Group_F20332001_G80.json",
  "AreaAnchorName": "LevelArea_P20332_F20332001_G80",
  "SaveDimensionFilter": {},
  "SavedValueCondition": {
    "Conditions": [
      {
        "SavedValueName": "WolfBossPhase",
        "Operation": "Equal"
      },
      {
        "SavedValueName": "WolfBossPhase",
        "Operation": "Equal",
        "Value": 1
      }
    ],
    "Operation": "Or"
  },
  "IsPendedUnload": true,
  "LoadSide": "Server",
  "LoadOnInitial": true,
  "GroupStateList": [
    {
      "DstState": 1
    },
    {
      "SrcState": 1
    }
  ],
  "ValueSource": {},
  "ConflictIDList": [],
  "IsHoyoGroup": true,
  "ConflictWhiteList": [],
  "TagContainer": {},
  "AnchorList": [],
  "MonsterList": [
    {
      "ID": 200002,
      "PosX": 128.8002,
      "PosY": 14.35687,
      "PosZ": 105.7314,
      "Name": "Monster2",
      "RotY": 45.0,
      "NPCMonsterID": 3003013,
      "LevelGraph": "Config/Level/Props/Chap03/InitLevelGraph_Prop_Chap03_BossStun_01.json",
      "AIConfig": {
        "AIFile": "Config/ConfigAI/Adventure/NPCMonster/WolfBro_NPCMonster/ST_Gameplay_WolfBro_NPCMonster_Master.json",
        "PathwayList": [
          {
            "UseOwnerGroup": true,
            "UseGroup": 80,
            "UseID": 1
          }
        ],
        "SlaveConfigList": []
      },
      "AIVariableSource": {},
      "ValueSource": {
        "Values": []
      },
      "CampID": 3,
      "BattleArea": {},
      "Trigger": {
        "Radius": 1.0,
        "DimX": 1.0,
        "DimY": 1.0,
        "DimZ": 1.0,
        "PointList": []
      },
      "EventID": 10301299,
      "BoardShowList": [
        4
      ],
      "TagList": [],
      "SpawnConfig": {
        "OverrideSpawn": true,
        "EntitySpawnConfig": {}
      },
      "TagContainer": {}
    }
  ],
  "PropList": [
    {
      "ID": 300001,
      "PosX": 128.8002,
      "PosY": 14.35687,
      "PosZ": 105.7314,
      "Name": "Prop1",
      "RotY": 45.0,
      "PropID": 100,
      "IsOverrideInitLevelGraph": true,
      "InitLevelGraph": "Config/Level/Props/Chap03/InitLevelGraph_Prop_Chap03_ShowGroupMonsterVision_01.json",
      "ValueSource": {},
      "CampID": 4,
      "CustomTriggerMap": {},
      "CustomTriggerMapV2": {},
      "BridgeStateRotations": [],
      "DialogueGroups": [],
      "TalkDialogGroupIDList": [],
      "ServerInteractVerificationIDList": [],
      "TriggerValidGuest": {},
      "TagContainer": {},
      "CameraCenterEntityList": [],
      "SpawnConfig": {
        "EntitySpawnConfig": {}
      }
    },
    {
      "ID": 300002,
      "PosX": 132.83,
      "PosY": 14.42581,
      "PosZ": 131.24,
      "Name": "Prop2",
      "RotY": 315.0,
      "Scale": {
        "x": 12.59494,
        "y": 1.0,
        "z": 1.0
      },
      "PropID": 102,
      "ValueSource": {},
      "CampID": 4,
      "CustomTriggerMap": {},
      "CustomTriggerMapV2": {},
      "BridgeStateRotations": [],
      "DialogueGroups": [],
      "TalkDialogGroupIDList": [],
      "ServerInteractVerificationIDList": [],
      "TriggerValidGuest": {},
      "TagContainer": {},
      "CameraCenterEntityList": [],
      "SpawnConfig": {
        "EntitySpawnConfig": {}
      }
    }
  ],
  "NPCList": []
}