{
  "GroupGUID": "a2b5b27f-5ba4-47cb-8b9b-6225e6525cbf",
  "GroupName": "MainMission8022103_01",
  "Category": "Mission",
  "AreaAnchorName": "LevelArea_P20332_F20332001_G238",
  "SaveType": "Reset",
  "OwnerMainMissionID": 8022103,
  "ValueSource": {},
  "ConflictIDList": [],
  "IsHoyoGroup": true,
  "HoYoGroupType": "Container",
  "ConflictWhiteList": [],
  "TagContainer": {},
  "AnchorList": [
    {
      "ID": 1,
      "PosX": 112.23,
      "PosY": 13.74995,
      "PosZ": 151.92,
      "Name": "Anchor1",
      "RotY": 34.05842
    },
    {
      "ID": 2,
      "PosX": 117.046,
      "PosY": 15.24995,
      "PosZ": 153.994,
      "Name": "Anchor2"
    }
  ],
  "MonsterList": [],
  "PropList": [
    {
      "ID": 300001,
      "PosX": 114.849,
      "PosY": 15.25185,
      "PosZ": 155.565,
      "Name": "Prop1",
      "PropID": 100,
      "ValueSource": {},
      "Trigger": {
        "Radius": 1.5,
        "DimX": 1.0,
        "DimY": 1.0,
        "DimZ": 1.0,
        "PointList": []
      },
      "CampID": 4,
      "OverrideHintRange": 15.0,
      "CustomTriggerMap": {},
      "CustomTriggerMapV2": {},
      "BridgeStateRotations": [],
      "DialogueGroups": [],
      "TalkDialogGroupIDList": [],
      "ServerInteractVerificationIDList": [],
      "Dialog": {
        "LevelGraph": "Config/Level/PropDialogue/P20332/F20332001_G238/DialogueMain_F20332001_G238_P300001.json",
        "PackList": []
      },
      "InteractIconType": "ChatIcon",
      "InteractTitle": {
        "Hash": 278713937
      },
      "TriggerValidGuest": {},
      "TagContainer": {},
      "CameraCenterEntityList": [],
      "SpawnConfig": {
        "EntitySpawnConfig": {}
      }
    }
  ],
  "NPCList": []
}