{
  "GroupGUID": "e25eae46-2420-4c9c-9572-e29cacd0b02a",
  "GroupName": "sound-reverb",
  "AreaAnchorName": "LevelArea_P20332_F20332001_G424",
  "SaveType": "Reset",
  "SavedValueCondition": {
    "Conditions": [],
    "Operation": "And"
  },
  "LoadOnInitial": true,
  "ValueSource": {},
  "ConflictIDList": [],
  "IsHoyoGroup": true,
  "HoYoGroupType": "Container",
  "ConflictWhiteList": [],
  "TagContainer": {
    "List": [
      {
        "Tag": "Group.Audio.Sound",
        "TagHash": 1757672304
      }
    ]
  },
  "AnchorList": [],
  "MonsterList": [],
  "PropList": [],
  "NPCList": []
}