{
  "GroupGUID": "1d0858c7-5d31-4985-b61a-160b2811baed",
  "GroupName": "FramePortal",
  "AreaAnchorName": "LevelArea_P20332_F20332001_G24",
  "SaveDimensionFilter": {},
  "SavedValueCondition": {
    "Conditions": [],
    "Operation": "And"
  },
  "LoadSide": "Server",
  "LoadOnInitial": true,
  "ValueSource": {},
  "ConflictIDList": [],
  "IsHoyoGroup": true,
  "ConflictWhiteList": [],
  "TagContainer": {},
  "AnchorList": [
    {
      "ID": 10,
      "PosX": 354.64,
      "PosY": 12.16099,
      "PosZ": 196.96,
      "Name": "Room01_Inside_Startpoint",
      "RotY": 90.0
    },
    {
      "ID": 11,
      "PosX": 487.665,
      "PosY": 29.60658,
      "PosZ": 220.828,
      "Name": "Room01_Inside_E",
      "RotY": 88.0136,
      "Usage": "Camera",
      "CustomParameter": {
        "$type": "LevelAnchorCameraParameter"
      }
    },
    {
      "ID": 12,
      "PosX": 480.06,
      "PosY": 31.78,
      "PosZ": 219.32,
      "Name": "Room01_Inside_S",
      "RotY": 77.10348,
      "RotX": 17.42947,
      "RotZ": 2.0E-6,
      "Usage": "Camera",
      "CustomParameter": {
        "$type": "LevelAnchorCameraParameter"
      }
    }
  ],
  "MonsterList": [],
  "PropList": [
    {
      "ID": 300003,
      "PosX": 488.5514,
      "PosY": 27.91,
      "PosZ": 220.88,
      "Name": "Room_01_Back",
      "RotY": 270.0,
      "PropID": 103013,
      "IsOverrideInitLevelGraph": true,
      "InitLevelGraph": "Config/Level/Props/Chap03/InitLevelGraph_Prop_Chap03_Portal_01.json",
      "ValueSource": {
        "Values": [
          {
            "$type": "SharedUint",
            "Key": "TargetRegionIndex",
            "Value": 1
          },
          {
            "$type": "SharedUint",
            "Key": "TargetAnchorGroupID",
            "Value": 50
          },
          {
            "$type": "SharedUint",
            "Key": "TargetAnchorInstanceID",
            "Value": 2
          },
          {
            "$type": "SharedString",
            "Key": "CameraAnchorRef01",
            "Value": "LevelArea_P20332_F20332001_G24,Room01_Inside_S"
          },
          {
            "$type": "SharedString",
            "Key": "CameraAnchorRef02",
            "Value": "LevelArea_P20332_F20332001_G24,Room01_Inside_E"
          }
        ]
      },
      "CampID": 4,
      "State": "Open",
      "CustomTriggerMap": {},
      "CustomTriggerMapV2": {
        "InteractTrigger": {
          "Radius": 3.0,
          "PointList": [],
          "Server": true
        }
      },
      "BridgeStateRotations": [],
      "DialogueGroups": [],
      "TalkDialogGroupIDList": [],
      "ServerInteractVerificationIDList": [],
      "TriggerValidGuest": {
        "TargetList": []
      },
      "TagContainer": {
        "List": []
      },
      "CameraCenterEntityList": [],
      "SpawnConfig": {
        "EntitySpawnConfig": {}
      }
    }
  ],
  "NPCList": []
}