{
  "GroupGUID": "e08e268a-496b-403f-95c0-a1b47ecaf975",
  "GroupName": "VolumeIn_MPF_02",
  "LevelGraph": "Config/Level/GroupGraph/F20332001/Group_F20332001_G252.json",
  "AreaAnchorName": "LevelArea_P20332_F20332001_G252",
  "SaveDimensionFilter": {},
  "SavedValueCondition": {
    "Conditions": [
      {
        "SavedValueName": "GravityChallengeDifficulty",
        "Operation": "Equal",
        "Value": 2
      }
    ],
    "Operation": "And"
  },
  "LoadSide": "Server",
  "LoadOnInitial": true,
  "GroupStateList": [
    {
      "DstState": 1
    },
    {
      "SrcState": 1
    }
  ],
  "ValueSource": {
    "Values": []
  },
  "ConflictIDList": [],
  "IsHoyoGroup": true,
  "ConflictWhiteList": [],
  "TagContainer": {},
  "AnchorList": [
    {
      "ID": 1,
      "PosX": -494.91,
      "PosY": 9.0,
      "PosZ": -264.03,
      "Name": "Anchor1",
      "RotY": 270.0,
      "RotZ": 90.0
    },
    {
      "ID": 2,
      "PosX": -494.91,
      "PosY": 9.0,
      "PosZ": -294.03,
      "Name": "Anchor2",
      "RotY": 270.0,
      "RotZ": 90.0
    },
    {
      "ID": 3,
      "PosX": -497.81,
      "PosY": 15.04,
      "PosZ": -257.99,
      "Name": "MPF_Pos1",
      "RotY": 180.0,
      "RotX": 90.0
    },
    {
      "ID": 4,
      "PosX": -497.81,
      "PosY": 15.04,
      "PosZ": -287.99,
      "Name": "MPF_Pos2",
      "RotY": 180.0,
      "RotX": 90.0
    },
    {
      "ID": 5,
      "PosX": -475.16,
      "PosY": 28.29,
      "PosZ": -301.48,
      "Name": "ControllerCam",
      "RotY": 315.1679,
      "RotX": 35.52023,
      "RotZ": 1.092611,
      "Usage": "Camera",
      "CustomParameter": {
        "$type": "LevelAnchorCameraParameter"
      }
    },
    {
      "ID": 6,
      "PosX": -491.787,
      "PosY": 9.0,
      "PosZ": -261.03,
      "Name": "Anchor3",
      "RotY": 180.0,
      "RotZ": 90.0
    },
    {
      "ID": 7,
      "PosX": -491.787,
      "PosY": 9.0,
      "PosZ": -291.03,
      "Name": "Anchor4",
      "RotY": 180.0,
      "RotZ": 90.0
    }
  ],
  "MonsterList": [],
  "PropList": [
    {
      "ID": 300001,
      "PosX": -494.91,
      "PosY": 9.0,
      "PosZ": -264.03,
      "Name": "VolumeIn-2Point",
      "RotY": 270.0,
      "RotZ": 90.0,
      "PropID": 103147,
      "ValueSource": {
        "Values": [
          {
            "$type": "SharedString",
            "Key": "Anchor01",
            "Value": "LevelArea_P20332_F20332001_G252,Anchor1"
          },
          {
            "$type": "SharedString",
            "Key": "Anchor02",
            "Value": "LevelArea_P20332_F20332001_G252,Anchor2"
          },
          {
            "$type": "SharedFloat",
            "Key": "CustomState02_Usable"
          },
          {
            "$type": "SharedUint",
            "Key": "IsExtraReverseBubble",
            "Value": 2
          }
        ]
      },
      "CampID": 4,
      "State": "CustomState01",
      "CustomTriggerMap": {},
      "CustomTriggerMapV2": {},
      "BridgeStateRotations": [],
      "DialogueGroups": [],
      "TalkDialogGroupIDList": [],
      "ServerInteractVerificationIDList": [],
      "OverrideMapStateIcons": [
        {
          "State": "CustomState01",
          "IconID": 171,
          "Color": "#ffffff",
          "AnchorKey": "LevelArea_P20332_F20332001_G252,Anchor1"
        },
        {
          "State": "CustomState02",
          "IconID": 171,
          "Color": "#ffffff",
          "AnchorKey": "LevelArea_P20332_F20332001_G252,Anchor2"
        }
      ],
      "TriggerValidGuest": {},
      "TagContainer": {},
      "CameraCenterEntityList": [],
      "SpawnConfig": {
        "EntitySpawnConfig": {}
      }
    },
    {
      "ID": 300002,
      "PosX": -503.2275,
      "PosY": 9.034041,
      "PosZ": -272.983,
      "Name": "Controller_GravityMPF",
      "RotY": 90.0,
      "PropID": 103192,
      "IsOverrideInitLevelGraph": true,
      "InitLevelGraph": "Config/Level/Props/Chap03/InitLevelGraph_Prop_Chap03_ControllerGravityMPF_01.json",
      "ValueSource": {
        "Values": [
          {
            "$type": "SharedString",
            "Key": "ControllerCam",
            "Value": "LevelArea_P20332_F20332001_G252,ControllerCam"
          }
        ]
      },
      "CampID": 4,
      "CustomTriggerMap": {},
      "CustomTriggerMapV2": {},
      "BridgeStateRotations": [],
      "DialogueGroups": [],
      "TalkDialogGroupIDList": [],
      "ServerInteractVerificationIDList": [],
      "TriggerValidGuest": {},
      "TagContainer": {},
      "CameraCenterEntityList": [],
      "SpawnConfig": {
        "EntitySpawnConfig": {}
      }
    },
    {
      "ID": 300003,
      "PosX": -497.81,
      "PosY": 15.04,
      "PosZ": -257.99,
      "Name": "GravityMPF",
      "RotY": 180.0,
      "RotX": 90.0,
      "PropID": 103191,
      "ValueSource": {
        "Values": [
          {
            "$type": "SharedString",
            "Key": "Pos1",
            "Value": "LevelArea_P20332_F20332001_G252,MPF_Pos1"
          },
          {
            "$type": "SharedString",
            "Key": "Pos2",
            "Value": "LevelArea_P20332_F20332001_G252,MPF_Pos2"
          },
          {
            "$type": "SharedFloat",
            "Key": "MoveDuration",
            "Value": 3.0
          }
        ]
      },
      "CampID": 4,
      "CustomTriggerMap": {},
      "CustomTriggerMapV2": {},
      "BridgeStateRotations": [],
      "DialogueGroups": [],
      "TalkDialogGroupIDList": [],
      "ServerInteractVerificationIDList": [],
      "OverrideMapStateIcons": [
        {
          "IconID": 179,
          "AnchorKey": "LevelArea_P20332_F20332001_G252,MPF_Pos1"
        },
        {
          "State": "Open",
          "IconID": 179,
          "AnchorKey": "LevelArea_P20332_F20332001_G252,MPF_Pos2"
        }
      ],
      "TriggerValidGuest": {},
      "TagContainer": {},
      "CameraCenterEntityList": [],
      "SpawnConfig": {
        "EntitySpawnConfig": {}
      }
    },
    {
      "ID": 300004,
      "PosX": -491.78,
      "PosY": 11.98,
      "PosZ": -275.54,
      "Name": "TrackingEff_01",
      "RotZ": 270.0,
      "Scale": {
        "x": 1.0,
        "y": 1.0,
        "z": 1.94
      },
      "PropID": 103092,
      "IsOverrideInitLevelGraph": true,
      "InitLevelGraph": "Config/Level/Props/Chap03/InitLevelGraph_Prop_Chap03_GravityMpfTrackEff_01.json",
      "ValueSource": {},
      "CampID": 4,
      "CustomTriggerMap": {},
      "CustomTriggerMapV2": {},
      "BridgeStateRotations": [],
      "DialogueGroups": [],
      "TalkDialogGroupIDList": [],
      "ServerInteractVerificationIDList": [],
      "TriggerValidGuest": {},
      "TagContainer": {},
      "CameraCenterEntityList": [],
      "SpawnConfig": {
        "EntitySpawnConfig": {}
      }
    },
    {
      "ID": 300005,
      "PosX": -491.78,
      "PosY": 11.98,
      "PosZ": -276.62,
      "Name": "TrackingEff_02",
      "RotY": 180.0,
      "RotZ": 90.0,
      "Scale": {
        "x": 1.0,
        "y": 1.0,
        "z": 1.94
      },
      "PropID": 103092,
      "IsOverrideInitLevelGraph": true,
      "InitLevelGraph": "Config/Level/Props/Chap03/InitLevelGraph_Prop_Chap03_GravityMpfTrackEff_01.json",
      "ValueSource": {},
      "CampID": 4,
      "CustomTriggerMap": {},
      "CustomTriggerMapV2": {},
      "BridgeStateRotations": [],
      "DialogueGroups": [],
      "TalkDialogGroupIDList": [],
      "ServerInteractVerificationIDList": [],
      "TriggerValidGuest": {},
      "TagContainer": {},
      "CameraCenterEntityList": [],
      "SpawnConfig": {
        "EntitySpawnConfig": {}
      }
    },
    {
      "ID": 300006,
      "PosX": -491.787,
      "PosY": 9.0,
      "PosZ": -261.03,
      "Name": "VolumeIn-2Point",
      "RotY": 180.0,
      "RotZ": 90.0,
      "PropID": 103147,
      "ValueSource": {
        "Values": [
          {
            "$type": "SharedString",
            "Key": "Anchor01",
            "Value": "LevelArea_P20332_F20332001_G252,Anchor3"
          },
          {
            "$type": "SharedString",
            "Key": "Anchor02",
            "Value": "LevelArea_P20332_F20332001_G252,Anchor4"
          },
          {
            "$type": "SharedFloat",
            "Key": "CustomState01_Usable"
          },
          {
            "$type": "SharedUint",
            "Key": "IsExtraReverseBubble",
            "Value": 2
          }
        ]
      },
      "CampID": 4,
      "State": "CustomState01",
      "CustomTriggerMap": {},
      "CustomTriggerMapV2": {},
      "BridgeStateRotations": [],
      "DialogueGroups": [],
      "TalkDialogGroupIDList": [],
      "ServerInteractVerificationIDList": [],
      "OverrideMapStateIcons": [
        {
          "State": "CustomState01",
          "IconID": 171,
          "Color": "#ffffff",
          "AnchorKey": "LevelArea_P20332_F20332001_G252,Anchor3"
        },
        {
          "State": "CustomState02",
          "IconID": 171,
          "Color": "#ffffff",
          "AnchorKey": "LevelArea_P20332_F20332001_G252,Anchor4"
        }
      ],
      "TriggerValidGuest": {},
      "TagContainer": {},
      "CameraCenterEntityList": [],
      "SpawnConfig": {
        "EntitySpawnConfig": {}
      }
    },
    {
      "ID": 300007,
      "PosX": 437.71,
      "PosY": 7.979996,
      "PosZ": 146.5051,
      "IsDelete": true,
      "Name": "Controller_GravityMPF",
      "RotY": 180.0,
      "RotX": 270.0,
      "PropID": 103192,
      "IsOverrideInitLevelGraph": true,
      "InitLevelGraph": "Config/Level/Props/Chap03/InitLevelGraph_Prop_Chap03_ControllerGravityMPF_01.json",
      "ValueSource": {
        "Values": [
          {
            "$type": "SharedString",
            "Key": "ControllerCam",
            "Value": "LevelArea_P20332_F20332001_G252,ControllerCam"
          }
        ]
      },
      "CampID": 4,
      "CustomTriggerMap": {},
      "CustomTriggerMapV2": {},
      "BridgeStateRotations": [],
      "DialogueGroups": [],
      "TalkDialogGroupIDList": [],
      "ServerInteractVerificationIDList": [],
      "TriggerValidGuest": {},
      "TagContainer": {},
      "CameraCenterEntityList": [],
      "SpawnConfig": {
        "EntitySpawnConfig": {}
      }
    },
    {
      "ID": 300008,
      "PosX": -494.78,
      "PosY": 9.0,
      "PosZ": -264.03,
      "Name": "FitEff_01",
      "RotY": 180.0,
      "PropID": 103085,
      "IsOverrideInitLevelGraph": true,
      "InitLevelGraph": "Config/Level/Props/Chap03/InitLevelGraph_Prop_Chap03_GravityMpfFitEff_01.json",
      "ValueSource": {},
      "CampID": 4,
      "CustomTriggerMap": {},
      "CustomTriggerMapV2": {},
      "BridgeStateRotations": [],
      "DialogueGroups": [],
      "TalkDialogGroupIDList": [],
      "ServerInteractVerificationIDList": [],
      "TriggerValidGuest": {},
      "TagContainer": {},
      "CameraCenterEntityList": [],
      "SpawnConfig": {
        "EntitySpawnConfig": {}
      }
    },
    {
      "ID": 300010,
      "PosX": -494.78,
      "PosY": 15.0,
      "PosZ": -264.03,
      "Name": "FitEff_01",
      "RotY": 180.0,
      "PropID": 103085,
      "IsOverrideInitLevelGraph": true,
      "InitLevelGraph": "Config/Level/Props/Chap03/InitLevelGraph_Prop_Chap03_GravityMpfFitEff_01.json",
      "ValueSource": {},
      "CampID": 4,
      "CustomTriggerMap": {},
      "CustomTriggerMapV2": {},
      "BridgeStateRotations": [],
      "DialogueGroups": [],
      "TalkDialogGroupIDList": [],
      "ServerInteractVerificationIDList": [],
      "TriggerValidGuest": {},
      "TagContainer": {},
      "CameraCenterEntityList": [],
      "SpawnConfig": {
        "EntitySpawnConfig": {}
      }
    },
    {
      "ID": 300011,
      "PosX": -491.78,
      "PosY": 9.0,
      "PosZ": -261.03,
      "Name": "FitEff_01",
      "RotY": 90.00003,
      "PropID": 103085,
      "IsOverrideInitLevelGraph": true,
      "InitLevelGraph": "Config/Level/Props/Chap03/InitLevelGraph_Prop_Chap03_GravityMpfFitEff_01.json",
      "ValueSource": {},
      "CampID": 4,
      "CustomTriggerMap": {},
      "CustomTriggerMapV2": {},
      "BridgeStateRotations": [],
      "DialogueGroups": [],
      "TalkDialogGroupIDList": [],
      "ServerInteractVerificationIDList": [],
      "TriggerValidGuest": {},
      "TagContainer": {},
      "CameraCenterEntityList": [],
      "SpawnConfig": {
        "EntitySpawnConfig": {}
      }
    },
    {
      "ID": 300012,
      "PosX": -491.78,
      "PosY": 15.0,
      "PosZ": -261.03,
      "Name": "FitEff_01",
      "RotY": 90.00003,
      "PropID": 103085,
      "IsOverrideInitLevelGraph": true,
      "InitLevelGraph": "Config/Level/Props/Chap03/InitLevelGraph_Prop_Chap03_GravityMpfFitEff_01.json",
      "ValueSource": {},
      "CampID": 4,
      "CustomTriggerMap": {},
      "CustomTriggerMapV2": {},
      "BridgeStateRotations": [],
      "DialogueGroups": [],
      "TalkDialogGroupIDList": [],
      "ServerInteractVerificationIDList": [],
      "TriggerValidGuest": {},
      "TagContainer": {},
      "CameraCenterEntityList": [],
      "SpawnConfig": {
        "EntitySpawnConfig": {}
      }
    },
    {
      "ID": 300009,
      "PosX": -494.78,
      "PosY": 9.0,
      "PosZ": -294.03,
      "Name": "FitEff_01",
      "RotY": 180.0,
      "PropID": 103085,
      "IsOverrideInitLevelGraph": true,
      "InitLevelGraph": "Config/Level/Props/Chap03/InitLevelGraph_Prop_Chap03_GravityMpfFitEff_01.json",
      "ValueSource": {},
      "CampID": 4,
      "CustomTriggerMap": {},
      "CustomTriggerMapV2": {},
      "BridgeStateRotations": [],
      "DialogueGroups": [],
      "TalkDialogGroupIDList": [],
      "ServerInteractVerificationIDList": [],
      "TriggerValidGuest": {},
      "TagContainer": {},
      "CameraCenterEntityList": [],
      "SpawnConfig": {
        "EntitySpawnConfig": {}
      }
    },
    {
      "ID": 300013,
      "PosX": -494.78,
      "PosY": 15.0,
      "PosZ": -294.03,
      "Name": "FitEff_01",
      "RotY": 180.0,
      "PropID": 103085,
      "IsOverrideInitLevelGraph": true,
      "InitLevelGraph": "Config/Level/Props/Chap03/InitLevelGraph_Prop_Chap03_GravityMpfFitEff_01.json",
      "ValueSource": {},
      "CampID": 4,
      "CustomTriggerMap": {},
      "CustomTriggerMapV2": {},
      "BridgeStateRotations": [],
      "DialogueGroups": [],
      "TalkDialogGroupIDList": [],
      "ServerInteractVerificationIDList": [],
      "TriggerValidGuest": {},
      "TagContainer": {},
      "CameraCenterEntityList": [],
      "SpawnConfig": {
        "EntitySpawnConfig": {}
      }
    },
    {
      "ID": 300014,
      "PosX": -491.78,
      "PosY": 9.0,
      "PosZ": -291.03,
      "Name": "FitEff_01",
      "RotY": 90.00003,
      "PropID": 103085,
      "IsOverrideInitLevelGraph": true,
      "InitLevelGraph": "Config/Level/Props/Chap03/InitLevelGraph_Prop_Chap03_GravityMpfFitEff_01.json",
      "ValueSource": {},
      "CampID": 4,
      "CustomTriggerMap": {},
      "CustomTriggerMapV2": {},
      "BridgeStateRotations": [],
      "DialogueGroups": [],
      "TalkDialogGroupIDList": [],
      "ServerInteractVerificationIDList": [],
      "TriggerValidGuest": {},
      "TagContainer": {},
      "CameraCenterEntityList": [],
      "SpawnConfig": {
        "EntitySpawnConfig": {}
      }
    },
    {
      "ID": 300015,
      "PosX": -491.78,
      "PosY": 15.0,
      "PosZ": -291.03,
      "Name": "FitEff_01",
      "RotY": 90.00003,
      "PropID": 103085,
      "IsOverrideInitLevelGraph": true,
      "InitLevelGraph": "Config/Level/Props/Chap03/InitLevelGraph_Prop_Chap03_GravityMpfFitEff_01.json",
      "ValueSource": {},
      "CampID": 4,
      "CustomTriggerMap": {},
      "CustomTriggerMapV2": {},
      "BridgeStateRotations": [],
      "DialogueGroups": [],
      "TalkDialogGroupIDList": [],
      "ServerInteractVerificationIDList": [],
      "TriggerValidGuest": {},
      "TagContainer": {},
      "CameraCenterEntityList": [],
      "SpawnConfig": {
        "EntitySpawnConfig": {}
      }
    }
  ],
  "NPCList": []
}