{
  "GroupGUID": "0570ecb5-2586-45dc-914b-5f761ddaabf5",
  "GroupName": "MainMission1032902_C",
  "Category": "Mission",
  "LevelGraph": "Config/Level/GroupGraph/F20332001/Group_F20332001_G167.json",
  "AreaAnchorName": "LevelArea_P20332_F20332001_G167",
  "SaveType": "Reset",
  "OwnerMainMissionID": 1032902,
  "ValueSource": {},
  "ConflictIDList": [],
  "IsHoyoGroup": true,
  "ConflictWhiteList": [],
  "TagContainer": {},
  "AnchorList": [],
  "MonsterList": [],
  "PropList": [
    {
      "ID": 300002,
      "PosX": 451.9,
      "PosY": -14.28,
      "PosZ": 146.51,
      "Name": "Prop2",
      "RotX": 89.98022,
      "PropID": 103193,
      "ValueSource": {},
      "CampID": 4,
      "State": "CustomState04",
      "CustomTriggerMap": {},
      "CustomTriggerMapV2": {},
      "BridgeStateRotations": [],
      "DialogueGroups": [],
      "TalkDialogGroupIDList": [],
      "ServerInteractVerificationIDList": [],
      "TriggerValidGuest": {},
      "TagContainer": {},
      "CameraCenterEntityList": [],
      "SpawnConfig": {
        "EntitySpawnConfig": {}
      }
    },
    {
      "ID": 300003,
      "PosX": 450.3,
      "PosY": -14.33,
      "PosZ": 146.51,
      "Name": "Prop3",
      "RotY": 270.0209,
      "RotX": 341.4597,
      "RotZ": 269.9933,
      "PropID": 103193,
      "ValueSource": {},
      "CampID": 4,
      "State": "CustomState04",
      "CustomTriggerMap": {},
      "CustomTriggerMapV2": {},
      "BridgeStateRotations": [],
      "DialogueGroups": [],
      "TalkDialogGroupIDList": [],
      "ServerInteractVerificationIDList": [],
      "TriggerValidGuest": {},
      "TagContainer": {},
      "CameraCenterEntityList": [],
      "SpawnConfig": {
        "EntitySpawnConfig": {}
      }
    },
    {
      "ID": 300004,
      "PosX": 450.25,
      "PosY": -15.73,
      "PosZ": 146.51,
      "Name": "Prop4",
      "RotY": 90.0,
      "RotX": 25.84387,
      "RotZ": 90.00003,
      "PropID": 103193,
      "ValueSource": {},
      "CampID": 4,
      "State": "CustomState04",
      "CustomTriggerMap": {},
      "CustomTriggerMapV2": {},
      "BridgeStateRotations": [],
      "DialogueGroups": [],
      "TalkDialogGroupIDList": [],
      "ServerInteractVerificationIDList": [],
      "TriggerValidGuest": {},
      "TagContainer": {},
      "CameraCenterEntityList": [],
      "SpawnConfig": {
        "EntitySpawnConfig": {}
      }
    },
    {
      "ID": 300001,
      "PosX": 449.3014,
      "PosY": -15.70004,
      "PosZ": 146.5076,
      "Name": "Prop1",
      "RotX": 89.98022,
      "PropID": 100,
      "ValueSource": {},
      "CampID": 4,
      "CustomTriggerMap": {},
      "CustomTriggerMapV2": {
        "MissionTrigger": {
          "Radius": 9.0,
          "PointList": []
        }
      },
      "BridgeStateRotations": [],
      "DialogueGroups": [],
      "TalkDialogGroupIDList": [],
      "ServerInteractVerificationIDList": [],
      "TriggerValidGuest": {},
      "TagContainer": {},
      "CameraCenterEntityList": [],
      "SpawnConfig": {
        "EntitySpawnConfig": {}
      }
    },
    {
      "ID": 300005,
      "PosX": 451.36,
      "PosY": -15.82,
      "PosZ": 149.61,
      "Name": "Prop5",
      "RotY": 90.0,
      "RotX": 74.72681,
      "RotZ": 90.0,
      "PropID": 103074,
      "ValueSource": {
        "Values": [
          {
            "$type": "SharedUint",
            "Key": "SDFTextID",
            "Value": 206599608
          }
        ]
      },
      "CampID": 4,
      "State": "Open",
      "CustomTriggerMap": {},
      "CustomTriggerMapV2": {},
      "BridgeStateRotations": [],
      "DialogueGroups": [],
      "TalkDialogGroupIDList": [],
      "ServerInteractVerificationIDList": [],
      "TriggerValidGuest": {},
      "TagContainer": {},
      "CameraCenterEntityList": [],
      "SpawnConfig": {
        "EntitySpawnConfig": {}
      }
    },
    {
      "ID": 300006,
      "PosX": 453.095,
      "PosY": -13.692,
      "PosZ": 149.31,
      "Name": "Prop6",
      "RotY": 90.00005,
      "RotX": 29.93014,
      "RotZ": 90.00002,
      "PropID": 103074,
      "ValueSource": {
        "Values": [
          {
            "$type": "SharedUint",
            "Key": "SDFTextID",
            "Value": 206599610
          }
        ]
      },
      "CampID": 4,
      "State": "Open",
      "CustomTriggerMap": {},
      "CustomTriggerMapV2": {},
      "BridgeStateRotations": [],
      "DialogueGroups": [],
      "TalkDialogGroupIDList": [],
      "ServerInteractVerificationIDList": [],
      "TriggerValidGuest": {},
      "TagContainer": {},
      "CameraCenterEntityList": [],
      "SpawnConfig": {
        "EntitySpawnConfig": {}
      }
    },
    {
      "ID": 300007,
      "PosX": 451.11,
      "PosY": -15.88,
      "PosZ": 148.95,
      "Name": "Prop7",
      "RotY": 270.0,
      "RotX": 76.57503,
      "RotZ": 270.0,
      "Scale": {
        "x": 0.5,
        "y": 0.5,
        "z": 0.5
      },
      "PropID": 103074,
      "ValueSource": {
        "Values": [
          {
            "$type": "SharedUint",
            "Key": "SDFTextID",
            "Value": 206599612
          }
        ]
      },
      "CampID": 4,
      "State": "Open",
      "CustomTriggerMap": {},
      "CustomTriggerMapV2": {},
      "BridgeStateRotations": [],
      "DialogueGroups": [],
      "TalkDialogGroupIDList": [],
      "ServerInteractVerificationIDList": [],
      "TriggerValidGuest": {},
      "TagContainer": {},
      "CameraCenterEntityList": [],
      "SpawnConfig": {
        "EntitySpawnConfig": {}
      }
    },
    {
      "ID": 300008,
      "PosX": 453.568,
      "PosY": -14.57,
      "PosZ": 148.42,
      "Name": "Prop8",
      "RotY": 90.0,
      "RotX": 58.82797,
      "RotZ": 90.0,
      "Scale": {
        "x": 1.6,
        "y": 1.6,
        "z": 1.6
      },
      "PropID": 103074,
      "ValueSource": {
        "Values": [
          {
            "$type": "SharedUint",
            "Key": "SDFTextID",
            "Value": 206599614
          }
        ]
      },
      "CampID": 4,
      "State": "Open",
      "CustomTriggerMap": {},
      "CustomTriggerMapV2": {},
      "BridgeStateRotations": [],
      "DialogueGroups": [],
      "TalkDialogGroupIDList": [],
      "ServerInteractVerificationIDList": [],
      "TriggerValidGuest": {},
      "TagContainer": {},
      "CameraCenterEntityList": [],
      "SpawnConfig": {
        "EntitySpawnConfig": {}
      }
    }
  ],
  "NPCList": []
}