{
  "GroupGUID": "13eadc13-a535-4292-ab27-443415912587",
  "GroupName": "Gravity_Charger03",
  "AreaAnchorName": "LevelArea_P20332_F20332001_G46",
  "SaveType": "Reset",
  "SavedValueCondition": {
    "Conditions": [
      {
        "SavedValueName": "GravityChallengeDifficulty",
        "Operation": "Equal",
        "Value": 3
      }
    ],
    "Operation": "And"
  },
  "LoadOnInitial": true,
  "ValueSource": {},
  "ConflictIDList": [],
  "IsHoyoGroup": true,
  "HoYoGroupType": "Container",
  "ConflictWhiteList": [],
  "TagContainer": {},
  "AnchorList": [],
  "MonsterList": [],
  "PropList": [
    {
      "ID": 300001,
      "PosX": -481.32,
      "PosY": 26.98,
      "PosZ": -291.13,
      "Name": "charge",
      "RotY": 180.0,
      "RotZ": 180.0,
      "PropID": 103001,
      "ValueSource": {},
      "CampID": 4,
      "CustomTriggerMap": {},
      "CustomTriggerMapV2": {},
      "BridgeStateRotations": [],
      "MappingInfoID": 10063,
      "DialogueGroups": [],
      "TalkDialogGroupIDList": [],
      "ServerInteractVerificationIDList": [],
      "TriggerValidGuest": {},
      "TagContainer": {},
      "CameraCenterEntityList": [],
      "SpawnConfig": {
        "EntitySpawnConfig": {}
      }
    }
  ],
  "NPCList": []
}