{
  "GroupGUID": "7a6670a4-9e99-4a8b-b424-58f5b449921d",
  "GroupName": "MainMission1032902_36",
  "Category": "Mission",
  "AreaAnchorName": "LevelArea_P20332_F20332001_G208",
  "SaveType": "Reset",
  "OwnerMainMissionID": 1032902,
  "ValueSource": {},
  "ConflictIDList": [],
  "IsHoyoGroup": true,
  "HoYoGroupType": "Container",
  "ConflictWhiteList": [],
  "TagContainer": {},
  "AnchorList": [],
  "MonsterList": [],
  "PropList": [
    {
      "ID": 300001,
      "PosX": 97.92001,
      "PosY": 104.7257,
      "PosZ": 776.592,
      "Name": "Prop1",
      "RotY": 270.0,
      "PropID": 103193,
      "ValueSource": {},
      "CampID": 4,
      "State": "CustomState07",
      "CustomTriggerMap": {},
      "CustomTriggerMapV2": {},
      "BridgeStateRotations": [],
      "DialogueGroups": [],
      "TalkDialogGroupIDList": [],
      "ServerInteractVerificationIDList": [],
      "TriggerValidGuest": {},
      "TagContainer": {},
      "CameraCenterEntityList": [],
      "SpawnConfig": {
        "EntitySpawnConfig": {}
      }
    },
    {
      "ID": 300002,
      "PosX": 97.92001,
      "PosY": 104.7257,
      "PosZ": 777.5001,
      "Name": "Prop2",
      "RotY": 270.0,
      "PropID": 103193,
      "ValueSource": {},
      "CampID": 4,
      "State": "CustomState07",
      "CustomTriggerMap": {},
      "CustomTriggerMapV2": {},
      "BridgeStateRotations": [],
      "DialogueGroups": [],
      "TalkDialogGroupIDList": [],
      "ServerInteractVerificationIDList": [],
      "TriggerValidGuest": {},
      "TagContainer": {},
      "CameraCenterEntityList": [],
      "SpawnConfig": {
        "EntitySpawnConfig": {}
      }
    },
    {
      "ID": 300003,
      "PosX": 97.91999,
      "PosY": 104.7257,
      "PosZ": 778.46,
      "Name": "Prop3",
      "RotY": 270.0,
      "PropID": 103193,
      "ValueSource": {},
      "CampID": 4,
      "State": "CustomState07",
      "CustomTriggerMap": {},
      "CustomTriggerMapV2": {},
      "BridgeStateRotations": [],
      "DialogueGroups": [],
      "TalkDialogGroupIDList": [],
      "ServerInteractVerificationIDList": [],
      "TriggerValidGuest": {},
      "TagContainer": {},
      "CameraCenterEntityList": [],
      "SpawnConfig": {
        "EntitySpawnConfig": {}
      }
    },
    {
      "ID": 300004,
      "PosX": 97.92,
      "PosY": 104.7257,
      "PosZ": 775.67,
      "Name": "Prop4",
      "RotY": 270.0,
      "PropID": 103193,
      "ValueSource": {},
      "CampID": 4,
      "State": "CustomState07",
      "CustomTriggerMap": {},
      "CustomTriggerMapV2": {},
      "BridgeStateRotations": [],
      "DialogueGroups": [],
      "TalkDialogGroupIDList": [],
      "ServerInteractVerificationIDList": [],
      "TriggerValidGuest": {},
      "TagContainer": {},
      "CameraCenterEntityList": [],
      "SpawnConfig": {
        "EntitySpawnConfig": {}
      }
    },
    {
      "ID": 300005,
      "PosX": 97.92,
      "PosY": 104.7257,
      "PosZ": 779.26,
      "Name": "Prop5",
      "RotY": 270.0,
      "PropID": 103193,
      "ValueSource": {},
      "CampID": 4,
      "State": "CustomState07",
      "CustomTriggerMap": {},
      "CustomTriggerMapV2": {},
      "BridgeStateRotations": [],
      "DialogueGroups": [],
      "TalkDialogGroupIDList": [],
      "ServerInteractVerificationIDList": [],
      "TriggerValidGuest": {},
      "TagContainer": {},
      "CameraCenterEntityList": [],
      "SpawnConfig": {
        "EntitySpawnConfig": {}
      }
    }
  ],
  "NPCList": [
    {
      "ID": 400001,
      "PosX": 95.186,
      "PosY": 104.7257,
      "PosZ": 778.268,
      "Name": "NPC1",
      "RotY": 111.2331,
      "NPCID": 2317,
      "ValueSource": {},
      "DialogueGroups": [],
      "ServerInteractVerificationIDList": [],
      "DefaultLookAtMode": "Closed",
      "BoardShowList": [],
      "OverrideNPCName": {
        "Hash": 1802215572
      },
      "TalkDialogGroupIDList": [],
      "DefaultIdleFreeStyleMotionID": 200420000,
      "InitialHiddenNodeList": [],
      "TagContainer": {},
      "CameraCenterEntityList": [],
      "SpawnConfig": {
        "EntitySpawnConfig": {}
      },
      "TriggerValidGuest": {}
    },
    {
      "ID": 400002,
      "PosX": 98.11,
      "PosY": 106.311,
      "PosZ": 777.465,
      "Name": "NPC2",
      "NPCID": 100,
      "ValueSource": {},
      "StaticNPC": true,
      "DialogueGroups": [],
      "ServerInteractVerificationIDList": [],
      "BoardShowList": [],
      "OverrideNPCName": {
        "Hash": -733834202
      },
      "TalkDialogGroupIDList": [],
      "InitialHiddenNodeList": [],
      "TagContainer": {},
      "CameraCenterEntityList": [],
      "SpawnConfig": {
        "EntitySpawnConfig": {}
      },
      "TriggerValidGuest": {}
    }
  ]
}