{
  "GroupGUID": "7454a6e3-47c1-4281-b12f-9073fbbf03ce",
  "GroupName": "DefaultDistructable",
  "AreaAnchorName": "LevelArea_P20332_F20332001_G275",
  "SaveDimensionFilter": {},
  "SavedValueCondition": {
    "Conditions": [],
    "Operation": "And"
  },
  "LoadSide": "Server",
  "LoadOnInitial": true,
  "GroupRefreshID": 1002,
  "ValueSource": {},
  "ConflictIDList": [],
  "IsHoyoGroup": true,
  "HoYoGroupType": "Container",
  "ConflictWhiteList": [],
  "TagContainer": {},
  "AnchorList": [],
  "MonsterList": [],
  "PropList": [
    {
      "ID": 300009,
      "PosX": 438.7277,
      "PosY": 0.638013,
      "PosZ": 233.5363,
      "Name": "Prop9",
      "RotY": 299.2543,
      "RotX": -4.0E-6,
      "RotZ": 180.0,
      "PropID": 103017,
      "ValueSource": {
        "Values": [
          {
            "$type": "SharedUint",
            "Key": "RotationType"
          }
        ]
      },
      "CampID": 4,
      "EventID": 20332401,
      "CustomTriggerMap": {},
      "CustomTriggerMapV2": {},
      "BridgeStateRotations": [],
      "DialogueGroups": [],
      "TalkDialogGroupIDList": [],
      "ServerInteractVerificationIDList": [],
      "HideInCutScene": true,
      "HideInStory": true,
      "PerformanceHideFlags": -8,
      "TriggerValidGuest": {},
      "TagContainer": {},
      "CameraCenterEntityList": [],
      "SpawnConfig": {
        "EntitySpawnConfig": {}
      }
    },
    {
      "ID": 300010,
      "PosX": 429.2267,
      "PosY": -2.150646,
      "PosZ": 212.9572,
      "Name": "Prop10",
      "RotY": 27.60093,
      "RotX": -4.0E-6,
      "RotZ": 180.0,
      "PropID": 103017,
      "ValueSource": {
        "Values": [
          {
            "$type": "SharedUint",
            "Key": "RotationType"
          }
        ]
      },
      "CampID": 4,
      "EventID": 20332401,
      "CustomTriggerMap": {},
      "CustomTriggerMapV2": {},
      "BridgeStateRotations": [],
      "DialogueGroups": [],
      "TalkDialogGroupIDList": [],
      "ServerInteractVerificationIDList": [],
      "HideInCutScene": true,
      "HideInStory": true,
      "PerformanceHideFlags": -8,
      "TriggerValidGuest": {},
      "TagContainer": {},
      "CameraCenterEntityList": [],
      "SpawnConfig": {
        "EntitySpawnConfig": {}
      }
    }
  ],
  "NPCList": []
}