{
  "GroupGUID": "e95cb63e-87b6-4cd1-a01e-3aeecfcfc3d0",
  "GroupName": "MainMission1032902_07",
  "Category": "Mission",
  "LevelGraph": "Config/Level/GroupGraph/F20332001/Group_F20332001_G115.json",
  "AreaAnchorName": "LevelArea_P20332_F20332001_G115",
  "SaveType": "Reset",
  "OwnerMainMissionID": 1032902,
  "ValueSource": {},
  "ConflictIDList": [],
  "IsHoyoGroup": true,
  "ConflictWhiteList": [],
  "TagContainer": {},
  "AnchorList": [],
  "MonsterList": [],
  "PropList": [
    {
      "ID": 300001,
      "PosX": 488.182,
      "PosY": 29.745,
      "PosZ": 220.914,
      "Name": "Prop1",
      "PropID": 100,
      "ValueSource": {},
      "CampID": 4,
      "CustomTriggerMap": {},
      "CustomTriggerMapV2": {
        "MissionTrigger": {
          "Radius": 10.0,
          "PointList": []
        }
      },
      "BridgeStateRotations": [],
      "DialogueGroups": [],
      "TalkDialogGroupIDList": [],
      "ServerInteractVerificationIDList": [],
      "TriggerValidGuest": {},
      "TagContainer": {},
      "CameraCenterEntityList": [],
      "SpawnConfig": {
        "EntitySpawnConfig": {}
      }
    },
    {
      "ID": 300002,
      "PosX": 470.1,
      "PosY": 24.83,
      "PosZ": 221.09,
      "Name": "Prop2",
      "RotY": 65.94027,
      "PropID": 103193,
      "ValueSource": {},
      "CampID": 4,
      "State": "CustomState01",
      "CustomTriggerMap": {},
      "CustomTriggerMapV2": {},
      "BridgeStateRotations": [],
      "DialogueGroups": [],
      "TalkDialogGroupIDList": [],
      "ServerInteractVerificationIDList": [],
      "TriggerValidGuest": {},
      "TagContainer": {},
      "CameraCenterEntityList": [],
      "SpawnConfig": {
        "EntitySpawnConfig": {}
      }
    },
    {
      "ID": 300003,
      "PosX": 465.88,
      "PosY": 24.83,
      "PosZ": 223.46,
      "Name": "Prop3",
      "RotY": 270.0,
      "PropID": 103193,
      "ValueSource": {},
      "CampID": 4,
      "State": "CustomState07",
      "CustomTriggerMap": {},
      "CustomTriggerMapV2": {},
      "BridgeStateRotations": [],
      "DialogueGroups": [],
      "TalkDialogGroupIDList": [],
      "ServerInteractVerificationIDList": [],
      "TriggerValidGuest": {},
      "TagContainer": {},
      "CameraCenterEntityList": [],
      "SpawnConfig": {
        "EntitySpawnConfig": {}
      }
    },
    {
      "ID": 300004,
      "PosX": 466.031,
      "PosY": 24.83,
      "PosZ": 221.83,
      "Name": "Prop4",
      "RotY": 270.0,
      "PropID": 103193,
      "ValueSource": {},
      "CampID": 4,
      "State": "CustomState07",
      "CustomTriggerMap": {},
      "CustomTriggerMapV2": {},
      "BridgeStateRotations": [],
      "DialogueGroups": [],
      "TalkDialogGroupIDList": [],
      "ServerInteractVerificationIDList": [],
      "TriggerValidGuest": {},
      "TagContainer": {},
      "CameraCenterEntityList": [],
      "SpawnConfig": {
        "EntitySpawnConfig": {}
      }
    },
    {
      "ID": 300005,
      "PosX": 465.935,
      "PosY": 24.83,
      "PosZ": 220.22,
      "Name": "Prop5",
      "RotY": 270.0,
      "PropID": 103193,
      "ValueSource": {},
      "CampID": 4,
      "State": "CustomState07",
      "CustomTriggerMap": {},
      "CustomTriggerMapV2": {},
      "BridgeStateRotations": [],
      "DialogueGroups": [],
      "TalkDialogGroupIDList": [],
      "ServerInteractVerificationIDList": [],
      "TriggerValidGuest": {},
      "TagContainer": {},
      "CameraCenterEntityList": [],
      "SpawnConfig": {
        "EntitySpawnConfig": {}
      }
    }
  ],
  "NPCList": []
}