{
  "GroupGUID": "5950d390-1708-48be-b9e9-153f18fbda6c",
  "GroupName": "BoardCrowd",
  "AreaAnchorName": "LevelArea_P10301_F10301001_G183",
  "SaveType": "Reset",
  "SavedValueCondition": {
    "Conditions": [],
    "Operation": "And"
  },
  "LoadOnInitial": true,
  "ValueSource": {},
  "ConflictIDList": [],
  "IsHoyoGroup": true,
  "HoYoGroupType": "Container",
  "ConflictWhiteList": [],
  "TagContainer": {},
  "AnchorList": [],
  "MonsterList": [],
  "PropList": [],
  "NPCList": [
    {
      "ID": 400001,
      "PosX": 172.535,
      "PosY": -4.90373,
      "PosZ": 154.857,
      "Name": "NPC1",
      "RotY": 202.0502,
      "NPCID": 3095,
      "ValueSource": {},
      "AIConfig": {
        "AIFile": "Config/ConfigAI/Adventure/NPC/Special_AdvertBoard/ST_NPC_Special_AdvertBoard_Master.json",
        "PathwayList": [],
        "SlaveConfigList": []
      },
      "AIVariableSource": {},
      "DialogueGroups": [],
      "ServerInteractVerificationIDList": [],
      "BoardShowList": [],
      "TalkDialogGroupIDList": [],
      "DefaultIdleFreeStyleMotionID": 900180000,
      "InitialHiddenNodeList": [],
      "Dialog": {
        "LevelGraph": "Config/Level/NPCDialogue/P10301/F10301001_G183/DialogueMain_F10301001_G183_N400001.json",
        "PackList": []
      },
      "TagContainer": {},
      "CameraCenterEntityList": [],
      "SpawnConfig": {
        "EntitySpawnConfig": {}
      },
      "TriggerValidGuest": {}
    }
  ]
}