{
  "GroupGUID": "14d5ab8d-7eb4-4e80-89a9-eba1e5d713c6",
  "GroupName": "MainMission8022202_02",
  "Category": "Mission",
  "LevelGraph": "Config/Level/GroupGraph/F10301001/Group_F10301001_G488.json",
  "AreaAnchorName": "LevelArea_P10301_F10301001_G488",
  "SaveType": "Reset",
  "OwnerMainMissionID": 8022202,
  "ValueSource": {},
  "ConflictIDList": [],
  "IsHoyoGroup": true,
  "ConflictWhiteList": [],
  "TagContainer": {},
  "AnchorList": [],
  "MonsterList": [],
  "PropList": [],
  "NPCList": []
}