{
  "GroupGUID": "ad29957e-c668-453f-bf29-d632f116a384",
  "GroupName": "MainMission1032601_19",
  "Category": "Mission",
  "AreaAnchorName": "LevelArea_P10301_F10301001_G461",
  "SaveType": "Reset",
  "OwnerMainMissionID": 1032601,
  "ValueSource": {},
  "ConflictIDList": [],
  "IsHoyoGroup": true,
  "ConflictWhiteList": [],
  "TagContainer": {},
  "AnchorList": [
    {
      "ID": 1,
      "PosX": -0.206879,
      "PosY": -16.86495,
      "PosZ": 246.34,
      "Name": "Anchor1",
      "RotY": 349.8067
    }
  ],
  "MonsterList": [],
  "PropList": [],
  "NPCList": [
    {
      "ID": 400001,
      "PosX": -0.923,
      "PosY": -16.86495,
      "PosZ": 248.277,
      "Name": "NPC1",
      "RotY": 224.7345,
      "NPCID": 1004,
      "ValueSource": {},
      "DialogueGroups": [],
      "ServerInteractVerificationIDList": [],
      "BoardShowList": [],
      "TalkDialogGroupIDList": [],
      "DefaultIdleFreeStyleMotionID": 310040216,
      "InitialHiddenNodeList": [],
      "Dialog": {
        "LevelGraph": "Config/Level/NPCDialogue/P10301/F10301001_G461/DialogueMain_F10301001_G461_N400001.json",
        "PackList": []
      },
      "TagContainer": {},
      "CameraCenterEntityList": [],
      "SpawnConfig": {
        "EntitySpawnConfig": {}
      },
      "TriggerValidGuest": {}
    }
  ]
}