{
  "GroupGUID": "efd43909-2690-42a9-805e-2756576b440c",
  "GroupName": "MainMission1032301_05",
  "Category": "Mission",
  "LevelGraph": "Config/Level/GroupGraph/F10301001/Group_F10301001_G383.json",
  "AreaAnchorName": "LevelArea_P10301_F10301001_G383",
  "SaveType": "Reset",
  "OwnerMainMissionID": 1032301,
  "ValueSource": {},
  "ConflictIDList": [],
  "IsHoyoGroup": true,
  "ConflictWhiteList": [],
  "TagContainer": {},
  "AnchorList": [
    {
      "ID": 1,
      "PosX": 40.17,
      "PosY": -16.88097,
      "PosZ": 146.5482,
      "Name": "Anchor1"
    }
  ],
  "MonsterList": [],
  "PropList": [],
  "NPCList": []
}