{
  "GroupGUID": "c1d4744a-81c2-41e2-bce9-e458b18c599e",
  "GroupName": "Shop",
  "AreaAnchorName": "LevelArea_P10301_F10301001_G19",
  "SaveDimensionFilter": {},
  "LoadSide": "Server",
  "LoadOnInitial": true,
  "ValueSource": {},
  "ConflictIDList": [],
  "TagContainer": {},
  "AnchorList": [],
  "MonsterList": [],
  "PropList": [],
  "NPCList": [
    {
      "ID": 400001,
      "PosX": 134.051,
      "PosY": -4.456218,
      "PosZ": 84.96,
      "Name": "NPC1",
      "RotY": 198.0751,
      "NPCID": 13231,
      "ValueSource": {},
      "DialogueGroups": [],
      "ServerInteractVerificationIDList": [
        53
      ],
      "MappingInfoID": 2377,
      "BoardShowList": [
        1,
        4
      ],
      "OverrideNPCName": {
        "Hash": -1811218884
      },
      "TalkDialogGroupIDList": [],
      "DefaultIdleFreeStyleMotionID": 100020336,
      "IsMapContent": true,
      "MiniMapIconType": 4,
      "InitialHiddenNodeList": [],
      "Dialog": {
        "LevelGraph": "Config/Level/NPCDialogue/P10301/F10301001_G19/DialogueMain_F10301001_G19_N400001.json",
        "PackList": []
      },
      "TagContainer": {},
      "CameraCenterEntityList": [],
      "SpawnConfig": {
        "EntitySpawnConfig": {}
      },
      "TriggerValidGuest": {}
    },
    {
      "ID": 400002,
      "PosX": 141.1,
      "PosY": -4.415776,
      "PosZ": 206.8,
      "Name": "NPC2",
      "RotY": 250.8387,
      "NPCID": 13127,
      "ValueSource": {},
      "DialogueGroups": [],
      "ServerInteractVerificationIDList": [
        52
      ],
      "MappingInfoID": 2376,
      "BoardShowList": [
        1,
        4
      ],
      "OverrideNPCName": {
        "Hash": -1811218884
      },
      "TalkDialogGroupIDList": [],
      "DefaultIdleFreeStyleMotionID": 100010294,
      "IsMapContent": true,
      "MiniMapIconType": 4,
      "InitialHiddenNodeList": [],
      "Dialog": {
        "LevelGraph": "Config/Level/NPCDialogue/P10301/F10301001_G19/DialogueMain_F10301001_G19_N400002.json",
        "PackList": []
      },
      "TagContainer": {},
      "CameraCenterEntityList": [],
      "SpawnConfig": {
        "EntitySpawnConfig": {}
      },
      "TriggerValidGuest": {}
    },
    {
      "ID": 400003,
      "PosX": 14.26,
      "PosY": -15.814,
      "PosZ": 88.865,
      "Name": "NPC3",
      "RotY": 140.9845,
      "NPCID": 13315,
      "ValueSource": {},
      "StaticNPC": true,
      "DialogueGroups": [],
      "ServerInteractVerificationIDList": [
        51
      ],
      "MappingInfoID": 2375,
      "BoardShowList": [
        1,
        4
      ],
      "OverrideNPCName": {
        "Hash": -1811218884
      },
      "TalkDialogGroupIDList": [],
      "DefaultIdleFreeStyleMotionID": 100040328,
      "OverrideSeriesID": 103050101,
      "IsMapContent": true,
      "MiniMapIconType": 4,
      "InitialHiddenNodeList": [],
      "Dialog": {
        "LevelGraph": "Config/Level/NPCDialogue/P10301/F10301001_G19/DialogueMain_F10301001_G19_N400003.json",
        "PackList": []
      },
      "TagContainer": {},
      "CameraCenterEntityList": [],
      "SpawnConfig": {
        "OverrideSpawn": true,
        "EntitySpawnConfig": {}
      },
      "TriggerValidGuest": {}
    },
    {
      "ID": 400004,
      "PosX": -114.254,
      "PosY": -14.374,
      "PosZ": 178.103,
      "Name": "NPC4",
      "RotY": 173.2156,
      "NPCID": 13318,
      "ValueSource": {},
      "StaticNPC": true,
      "DialogueGroups": [],
      "ServerInteractVerificationIDList": [
        54
      ],
      "DefaultBlendShapeConfigName": "Happy01",
      "MappingInfoID": 2378,
      "PossessionConfig": {
        "Name": "Possession_MineralGlass_A_02"
      },
      "BoardShowList": [
        1,
        4
      ],
      "OverrideNPCName": {
        "Hash": -1811218884
      },
      "TalkDialogGroupIDList": [],
      "DefaultIdleFreeStyleMotionID": 100040318,
      "IsMapContent": true,
      "MiniMapIconType": 4,
      "InitialHiddenNodeList": [],
      "Dialog": {
        "LevelGraph": "Config/Level/NPCDialogue/P10301/F10301001_G19/DialogueMain_F10301001_G19_N400004.json",
        "PackList": []
      },
      "TagContainer": {},
      "CameraCenterEntityList": [],
      "SpawnConfig": {
        "EntitySpawnConfig": {}
      },
      "TriggerValidGuest": {}
    },
    {
      "ID": 400005,
      "PosX": -23.324,
      "PosY": -16.3807,
      "PosZ": 232.55,
      "Name": "NPC5",
      "RotY": 359.821,
      "NPCID": 13315,
      "ValueSource": {},
      "StaticNPC": true,
      "DialogueGroups": [],
      "ServerInteractVerificationIDList": [
        55
      ],
      "MappingInfoID": 2379,
      "BoardShowList": [
        1,
        4
      ],
      "OverrideNPCName": {
        "Hash": -1811218884
      },
      "TalkDialogGroupIDList": [],
      "DefaultIdleFreeStyleMotionID": 100040210,
      "OverrideSeriesID": 103050102,
      "IsMapContent": true,
      "MiniMapIconType": 4,
      "InitialHiddenNodeList": [],
      "Dialog": {
        "LevelGraph": "Config/Level/NPCDialogue/P10301/F10301001_G19/DialogueMain_F10301001_G19_N400005.json",
        "PackList": []
      },
      "TagContainer": {},
      "CameraCenterEntityList": [],
      "SpawnConfig": {
        "EntitySpawnConfig": {}
      },
      "TriggerValidGuest": {}
    },
    {
      "ID": 400006,
      "PosX": -106.808,
      "PosY": -13.248,
      "PosZ": 94.713,
      "Name": "NPC6",
      "RotY": 56.4647,
      "NPCID": 13315,
      "ValueSource": {},
      "StaticNPC": true,
      "DialogueGroups": [],
      "ServerInteractVerificationIDList": [
        56
      ],
      "MappingInfoID": 2380,
      "BoardShowList": [
        1,
        4
      ],
      "OverrideNPCName": {
        "Hash": -1811218884
      },
      "TalkDialogGroupIDList": [],
      "DefaultIdleFreeStyleMotionID": 100040298,
      "IsMapContent": true,
      "MiniMapIconType": 4,
      "InitialHiddenNodeList": [],
      "Dialog": {
        "LevelGraph": "Config/Level/NPCDialogue/P10301/F10301001_G19/DialogueMain_F10301001_G19_N400006.json",
        "PackList": []
      },
      "TagContainer": {},
      "CameraCenterEntityList": [],
      "SpawnConfig": {
        "EntitySpawnConfig": {}
      },
      "TriggerValidGuest": {}
    }
  ]
}