{
  "GroupGUID": "66fdf751-8b47-4bda-98d7-6f1550f1c972",
  "GroupName": "MainMission1032302_New Group",
  "Category": "Mission",
  "LevelGraph": "Config/Level/GroupGraph/F10301001/Group_F10301001_G469.json",
  "AreaAnchorName": "LevelArea_P10301_F10301001_G469",
  "SaveType": "Reset",
  "OwnerMainMissionID": 1032302,
  "ValueSource": {},
  "ConflictIDList": [],
  "IsHoyoGroup": true,
  "ConflictWhiteList": [],
  "TagContainer": {},
  "AnchorList": [
    {
      "ID": 1,
      "PosX": 91.534,
      "PosY": -25.98594,
      "PosZ": 118.975,
      "Name": "Anchor1",
      "RotY": 138.4425
    },
    {
      "ID": 2,
      "PosX": 93.40559,
      "PosY": -25.98591,
      "PosZ": 116.1201,
      "Name": "Anchor2"
    },
    {
      "ID": 3,
      "PosX": 95.39302,
      "PosY": -19.6,
      "PosZ": 113.0214,
      "Name": "Anchor3"
    }
  ],
  "MonsterList": [],
  "PropList": [
    {
      "ID": 300001,
      "PosX": 75.909,
      "PosY": -25.98637,
      "PosZ": 113.378,
      "Name": "Prop1",
      "Scale": {
        "x": 0.6,
        "y": 1.0,
        "z": 7.8
      },
      "PropID": 102,
      "ValueSource": {},
      "CampID": 4,
      "CustomTriggerMap": {},
      "CustomTriggerMapV2": {},
      "BridgeStateRotations": [],
      "DialogueGroups": [],
      "TalkDialogGroupIDList": [],
      "ServerInteractVerificationIDList": [],
      "TriggerValidGuest": {},
      "TagContainer": {},
      "CameraCenterEntityList": [],
      "SpawnConfig": {
        "EntitySpawnConfig": {}
      }
    },
    {
      "ID": 300002,
      "PosX": 121.516,
      "PosY": -30.48232,
      "PosZ": 147.481,
      "Name": "Prop2",
      "Scale": {
        "x": 0.6,
        "y": 1.0,
        "z": 9.0
      },
      "PropID": 102,
      "ValueSource": {},
      "CampID": 4,
      "CustomTriggerMap": {},
      "CustomTriggerMapV2": {},
      "BridgeStateRotations": [],
      "DialogueGroups": [],
      "TalkDialogGroupIDList": [],
      "ServerInteractVerificationIDList": [],
      "TriggerValidGuest": {},
      "TagContainer": {},
      "CameraCenterEntityList": [],
      "SpawnConfig": {
        "EntitySpawnConfig": {}
      }
    },
    {
      "ID": 300003,
      "PosX": 60.32,
      "PosY": -25.99555,
      "PosZ": 147.822,
      "Name": "Prop3",
      "Scale": {
        "x": 1.0,
        "y": 1.0,
        "z": 12.5
      },
      "PropID": 102,
      "ValueSource": {},
      "CampID": 4,
      "CustomTriggerMap": {},
      "CustomTriggerMapV2": {},
      "BridgeStateRotations": [],
      "DialogueGroups": [],
      "TalkDialogGroupIDList": [],
      "ServerInteractVerificationIDList": [],
      "TriggerValidGuest": {},
      "TagContainer": {},
      "CameraCenterEntityList": [],
      "SpawnConfig": {
        "EntitySpawnConfig": {}
      }
    }
  ],
  "NPCList": [
    {
      "ID": 400001,
      "PosX": 90.616,
      "PosY": -25.98594,
      "PosZ": 116.281,
      "Name": "NPC1",
      "RotY": 126.5676,
      "NPCID": 13316,
      "ValueSource": {},
      "DialogueGroups": [],
      "ServerInteractVerificationIDList": [],
      "DefaultLookAtMode": "LookTarget",
      "DefaultLookAtTargetInfo": {
        "GroupID": 469,
        "InstanceID": 3
      },
      "BoardShowList": [
        1
      ],
      "OverrideNPCName": {
        "Hash": 2039151959
      },
      "TalkDialogGroupIDList": [],
      "DefaultIdleFreeStyleMotionID": 100040000,
      "InitialHiddenNodeList": [],
      "Dialog": {
        "LevelGraph": "Config/Level/NPCDialogue/P10301/F10301001_G469/DialogueMain_F10301001_G469_N400001.json",
        "PackList": []
      },
      "TagContainer": {},
      "CameraCenterEntityList": [],
      "SpawnConfig": {
        "EntitySpawnConfig": {}
      },
      "TriggerValidGuest": {}
    },
    {
      "ID": 400002,
      "PosX": 93.35,
      "PosY": -28.33513,
      "PosZ": 155.03,
      "Name": "NPC2",
      "RotY": 220.7227,
      "NPCID": 13129,
      "ValueSource": {},
      "DialogueGroups": [],
      "ServerInteractVerificationIDList": [],
      "DefaultLookAtMode": "LookTarget",
      "DefaultLookAtTargetInfo": {
        "GroupID": 469,
        "InstanceID": 400006
      },
      "BoardShowList": [
        1
      ],
      "OverrideNPCName": {
        "Hash": 2053172196
      },
      "TalkDialogGroupIDList": [],
      "DefaultIdleFreeStyleMotionID": 100010000,
      "InitialHiddenNodeList": [],
      "Dialog": {
        "LevelGraph": "Config/Level/NPCDialogue/P10301/F10301001_G469/DialogueMain_F10301001_G469_N400002.json",
        "PackList": []
      },
      "TagContainer": {},
      "CameraCenterEntityList": [],
      "SpawnConfig": {
        "EntitySpawnConfig": {}
      },
      "TriggerValidGuest": {}
    },
    {
      "ID": 400003,
      "PosX": 111.006,
      "PosY": -28.33513,
      "PosZ": 149.495,
      "Name": "NPC3",
      "RotY": 227.1962,
      "NPCID": 13227,
      "ValueSource": {},
      "DialogueGroups": [],
      "ServerInteractVerificationIDList": [],
      "DefaultLookAtMode": "LookTarget",
      "DefaultLookAtTargetInfo": {
        "GroupID": 469,
        "InstanceID": 400004
      },
      "BoardShowList": [
        1
      ],
      "OverrideNPCName": {
        "Hash": -1915516447
      },
      "TalkDialogGroupIDList": [],
      "DefaultIdleFreeStyleMotionID": 100020000,
      "InitialHiddenNodeList": [],
      "Dialog": {
        "LevelGraph": "Config/Level/NPCDialogue/P10301/F10301001_G469/DialogueMain_F10301001_G469_N400003.json",
        "PackList": [],
        "EnableCondition": {
          "Conditions": [
            {
              "Type": "SubMission",
              "ID": 103230203
            },
            {
              "Type": "SubMission",
              "ID": 103230204
            }
          ],
          "Operation": "Or"
        }
      },
      "TagContainer": {},
      "CameraCenterEntityList": [],
      "SpawnConfig": {
        "EntitySpawnConfig": {}
      },
      "TriggerValidGuest": {}
    },
    {
      "ID": 400004,
      "PosX": 110.235,
      "PosY": -28.33513,
      "PosZ": 148.688,
      "Name": "NPC4",
      "RotY": 53.62609,
      "NPCID": 13149,
      "ValueSource": {},
      "DialogueGroups": [],
      "ServerInteractVerificationIDList": [],
      "DefaultLookAtMode": "LookTarget",
      "DefaultLookAtTargetInfo": {
        "GroupID": 469,
        "InstanceID": 400003
      },
      "BoardShowList": [
        1
      ],
      "OverrideNPCName": {
        "Hash": -1231708962
      },
      "TalkDialogGroupIDList": [],
      "DefaultIdleFreeStyleMotionID": 100010000,
      "InitialHiddenNodeList": [],
      "TagContainer": {},
      "CameraCenterEntityList": [],
      "SpawnConfig": {
        "EntitySpawnConfig": {}
      },
      "TriggerValidGuest": {}
    },
    {
      "ID": 400005,
      "PosX": 70.589,
      "PosY": -28.33513,
      "PosZ": 141.572,
      "Name": "NPC5",
      "RotY": 72.01371,
      "NPCID": 13131,
      "ValueSource": {},
      "DialogueGroups": [],
      "ServerInteractVerificationIDList": [],
      "DefaultLookAtMode": "Closed",
      "BoardShowList": [
        1
      ],
      "OverrideNPCName": {
        "Hash": 1790829499
      },
      "TalkDialogGroupIDList": [],
      "DefaultIdleFreeStyleMotionID": 100010236,
      "InitialHiddenNodeList": [],
      "Dialog": {
        "LevelGraph": "Config/Level/NPCDialogue/P10301/F10301001_G469/DialogueMain_F10301001_G469_N400005.json",
        "PackList": [],
        "EnableCondition": {
          "Conditions": [
            {
              "Type": "SubMission",
              "ID": 103230204
            }
          ]
        }
      },
      "TagContainer": {},
      "CameraCenterEntityList": [],
      "SpawnConfig": {
        "EntitySpawnConfig": {}
      },
      "TriggerValidGuest": {}
    },
    {
      "ID": 400006,
      "PosX": 92.44499,
      "PosY": -28.33513,
      "PosZ": 154.026,
      "Name": "NPC6",
      "RotY": 36.74039,
      "NPCID": 13132,
      "ValueSource": {},
      "DialogueGroups": [],
      "ServerInteractVerificationIDList": [],
      "DefaultLookAtMode": "LookTarget",
      "DefaultLookAtTargetInfo": {
        "GroupID": 469,
        "InstanceID": 400002
      },
      "BoardShowList": [
        1
      ],
      "OverrideNPCName": {
        "Hash": 1790829499
      },
      "TalkDialogGroupIDList": [],
      "DefaultIdleFreeStyleMotionID": 100010230,
      "InitialHiddenNodeList": [],
      "TagContainer": {},
      "CameraCenterEntityList": [],
      "SpawnConfig": {
        "EntitySpawnConfig": {}
      },
      "TriggerValidGuest": {}
    }
  ]
}