{
  "GroupGUID": "c6d35441-8ef0-4bc5-9231-e0834a8916ec",
  "GroupName": "Sound",
  "Category": "Atmosphere",
  "AreaAnchorName": "LevelArea_P43003_F43003001_G40",
  "SaveType": "Reset",
  "AtmosphereCondition": {
    "Conditions": [
      {
        "$type": "LevelGroupSubMissionCompleteCondition",
        "SubMissionID": 200100139
      }
    ]
  },
  "LoadOnInitial": true,
  "ValueSource": {},
  "ConflictIDList": [],
  "IsHoyoGroup": true,
  "HoYoGroupType": "Container",
  "ConflictWhiteList": [],
  "AnchorList": [],
  "MonsterList": [],
  "PropList": [],
  "NPCList": []
}