{
  "GroupGUID": "89864e47-1829-4a45-8078-23a4e9e6e253",
  "GroupName": "GuruguruCtrl",
  "LevelGraph": "Config/Level/GroupGraph/F44305003/Group_F44305003_G43.json",
  "AreaAnchorName": "LevelArea_P44305_F44305003_G43",
  "SaveType": "Reset",
  "SavedValueCondition": {
    "Conditions": [],
    "Operation": "And"
  },
  "LoadOnInitial": true,
  "ValueSource": {},
  "ConflictIDList": [],
  "IsHoyoGroup": true,
  "ConflictWhiteList": [],
  "TagContainer": {},
  "AnchorList": [],
  "MonsterList": [],
  "PropList": [
    {
      "ID": 300001,
      "PosX": 125.6486,
      "PosY": 41.02238,
      "PosZ": -268.632,
      "Name": "Prop1",
      "RotZ": 270.0,
      "PropID": 100,
      "ValueSource": {},
      "CampID": 4,
      "CustomTriggerMap": {},
      "CustomTriggerMapV2": {},
      "BridgeStateRotations": [],
      "DialogueGroups": [],
      "TalkDialogGroupIDList": [],
      "ServerInteractVerificationIDList": [],
      "TriggerValidGuest": {},
      "TagContainer": {},
      "CameraCenterEntityList": [],
      "SpawnConfig": {
        "EntitySpawnConfig": {}
      }
    }
  ],
  "NPCList": []
}