{
  "GroupGUID": "eba94d29-ca74-44fd-aef1-25b943de60d9",
  "GroupName": "BGM",
  "AreaAnchorName": "LevelArea_P44305_F44305003_G8",
  "SaveType": "Reset",
  "SavedValueCondition": {
    "Conditions": [],
    "Operation": "And"
  },
  "LoadOnInitial": true,
  "ValueSource": {},
  "ConflictIDList": [],
  "IsHoyoGroup": true,
  "HoYoGroupType": "Container",
  "ConflictWhiteList": [],
  "TagContainer": {},
  "AnchorList": [],
  "MonsterList": [],
  "PropList": [],
  "NPCList": []
}