{
  "GroupGUID": "0f05c3cc-4dad-4de6-9060-7167adc6aaeb",
  "GroupName": "OneWayBridge",
  "LevelGraph": "Config/Level/GroupGraph/F44305003/Group_F44305003_G26.json",
  "AreaAnchorName": "LevelArea_P44305_F44305003_G26",
  "SavedValueCondition": {
    "Conditions": [],
    "Operation": "And"
  },
  "LoadSide": "Server",
  "LoadOnInitial": true,
  "ValueSource": {},
  "ConflictIDList": [],
  "IsHoyoGroup": true,
  "ConflictWhiteList": [],
  "TagContainer": {},
  "AnchorList": [],
  "MonsterList": [],
  "PropList": [
    {
      "ID": 300001,
      "PosX": 143.25,
      "PosY": 35.08,
      "PosZ": -273.0,
      "Name": "Bridge_2-1",
      "RotY": 180.0,
      "Scale": {
        "x": 1.0,
        "y": 1.5,
        "z": 1.0
      },
      "PropID": 103033,
      "ValueSource": {},
      "CampID": 4,
      "CustomTriggerMap": {},
      "CustomTriggerMapV2": {},
      "BridgeStateRotations": [],
      "DialogueGroups": [],
      "TalkDialogGroupIDList": [],
      "ServerInteractVerificationIDList": [],
      "TriggerValidGuest": {},
      "TagContainer": {},
      "CameraCenterEntityList": [],
      "SpawnConfig": {
        "EntitySpawnConfig": {}
      }
    },
    {
      "ID": 300002,
      "PosX": 143.25,
      "PosY": 34.87,
      "PosZ": -267.0,
      "Name": "Bridge_2-1",
      "RotY": 180.0,
      "Scale": {
        "x": 1.0,
        "y": 1.5,
        "z": 1.0
      },
      "PropID": 103033,
      "ValueSource": {},
      "CampID": 4,
      "CustomTriggerMap": {},
      "CustomTriggerMapV2": {},
      "BridgeStateRotations": [],
      "DialogueGroups": [],
      "TalkDialogGroupIDList": [],
      "ServerInteractVerificationIDList": [],
      "TriggerValidGuest": {},
      "TagContainer": {},
      "CameraCenterEntityList": [],
      "SpawnConfig": {
        "EntitySpawnConfig": {}
      }
    },
    {
      "ID": 300003,
      "PosX": 142.48,
      "PosY": 35.07,
      "PosZ": -273.826,
      "Name": "Prop3",
      "RotY": 270.0,
      "PropID": 103039,
      "ValueSource": {},
      "CampID": 4,
      "CustomTriggerMap": {},
      "CustomTriggerMapV2": {},
      "BridgeStateRotations": [],
      "DialogueGroups": [],
      "TalkDialogGroupIDList": [],
      "ServerInteractVerificationIDList": [],
      "TriggerValidGuest": {},
      "TagContainer": {},
      "CameraCenterEntityList": [],
      "SpawnConfig": {
        "EntitySpawnConfig": {}
      }
    }
  ],
  "NPCList": []
}