{
  "GroupGUID": "4e3e5f79-c8ff-4ac3-91f3-98117eaf668c",
  "GroupName": "Case2",
  "AreaAnchorName": "LevelArea_P44305_F44305003_G64",
  "SaveType": "Reset",
  "SavedValueCondition": {
    "Operation": "And"
  },
  "LoadOnInitial": true,
  "ValueSource": {},
  "ConflictIDList": [],
  "IsHoyoGroup": true,
  "HoYoGroupType": "Container",
  "ConflictWhiteList": [],
  "TagContainer": {},
  "AnchorList": [],
  "MonsterList": [],
  "PropList": [],
  "NPCList": []
}