{
  "GroupGUID": "47d5ce3f-262d-466e-8e47-ed79caa310f1",
  "GroupName": "Tpl_OrigamiBird_Normal",
  "LevelGraph": "Config/Level/GroupTemplateGraph/Puzzle/OrigamiBird/OrigamiBird_Chasing.json",
  "AreaAnchorName": "LevelArea_P10304_F10304001_G54",
  "SaveDimensionFilter": {},
  "SavedValueCondition": {
    "Conditions": [],
    "Operation": "And"
  },
  "IsPendedUnload": true,
  "LoadSide": "Server",
  "ValueSource": {
    "Values": [
      {
        "$type": "SharedString",
        "Key": "TriggerPerformance",
        "Value": "414032011"
      }
    ]
  },
  "ConflictIDList": [],
  "IsHoyoGroup": true,
  "ConflictWhiteList": [],
  "TagContainer": {},
  "AnchorList": [],
  "MonsterList": [],
  "PropList": [
    {
      "ID": 300001,
      "PosX": -6.1828,
      "PosY": 43.664,
      "PosZ": -292.5857,
      "Name": "Prop1",
      "RotY": 270.4502,
      "RotX": -2.0E-6,
      "RotZ": 270.1663,
      "Scale": {
        "x": 0.5,
        "y": 0.5,
        "z": 0.5
      },
      "PropID": 103024,
      "ValueSource": {
        "Values": [
          {
            "$type": "SharedUint",
            "Key": "DefaultIsOverrideButton",
            "Value": 2
          }
        ]
      },
      "CampID": 4,
      "State": "EventClose",
      "CustomTriggerMap": {},
      "CustomTriggerMapV2": {
        "InteractTrigger": {
          "Radius": 4.0,
          "DimX": 2.0,
          "DimY": 2.0,
          "DimZ": 2.0,
          "PointList": []
        }
      },
      "BridgeStateRotations": [],
      "DialogueGroups": [],
      "TalkDialogGroupIDList": [],
      "ServerInteractVerificationIDList": [],
      "TriggerValidGuest": {},
      "TagContainer": {},
      "CameraCenterEntityList": [],
      "SpawnConfig": {
        "EntitySpawnConfig": {}
      }
    },
    {
      "ID": 300002,
      "PosX": -6.0404,
      "PosY": 43.6698,
      "PosZ": -290.4781,
      "Name": "Prop2",
      "RotY": 284.1755,
      "RotX": 359.9605,
      "RotZ": 270.1616,
      "Scale": {
        "x": 0.5,
        "y": 0.5,
        "z": 0.5
      },
      "PropID": 103024,
      "ValueSource": {
        "Values": [
          {
            "$type": "SharedString",
            "Key": "OverrideButtonText",
            "Value": "MazeText_Maze_OrigamiBird_Normal_PullOut_23"
          },
          {
            "$type": "SharedUint",
            "Key": "DefaultIsOverrideButton",
            "Value": 2
          }
        ]
      },
      "CampID": 4,
      "CustomTriggerMap": {},
      "CustomTriggerMapV2": {
        "InteractTrigger": {
          "Radius": 4.0,
          "PointList": []
        }
      },
      "BridgeStateRotations": [],
      "DialogueGroups": [],
      "TalkDialogGroupIDList": [],
      "ServerInteractVerificationIDList": [],
      "TriggerValidGuest": {},
      "TagContainer": {},
      "CameraCenterEntityList": [],
      "SpawnConfig": {
        "EntitySpawnConfig": {}
      }
    },
    {
      "ID": 300003,
      "PosX": -4.811375,
      "PosY": 43.677,
      "PosZ": -288.0243,
      "Name": "Prop3",
      "RotY": 309.5469,
      "RotX": 359.8951,
      "RotZ": 270.1291,
      "Scale": {
        "x": 0.5,
        "y": 0.5,
        "z": 0.5
      },
      "PropID": 103024,
      "ValueSource": {
        "Values": [
          {
            "$type": "SharedString",
            "Key": "OverrideButtonText",
            "Value": "MazeText_Maze_OrigamiBird_Normal_PullOut_24"
          },
          {
            "$type": "SharedUint",
            "Key": "DefaultIsOverrideButton",
            "Value": 2
          }
        ]
      },
      "CampID": 4,
      "EventID": 10304711,
      "CustomTriggerMap": {},
      "CustomTriggerMapV2": {
        "InteractTrigger": {
          "Radius": 4.0,
          "DimX": 2.0,
          "DimY": 2.0,
          "DimZ": 2.0,
          "PointList": []
        }
      },
      "BridgeStateRotations": [],
      "DialogueGroups": [],
      "TalkDialogGroupIDList": [],
      "ServerInteractVerificationIDList": [],
      "TriggerValidGuest": {},
      "TagContainer": {},
      "CameraCenterEntityList": [],
      "SpawnConfig": {
        "EntitySpawnConfig": {}
      }
    },
    {
      "ID": 300004,
      "PosX": -5.549742,
      "PosY": 43.19356,
      "PosZ": -290.2306,
      "Name": "Prop4",
      "PropID": 211,
      "IsOverrideInitLevelGraph": true,
      "ValueSource": {
        "Values": []
      },
      "CampID": 4,
      "State": "Open",
      "CustomTriggerMap": {},
      "CustomTriggerMapV2": {},
      "BridgeStateRotations": [],
      "MappingInfoID": 10055,
      "DialogueGroups": [],
      "TalkDialogGroupIDList": [],
      "ServerInteractVerificationIDList": [],
      "OverrideMapIconType": 158,
      "OverrideMapStateIcons": [
        {
          "IconID": 158
        }
      ],
      "TriggerValidGuest": {},
      "TagContainer": {},
      "CameraCenterEntityList": [],
      "SpawnConfig": {
        "EntitySpawnConfig": {}
      }
    }
  ],
  "NPCList": [
    {
      "ID": 400001,
      "PosX": -3.453,
      "PosY": 44.409,
      "PosZ": -286.735,
      "Name": "NPC1",
      "RotY": 349.0103,
      "NPCID": 3026,
      "ValueSource": {
        "Values": []
      },
      "CampID": 1,
      "StaticNPC": true,
      "DialogueGroups": [],
      "ServerInteractVerificationIDList": [],
      "BoardShowList": [
        2,
        4,
        8
      ],
      "TalkDialogGroupIDList": [],
      "DefaultAnimationType": "IdleState",
      "DefaultIdleFreeStyleMotionID": 900090266,
      "InitialHiddenNodeList": [],
      "TagContainer": {},
      "CameraCenterEntityList": [],
      "SpawnConfig": {
        "EntitySpawnConfig": {},
        "CaptureDistanceTolerance": 10.0
      },
      "IsClientOnly": true,
      "TriggerValidGuest": {}
    }
  ]
}