{
  "GroupGUID": "0a9c958d-8d91-4e58-83cf-2b55783b7725",
  "GroupName": "Hat",
  "AreaAnchorName": "LevelArea_P10304_F10304001_G135",
  "SaveDimensionFilter": {},
  "SavedValueCondition": {
    "Conditions": [
      {
        "SavedValueName": "Hat",
        "Operation": "Equal"
      },
      {
        "SavedValueName": "BuildingState",
        "Operation": "Equal",
        "Value": 1
      }
    ],
    "Operation": "And"
  },
  "LoadSide": "Server",
  "LoadOnInitial": true,
  "ValueSource": {},
  "ConflictIDList": [],
  "IsHoyoGroup": true,
  "HoYoGroupType": "Container",
  "ConflictWhiteList": [],
  "TagContainer": {},
  "AnchorList": [],
  "MonsterList": [],
  "PropList": [
    {
      "ID": 300001,
      "PosX": 0.231482,
      "PosY": 44.83097,
      "PosZ": -292.2084,
      "Name": "Prop1",
      "RotY": 3.431335,
      "RotX": 14.61014,
      "RotZ": 336.187,
      "Scale": {
        "x": 1.2,
        "y": 1.2,
        "z": 1.2
      },
      "PropID": 103195,
      "ValueSource": {},
      "CampID": 4,
      "CustomTriggerMap": {},
      "CustomTriggerMapV2": {},
      "BridgeStateRotations": [],
      "DialogueGroups": [],
      "TalkDialogGroupIDList": [],
      "ServerInteractVerificationIDList": [],
      "TriggerValidGuest": {},
      "TagContainer": {},
      "CameraCenterEntityList": [],
      "SpawnConfig": {
        "EntitySpawnConfig": {}
      }
    }
  ],
  "NPCList": []
}