{
  "GroupGUID": "dd0e0323-15b3-4936-a7d6-7bd4d6b23a85",
  "GroupName": "MainMission4340116_01",
  "Category": "Mission",
  "LevelGraph": "Config/Level/GroupGraph/F10304001/Group_F10304001_G100.json",
  "AreaAnchorName": "LevelArea_P10304_F10304001_G100",
  "SaveDimensionFilter": {},
  "LoadSide": "Server",
  "OwnerMainMissionID": 4340116,
  "ValueSource": {},
  "ConflictIDList": [],
  "IsHoyoGroup": true,
  "ConflictWhiteList": [],
  "TagContainer": {},
  "AnchorList": [
    {
      "ID": 1,
      "PosX": -63.703,
      "PosY": 14.46946,
      "PosZ": -585.596,
      "Name": "Anchor1",
      "RotY": 111.8045,
      "Usage": "Actor"
    }
  ],
  "MonsterList": [],
  "PropList": [],
  "NPCList": [
    {
      "ID": 400001,
      "PosX": -63.57,
      "PosY": 14.53057,
      "PosZ": -590.25,
      "Name": "NPC1",
      "RotY": 275.0423,
      "NPCID": 13133,
      "ValueSource": {},
      "DialogueGroups": [],
      "ServerInteractVerificationIDList": [],
      "DefaultLookAtMode": "Closed",
      "BoardShowList": [
        1,
        8
      ],
      "OverrideNPCName": {
        "Hash": -1906700781
      },
      "TalkDialogGroupIDList": [],
      "DefaultIdleFreeStyleMotionID": 100010339,
      "InitialHiddenNodeList": [],
      "TagContainer": {},
      "CameraCenterEntityList": [],
      "SpawnConfig": {
        "EntitySpawnConfig": {}
      },
      "IsClientOnly": true,
      "TriggerValidGuest": {}
    },
    {
      "ID": 400002,
      "PosX": -63.084,
      "PosY": 14.53057,
      "PosZ": -591.207,
      "Name": "NPC2",
      "RotY": 331.9166,
      "NPCID": 13236,
      "ValueSource": {},
      "DialogueGroups": [],
      "ServerInteractVerificationIDList": [],
      "BoardShowList": [],
      "TalkDialogGroupIDList": [],
      "DefaultIdleFreeStyleMotionID": 100020231,
      "InitialHiddenNodeList": [],
      "TagContainer": {},
      "CameraCenterEntityList": [],
      "SpawnConfig": {
        "EntitySpawnConfig": {}
      },
      "IsClientOnly": true,
      "TriggerValidGuest": {}
    },
    {
      "ID": 400003,
      "PosX": -63.982,
      "PosY": 14.53057,
      "PosZ": -591.401,
      "Name": "NPC3",
      "RotY": 22.76259,
      "NPCID": 13136,
      "ValueSource": {},
      "DialogueGroups": [],
      "ServerInteractVerificationIDList": [],
      "BoardShowList": [],
      "TalkDialogGroupIDList": [],
      "DefaultIdleFreeStyleMotionID": 100010210,
      "InitialHiddenNodeList": [],
      "TagContainer": {},
      "CameraCenterEntityList": [],
      "SpawnConfig": {
        "EntitySpawnConfig": {}
      },
      "IsClientOnly": true,
      "TriggerValidGuest": {}
    },
    {
      "ID": 400004,
      "PosX": -62.48,
      "PosY": 14.53057,
      "PosZ": -586.81,
      "Name": "NPC4",
      "RotY": 323.8564,
      "NPCID": 13133,
      "ValueSource": {},
      "DialogueGroups": [],
      "ServerInteractVerificationIDList": [],
      "DefaultLookAtMode": "Closed",
      "BoardShowList": [
        1,
        8
      ],
      "OverrideNPCName": {
        "Hash": -1906700781
      },
      "TalkDialogGroupIDList": [],
      "DefaultIdleFreeStyleMotionID": 100010210,
      "InitialHiddenNodeList": [],
      "TagContainer": {},
      "CameraCenterEntityList": [],
      "SpawnConfig": {
        "EntitySpawnConfig": {}
      },
      "IsClientOnly": true,
      "TriggerValidGuest": {}
    },
    {
      "ID": 400005,
      "PosX": -61.71,
      "PosY": 14.53057,
      "PosZ": -585.09,
      "Name": "NPC5",
      "RotY": 251.252,
      "NPCID": 13236,
      "ValueSource": {},
      "DialogueGroups": [],
      "ServerInteractVerificationIDList": [],
      "DefaultLookAtMode": "Closed",
      "BoardShowList": [],
      "TalkDialogGroupIDList": [],
      "DefaultIdleFreeStyleMotionID": 100020231,
      "InitialHiddenNodeList": [],
      "TagContainer": {},
      "CameraCenterEntityList": [],
      "SpawnConfig": {
        "EntitySpawnConfig": {}
      },
      "IsClientOnly": true,
      "TriggerValidGuest": {}
    },
    {
      "ID": 400006,
      "PosX": -63.591,
      "PosY": 14.46946,
      "PosZ": -587.559,
      "Name": "NPC6",
      "RotY": 4.503892,
      "NPCID": 13136,
      "ValueSource": {},
      "DialogueGroups": [],
      "ServerInteractVerificationIDList": [],
      "DefaultLookAtMode": "Closed",
      "BoardShowList": [],
      "TalkDialogGroupIDList": [],
      "DefaultIdleFreeStyleMotionID": 100010210,
      "InitialHiddenNodeList": [],
      "TagContainer": {},
      "CameraCenterEntityList": [],
      "SpawnConfig": {
        "EntitySpawnConfig": {}
      },
      "IsClientOnly": true,
      "TriggerValidGuest": {}
    }
  ]
}