{
  "GroupGUID": "96f74386-4892-48e6-95f7-c31f814d8095",
  "GroupName": "MainMission4340116_06",
  "Category": "Mission",
  "AreaAnchorName": "LevelArea_P10304_F10304001_G105",
  "SaveType": "Reset",
  "OwnerMainMissionID": 4340116,
  "ValueSource": {},
  "ConflictIDList": [],
  "IsHoyoGroup": true,
  "ConflictWhiteList": [],
  "TagContainer": {},
  "AnchorList": [],
  "MonsterList": [],
  "PropList": [],
  "NPCList": [
    {
      "ID": 400001,
      "PosX": -63.157,
      "PosY": 14.53057,
      "PosZ": -588.191,
      "Name": "NPC1",
      "RotY": 1.102819,
      "NPCID": 13133,
      "ValueSource": {},
      "DialogueGroups": [],
      "ServerInteractVerificationIDList": [],
      "DefaultLookAtMode": "Closed",
      "BoardShowList": [
        1,
        8
      ],
      "OverrideNPCName": {
        "Hash": -1906700781
      },
      "TalkDialogGroupIDList": [],
      "DefaultIdleFreeStyleMotionID": 100010231,
      "InitialHiddenNodeList": [],
      "Dialog": {
        "LevelGraph": "Config/Level/NPCDialogue/P10304/F10304001_G105/DialogueMain_F10304001_G105_N400001.json",
        "PackList": []
      },
      "InteractIconType": "SecretMissionIcon",
      "TagContainer": {},
      "CameraCenterEntityList": [],
      "SpawnConfig": {
        "EntitySpawnConfig": {}
      },
      "TriggerValidGuest": {}
    },
    {
      "ID": 400002,
      "PosX": -62.774,
      "PosY": 14.53057,
      "PosZ": -589.06,
      "Name": "NPC2",
      "RotY": 345.8736,
      "NPCID": 13236,
      "ValueSource": {},
      "DialogueGroups": [],
      "ServerInteractVerificationIDList": [],
      "BoardShowList": [],
      "TalkDialogGroupIDList": [],
      "DefaultIdleFreeStyleMotionID": 100020000,
      "InitialHiddenNodeList": [],
      "TagContainer": {},
      "CameraCenterEntityList": [],
      "SpawnConfig": {
        "EntitySpawnConfig": {}
      },
      "TriggerValidGuest": {}
    },
    {
      "ID": 400003,
      "PosX": -63.617,
      "PosY": 14.53057,
      "PosZ": -589.007,
      "Name": "NPC3",
      "RotY": 19.21249,
      "NPCID": 13136,
      "ValueSource": {},
      "DialogueGroups": [],
      "ServerInteractVerificationIDList": [],
      "BoardShowList": [],
      "TalkDialogGroupIDList": [],
      "DefaultIdleFreeStyleMotionID": 100010000,
      "InitialHiddenNodeList": [],
      "TagContainer": {},
      "CameraCenterEntityList": [],
      "SpawnConfig": {
        "EntitySpawnConfig": {}
      },
      "TriggerValidGuest": {}
    }
  ]
}