{
  "GroupGUID": "9a3a2e29-1a58-4224-b241-e7f365728515",
  "GroupName": "MainMission4340115_05",
  "Category": "Mission",
  "AreaAnchorName": "LevelArea_P10304_F10304001_G83",
  "SaveType": "Reset",
  "IsPendedUnload": true,
  "OwnerMainMissionID": 4340115,
  "ValueSource": {},
  "ConflictIDList": [],
  "IsHoyoGroup": true,
  "HoYoGroupType": "Container",
  "ConflictWhiteList": [],
  "TagContainer": {},
  "AnchorList": [],
  "MonsterList": [],
  "PropList": [
    {
      "ID": 300001,
      "PosX": 77.626,
      "PosY": 15.64,
      "PosZ": -489.963,
      "Name": "Prop1",
      "Scale": {
        "x": 0.25,
        "y": 0.25,
        "z": 0.25
      },
      "PropID": 103105,
      "ValueSource": {},
      "CampID": 4,
      "CustomTriggerMap": {},
      "CustomTriggerMapV2": {},
      "BridgeStateRotations": [],
      "DialogueGroups": [],
      "TalkDialogGroupIDList": [],
      "ServerInteractVerificationIDList": [],
      "TriggerValidGuest": {},
      "TagContainer": {},
      "CameraCenterEntityList": [],
      "SpawnConfig": {
        "EntitySpawnConfig": {}
      }
    },
    {
      "ID": 300002,
      "PosX": 77.512,
      "PosY": 14.61226,
      "PosZ": -489.698,
      "Name": "Prop2",
      "PropID": 100,
      "ValueSource": {},
      "Trigger": {
        "Radius": 1.0,
        "DimX": 1.0,
        "DimY": 1.0,
        "DimZ": 1.0,
        "PointList": []
      },
      "CampID": 4,
      "CustomTriggerMap": {},
      "CustomTriggerMapV2": {},
      "BridgeStateRotations": [],
      "DialogueGroups": [],
      "TalkDialogGroupIDList": [],
      "ServerInteractVerificationIDList": [],
      "Dialog": {
        "LevelGraph": "Config/Level/PropDialogue/P10304/F10304001_G83/DialogueMain_F10304001_G83_P300002.json",
        "PackList": [],
        "EnableCondition": {
          "Conditions": [
            {
              "Type": "SubMission",
              "ID": 434011509
            }
          ]
        }
      },
      "InteractIconType": "SecretMissionIcon",
      "InteractTitle": {
        "Hash": 278713937
      },
      "TriggerValidGuest": {},
      "TagContainer": {},
      "CameraCenterEntityList": [],
      "SpawnConfig": {
        "EntitySpawnConfig": {}
      }
    }
  ],
  "NPCList": []
}