{
  "GroupGUID": "bc6a929a-4f72-41da-a4de-97c96cd4c479",
  "GroupName": "MainMission1032501_New Group",
  "Category": "Mission",
  "LevelGraph": "Config/Level/GroupGraph/F10304001/Group_F10304001_G34.json",
  "AreaAnchorName": "LevelArea_P10304_F10304001_G34",
  "SaveType": "Reset",
  "OwnerMainMissionID": 1032501,
  "ValueSource": {},
  "ConflictIDList": [],
  "IsHoyoGroup": true,
  "ConflictWhiteList": [],
  "TagContainer": {},
  "AnchorList": [
    {
      "ID": 1,
      "PosX": 0.12,
      "PosY": 45.086,
      "PosZ": -292.224,
      "Name": "Anchor1"
    }
  ],
  "MonsterList": [],
  "PropList": [
    {
      "ID": 300001,
      "PosX": -0.21,
      "PosY": 43.19356,
      "PosZ": -297.143,
      "Name": "Prop1",
      "PropID": 100,
      "ValueSource": {},
      "CampID": 4,
      "CustomTriggerMap": {},
      "CustomTriggerMapV2": {
        "MissionTrigger": {
          "Shape": "Box",
          "Radius": 2.0,
          "DimX": 6.0,
          "DimY": 3.0,
          "DimZ": 3.5,
          "Offset": {
            "z": 1.0
          },
          "PointList": []
        }
      },
      "BridgeStateRotations": [],
      "DialogueGroups": [],
      "TalkDialogGroupIDList": [],
      "ServerInteractVerificationIDList": [],
      "TriggerValidGuest": {},
      "TagContainer": {},
      "CameraCenterEntityList": [],
      "SpawnConfig": {
        "EntitySpawnConfig": {}
      }
    }
  ],
  "NPCList": []
}