{
  "GroupGUID": "288e9863-911b-467e-a449-660d192b29ed",
  "GroupName": "Elevator",
  "LevelGraph": "Config/Level/GroupGraph/F10304001/Group_F10304001_G11.json",
  "AreaAnchorName": "LevelArea_P10304_F10304001_G11",
  "SaveDimensionFilter": {},
  "SavedValueCondition": {
    "Conditions": [],
    "Operation": "And"
  },
  "LoadSide": "Server",
  "LoadOnInitial": true,
  "ValueSource": {
    "Values": [
      {
        "$type": "SharedString",
        "Key": "1stFloor",
        "Value": "LevelArea_P10304_F10304001_G11,Lift1_1F"
      },
      {
        "$type": "SharedString",
        "Key": "2ndFloor",
        "Value": "LevelArea_P10304_F10304001_G11,Lift1_2F"
      }
    ]
  },
  "ConflictIDList": [],
  "IsHoyoGroup": true,
  "StreamingTemplateType": "Far",
  "ConflictWhiteList": [],
  "TagContainer": {},
  "AnchorList": [
    {
      "ID": 1,
      "PosY": -159.12,
      "PosZ": -508.538,
      "Name": "Lift1_1F"
    },
    {
      "ID": 2,
      "PosY": 17.25,
      "PosZ": -508.538,
      "Name": "Lift1_2F"
    }
  ],
  "MonsterList": [],
  "PropList": [
    {
      "ID": 300001,
      "PosY": -159.12,
      "PosZ": -508.538,
      "Name": "Elevator_01",
      "PropID": 103136,
      "ValueSource": {
        "Values": [
          {
            "$type": "SharedFloat",
            "Key": "MoveDuration",
            "Value": 35.0
          }
        ]
      },
      "CampID": 4,
      "CustomTriggerMap": {},
      "CustomTriggerMapV2": {},
      "BridgeStateRotations": [],
      "DialogueGroups": [],
      "TalkDialogGroupIDList": [],
      "ServerInteractVerificationIDList": [],
      "TriggerValidGuest": {},
      "TagContainer": {},
      "CameraCenterEntityList": [],
      "SpawnConfig": {
        "EntitySpawnConfig": {}
      }
    },
    {
      "ID": 300002,
      "PosY": 17.188,
      "PosZ": -508.538,
      "Name": "Elevator_02",
      "PropID": 103136,
      "ValueSource": {
        "Values": [
          {
            "$type": "SharedFloat",
            "Key": "MoveDuration",
            "Value": 35.0
          }
        ]
      },
      "CampID": 4,
      "CustomTriggerMap": {},
      "CustomTriggerMapV2": {},
      "BridgeStateRotations": [],
      "DialogueGroups": [],
      "TalkDialogGroupIDList": [],
      "ServerInteractVerificationIDList": [],
      "TriggerValidGuest": {},
      "TagContainer": {},
      "CameraCenterEntityList": [],
      "SpawnConfig": {
        "EntitySpawnConfig": {}
      }
    },
    {
      "ID": 300003,
      "PosY": -159.496,
      "PosZ": -506.47,
      "Name": "Elv_OutDoor_01",
      "PropID": 103137,
      "ValueSource": {},
      "CampID": 4,
      "State": "Open",
      "CustomTriggerMap": {},
      "CustomTriggerMapV2": {},
      "BridgeStateRotations": [],
      "DialogueGroups": [],
      "TalkDialogGroupIDList": [],
      "ServerInteractVerificationIDList": [],
      "IsClientOnly": true,
      "TriggerValidGuest": {},
      "TagContainer": {},
      "CameraCenterEntityList": [],
      "SpawnConfig": {
        "EntitySpawnConfig": {}
      }
    },
    {
      "ID": 300004,
      "PosY": 17.25,
      "PosZ": -506.756,
      "Name": "Elv_OutDoor_02",
      "Scale": {
        "x": 1.2,
        "y": 1.2,
        "z": 1.2
      },
      "PropID": 103138,
      "ValueSource": {},
      "State": "Open",
      "CustomTriggerMap": {},
      "CustomTriggerMapV2": {},
      "BridgeStateRotations": [],
      "DialogueGroups": [],
      "TalkDialogGroupIDList": [],
      "ServerInteractVerificationIDList": [],
      "IsClientOnly": true,
      "TriggerValidGuest": {},
      "TagContainer": {},
      "CameraCenterEntityList": [],
      "SpawnConfig": {
        "EntitySpawnConfig": {}
      }
    }
  ],
  "NPCList": []
}