{
  "GroupGUID": "f149b82f-147e-47a3-baff-6826da5e6cc2",
  "GroupName": "MainMission4340115_01",
  "Category": "Mission",
  "LevelGraph": "Config/Level/GroupGraph/F10304001/Group_F10304001_G79.json",
  "AreaAnchorName": "LevelArea_P10304_F10304001_G79",
  "SaveType": "Reset",
  "IsPendedUnload": true,
  "OwnerMainMissionID": 4340115,
  "ValueSource": {},
  "ConflictIDList": [],
  "IsHoyoGroup": true,
  "ConflictWhiteList": [],
  "TagContainer": {},
  "AnchorList": [],
  "MonsterList": [],
  "PropList": [],
  "NPCList": [
    {
      "ID": 400001,
      "PosX": 78.072,
      "PosY": 14.61226,
      "PosZ": -489.29,
      "Name": "NPC1",
      "RotY": 309.1868,
      "NPCID": 13138,
      "ValueSource": {},
      "DialogueGroups": [],
      "ServerInteractVerificationIDList": [],
      "BoardShowList": [
        1,
        8
      ],
      "OverrideNPCName": {
        "Hash": 521807957
      },
      "TalkDialogGroupIDList": [],
      "DefaultIdleFreeStyleMotionID": 100010295,
      "InitialHiddenNodeList": [],
      "Dialog": {
        "LevelGraph": "Config/Level/NPCDialogue/P10304/F10304001_G79/DialogueMain_F10304001_G79_N400001.json",
        "PackList": []
      },
      "InteractIconType": "SecretMissionIcon",
      "TagContainer": {},
      "CameraCenterEntityList": [],
      "SpawnConfig": {
        "EntitySpawnConfig": {}
      },
      "TriggerValidGuest": {}
    }
  ]
}