{
  "GroupGUID": "e1edd6f9-7417-4e47-916f-9906c0231d7d",
  "GroupName": "MainMission4340116_05",
  "Category": "Mission",
  "AreaAnchorName": "LevelArea_P10304_F10304001_G104",
  "SaveType": "Reset",
  "IsPendedUnload": true,
  "OwnerMainMissionID": 4340116,
  "ValueSource": {},
  "ConflictIDList": [],
  "IsHoyoGroup": true,
  "ConflictWhiteList": [],
  "TagContainer": {},
  "AnchorList": [],
  "MonsterList": [],
  "PropList": [],
  "NPCList": [
    {
      "ID": 400001,
      "PosX": -63.213,
      "PosY": 14.53057,
      "PosZ": -590.818,
      "Name": "NPC1",
      "RotY": 1.102819,
      "NPCID": 13133,
      "ValueSource": {},
      "DialogueGroups": [],
      "ServerInteractVerificationIDList": [],
      "BoardShowList": [
        1,
        8
      ],
      "OverrideNPCName": {
        "Hash": -1906700781
      },
      "TalkDialogGroupIDList": [],
      "DefaultIdleFreeStyleMotionID": 100010000,
      "InitialHiddenNodeList": [],
      "Dialog": {
        "LevelGraph": "Config/Level/NPCDialogue/P10304/F10304001_G104/DialogueMain_F10304001_G104_N400001.json",
        "PackList": []
      },
      "InteractIconType": "SecretMissionIcon",
      "TagContainer": {},
      "CameraCenterEntityList": [],
      "SpawnConfig": {
        "EntitySpawnConfig": {}
      },
      "TriggerValidGuest": {}
    },
    {
      "ID": 400002,
      "PosX": -61.92,
      "PosY": 14.53057,
      "PosZ": -593.111,
      "Name": "NPC2",
      "RotY": 348.3557,
      "NPCID": 13236,
      "ValueSource": {},
      "DialogueGroups": [],
      "ServerInteractVerificationIDList": [],
      "DefaultLookAtMode": "LookTarget",
      "DefaultLookAtTargetInfo": {
        "GroupID": 104,
        "InstanceID": 400004
      },
      "BoardShowList": [],
      "TalkDialogGroupIDList": [],
      "DefaultIdleFreeStyleMotionID": 100020310,
      "InitialHiddenNodeList": [],
      "TagContainer": {},
      "CameraCenterEntityList": [],
      "SpawnConfig": {
        "EntitySpawnConfig": {}
      },
      "TriggerValidGuest": {}
    },
    {
      "ID": 400003,
      "PosX": -64.857,
      "PosY": 14.53057,
      "PosZ": -593.306,
      "Name": "NPC3",
      "RotY": 357.5476,
      "NPCID": 13136,
      "ValueSource": {},
      "DialogueGroups": [],
      "ServerInteractVerificationIDList": [],
      "DefaultLookAtMode": "LookTarget",
      "DefaultLookAtTargetInfo": {
        "GroupID": 104,
        "InstanceID": 400005
      },
      "BoardShowList": [],
      "TalkDialogGroupIDList": [],
      "DefaultIdleFreeStyleMotionID": 100010301,
      "InitialHiddenNodeList": [],
      "TagContainer": {},
      "CameraCenterEntityList": [],
      "SpawnConfig": {
        "EntitySpawnConfig": {}
      },
      "TriggerValidGuest": {}
    },
    {
      "ID": 400004,
      "PosX": -62.15,
      "PosY": 14.53057,
      "PosZ": -592.086,
      "Name": "NPC4",
      "RotY": 168.0918,
      "NPCID": 13319,
      "ValueSource": {},
      "DialogueGroups": [],
      "ServerInteractVerificationIDList": [],
      "DefaultLookAtMode": "Closed",
      "BoardShowList": [],
      "TalkDialogGroupIDList": [],
      "DefaultIdleFreeStyleMotionID": 100040355,
      "InitialHiddenNodeList": [],
      "TagContainer": {},
      "CameraCenterEntityList": [],
      "SpawnConfig": {
        "EntitySpawnConfig": {}
      },
      "TriggerValidGuest": {}
    },
    {
      "ID": 400005,
      "PosX": -65.42,
      "PosY": 14.53057,
      "PosZ": -593.07,
      "Name": "NPC5",
      "RotY": 44.90587,
      "NPCID": 13131,
      "ValueSource": {},
      "DialogueGroups": [],
      "ServerInteractVerificationIDList": [],
      "DefaultLookAtMode": "LookTarget",
      "DefaultLookAtTargetInfo": {
        "GroupID": 104,
        "InstanceID": 400003
      },
      "BoardShowList": [],
      "TalkDialogGroupIDList": [],
      "DefaultIdleFreeStyleMotionID": 100010302,
      "InitialHiddenNodeList": [],
      "TagContainer": {},
      "CameraCenterEntityList": [],
      "SpawnConfig": {
        "EntitySpawnConfig": {}
      },
      "TriggerValidGuest": {}
    }
  ]
}