{
  "GroupGUID": "a97277ef-9c0f-4eb3-9cad-0b61aca95a1d",
  "GroupName": "Tpl_MainMission4340164_TrashBin",
  "Category": "Mission",
  "LevelGraph": "Config/Level/GroupTemplateGraph/Puzzle/TrashBinMonster/TrashBinMonster.json",
  "AreaAnchorName": "LevelArea_P10304_F10304001_G95",
  "SaveDimensionFilter": {},
  "LoadSide": "Server",
  "OwnerMainMissionID": 4340164,
  "ValueSource": {},
  "ConflictIDList": [],
  "IsHoyoGroup": true,
  "ConflictWhiteList": [],
  "TagContainer": {},
  "AnchorList": [
    {
      "ID": 1,
      "PosX": -86.34,
      "PosY": 15.745,
      "PosZ": -586.49,
      "Name": "Anchor1"
    },
    {
      "ID": 2,
      "PosX": -85.98,
      "PosY": 14.46945,
      "PosZ": -585.46,
      "Name": "Anchor2",
      "RotY": 172.3701,
      "Usage": "Actor"
    }
  ],
  "MonsterList": [
    {
      "ID": 200001,
      "PosX": -86.34,
      "PosY": 14.46945,
      "PosZ": -586.49,
      "Name": "Monster1",
      "NPCMonsterID": 3002050,
      "AIConfig": {
        "PathwayList": [],
        "SlaveConfigList": []
      },
      "AIVariableSource": {
        "Values": [
          {
            "$type": "AIVariableString",
            "Name": "BubbleTalkSentenceID",
            "Value": "434064028,434064029"
          }
        ]
      },
      "ValueSource": {
        "Values": []
      },
      "CampID": 3,
      "BattleArea": {
        "GroupID": 30,
        "ID": 1
      },
      "InitialAnimState": "SpecialStandBy1",
      "EventID": 20331242,
      "BoardShowList": [
        4,
        16
      ],
      "IsNeedFade": true,
      "TagList": [],
      "Dialog": {
        "LevelGraph": "Config/Level/NPCDialogue/P10304/F10304001_G95/DialogueMain_F10304001_G95_N200001.json",
        "PackList": []
      },
      "DialogueTriggerRadius": 1.0,
      "InteractIconType": "SecretMissionIcon",
      "SpawnConfig": {
        "OverrideSpawn": true,
        "EntitySpawnConfig": {}
      },
      "TagContainer": {
        "List": []
      }
    }
  ],
  "PropList": [
    {
      "ID": 300001,
      "PosX": -93.81,
      "PosY": 14.50001,
      "PosZ": -584.85,
      "Name": "Prop1",
      "RotY": 90.0,
      "PropID": 100,
      "IsOverrideInitLevelGraph": true,
      "InitLevelGraph": "Config/Level/LevelInstanceGraph/F20313001/LG_Prop_F20313001_G169_300001.json",
      "ValueSource": {},
      "Trigger": {
        "Radius": 2.0,
        "DimX": 1.0,
        "DimY": 1.0,
        "DimZ": 1.0,
        "PointList": []
      },
      "CampID": 4,
      "CustomTriggerMap": {},
      "CustomTriggerMapV2": {},
      "BridgeStateRotations": [],
      "DialogueGroups": [],
      "TalkDialogGroupIDList": [],
      "ServerInteractVerificationIDList": [],
      "TriggerValidGuest": {},
      "TagContainer": {},
      "CameraCenterEntityList": [],
      "SpawnConfig": {
        "EntitySpawnConfig": {}
      }
    }
  ],
  "NPCList": [
    {
      "ID": 400001,
      "PosX": -85.725,
      "PosY": 14.46945,
      "PosZ": -587.517,
      "Name": "NPC1",
      "RotY": 350.9625,
      "NPCID": 2311,
      "ValueSource": {},
      "DialogueGroups": [],
      "ServerInteractVerificationIDList": [],
      "DefaultLookAtMode": "Closed",
      "BoardShowList": [],
      "TalkDialogGroupIDList": [],
      "DefaultIdleFreeStyleMotionID": 200380000,
      "IsNeedFade": true,
      "InitialHiddenNodeList": [],
      "TagContainer": {},
      "CameraCenterEntityList": [],
      "SpawnConfig": {
        "OverrideSpawn": true,
        "EntitySpawnConfig": {}
      },
      "TriggerValidGuest": {}
    },
    {
      "ID": 400002,
      "PosX": -86.899,
      "PosY": 14.46945,
      "PosZ": -587.517,
      "Name": "NPC2",
      "RotY": 6.780849,
      "NPCID": 2311,
      "ValueSource": {},
      "DialogueGroups": [],
      "ServerInteractVerificationIDList": [],
      "DefaultLookAtMode": "Closed",
      "BoardShowList": [],
      "TalkDialogGroupIDList": [],
      "DefaultIdleFreeStyleMotionID": 200380000,
      "IsNeedFade": true,
      "InitialHiddenNodeList": [],
      "TagContainer": {},
      "CameraCenterEntityList": [],
      "SpawnConfig": {
        "OverrideSpawn": true,
        "EntitySpawnConfig": {}
      },
      "TriggerValidGuest": {}
    }
  ]
}