{
  "GroupGUID": "179335fb-e4d9-4d70-9517-38032bdd42c4",
  "GroupName": "MainMission8022120_01",
  "Category": "Mission",
  "LevelGraph": "Config/Level/GroupGraph/F20321001/Group_F20321001_G293.json",
  "AreaAnchorName": "LevelArea_P20321_F20321001_G293",
  "SaveType": "Reset",
  "OwnerMainMissionID": 8022120,
  "ValueSource": {},
  "ConflictIDList": [],
  "IsHoyoGroup": true,
  "ConflictWhiteList": [],
  "TagContainer": {},
  "AnchorList": [],
  "MonsterList": [],
  "PropList": [],
  "NPCList": []
}