{
  "GroupGUID": "f57ede01-c241-40be-9c8c-d7a8eaa11b52",
  "GroupName": "MainMission8022124_01",
  "Category": "Mission",
  "LevelGraph": "Config/Level/GroupGraph/F20321001/Group_F20321001_G295.json",
  "AreaAnchorName": "LevelArea_P20321_F20321001_G295",
  "SaveType": "Reset",
  "OwnerMainMissionID": 8022124,
  "ValueSource": {},
  "ConflictIDList": [],
  "IsHoyoGroup": true,
  "ConflictWhiteList": [],
  "TagContainer": {},
  "AnchorList": [],
  "MonsterList": [],
  "PropList": [],
  "NPCList": []
}