{
  "GroupGUID": "f7594354-a06c-4257-8167-1d64dfc5fc2e",
  "GroupName": "Activity_Movie_Raid3",
  "LevelGraph": "Config/Level/GroupGraph/F20321001/Group_F20321001_G292.json",
  "AreaAnchorName": "LevelArea_P20321_F20321001_G292",
  "SaveType": "Reset",
  "SavedValueCondition": {
    "Conditions": [
      {
        "SavedValueName": "Activity_Raid3",
        "Operation": "Equal",
        "Value": 1
      }
    ],
    "Operation": "And"
  },
  "ValueSource": {},
  "ConflictIDList": [],
  "IsHoyoGroup": true,
  "ConflictWhiteList": [],
  "TagContainer": {},
  "AnchorList": [],
  "MonsterList": [],
  "PropList": [
    {
      "ID": 300001,
      "PosX": -48.32,
      "PosY": 55.04098,
      "PosZ": 147.0,
      "Name": "Prop1",
      "RotY": 96.87746,
      "PropID": 100,
      "IsOverrideInitLevelGraph": true,
      "InitLevelGraph": "Config/Level/Raid/Common_Raid_OpenEntrance.json",
      "ValueSource": {
        "Values": [
          {
            "$type": "SharedString",
            "Key": "RaidID",
            "Value": "44305002"
          },
          {
            "$type": "SharedUint",
            "Key": "NPCGroupID",
            "Value": 584
          },
          {
            "$type": "SharedUint",
            "Key": "NPCID",
            "Value": 800002
          }
        ]
      },
      "Trigger": {
        "Radius": 1.0,
        "DimX": 1.0,
        "DimY": 1.0,
        "DimZ": 1.0,
        "PointList": []
      },
      "CampID": 4,
      "CustomTriggerMap": {},
      "CustomTriggerMapV2": {},
      "BridgeStateRotations": [],
      "DialogueGroups": [],
      "TalkDialogGroupIDList": [],
      "ServerInteractVerificationIDList": [],
      "TriggerValidGuest": {},
      "TagContainer": {},
      "CameraCenterEntityList": [],
      "SpawnConfig": {
        "EntitySpawnConfig": {}
      }
    }
  ],
  "NPCList": [
    {
      "ID": 400001,
      "PosX": -48.32,
      "PosY": 55.04098,
      "PosZ": 147.0,
      "Name": "NPC1",
      "RotY": 153.1999,
      "NPCID": 13122,
      "ValueSource": {},
      "DialogueGroups": [],
      "ServerInteractVerificationIDList": [],
      "MappingInfoID": 1416,
      "BoardShowList": [
        1,
        4
      ],
      "OverrideNPCName": {
        "Hash": 1747125046
      },
      "TalkDialogGroupIDList": [],
      "DefaultIdleFreeStyleMotionID": 100010000,
      "IsMapContent": true,
      "MiniMapIconType": 14,
      "InitialHiddenNodeList": [],
      "Dialog": {
        "LevelGraph": "Config/Level/NPCDialogue/P20321/F20321001_G292/DialogueMain_F20321001_G292_N400001.json",
        "PackList": []
      },
      "RaidID": 44305002,
      "TagContainer": {},
      "CameraCenterEntityList": [],
      "SpawnConfig": {
        "EntitySpawnConfig": {}
      },
      "TriggerValidGuest": {}
    }
  ]
}