{
  "GroupGUID": "69b4e745-a74e-4210-a9e0-6a2bd760099c",
  "GroupName": "crowd",
  "AreaAnchorName": "LevelArea_P20321_F20321001_G285",
  "SaveType": "Reset",
  "SavedValueCondition": {
    "Conditions": [
      {
        "SavedValueName": "Crowd",
        "Operation": "GreaterEqual",
        "Value": 7
      }
    ],
    "Operation": "And"
  },
  "LoadOnInitial": true,
  "ValueSource": {
    "Values": []
  },
  "ConflictIDList": [],
  "IsHoyoGroup": true,
  "HoYoGroupType": "Container",
  "ConflictWhiteList": [],
  "TagContainer": {
    "List": []
  },
  "AnchorList": [],
  "MonsterList": [],
  "PropList": [
    {
      "ID": 300001,
      "PosX": -155.22,
      "PosY": 60.91153,
      "PosZ": 13.99,
      "Name": "Prop1",
      "RotY": 247.4627,
      "PropID": 103127,
      "ValueSource": {},
      "CampID": 4,
      "CustomTriggerMap": {},
      "CustomTriggerMapV2": {},
      "BridgeStateRotations": [],
      "DialogueGroups": [],
      "TalkDialogGroupIDList": [],
      "ServerInteractVerificationIDList": [],
      "TriggerValidGuest": {},
      "TagContainer": {},
      "CameraCenterEntityList": [],
      "SpawnConfig": {
        "EntitySpawnConfig": {}
      }
    },
    {
      "ID": 300002,
      "PosX": -155.346,
      "PosY": 60.89,
      "PosZ": -1.018,
      "Name": "Prop2",
      "RotY": 292.7727,
      "PropID": 103127,
      "ValueSource": {},
      "CampID": 4,
      "CustomTriggerMap": {},
      "CustomTriggerMapV2": {},
      "BridgeStateRotations": [],
      "DialogueGroups": [],
      "TalkDialogGroupIDList": [],
      "ServerInteractVerificationIDList": [],
      "TriggerValidGuest": {},
      "TagContainer": {},
      "CameraCenterEntityList": [],
      "SpawnConfig": {
        "EntitySpawnConfig": {}
      }
    },
    {
      "ID": 300003,
      "PosX": -155.61,
      "PosY": 60.89,
      "PosZ": -2.63,
      "Name": "prop1",
      "RotY": 28.19,
      "PropID": 100,
      "ValueSource": {},
      "Trigger": {
        "Radius": 6.0,
        "DimX": 1.8,
        "DimY": 2.0,
        "DimZ": 2.4,
        "PointList": []
      },
      "CampID": 4,
      "CustomTriggerMap": {},
      "CustomTriggerMapV2": {},
      "BridgeStateRotations": [],
      "DialogueGroups": [],
      "TalkDialogGroupIDList": [],
      "ServerInteractVerificationIDList": [],
      "Dialog": {
        "LevelGraph": "Config/Level/PropDialogue/P20321/F20321001_G326/DialogueMain_F20321001_G326_P300001.json",
        "PackList": []
      },
      "InteractIconType": "CheckIcon",
      "InteractTitle": {
        "Hash": 157286651
      },
      "TriggerValidGuest": {},
      "TagContainer": {},
      "CameraCenterEntityList": [],
      "SpawnConfig": {
        "EntitySpawnConfig": {}
      }
    },
    {
      "ID": 300004,
      "PosX": -154.24,
      "PosY": 60.89,
      "PosZ": 14.78,
      "Name": "prop1",
      "RotY": 28.19,
      "PropID": 100,
      "ValueSource": {
        "Values": []
      },
      "Trigger": {
        "Radius": 6.0,
        "DimX": 1.8,
        "DimY": 2.0,
        "DimZ": 2.4,
        "PointList": []
      },
      "CampID": 4,
      "CustomTriggerMap": {},
      "CustomTriggerMapV2": {},
      "BridgeStateRotations": [],
      "DialogueGroups": [],
      "TalkDialogGroupIDList": [],
      "ServerInteractVerificationIDList": [],
      "Dialog": {
        "LevelGraph": "Config/Level/PropDialogue/P20321/F20321001_G326/DialogueMain_F20321001_G326_P300001.json",
        "PackList": []
      },
      "InteractIconType": "CheckIcon",
      "InteractTitle": {
        "Hash": 157286651
      },
      "TriggerValidGuest": {
        "TargetList": []
      },
      "TagContainer": {
        "List": []
      },
      "CameraCenterEntityList": [],
      "SpawnConfig": {
        "EntitySpawnConfig": {}
      }
    }
  ],
  "NPCList": []
}