{
  "GroupGUID": "91c4e9ce-b372-4ec8-a845-d927fbdb94c6",
  "GroupName": "New Group",
  "AreaAnchorName": "LevelArea_P20321_F20321001_G268",
  "SaveType": "Reset",
  "SavedValueCondition": {
    "Conditions": [
      {
        "SavedValueName": "Crowd",
        "Operation": "Equal",
        "Value": 5
      },
      {
        "SavedValueName": "Crowd",
        "Operation": "Equal",
        "Value": 6
      }
    ],
    "Operation": "Or"
  },
  "LoadOnInitial": true,
  "ValueSource": {},
  "ConflictIDList": [],
  "IsHoyoGroup": true,
  "HoYoGroupType": "Container",
  "ConflictWhiteList": [],
  "TagContainer": {},
  "AnchorList": [],
  "MonsterList": [],
  "PropList": [],
  "NPCList": []
}