{
  "GroupGUID": "f7915126-5a8b-4b2a-b8ec-7a214b5f32db",
  "GroupName": "Tpl_MainMission4340158_Trash2",
  "Category": "Mission",
  "LevelGraph": "Config/Level/GroupTemplateGraph/Puzzle/TrashBinMonster/TrashBinMonster.json",
  "AreaAnchorName": "LevelArea_P20321_F20321001_G178",
  "SaveDimensionFilter": {},
  "LoadSide": "Server",
  "OwnerMainMissionID": 4340158,
  "ValueSource": {},
  "ConflictIDList": [],
  "IsHoyoGroup": true,
  "ConflictWhiteList": [],
  "TagContainer": {},
  "AnchorList": [
    {
      "ID": 1,
      "PosX": 8.551815,
      "PosY": 57.397,
      "PosZ": -118.351,
      "Name": "Anchor1"
    }
  ],
  "MonsterList": [
    {
      "ID": 200001,
      "PosX": 8.551815,
      "PosY": 56.26369,
      "PosZ": -118.351,
      "Name": "Monster1",
      "NPCMonsterID": 3002050,
      "AIConfig": {
        "PathwayList": [],
        "SlaveConfigList": []
      },
      "AIVariableSource": {
        "Values": [
          {
            "$type": "AIVariableString",
            "Name": "BubbleTalkSentenceID",
            "Value": "434058018,434058019"
          }
        ]
      },
      "ValueSource": {
        "Values": []
      },
      "CampID": 3,
      "BattleArea": {
        "GroupID": 1,
        "ID": 1
      },
      "InitialAnimState": "SpecialStandBy1",
      "EventID": 20321239,
      "BoardShowList": [
        4,
        16
      ],
      "IsNeedFade": true,
      "TagList": [],
      "Dialog": {
        "LevelGraph": "Config/Level/NPCDialogue/P20321/F20321001_G178/DialogueMain_F20321001_G178_N200001.json",
        "PackList": []
      },
      "DialogueTriggerRadius": 1.0,
      "InteractIconType": "SecretMissionIcon",
      "SpawnConfig": {
        "OverrideSpawn": true,
        "EntitySpawnConfig": {}
      },
      "TagContainer": {
        "List": []
      }
    }
  ],
  "PropList": [
    {
      "ID": 300001,
      "PosX": 8.551815,
      "PosY": 56.26369,
      "PosZ": -118.351,
      "Name": "Prop1",
      "PropID": 100,
      "IsOverrideInitLevelGraph": true,
      "InitLevelGraph": "Config/Level/LevelInstanceGraph/F20313001/LG_Prop_F20313001_G169_300001.json",
      "ValueSource": {},
      "Trigger": {
        "Radius": 2.0,
        "DimX": 1.0,
        "DimY": 1.0,
        "DimZ": 1.0,
        "PointList": []
      },
      "CampID": 4,
      "CustomTriggerMap": {},
      "CustomTriggerMapV2": {},
      "BridgeStateRotations": [],
      "DialogueGroups": [],
      "TalkDialogGroupIDList": [],
      "ServerInteractVerificationIDList": [],
      "TriggerValidGuest": {},
      "TagContainer": {},
      "CameraCenterEntityList": [],
      "SpawnConfig": {
        "EntitySpawnConfig": {}
      }
    }
  ],
  "NPCList": []
}