{
  "GroupGUID": "5affa6d8-e9b6-48c4-8d5b-c2bb2583a0a5",
  "GroupName": "MainMission8022114_NPC",
  "Category": "Mission",
  "AreaAnchorName": "LevelArea_P20321_F20321001_G318",
  "SaveType": "Reset",
  "OwnerMainMissionID": 8022114,
  "ValueSource": {},
  "ConflictIDList": [],
  "IsHoyoGroup": true,
  "HoYoGroupType": "Container",
  "ConflictWhiteList": [],
  "TagContainer": {},
  "AnchorList": [
    {
      "ID": 1,
      "PosX": 88.192,
      "PosY": 48.40208,
      "PosZ": -12.218,
      "Name": "Anchor1",
      "RotY": 347.5839
    }
  ],
  "MonsterList": [],
  "PropList": [],
  "NPCList": [
    {
      "ID": 400001,
      "PosX": 83.896,
      "PosY": 48.40208,
      "PosZ": -8.205,
      "Name": "NPC1",
      "RotY": 182.8121,
      "NPCID": 13420,
      "ValueSource": {},
      "DialogueGroups": [],
      "ServerInteractVerificationIDList": [],
      "MappingInfoID": 2410,
      "BoardShowList": [
        1,
        4
      ],
      "OverrideNPCName": {
        "Hash": 1688686143
      },
      "TalkDialogGroupIDList": [],
      "DefaultIdleFreeStyleMotionID": 100030000,
      "IsMapContent": true,
      "MiniMapIconType": 220,
      "InitialHiddenNodeList": [],
      "Dialog": {
        "LevelGraph": "Config/Level/NPCDialogue/P20321/F20321001_G262/DialogueMain_F20321001_G262_N400001.json",
        "PackList": []
      },
      "TagContainer": {},
      "CameraCenterEntityList": [],
      "SpawnConfig": {
        "EntitySpawnConfig": {}
      },
      "TriggerValidGuest": {}
    }
  ]
}