{
  "GroupGUID": "2f7f78bd-096a-4719-8119-14612e155c5b",
  "GroupName": "MainMission8003260_01",
  "Category": "Mission",
  "AreaAnchorName": "LevelArea_P10202_F10202004_G134",
  "SaveType": "Reset",
  "OwnerMainMissionID": 8003260,
  "ConflictIDList": [],
  "IsHoyoGroup": true,
  "ConflictWhiteList": [],
  "AnchorList": [
    {
      "ID": 1,
      "PosX": -55.784,
      "PosY": -0.850571,
      "PosZ": -9.454,
      "Name": "Anchor1",
      "RotY": 188.3156
    }
  ],
  "MonsterList": [],
  "PropList": [
    {
      "ID": 300001,
      "PosX": -56.97738,
      "PosY": -0.850571,
      "PosZ": -9.741589,
      "Name": "Prop1",
      "PropID": 100,
      "IsOverrideInitLevelGraph": true,
      "Trigger": {
        "Radius": 4.0,
        "DimX": 1.0,
        "DimY": 1.0,
        "DimZ": 1.0,
        "PointList": []
      },
      "CampID": 4,
      "CustomTriggerMap": {},
      "CustomTriggerMapV2": {},
      "BridgeStateRotations": [],
      "DialogueGroups": [],
      "TalkDialogGroupIDList": [],
      "ServerInteractVerificationIDList": []
    }
  ],
  "NPCList": [
    {
      "ID": 400001,
      "PosX": -56.7,
      "PosY": -0.850571,
      "PosZ": -9.757298,
      "Name": "NPC1",
      "RotY": 118.4038,
      "NPCID": 12268,
      "DialogueGroups": [],
      "ServerInteractVerificationIDList": [],
      "MappingInfoID": 2326,
      "BoardShowList": [
        8,
        4
      ],
      "TalkDialogGroupIDList": [],
      "DefaultIdleFreeStyleMotionID": 100020230,
      "IsMapContent": true,
      "MiniMapIconType": 132,
      "InitialHiddenNodeList": [],
      "Dialog": {
        "LevelGraph": "Config/Level/NPCDialogue/P10202/F10202004_G134/DialogueMain_F10202004_G134_N400001.json",
        "PackList": [],
        "EnableCondition": {
          "Conditions": [
            {
              "Type": "SubMission",
              "ID": 800326001
            }
          ]
        }
      },
      "SpawnConfig": {
        "EntitySpawnConfig": {},
        "CaptureDistanceTolerance": 10.0
      }
    },
    {
      "ID": 400002,
      "PosX": -55.92,
      "PosY": -0.850571,
      "PosZ": -10.72,
      "Name": "NPC2",
      "RotY": 314.2621,
      "NPCID": 2201,
      "DialogueGroups": [],
      "ServerInteractVerificationIDList": [],
      "BoardShowList": [
        8
      ],
      "TalkDialogGroupIDList": [],
      "DefaultIdleFreeStyleMotionID": 200230000,
      "InitialHiddenNodeList": []
    }
  ]
}