{
  "GroupGUID": "95b26447-7b61-4e44-91d1-6a83a9f6a3d8",
  "GroupName": "MainMission8014103_Mission",
  "Category": "Mission",
  "AreaAnchorName": "LevelArea_P43103_F43103002_G21",
  "SaveType": "Reset",
  "LoadCondition": {
    "Conditions": [
      {
        "ID": 8014103
      }
    ]
  },
  "UnloadCondition": {
    "Conditions": [
      {
        "Phase": "Finish",
        "ID": 8014103
      }
    ]
  },
  "ForceUnloadCondition": {
    "Conditions": [
      {
        "Phase": "Cancel",
        "ID": 8014103
      }
    ]
  },
  "OwnerMainMissionID": 8014103,
  "ValueSource": {},
  "ConflictIDList": [],
  "AnchorList": [
    {
      "ID": 1,
      "PosX": -11.918,
      "PosY": 8.22,
      "PosZ": -68.071,
      "Name": "Anchor1"
    },
    {
      "ID": 2,
      "PosX": -7.18268,
      "PosY": 5.23595,
      "PosZ": -76.26452,
      "Name": "Anchor2",
      "RotY": 329.9999,
      "Usage": "Actor"
    },
    {
      "ID": 3,
      "PosX": -7.447,
      "PosY": 6.829,
      "PosZ": -77.589,
      "Name": "Anchor3",
      "RotY": 3.359275,
      "RotX": 11.0,
      "Usage": "Camera",
      "CustomParameter": {
        "$type": "LevelAnchorCameraParameter"
      }
    },
    {
      "ID": 4,
      "PosX": 6.467,
      "PosY": 5.684,
      "PosZ": 45.698,
      "Name": "Anchor4"
    },
    {
      "ID": 5,
      "PosX": 13.25,
      "PosY": -1.319,
      "PosZ": -7.893,
      "Name": "Anchor5",
      "RotY": 90.0
    },
    {
      "ID": 6,
      "PosX": 22.495,
      "PosY": 0.727,
      "PosZ": -6.232,
      "Name": "Anchor6",
      "RotY": 90.0
    },
    {
      "ID": 7,
      "PosX": -9.308,
      "PosY": 4.338,
      "PosZ": 43.959,
      "Name": "Anchor7",
      "RotY": 90.0
    },
    {
      "ID": 8,
      "PosX": -10.52,
      "PosY": 5.64,
      "PosZ": 54.92,
      "Name": "Anchor8",
      "RotY": 105.0,
      "RotX": 9.529059,
      "Usage": "Camera",
      "CustomParameter": {
        "$type": "LevelAnchorCameraParameter"
      }
    },
    {
      "ID": 9,
      "PosX": -14.61,
      "PosY": 5.71,
      "PosZ": 53.91,
      "Name": "Anchor9",
      "RotY": 89.99998,
      "RotX": 5.62913,
      "RotZ": -1.0E-6,
      "Usage": "Camera",
      "CustomParameter": {
        "$type": "LevelAnchorCameraParameter"
      }
    },
    {
      "ID": 10,
      "PosX": 25.08607,
      "PosY": 0.585845,
      "PosZ": -17.35952,
      "Name": "Anchor10",
      "RotY": -6.5E-5
    },
    {
      "ID": 11,
      "PosX": -5.162073,
      "PosY": 2.170605,
      "PosZ": 51.16507,
      "Name": "Anchor11",
      "RotY": 89.51192
    },
    {
      "ID": 12,
      "PosX": 6.58,
      "PosY": 2.97,
      "PosZ": -2.67,
      "Name": "Anchor12",
      "RotY": 90.0,
      "RotX": 15.0,
      "RotZ": -2.7E-5,
      "Usage": "Camera",
      "CustomParameter": {
        "$type": "LevelAnchorCameraParameter"
      }
    },
    {
      "ID": 13,
      "PosX": 28.73,
      "PosY": 5.72,
      "PosZ": -15.55,
      "Name": "Anchor13",
      "RotY": 317.4849,
      "RotX": 25.06072,
      "RotZ": 2.0E-6,
      "Usage": "Camera",
      "CustomParameter": {
        "$type": "LevelAnchorCameraParameter"
      }
    },
    {
      "ID": 14,
      "PosX": 6.722967,
      "PosY": 8.525932,
      "PosZ": -105.7569,
      "Name": "Anchor14",
      "RotY": 315.0,
      "Usage": "Actor"
    },
    {
      "ID": 15,
      "PosX": 8.61,
      "PosY": 10.25,
      "PosZ": -106.57,
      "Name": "Anchor15",
      "RotY": 315.0,
      "RotX": 7.631441,
      "Usage": "Camera",
      "CustomParameter": {
        "$type": "LevelAnchorCameraParameter"
      }
    },
    {
      "ID": 16,
      "PosX": -12.54562,
      "PosY": 5.235953,
      "PosZ": -87.76523,
      "Name": "Anchor16",
      "RotY": 5.599211,
      "Usage": "Actor"
    },
    {
      "ID": 17,
      "PosX": -12.02,
      "PosY": 6.81,
      "PosZ": -88.69,
      "Name": "Anchor17",
      "RotY": 338.8553,
      "RotX": 9.999996,
      "Usage": "Camera",
      "CustomParameter": {
        "$type": "LevelAnchorCameraParameter"
      }
    },
    {
      "ID": 18,
      "PosX": 11.19,
      "PosY": -2.83,
      "PosZ": -5.38,
      "Name": "Anchor18",
      "RotY": 100.0,
      "RotX": 5.000002,
      "Usage": "Camera",
      "CustomParameter": {
        "$type": "LevelAnchorCameraParameter"
      }
    },
    {
      "ID": 19,
      "PosX": 13.88,
      "PosY": -4.215401,
      "PosZ": -6.57,
      "Name": "Anchor19",
      "RotY": 59.99998,
      "Usage": "Actor"
    },
    {
      "ID": 20,
      "PosX": 20.76,
      "PosY": 1.42,
      "PosZ": -12.36,
      "Name": "Anchor20",
      "RotY": 130.1086,
      "RotX": 350.0,
      "RotZ": -3.0E-6,
      "Usage": "Camera",
      "CustomParameter": {
        "$type": "LevelAnchorCameraParameter"
      }
    },
    {
      "ID": 21,
      "PosX": 14.73,
      "PosY": -4.215401,
      "PosZ": -6.4,
      "Name": "Anchor21",
      "RotY": 120.0,
      "Usage": "Actor"
    },
    {
      "ID": 22,
      "PosX": 14.23,
      "PosY": -3.01,
      "PosZ": -4.29,
      "Name": "Anchor22",
      "RotY": 150.0,
      "RotX": 353.7352,
      "Usage": "Camera",
      "CustomParameter": {
        "$type": "LevelAnchorCameraParameter"
      }
    },
    {
      "ID": 23,
      "PosX": 24.6,
      "PosY": 1.94,
      "PosZ": -15.94,
      "Name": "Anchor23",
      "RotY": 306.6148,
      "RotX": 5.0,
      "Usage": "Camera",
      "CustomParameter": {
        "$type": "LevelAnchorCameraParameter"
      }
    },
    {
      "ID": 24,
      "PosX": 22.91,
      "PosY": 0.585847,
      "PosZ": -15.33,
      "Name": "Anchor24",
      "RotY": 327.8734,
      "Usage": "Actor"
    },
    {
      "ID": 25,
      "PosX": 24.75,
      "PosY": 2.05,
      "PosZ": -17.92,
      "Name": "Anchor25",
      "RotY": 15.0,
      "RotX": 9.655948,
      "Usage": "Camera",
      "CustomParameter": {
        "$type": "LevelAnchorCameraParameter"
      }
    },
    {
      "ID": 26,
      "PosX": 25.35288,
      "PosY": 0.585847,
      "PosZ": -16.55199,
      "Name": "Anchor26",
      "RotY": 331.5414,
      "Usage": "Actor"
    },
    {
      "ID": 27,
      "PosX": 25.84,
      "PosY": 2.17,
      "PosZ": -13.11,
      "Name": "Anchor27",
      "RotY": 195.0,
      "RotX": 10.0,
      "Usage": "Camera",
      "CustomParameter": {
        "$type": "LevelAnchorCameraParameter"
      }
    },
    {
      "ID": 28,
      "PosX": 25.55048,
      "PosY": 0.585847,
      "PosZ": -16.15902,
      "Name": "Anchor28",
      "RotY": 222.9539,
      "Usage": "Actor"
    }
  ],
  "MonsterList": [],
  "PropList": [
    {
      "ID": 300001,
      "PosX": 10.219,
      "PosY": 8.525932,
      "PosZ": -108.617,
      "Name": "Prop1",
      "PropID": 111,
      "IsOverrideInitLevelGraph": true,
      "ValueSource": {},
      "Trigger": {
        "Shape": "Box",
        "Radius": 1.0,
        "DimX": 10.0,
        "DimY": 1.0,
        "DimZ": 4.0,
        "PointList": []
      },
      "CampID": 4,
      "CustomTriggerMap": {},
      "CustomTriggerMapV2": {},
      "BridgeStateRotations": [],
      "DialogueGroups": [],
      "TalkDialogGroupIDList": [],
      "ServerInteractVerificationIDList": []
    },
    {
      "ID": 300002,
      "PosX": -9.58,
      "PosY": 5.235952,
      "PosZ": -86.90328,
      "Name": "Prop2",
      "PropID": 100,
      "IsOverrideInitLevelGraph": true,
      "ValueSource": {},
      "Trigger": {
        "Shape": "Box",
        "Radius": 3.0,
        "DimX": 20.0,
        "DimY": 1.0,
        "DimZ": 3.0,
        "PointList": []
      },
      "CampID": 4,
      "CustomTriggerMap": {},
      "CustomTriggerMapV2": {},
      "BridgeStateRotations": [],
      "DialogueGroups": [],
      "TalkDialogGroupIDList": [],
      "ServerInteractVerificationIDList": []
    },
    {
      "ID": 300003,
      "PosX": 25.3,
      "PosY": 0.585846,
      "PosZ": -16.25,
      "Name": "Prop3",
      "RotY": 284.9998,
      "PropID": 100,
      "IsOverrideInitLevelGraph": true,
      "Trigger": {
        "Radius": 3.0,
        "DimX": 3.0,
        "DimY": 1.0,
        "DimZ": 3.0,
        "PointList": []
      },
      "CampID": 4,
      "CustomTriggerMap": {},
      "CustomTriggerMapV2": {},
      "BridgeStateRotations": [],
      "DialogueGroups": [],
      "TalkDialogGroupIDList": [],
      "ServerInteractVerificationIDList": []
    },
    {
      "ID": 300004,
      "PosX": 25.28,
      "PosY": 0.585846,
      "PosZ": -16.2,
      "Name": "Prop4",
      "RotY": 284.9998,
      "PropID": 111,
      "IsOverrideInitLevelGraph": true,
      "ValueSource": {},
      "Trigger": {
        "Radius": 3.0,
        "DimX": 3.0,
        "DimY": 1.0,
        "DimZ": 3.0,
        "PointList": []
      },
      "CampID": 4,
      "CustomTriggerMap": {},
      "CustomTriggerMapV2": {},
      "BridgeStateRotations": [],
      "DialogueGroups": [],
      "TalkDialogGroupIDList": [],
      "ServerInteractVerificationIDList": []
    },
    {
      "ID": 300005,
      "PosX": -14.12492,
      "PosY": 2.170628,
      "PosZ": 39.51488,
      "Name": "Prop5",
      "PropID": 111,
      "IsOverrideInitLevelGraph": true,
      "ValueSource": {},
      "Trigger": {
        "Shape": "Box",
        "Radius": 1.0,
        "DimX": 8.0,
        "DimY": 1.0,
        "DimZ": 3.0,
        "PointList": []
      },
      "CampID": 4,
      "CustomTriggerMap": {},
      "CustomTriggerMapV2": {},
      "BridgeStateRotations": [],
      "DialogueGroups": [],
      "TalkDialogGroupIDList": [],
      "ServerInteractVerificationIDList": []
    },
    {
      "ID": 300006,
      "PosX": 25.4,
      "PosY": -1.116466,
      "PosZ": -1.59,
      "Name": "Prop6",
      "RotY": 90.0,
      "PropID": 111,
      "IsOverrideInitLevelGraph": true,
      "Trigger": {
        "Shape": "Box",
        "Radius": 1.0,
        "DimX": 4.0,
        "DimY": 1.0,
        "DimZ": 3.0,
        "PointList": []
      },
      "CampID": 4,
      "CustomTriggerMap": {},
      "CustomTriggerMapV2": {},
      "BridgeStateRotations": [],
      "DialogueGroups": [],
      "TalkDialogGroupIDList": [],
      "ServerInteractVerificationIDList": []
    },
    {
      "ID": 300007,
      "PosX": -12.7,
      "PosY": 2.170634,
      "PosZ": 64.61,
      "Name": "Prop7",
      "PropID": 100,
      "IsOverrideInitLevelGraph": true,
      "Trigger": {
        "Radius": 6.0,
        "DimX": 8.0,
        "DimY": 1.0,
        "DimZ": 3.0,
        "PointList": []
      },
      "CampID": 4,
      "CustomTriggerMap": {},
      "CustomTriggerMapV2": {},
      "BridgeStateRotations": [],
      "DialogueGroups": [],
      "TalkDialogGroupIDList": [],
      "ServerInteractVerificationIDList": []
    },
    {
      "ID": 300008,
      "PosX": -2.89,
      "PosY": 2.170634,
      "PosZ": 51.86,
      "Name": "Prop8",
      "PropID": 100,
      "IsOverrideInitLevelGraph": true,
      "Trigger": {
        "Radius": 6.0,
        "DimX": 8.0,
        "DimY": 1.0,
        "DimZ": 3.0,
        "PointList": []
      },
      "CampID": 4,
      "CustomTriggerMap": {},
      "CustomTriggerMapV2": {},
      "BridgeStateRotations": [],
      "DialogueGroups": [],
      "TalkDialogGroupIDList": [],
      "ServerInteractVerificationIDList": []
    },
    {
      "ID": 300009,
      "PosX": 23.26,
      "PosY": 1.538,
      "PosZ": -18.55,
      "Name": "Prop9",
      "PropID": 100,
      "IsOverrideInitLevelGraph": true,
      "ValueSource": {},
      "Trigger": {
        "Radius": 6.0,
        "DimX": 8.0,
        "DimY": 1.0,
        "DimZ": 3.0,
        "PointList": []
      },
      "CampID": 4,
      "CustomTriggerMap": {},
      "CustomTriggerMapV2": {},
      "BridgeStateRotations": [],
      "DialogueGroups": [],
      "TalkDialogGroupIDList": [],
      "ServerInteractVerificationIDList": []
    }
  ],
  "NPCList": [
    {
      "ID": 400001,
      "PosX": -55.35115,
      "PosY": 6.750508,
      "PosZ": -81.26219,
      "Name": "NPC1",
      "NPCID": 1001,
      "ValueSource": {},
      "DialogueGroups": [],
      "ServerInteractVerificationIDList": [],
      "BoardShowList": [],
      "TalkDialogGroupIDList": [],
      "DefaultIdleFreeStyleMotionID": 310010000,
      "InitialHiddenNodeList": [],
      "SpawnConfig": {
        "EntitySpawnConfig": {},
        "CaptureDistanceTolerance": 10.0
      }
    },
    {
      "ID": 400002,
      "PosX": -12.05,
      "PosY": 5.235952,
      "PosZ": -86.69,
      "Name": "NPC2",
      "RotY": 345.0001,
      "NPCID": 11411,
      "ValueSource": {},
      "DialogueGroups": [],
      "ServerInteractVerificationIDList": [],
      "BoardShowList": [],
      "TalkDialogGroupIDList": [],
      "DefaultIdleFreeStyleMotionID": 100010230,
      "InitialHiddenNodeList": [],
      "SpawnConfig": {
        "EntitySpawnConfig": {},
        "CaptureDistanceTolerance": 10.0
      }
    },
    {
      "ID": 400003,
      "PosX": -9.38,
      "PosY": 5.23595,
      "PosZ": -76.79,
      "Name": "NPC3",
      "RotY": 224.9999,
      "NPCID": 1215,
      "ValueSource": {},
      "DialogueGroups": [],
      "ServerInteractVerificationIDList": [],
      "BoardShowList": [],
      "TalkDialogGroupIDList": [],
      "DefaultIdleFreeStyleMotionID": 312100230,
      "InitialHiddenNodeList": [],
      "Dialog": {
        "LevelGraph": "Config/Level/NPCDialogue/P43103/F43103002_G21/DialogueMain_F43103002_G21_N400003.json",
        "PackList": [],
        "EnableCondition": {
          "Conditions": [
            {
              "Type": "SubMission",
              "ID": 801410307
            }
          ]
        }
      },
      "SpawnConfig": {
        "EntitySpawnConfig": {},
        "CaptureDistanceTolerance": 10.0
      }
    },
    {
      "ID": 400004,
      "PosX": -12.49533,
      "PosY": 5.23595,
      "PosZ": -83.38734,
      "Name": "NPC4",
      "RotY": 299.9999,
      "NPCID": 1001,
      "ValueSource": {},
      "DialogueGroups": [],
      "ServerInteractVerificationIDList": [],
      "BoardShowList": [],
      "TalkDialogGroupIDList": [],
      "DefaultIdleFreeStyleMotionID": 310010000,
      "InitialHiddenNodeList": [],
      "SpawnConfig": {}
    },
    {
      "ID": 400005,
      "PosX": 22.18,
      "PosY": 0.58585,
      "PosZ": -13.86,
      "Name": "NPC5",
      "RotY": 336.4879,
      "NPCID": 12118,
      "ValueSource": {},
      "DialogueGroups": [],
      "ServerInteractVerificationIDList": [],
      "DefaultLookAtMode": "Closed",
      "BoardShowList": [],
      "TalkDialogGroupIDList": [],
      "DefaultIdleFreeStyleMotionID": 100010230,
      "InitialHiddenNodeList": [],
      "SpawnConfig": {
        "EntitySpawnConfig": {},
        "CaptureDistanceTolerance": 10.0
      }
    },
    {
      "ID": 400006,
      "PosX": 25.11,
      "PosY": 0.585849,
      "PosZ": -15.66,
      "Name": "NPC6",
      "RotY": 179.9998,
      "NPCID": 12118,
      "ValueSource": {},
      "DialogueGroups": [],
      "ServerInteractVerificationIDList": [],
      "BoardShowList": [],
      "TalkDialogGroupIDList": [],
      "DefaultIdleFreeStyleMotionID": 100010000,
      "InitialHiddenNodeList": [],
      "SpawnConfig": {
        "EntitySpawnConfig": {},
        "CaptureDistanceTolerance": 10.0
      }
    },
    {
      "ID": 400007,
      "PosX": 23.82,
      "PosY": 0.585846,
      "PosZ": -15.86,
      "Name": "NPC7",
      "RotY": 164.9998,
      "NPCID": 1001,
      "ValueSource": {},
      "DialogueGroups": [],
      "ServerInteractVerificationIDList": [],
      "BoardShowList": [],
      "TalkDialogGroupIDList": [],
      "DefaultIdleFreeStyleMotionID": 310010000,
      "InitialHiddenNodeList": [],
      "SpawnConfig": {
        "EntitySpawnConfig": {},
        "CaptureDistanceTolerance": 10.0
      }
    },
    {
      "ID": 400008,
      "PosX": 23.7,
      "PosY": 0.585848,
      "PosZ": -18.95,
      "Name": "NPC8",
      "RotY": 44.99987,
      "NPCID": 2213,
      "ValueSource": {},
      "DialogueGroups": [],
      "ServerInteractVerificationIDList": [],
      "BoardShowList": [],
      "TalkDialogGroupIDList": [],
      "DefaultIdleFreeStyleMotionID": 200520201,
      "InitialHiddenNodeList": [],
      "SpawnConfig": {
        "EntitySpawnConfig": {},
        "CaptureDistanceTolerance": 10.0
      }
    },
    {
      "ID": 400009,
      "PosX": 22.87684,
      "PosY": 0.585847,
      "PosZ": -17.72943,
      "Name": "NPC9",
      "RotY": 59.99971,
      "NPCID": 2213,
      "ValueSource": {},
      "DialogueGroups": [],
      "ServerInteractVerificationIDList": [],
      "BoardShowList": [],
      "TalkDialogGroupIDList": [],
      "DefaultIdleFreeStyleMotionID": 200520201,
      "InitialHiddenNodeList": [],
      "SpawnConfig": {
        "EntitySpawnConfig": {},
        "CaptureDistanceTolerance": 10.0
      }
    },
    {
      "ID": 400010,
      "PosX": -5.900073,
      "PosY": 2.170608,
      "PosZ": 51.15395,
      "Name": "NPC10",
      "RotY": 89.51192,
      "NPCID": 1992,
      "ValueSource": {},
      "DialogueGroups": [],
      "ServerInteractVerificationIDList": [],
      "BoardShowList": [],
      "TalkDialogGroupIDList": [],
      "DefaultIdleFreeStyleMotionID": 380020000,
      "InitialHiddenNodeList": [],
      "SpawnConfig": {}
    },
    {
      "ID": 400011,
      "PosX": -11.95,
      "PosY": 5.235952,
      "PosZ": -86.27,
      "Name": "NPC11",
      "RotY": 212.4346,
      "NPCID": 11411,
      "ValueSource": {},
      "DialogueGroups": [],
      "ServerInteractVerificationIDList": [],
      "BoardShowList": [],
      "TalkDialogGroupIDList": [],
      "DefaultIdleFreeStyleMotionID": 100010000,
      "InitialHiddenNodeList": [],
      "SpawnConfig": {
        "EntitySpawnConfig": {},
        "CaptureDistanceTolerance": 10.0
      }
    },
    {
      "ID": 400012,
      "PosX": -13.23,
      "PosY": 5.235954,
      "PosZ": -87.4,
      "Name": "NPC12",
      "RotY": 22.03116,
      "NPCID": 1001,
      "ValueSource": {},
      "DialogueGroups": [],
      "ServerInteractVerificationIDList": [],
      "BoardShowList": [],
      "TalkDialogGroupIDList": [],
      "DefaultIdleFreeStyleMotionID": 310010000,
      "InitialHiddenNodeList": [],
      "SpawnConfig": {
        "EntitySpawnConfig": {},
        "CaptureDistanceTolerance": 10.0
      }
    },
    {
      "ID": 400013,
      "PosX": -12.64,
      "PosY": 5.235953,
      "PosZ": -86.78,
      "Name": "NPC13",
      "RotY": 39.12548,
      "NPCID": 3025,
      "ValueSource": {},
      "DialogueGroups": [],
      "ServerInteractVerificationIDList": [],
      "BoardShowList": [],
      "TalkDialogGroupIDList": [],
      "DefaultIdleFreeStyleMotionID": 200690000,
      "InitialHiddenNodeList": [],
      "SpawnConfig": {
        "EntitySpawnConfig": {},
        "CaptureDistanceTolerance": 10.0
      }
    },
    {
      "ID": 400014,
      "PosX": -7.860001,
      "PosY": 5.23595,
      "PosZ": -74.78,
      "Name": "NPC14",
      "RotY": 25.16112,
      "NPCID": 1215,
      "ValueSource": {},
      "DialogueGroups": [],
      "ServerInteractVerificationIDList": [],
      "BoardShowList": [],
      "TalkDialogGroupIDList": [],
      "DefaultIdleFreeStyleMotionID": 312100000,
      "InitialHiddenNodeList": [],
      "SpawnConfig": {
        "EntitySpawnConfig": {},
        "CaptureDistanceTolerance": 10.0
      }
    },
    {
      "ID": 400015,
      "PosX": -5.9,
      "PosY": 5.23595,
      "PosZ": -75.3,
      "Name": "NPC15",
      "RotY": 317.9452,
      "NPCID": 3025,
      "ValueSource": {},
      "DialogueGroups": [],
      "ServerInteractVerificationIDList": [],
      "BoardShowList": [],
      "TalkDialogGroupIDList": [],
      "DefaultIdleFreeStyleMotionID": 200690000,
      "InitialHiddenNodeList": [],
      "SpawnConfig": {
        "EntitySpawnConfig": {},
        "CaptureDistanceTolerance": 10.0
      }
    },
    {
      "ID": 400016,
      "PosX": -6.49,
      "PosY": 5.23595,
      "PosZ": -75.82,
      "Name": "NPC16",
      "RotY": 317.095,
      "NPCID": 1001,
      "ValueSource": {},
      "DialogueGroups": [],
      "ServerInteractVerificationIDList": [],
      "BoardShowList": [],
      "TalkDialogGroupIDList": [],
      "DefaultIdleFreeStyleMotionID": 310010000,
      "InitialHiddenNodeList": [],
      "SpawnConfig": {
        "EntitySpawnConfig": {},
        "CaptureDistanceTolerance": 10.0
      }
    },
    {
      "ID": 400017,
      "PosX": -7.73,
      "PosY": 5.23595,
      "PosZ": -75.25,
      "Name": "NPC17",
      "RotY": 156.816,
      "NPCID": 1001,
      "ValueSource": {},
      "DialogueGroups": [],
      "ServerInteractVerificationIDList": [],
      "BoardShowList": [],
      "TalkDialogGroupIDList": [],
      "DefaultIdleFreeStyleMotionID": 310010000,
      "InitialHiddenNodeList": [],
      "SpawnConfig": {
        "EntitySpawnConfig": {},
        "CaptureDistanceTolerance": 10.0
      }
    },
    {
      "ID": 400018,
      "PosX": 15.33,
      "PosY": -4.2154,
      "PosZ": -5.17,
      "Name": "NPC18",
      "RotY": 224.9998,
      "NPCID": 1001,
      "ValueSource": {},
      "DialogueGroups": [],
      "ServerInteractVerificationIDList": [],
      "BoardShowList": [],
      "TalkDialogGroupIDList": [],
      "DefaultIdleFreeStyleMotionID": 310010000,
      "InitialHiddenNodeList": [],
      "SpawnConfig": {
        "EntitySpawnConfig": {},
        "CaptureDistanceTolerance": 10.0
      }
    },
    {
      "ID": 400019,
      "PosX": 15.42,
      "PosY": -4.2154,
      "PosZ": -5.84,
      "Name": "NPC19",
      "RotY": 242.9452,
      "NPCID": 3025,
      "ValueSource": {},
      "DialogueGroups": [],
      "ServerInteractVerificationIDList": [],
      "BoardShowList": [],
      "TalkDialogGroupIDList": [],
      "DefaultIdleFreeStyleMotionID": 200690000,
      "InitialHiddenNodeList": [],
      "SpawnConfig": {
        "EntitySpawnConfig": {},
        "CaptureDistanceTolerance": 10.0
      }
    },
    {
      "ID": 400020,
      "PosX": 22.18,
      "PosY": 0.58585,
      "PosZ": -13.86,
      "Name": "NPC20",
      "RotY": 336.4879,
      "NPCID": 12118,
      "ValueSource": {},
      "DialogueGroups": [],
      "ServerInteractVerificationIDList": [],
      "BoardShowList": [],
      "TalkDialogGroupIDList": [],
      "DefaultIdleFreeStyleMotionID": 100010230,
      "InitialHiddenNodeList": [],
      "SpawnConfig": {
        "EntitySpawnConfig": {},
        "CaptureDistanceTolerance": 10.0
      }
    },
    {
      "ID": 400021,
      "PosX": 22.18,
      "PosY": 0.58585,
      "PosZ": -13.86,
      "Name": "NPC21",
      "RotY": 336.4879,
      "NPCID": 12118,
      "ValueSource": {},
      "DialogueGroups": [],
      "ServerInteractVerificationIDList": [],
      "BoardShowList": [],
      "TalkDialogGroupIDList": [],
      "DefaultIdleFreeStyleMotionID": 100010230,
      "InitialHiddenNodeList": [],
      "SpawnConfig": {
        "EntitySpawnConfig": {},
        "CaptureDistanceTolerance": 10.0
      }
    },
    {
      "ID": 400022,
      "PosX": 23.59,
      "PosY": 0.585846,
      "PosZ": -14.36,
      "Name": "NPC22",
      "RotY": 284.9998,
      "NPCID": 1001,
      "ValueSource": {},
      "DialogueGroups": [],
      "ServerInteractVerificationIDList": [],
      "BoardShowList": [],
      "TalkDialogGroupIDList": [],
      "DefaultIdleFreeStyleMotionID": 310010000,
      "InitialHiddenNodeList": [],
      "SpawnConfig": {
        "EntitySpawnConfig": {},
        "CaptureDistanceTolerance": 10.0
      }
    },
    {
      "ID": 400023,
      "PosX": 22.32,
      "PosY": 0.585845,
      "PosZ": -15.4,
      "Name": "NPC23",
      "RotY": 347.9452,
      "NPCID": 3025,
      "ValueSource": {},
      "DialogueGroups": [],
      "ServerInteractVerificationIDList": [],
      "BoardShowList": [],
      "TalkDialogGroupIDList": [],
      "DefaultIdleFreeStyleMotionID": 200690000,
      "InitialHiddenNodeList": [],
      "SpawnConfig": {
        "EntitySpawnConfig": {},
        "CaptureDistanceTolerance": 10.0
      }
    },
    {
      "ID": 400024,
      "PosX": 24.8,
      "PosY": 0.585849,
      "PosZ": -15.57,
      "Name": "NPC24",
      "RotY": 149.9998,
      "NPCID": 12118,
      "ValueSource": {},
      "DialogueGroups": [],
      "ServerInteractVerificationIDList": [],
      "BoardShowList": [],
      "TalkDialogGroupIDList": [],
      "DefaultIdleFreeStyleMotionID": 100010000,
      "InitialHiddenNodeList": [],
      "SpawnConfig": {
        "EntitySpawnConfig": {},
        "CaptureDistanceTolerance": 10.0
      }
    },
    {
      "ID": 400025,
      "PosX": 26.16,
      "PosY": 0.585846,
      "PosZ": -16.49,
      "Name": "NPC25",
      "RotY": 348.2371,
      "NPCID": 1001,
      "ValueSource": {},
      "DialogueGroups": [],
      "ServerInteractVerificationIDList": [],
      "BoardShowList": [],
      "TalkDialogGroupIDList": [],
      "DefaultIdleFreeStyleMotionID": 310010000,
      "InitialHiddenNodeList": [],
      "SpawnConfig": {
        "EntitySpawnConfig": {},
        "CaptureDistanceTolerance": 10.0
      }
    },
    {
      "ID": 400026,
      "PosX": 26.09,
      "PosY": 0.585845,
      "PosZ": -15.89,
      "Name": "NPC26",
      "RotY": 317.9452,
      "NPCID": 3025,
      "ValueSource": {},
      "DialogueGroups": [],
      "ServerInteractVerificationIDList": [],
      "BoardShowList": [],
      "TalkDialogGroupIDList": [],
      "DefaultIdleFreeStyleMotionID": 200690000,
      "InitialHiddenNodeList": [],
      "SpawnConfig": {
        "EntitySpawnConfig": {},
        "CaptureDistanceTolerance": 10.0
      }
    },
    {
      "ID": 400027,
      "PosX": 24.84,
      "PosY": 0.585846,
      "PosZ": -15.39,
      "Name": "NPC27",
      "RotY": 149.9997,
      "NPCID": 1001,
      "ValueSource": {},
      "DialogueGroups": [],
      "ServerInteractVerificationIDList": [],
      "BoardShowList": [],
      "TalkDialogGroupIDList": [],
      "DefaultIdleFreeStyleMotionID": 310010000,
      "InitialHiddenNodeList": [],
      "SpawnConfig": {
        "EntitySpawnConfig": {},
        "CaptureDistanceTolerance": 10.0
      }
    },
    {
      "ID": 400028,
      "PosX": 26.19,
      "PosY": 0.585846,
      "PosZ": -16.83,
      "Name": "NPC28",
      "RotY": 234.6999,
      "NPCID": 1001,
      "ValueSource": {},
      "DialogueGroups": [],
      "ServerInteractVerificationIDList": [],
      "BoardShowList": [],
      "TalkDialogGroupIDList": [],
      "DefaultIdleFreeStyleMotionID": 310010000,
      "InitialHiddenNodeList": [],
      "SpawnConfig": {
        "EntitySpawnConfig": {},
        "CaptureDistanceTolerance": 10.0
      }
    },
    {
      "ID": 400029,
      "PosX": 25.01,
      "PosY": 0.585845,
      "PosZ": -16.67,
      "Name": "NPC29",
      "RotY": 227.9452,
      "NPCID": 3025,
      "ValueSource": {},
      "DialogueGroups": [],
      "ServerInteractVerificationIDList": [],
      "BoardShowList": [],
      "TalkDialogGroupIDList": [],
      "DefaultIdleFreeStyleMotionID": 200690000,
      "InitialHiddenNodeList": [],
      "SpawnConfig": {
        "EntitySpawnConfig": {},
        "CaptureDistanceTolerance": 10.0
      }
    },
    {
      "ID": 400030,
      "PosX": 23.7,
      "PosY": 0.585848,
      "PosZ": -18.95,
      "Name": "NPC30",
      "RotY": 44.99987,
      "NPCID": 2213,
      "ValueSource": {},
      "DialogueGroups": [],
      "ServerInteractVerificationIDList": [],
      "BoardShowList": [],
      "TalkDialogGroupIDList": [],
      "DefaultIdleFreeStyleMotionID": 200520216,
      "InitialHiddenNodeList": [],
      "SpawnConfig": {
        "EntitySpawnConfig": {},
        "CaptureDistanceTolerance": 10.0
      }
    },
    {
      "ID": 400031,
      "PosX": 22.87684,
      "PosY": 0.585847,
      "PosZ": -17.72943,
      "Name": "NPC31",
      "RotY": 59.99971,
      "NPCID": 2213,
      "ValueSource": {},
      "DialogueGroups": [],
      "ServerInteractVerificationIDList": [],
      "BoardShowList": [],
      "TalkDialogGroupIDList": [],
      "DefaultIdleFreeStyleMotionID": 200520217,
      "InitialHiddenNodeList": [],
      "SpawnConfig": {
        "EntitySpawnConfig": {},
        "CaptureDistanceTolerance": 10.0
      }
    }
  ]
}