{
  "FloorID": 10301001,
  "FloorName": "FloorName_10301001",
  "StartGroupID": 1,
  "StartAnchorID": 1,
  "GroupList": [
    {
      "ID": 1,
      "Name": "DefaultGroup",
      "GroupGUID": "799200cf-beff-48e2-84fb-53c415f0f118",
      "GroupPath": "Config/LevelOutput/Group/Groups_P10301_F10301001/LevelGroup_P10301_F10301001_G1.json"
    },
    {
      "ID": 119,
      "Name": "AirWall",
      "GroupGUID": "3b413224-7ab2-4022-8fac-fe29183ff4c9",
      "GroupPath": "Config/LevelOutput/Group/Groups_P10301_F10301001/LevelGroup_P10301_F10301001_G119.json"
    },
    {
      "ID": 15,
      "Name": "Anchor",
      "GroupGUID": "2fa211fc-a1cd-4da7-a0b0-5bea83716512",
      "GroupPath": "Config/LevelOutput/Group/Groups_P10301_F10301001/LevelGroup_P10301_F10301001_G15.json"
    },
    {
      "ID": 28,
      "Name": "Chest",
      "GroupGUID": "02b72a39-6453-46bd-ab96-3b0f27f61924",
      "GroupPath": "Config/LevelOutput/Group/Groups_P10301_F10301001/LevelGroup_P10301_F10301001_G28.json"
    },
    {
      "ID": 26,
      "Name": "DestructableItem",
      "GroupGUID": "58be2d8a-e547-425f-9c7f-c408ddd63ed7",
      "GroupPath": "Config/LevelOutput/Group/Groups_P10301_F10301001/LevelGroup_P10301_F10301001_G26.json"
    },
    {
      "ID": 298,
      "Name": "Entrance_02",
      "GroupGUID": "efe6c394-7e24-48a1-bbcd-0437b9a36305",
      "GroupPath": "Config/LevelOutput/Group/Groups_P10301_F10301001/LevelGroup_P10301_F10301001_G298.json"
    },
    {
      "ID": 472,
      "Name": "Entrance_03",
      "GroupGUID": "f301426a-5bb7-4e06-8399-d4bb9b89a535",
      "GroupPath": "Config/LevelOutput/Group/Groups_P10301_F10301001/LevelGroup_P10301_F10301001_G472.json"
    },
    {
      "ID": 11,
      "Name": "Camera01",
      "GroupGUID": "2a0e0ef3-5816-4a22-af1c-d527305d7dd7",
      "GroupPath": "Config/LevelOutput/Group/Groups_P10301_F10301001/LevelGroup_P10301_F10301001_G11.json"
    },
    {
      "ID": 12,
      "Name": "Camera02",
      "GroupGUID": "4cf410de-a46e-47f5-892a-6e166f607630",
      "GroupPath": "Config/LevelOutput/Group/Groups_P10301_F10301001/LevelGroup_P10301_F10301001_G12.json"
    },
    {
      "ID": 256,
      "Name": "Camera03",
      "GroupGUID": "b0d4812c-528e-4d1e-8b70-74201be1a371",
      "GroupPath": "Config/LevelOutput/Group/Groups_P10301_F10301001/LevelGroup_P10301_F10301001_G256.json"
    },
    {
      "ID": 257,
      "Name": "Camera04",
      "GroupGUID": "a463c58a-8f7d-4a81-a893-eeac30752efc",
      "GroupPath": "Config/LevelOutput/Group/Groups_P10301_F10301001/LevelGroup_P10301_F10301001_G257.json"
    },
    {
      "ID": 258,
      "Name": "Camera05",
      "GroupGUID": "8cec484f-0002-40a8-acb0-78a0c1e382a4",
      "GroupPath": "Config/LevelOutput/Group/Groups_P10301_F10301001/LevelGroup_P10301_F10301001_G258.json"
    },
    {
      "ID": 259,
      "Name": "Camera06",
      "GroupGUID": "083a7be5-9633-4918-a44a-9cc8f081dc40",
      "GroupPath": "Config/LevelOutput/Group/Groups_P10301_F10301001/LevelGroup_P10301_F10301001_G259.json"
    },
    {
      "ID": 260,
      "Name": "Camera07",
      "GroupGUID": "21e87f2c-3b9a-49b3-ad09-270754db9624",
      "GroupPath": "Config/LevelOutput/Group/Groups_P10301_F10301001/LevelGroup_P10301_F10301001_G260.json"
    },
    {
      "ID": 261,
      "Name": "Camera08",
      "GroupGUID": "b0f4e553-b003-4393-946e-0a46e0639135",
      "GroupPath": "Config/LevelOutput/Group/Groups_P10301_F10301001/LevelGroup_P10301_F10301001_G261.json"
    },
    {
      "ID": 262,
      "Name": "Camera09",
      "GroupGUID": "8113a9cb-e174-4f63-ab2d-a9894a1dbdd1",
      "GroupPath": "Config/LevelOutput/Group/Groups_P10301_F10301001/LevelGroup_P10301_F10301001_G262.json"
    },
    {
      "ID": 263,
      "Name": "Camera10",
      "GroupGUID": "360eede5-1a8b-40a5-b20b-cd7da949758c",
      "GroupPath": "Config/LevelOutput/Group/Groups_P10301_F10301001/LevelGroup_P10301_F10301001_G263.json"
    },
    {
      "ID": 264,
      "Name": "Camera11",
      "GroupGUID": "cfc21728-92f9-4c74-a241-cb92f8731ae5",
      "GroupPath": "Config/LevelOutput/Group/Groups_P10301_F10301001/LevelGroup_P10301_F10301001_G264.json"
    },
    {
      "ID": 300,
      "Name": "Camera12",
      "GroupGUID": "d833dc40-3601-4296-9903-5ce865476e16",
      "GroupPath": "Config/LevelOutput/Group/Groups_P10301_F10301001/LevelGroup_P10301_F10301001_G300.json"
    },
    {
      "ID": 301,
      "Name": "Camera13",
      "GroupGUID": "30fd9253-0ab1-4083-b2f3-45e1fdfae57e",
      "GroupPath": "Config/LevelOutput/Group/Groups_P10301_F10301001/LevelGroup_P10301_F10301001_G301.json"
    },
    {
      "ID": 294,
      "Name": "BlockLine01",
      "GroupGUID": "a4bcd433-8969-4db8-a351-66e5b64f767b",
      "GroupPath": "Config/LevelOutput/Group/Groups_P10301_F10301001/LevelGroup_P10301_F10301001_G294.json"
    },
    {
      "ID": 299,
      "Name": "BlockLine02",
      "GroupGUID": "aee2e60f-502e-419b-a42e-29690424f6da",
      "GroupPath": "Config/LevelOutput/Group/Groups_P10301_F10301001/LevelGroup_P10301_F10301001_G299.json"
    },
    {
      "ID": 302,
      "Name": "BlockLine03",
      "GroupGUID": "9e652d3b-d9d3-44d6-8d52-2cf9e9f5da79",
      "GroupPath": "Config/LevelOutput/Group/Groups_P10301_F10301001/LevelGroup_P10301_F10301001_G302.json"
    },
    {
      "ID": 303,
      "Name": "BlockLine04",
      "GroupGUID": "fd0477a5-05e3-4460-9547-21ddc29b0186",
      "GroupPath": "Config/LevelOutput/Group/Groups_P10301_F10301001/LevelGroup_P10301_F10301001_G303.json"
    },
    {
      "ID": 304,
      "Name": "BlockLine05",
      "GroupGUID": "3900da08-e45e-4400-aee8-5791126213f2",
      "GroupPath": "Config/LevelOutput/Group/Groups_P10301_F10301001/LevelGroup_P10301_F10301001_G304.json"
    },
    {
      "ID": 308,
      "Name": "BlockLine06",
      "GroupGUID": "19b034ac-2994-4d96-b6f8-a809ba05c73d",
      "GroupPath": "Config/LevelOutput/Group/Groups_P10301_F10301001/LevelGroup_P10301_F10301001_G308.json"
    },
    {
      "ID": 309,
      "Name": "BlockLine07",
      "GroupGUID": "fd5ac08c-ef68-4184-99da-51f3b73d0aeb",
      "GroupPath": "Config/LevelOutput/Group/Groups_P10301_F10301001/LevelGroup_P10301_F10301001_G309.json"
    },
    {
      "ID": 310,
      "Name": "BlockLine08",
      "GroupGUID": "64529cc1-8df5-4b77-9449-d247695cb6c6",
      "GroupPath": "Config/LevelOutput/Group/Groups_P10301_F10301001/LevelGroup_P10301_F10301001_G310.json"
    },
    {
      "ID": 311,
      "Name": "BlockLine09",
      "GroupGUID": "b34be643-89e9-40cd-b97e-4460e2a275cd",
      "GroupPath": "Config/LevelOutput/Group/Groups_P10301_F10301001/LevelGroup_P10301_F10301001_G311.json"
    },
    {
      "ID": 312,
      "Name": "BlockLine10",
      "GroupGUID": "46d36d57-ee5e-4176-9a1c-2e87fe937269",
      "GroupPath": "Config/LevelOutput/Group/Groups_P10301_F10301001/LevelGroup_P10301_F10301001_G312.json"
    },
    {
      "ID": 313,
      "Name": "BlockLine11",
      "GroupGUID": "86c4a1af-0529-41ae-92c2-09d78637978a",
      "GroupPath": "Config/LevelOutput/Group/Groups_P10301_F10301001/LevelGroup_P10301_F10301001_G313.json"
    },
    {
      "ID": 314,
      "Name": "BlockLine12",
      "GroupGUID": "e9ae68bd-d5b7-4db6-af30-5761c4c9b105",
      "GroupPath": "Config/LevelOutput/Group/Groups_P10301_F10301001/LevelGroup_P10301_F10301001_G314.json"
    },
    {
      "ID": 315,
      "Name": "BlockLine13",
      "GroupGUID": "c958c76b-feb8-427a-9efa-205c70dd6c0f",
      "GroupPath": "Config/LevelOutput/Group/Groups_P10301_F10301001/LevelGroup_P10301_F10301001_G315.json"
    },
    {
      "ID": 287,
      "Name": "ClockBoy",
      "GroupGUID": "c5b91c54-acd4-443b-a933-b0adfb8c7707",
      "GroupPath": "Config/LevelOutput/Group/Groups_P10301_F10301001/LevelGroup_P10301_F10301001_G287.json"
    },
    {
      "ID": 207,
      "Name": "Gashapon",
      "GroupGUID": "16496756-00a9-4c21-a34e-f8a36b775fd8",
      "GroupPath": "Config/LevelOutput/Group/Groups_P10301_F10301001/LevelGroup_P10301_F10301001_G207.json"
    },
    {
      "ID": 155,
      "Name": "SlotMachine",
      "GroupGUID": "a97d6ecf-43df-46ac-bda1-4067768d6914",
      "GroupPath": "Config/LevelOutput/Group/Groups_P10301_F10301001/LevelGroup_P10301_F10301001_G155.json"
    },
    {
      "ID": 221,
      "Name": "PinWMachine01",
      "GroupGUID": "218ce3d7-d833-4a8d-ab51-3b9d38080b9e",
      "GroupPath": "Config/LevelOutput/Group/Groups_P10301_F10301001/LevelGroup_P10301_F10301001_G221.json"
    },
    {
      "ID": 157,
      "Name": "ATM",
      "GroupGUID": "3d304386-3f7a-4597-9f04-e41d07c92df9",
      "GroupPath": "Config/LevelOutput/Group/Groups_P10301_F10301001/LevelGroup_P10301_F10301001_G157.json"
    },
    {
      "ID": 222,
      "Name": "TeleBooth",
      "GroupGUID": "4aa35b3b-1f73-4a34-9ff6-0bf8cbb3907b",
      "GroupPath": "Config/LevelOutput/Group/Groups_P10301_F10301001/LevelGroup_P10301_F10301001_G222.json"
    },
    {
      "ID": 29,
      "IsDelete": true,
      "Name": "Test_Gacha",
      "GroupGUID": "78470268-6d41-4ad3-9cf2-7cfd23f347ee",
      "GroupPath": "Config/LevelOutput/Group/Groups_P10301_F10301001/LevelGroup_P10301_F10301001_G29.json"
    },
    {
      "ID": 19,
      "Name": "Shop",
      "GroupGUID": "c1d4744a-81c2-41e2-bce9-e458b18c599e",
      "GroupPath": "Config/LevelOutput/Group/Groups_P10301_F10301001/LevelGroup_P10301_F10301001_G19.json"
    },
    {
      "ID": 3,
      "Name": "Flow",
      "GroupGUID": "890e8e12-495d-418a-b784-cbef1f14a2eb",
      "GroupPath": "Config/LevelOutput/Group/Groups_P10301_F10301001/LevelGroup_P10301_F10301001_G3.json"
    },
    {
      "ID": 5,
      "Name": "Crowd_1",
      "GroupGUID": "5183de74-c24e-4d5a-aefa-c67adb29e17c",
      "GroupPath": "Config/LevelOutput/Group/Groups_P10301_F10301001/LevelGroup_P10301_F10301001_G5.json"
    },
    {
      "ID": 2,
      "Name": "Crowd_2",
      "GroupGUID": "3a558721-63de-4e8c-994b-74df2738ad88",
      "GroupPath": "Config/LevelOutput/Group/Groups_P10301_F10301001/LevelGroup_P10301_F10301001_G2.json"
    },
    {
      "ID": 20,
      "Name": "Traffic_Flow",
      "GroupGUID": "57008cbb-a60d-448c-be8d-2d282b0b2594",
      "GroupPath": "Config/LevelOutput/Group/Groups_P10301_F10301001/LevelGroup_P10301_F10301001_G20.json"
    },
    {
      "ID": 230,
      "Name": "tvscreen1",
      "GroupGUID": "a0da0e90-410a-42b5-aae4-09bc514f61a2",
      "GroupPath": "Config/LevelOutput/Group/Groups_P10301_F10301001/LevelGroup_P10301_F10301001_G230.json"
    },
    {
      "ID": 231,
      "Name": "tvscreen2",
      "GroupGUID": "5969c451-503e-4931-9002-dbea1c98d03c",
      "GroupPath": "Config/LevelOutput/Group/Groups_P10301_F10301001/LevelGroup_P10301_F10301001_G231.json"
    },
    {
      "ID": 286,
      "Name": "tvscreen3",
      "GroupGUID": "789f495a-f6c9-4c6e-a567-f8ac97ab61d2",
      "GroupPath": "Config/LevelOutput/Group/Groups_P10301_F10301001/LevelGroup_P10301_F10301001_G286.json"
    },
    {
      "ID": 210,
      "Name": "Tpl_MainMission4340154_TrashCan",
      "GroupGUID": "e36bfbb2-baa0-4ae2-819e-385ea6491c7d",
      "GroupPath": "Config/LevelOutput/Group/Groups_P10301_F10301001/LevelGroup_P10301_F10301001_G210.json"
    },
    {
      "ID": 17,
      "Name": "PinBall_1",
      "GroupGUID": "1ea7ca36-07f2-439b-b91f-1e97a234f792",
      "GroupPath": "Config/LevelOutput/Group/Groups_P10301_F10301001/LevelGroup_P10301_F10301001_G17.json"
    },
    {
      "ID": 18,
      "Name": "PinBall_2",
      "GroupGUID": "d3a3008b-e47f-408b-af65-5760f6523b14",
      "GroupPath": "Config/LevelOutput/Group/Groups_P10301_F10301001/LevelGroup_P10301_F10301001_G18.json"
    },
    {
      "ID": 215,
      "Name": "ClockToy1",
      "GroupGUID": "ea421de9-6e93-4f09-8f23-7b1aae953794",
      "GroupPath": "Config/LevelOutput/Group/Groups_P10301_F10301001/LevelGroup_P10301_F10301001_G215.json"
    },
    {
      "ID": 216,
      "Name": "ClockToy2",
      "GroupGUID": "85bb2dc5-9607-4e5a-973c-b38cfbdba7bc",
      "GroupPath": "Config/LevelOutput/Group/Groups_P10301_F10301001/LevelGroup_P10301_F10301001_G216.json"
    },
    {
      "ID": 217,
      "Name": "ClockToy3",
      "GroupGUID": "75d725e1-ca5b-46b1-b137-e1a08f6bb630",
      "GroupPath": "Config/LevelOutput/Group/Groups_P10301_F10301001/LevelGroup_P10301_F10301001_G217.json"
    },
    {
      "ID": 218,
      "Name": "ClockToy4",
      "GroupGUID": "af8c85a8-15e2-4d4a-aaa4-f830baeb24ac",
      "GroupPath": "Config/LevelOutput/Group/Groups_P10301_F10301001/LevelGroup_P10301_F10301001_G218.json"
    },
    {
      "ID": 163,
      "Name": "WolfGroup",
      "GroupGUID": "f11a53a9-8788-42a7-8cc3-a012d971747b",
      "GroupPath": "Config/LevelOutput/Group/Groups_P10301_F10301001/LevelGroup_P10301_F10301001_G163.json"
    },
    {
      "ID": 164,
      "Name": "WolfGroup_02",
      "GroupGUID": "ba4ef013-76cc-49c4-8017-5760b2f8e783",
      "GroupPath": "Config/LevelOutput/Group/Groups_P10301_F10301001/LevelGroup_P10301_F10301001_G164.json"
    },
    {
      "ID": 223,
      "Name": "JigsawPuzzle_P1_Normal_01_Wolf02TreasureBox",
      "GroupGUID": "9fb8e98d-cc8e-46ec-9220-d4525f2ef7cb",
      "GroupPath": "Config/LevelOutput/Group/Groups_P10301_F10301001/LevelGroup_P10301_F10301001_G223.json"
    },
    {
      "ID": 187,
      "Name": "JazzBand",
      "GroupGUID": "b4d2c543-1117-4e24-9768-e838e8e510b2",
      "GroupPath": "Config/LevelOutput/Group/Groups_P10301_F10301001/LevelGroup_P10301_F10301001_G187.json"
    },
    {
      "ID": 189,
      "Name": "IceCream",
      "GroupGUID": "138b931d-b784-4e76-a972-24767a28614b",
      "GroupPath": "Config/LevelOutput/Group/Groups_P10301_F10301001/LevelGroup_P10301_F10301001_G189.json"
    },
    {
      "ID": 45,
      "Name": "MainMission1030401_01",
      "GroupGUID": "b6246bb8-34cb-426a-8866-d8af0c543346",
      "GroupPath": "Config/LevelOutput/Group/Groups_P10301_F10301001/LevelGroup_P10301_F10301001_G45.json"
    },
    {
      "ID": 46,
      "Name": "MainMission1030401_03",
      "GroupGUID": "32f88693-795a-4148-943a-2581cc897832",
      "GroupPath": "Config/LevelOutput/Group/Groups_P10301_F10301001/LevelGroup_P10301_F10301001_G46.json"
    },
    {
      "ID": 47,
      "Name": "MainMission1030401_04",
      "GroupGUID": "bc0461e7-b6c4-4294-9046-6fbd056aa50b",
      "GroupPath": "Config/LevelOutput/Group/Groups_P10301_F10301001/LevelGroup_P10301_F10301001_G47.json"
    },
    {
      "ID": 48,
      "Name": "MainMission1030401_05",
      "GroupGUID": "6a56d710-0329-4a1e-bf33-ab8746bd5a19",
      "GroupPath": "Config/LevelOutput/Group/Groups_P10301_F10301001/LevelGroup_P10301_F10301001_G48.json"
    },
    {
      "ID": 49,
      "Name": "MainMission1030401_07",
      "GroupGUID": "13db3cc3-9552-4f90-b011-f5ed831e4d2d",
      "GroupPath": "Config/LevelOutput/Group/Groups_P10301_F10301001/LevelGroup_P10301_F10301001_G49.json"
    },
    {
      "ID": 50,
      "Name": "MainMission1030401_08",
      "GroupGUID": "acb2435b-b846-4dc7-9f31-ed2716e25a6b",
      "GroupPath": "Config/LevelOutput/Group/Groups_P10301_F10301001/LevelGroup_P10301_F10301001_G50.json"
    },
    {
      "ID": 51,
      "Name": "MainMission1030401_09",
      "GroupGUID": "769a6453-ad19-457e-aea9-a5b438bdc1e4",
      "GroupPath": "Config/LevelOutput/Group/Groups_P10301_F10301001/LevelGroup_P10301_F10301001_G51.json"
    },
    {
      "ID": 55,
      "Name": "MainMission1030301_02",
      "GroupGUID": "d2ccc510-1882-46c4-92f3-08a87acef82b",
      "GroupPath": "Config/LevelOutput/Group/Groups_P10301_F10301001/LevelGroup_P10301_F10301001_G55.json"
    },
    {
      "ID": 56,
      "Name": "MainMission1030301_03",
      "GroupGUID": "4524334b-af6c-47cc-be34-de6856590248",
      "GroupPath": "Config/LevelOutput/Group/Groups_P10301_F10301001/LevelGroup_P10301_F10301001_G56.json"
    },
    {
      "ID": 58,
      "Name": "MainMission1030301_05",
      "GroupGUID": "c98ef0ee-2086-4f34-88ca-281bfc91856c",
      "GroupPath": "Config/LevelOutput/Group/Groups_P10301_F10301001/LevelGroup_P10301_F10301001_G58.json"
    },
    {
      "ID": 59,
      "Name": "MainMission2030001_01",
      "GroupGUID": "a50eb198-6433-429e-a3f8-1aec3f89b802",
      "GroupPath": "Config/LevelOutput/Group/Groups_P10301_F10301001/LevelGroup_P10301_F10301001_G59.json"
    },
    {
      "ID": 60,
      "Name": "MainMission2030001_02",
      "GroupGUID": "b49cb011-b2b0-454b-9083-c3bb6c855574",
      "GroupPath": "Config/LevelOutput/Group/Groups_P10301_F10301001/LevelGroup_P10301_F10301001_G60.json"
    },
    {
      "ID": 61,
      "Name": "MainMission2030001_03",
      "GroupGUID": "2fb8c167-caba-4761-a433-3445be4b12b0",
      "GroupPath": "Config/LevelOutput/Group/Groups_P10301_F10301001/LevelGroup_P10301_F10301001_G61.json"
    },
    {
      "ID": 62,
      "Name": "MainMission2030001_05",
      "GroupGUID": "e1baea2b-e0c2-419c-af83-c4a2b88bb5e6",
      "GroupPath": "Config/LevelOutput/Group/Groups_P10301_F10301001/LevelGroup_P10301_F10301001_G62.json"
    },
    {
      "ID": 63,
      "Name": "MainMission2030001_06",
      "GroupGUID": "9e2582de-0618-4c70-b6ef-255987ea9e33",
      "GroupPath": "Config/LevelOutput/Group/Groups_P10301_F10301001/LevelGroup_P10301_F10301001_G63.json"
    },
    {
      "ID": 65,
      "Name": "MainMission1030301_06",
      "GroupGUID": "bbd7b1d1-021d-4eaf-9aaa-d5eb23e3037f",
      "GroupPath": "Config/LevelOutput/Group/Groups_P10301_F10301001/LevelGroup_P10301_F10301001_G65.json"
    },
    {
      "ID": 66,
      "Name": "MainMission1030301_08",
      "GroupGUID": "9c60e177-6049-4161-8c5f-d21e6842a08b",
      "GroupPath": "Config/LevelOutput/Group/Groups_P10301_F10301001/LevelGroup_P10301_F10301001_G66.json"
    },
    {
      "ID": 67,
      "Name": "MainMission2030001_12",
      "GroupGUID": "91c8fb49-033f-4143-899c-c1ce847506ce",
      "GroupPath": "Config/LevelOutput/Group/Groups_P10301_F10301001/LevelGroup_P10301_F10301001_G67.json"
    },
    {
      "ID": 68,
      "Name": "MainMission2030001_13",
      "GroupGUID": "de578e33-cc5a-46b3-9fe0-bf214e1754e4",
      "GroupPath": "Config/LevelOutput/Group/Groups_P10301_F10301001/LevelGroup_P10301_F10301001_G68.json"
    },
    {
      "ID": 69,
      "Name": "MainMission1030801_07",
      "GroupGUID": "3e8c3153-42bd-4c69-ac77-d00e2e0db5b5",
      "GroupPath": "Config/LevelOutput/Group/Groups_P10301_F10301001/LevelGroup_P10301_F10301001_G69.json"
    },
    {
      "ID": 72,
      "Name": "MainMission1030302_02",
      "GroupGUID": "e3b5842b-61fa-4fbf-9b7b-7c75b230a270",
      "GroupPath": "Config/LevelOutput/Group/Groups_P10301_F10301001/LevelGroup_P10301_F10301001_G72.json"
    },
    {
      "ID": 73,
      "Name": "MainMission1030302_01",
      "GroupGUID": "59228d78-0327-4e75-a5f6-fff17b7fe94f",
      "GroupPath": "Config/LevelOutput/Group/Groups_P10301_F10301001/LevelGroup_P10301_F10301001_G73.json"
    },
    {
      "ID": 74,
      "Name": "MainMission1030302_03",
      "GroupGUID": "f479b3b0-ef91-46f6-9ebe-e4436e0e2672",
      "GroupPath": "Config/LevelOutput/Group/Groups_P10301_F10301001/LevelGroup_P10301_F10301001_G74.json"
    },
    {
      "ID": 75,
      "Name": "MainMission1030302_04",
      "GroupGUID": "3ac2dd2d-b790-42cd-b06a-51199a207614",
      "GroupPath": "Config/LevelOutput/Group/Groups_P10301_F10301001/LevelGroup_P10301_F10301001_G75.json"
    },
    {
      "ID": 76,
      "Name": "MainMission1030302_05",
      "GroupGUID": "189bf47e-308d-4905-bcb3-8a21cbfbcfed",
      "GroupPath": "Config/LevelOutput/Group/Groups_P10301_F10301001/LevelGroup_P10301_F10301001_G76.json"
    },
    {
      "ID": 77,
      "Name": "MainMission1030302_06",
      "GroupGUID": "12bc3da5-0b1a-4d64-b651-ff4b04eaef1d",
      "GroupPath": "Config/LevelOutput/Group/Groups_P10301_F10301001/LevelGroup_P10301_F10301001_G77.json"
    },
    {
      "ID": 78,
      "Name": "MainMission1030302_07",
      "GroupGUID": "92b16e96-5f59-41b2-9a0e-8f03b0d3b714",
      "GroupPath": "Config/LevelOutput/Group/Groups_P10301_F10301001/LevelGroup_P10301_F10301001_G78.json"
    },
    {
      "ID": 79,
      "Name": "MainMission1030302_08",
      "GroupGUID": "de8b8851-7d80-4549-b32a-9d71c126d58b",
      "GroupPath": "Config/LevelOutput/Group/Groups_P10301_F10301001/LevelGroup_P10301_F10301001_G79.json"
    },
    {
      "ID": 80,
      "Name": "MainMission1030302_09",
      "GroupGUID": "04d887a2-3b00-4951-b8f9-97c608fb7120",
      "GroupPath": "Config/LevelOutput/Group/Groups_P10301_F10301001/LevelGroup_P10301_F10301001_G80.json"
    },
    {
      "ID": 81,
      "Name": "MainMission1030302_10",
      "GroupGUID": "e778532a-41f5-4dee-97e1-f5e345fb4b39",
      "GroupPath": "Config/LevelOutput/Group/Groups_P10301_F10301001/LevelGroup_P10301_F10301001_G81.json"
    },
    {
      "ID": 86,
      "Name": "MainMission2021801_01",
      "GroupGUID": "40d4ce4d-b748-4775-8ee1-3c67b6915411",
      "GroupPath": "Config/LevelOutput/Group/Groups_P10301_F10301001/LevelGroup_P10301_F10301001_G86.json"
    },
    {
      "ID": 85,
      "Name": "MainMission1030501_01",
      "GroupGUID": "61076987-1fd8-4811-a37b-12710931a22a",
      "GroupPath": "Config/LevelOutput/Group/Groups_P10301_F10301001/LevelGroup_P10301_F10301001_G85.json"
    },
    {
      "ID": 88,
      "Name": "MainMission2030001_08",
      "GroupGUID": "265568b9-b04a-40bb-bc3c-adca7f1caa84",
      "GroupPath": "Config/LevelOutput/Group/Groups_P10301_F10301001/LevelGroup_P10301_F10301001_G88.json"
    },
    {
      "ID": 89,
      "Name": "MainMission2021803_01",
      "GroupGUID": "24926648-99e6-4005-8d47-f0164f16541f",
      "GroupPath": "Config/LevelOutput/Group/Groups_P10301_F10301001/LevelGroup_P10301_F10301001_G89.json"
    },
    {
      "ID": 91,
      "Name": "MainMission1030201_14",
      "GroupGUID": "dfa2217f-2e5f-4e17-9aff-560c4cd9cc07",
      "GroupPath": "Config/LevelOutput/Group/Groups_P10301_F10301001/LevelGroup_P10301_F10301001_G91.json"
    },
    {
      "ID": 92,
      "Name": "MainMission2030003_01",
      "GroupGUID": "f6e238e9-328b-4219-840f-5d26e04a2e92",
      "GroupPath": "Config/LevelOutput/Group/Groups_P10301_F10301001/LevelGroup_P10301_F10301001_G92.json"
    },
    {
      "ID": 96,
      "Name": "MainMission2030003_02",
      "GroupGUID": "7210b446-6f91-40c8-9f56-bb274432abda",
      "GroupPath": "Config/LevelOutput/Group/Groups_P10301_F10301001/LevelGroup_P10301_F10301001_G96.json"
    },
    {
      "ID": 97,
      "Name": "MainMission1030302_17",
      "GroupGUID": "a0ea5c5c-c1e2-44d6-b340-ed974e381a53",
      "GroupPath": "Config/LevelOutput/Group/Groups_P10301_F10301001/LevelGroup_P10301_F10301001_G97.json"
    },
    {
      "ID": 98,
      "Name": "MainMission1030302_11",
      "GroupGUID": "711953a2-daca-4ea3-919e-cb62898d72fa",
      "GroupPath": "Config/LevelOutput/Group/Groups_P10301_F10301001/LevelGroup_P10301_F10301001_G98.json"
    },
    {
      "ID": 99,
      "Name": "MainMission1030302_18",
      "GroupGUID": "00556d1c-5cdb-4d92-837f-40e63f051a77",
      "GroupPath": "Config/LevelOutput/Group/Groups_P10301_F10301001/LevelGroup_P10301_F10301001_G99.json"
    },
    {
      "ID": 100,
      "Name": "MainMission1030302_12",
      "GroupGUID": "99e267f0-f8d7-4d48-884d-37d4963d4c6a",
      "GroupPath": "Config/LevelOutput/Group/Groups_P10301_F10301001/LevelGroup_P10301_F10301001_G100.json"
    },
    {
      "ID": 101,
      "Name": "MainMission1030302_13",
      "GroupGUID": "1366cc94-19fe-428b-a7a9-5ef35038b639",
      "GroupPath": "Config/LevelOutput/Group/Groups_P10301_F10301001/LevelGroup_P10301_F10301001_G101.json"
    },
    {
      "ID": 102,
      "Name": "MainMission1030302_14",
      "GroupGUID": "057b6e47-11dc-4e64-b39e-bb0054d4d77b",
      "GroupPath": "Config/LevelOutput/Group/Groups_P10301_F10301001/LevelGroup_P10301_F10301001_G102.json"
    },
    {
      "ID": 103,
      "Name": "MainMission1030302_15",
      "GroupGUID": "58bb7cdf-c852-4133-906e-3f9c5e00dd2e",
      "GroupPath": "Config/LevelOutput/Group/Groups_P10301_F10301001/LevelGroup_P10301_F10301001_G103.json"
    },
    {
      "ID": 104,
      "Name": "MainMission1030302_19",
      "GroupGUID": "73d6eb8d-e35e-40f7-a410-a098d811318c",
      "GroupPath": "Config/LevelOutput/Group/Groups_P10301_F10301001/LevelGroup_P10301_F10301001_G104.json"
    },
    {
      "ID": 105,
      "Name": "MainMission2030001_0502",
      "GroupGUID": "d1f42f72-5480-45e1-91a6-6fee84f997ea",
      "GroupPath": "Config/LevelOutput/Group/Groups_P10301_F10301001/LevelGroup_P10301_F10301001_G105.json"
    },
    {
      "ID": 106,
      "Name": "MainMission2030001_0602",
      "GroupGUID": "e7faa2e1-0a20-48b0-aa0a-c87e6ad9da46",
      "GroupPath": "Config/LevelOutput/Group/Groups_P10301_F10301001/LevelGroup_P10301_F10301001_G106.json"
    },
    {
      "ID": 107,
      "Name": "MainMission1030303_01",
      "GroupGUID": "72375204-b5c6-4558-81a3-bf60eb71b87d",
      "GroupPath": "Config/LevelOutput/Group/Groups_P10301_F10301001/LevelGroup_P10301_F10301001_G107.json"
    },
    {
      "ID": 108,
      "Name": "MainMission1030303_08",
      "GroupGUID": "fcef993a-474e-4b38-ab97-0f7b15e8013f",
      "GroupPath": "Config/LevelOutput/Group/Groups_P10301_F10301001/LevelGroup_P10301_F10301001_G108.json"
    },
    {
      "ID": 109,
      "Name": "MainMission1030303_03",
      "GroupGUID": "bf904dc2-1d4e-4c03-b836-7d5c078bb03d",
      "GroupPath": "Config/LevelOutput/Group/Groups_P10301_F10301001/LevelGroup_P10301_F10301001_G109.json"
    },
    {
      "ID": 110,
      "Name": "MainMission1030303_12",
      "GroupGUID": "ded6e761-1233-46e9-92f3-e02a0a5c0010",
      "GroupPath": "Config/LevelOutput/Group/Groups_P10301_F10301001/LevelGroup_P10301_F10301001_G110.json"
    },
    {
      "ID": 111,
      "Name": "MainMission1030303_05",
      "GroupGUID": "f66359e5-0b54-4c6e-ad45-78621c88a2b8",
      "GroupPath": "Config/LevelOutput/Group/Groups_P10301_F10301001/LevelGroup_P10301_F10301001_G111.json"
    },
    {
      "ID": 112,
      "Name": "MainMission1030303_06",
      "GroupGUID": "db7dcd32-3eda-4a45-91f0-0d7487c46f65",
      "GroupPath": "Config/LevelOutput/Group/Groups_P10301_F10301001/LevelGroup_P10301_F10301001_G112.json"
    },
    {
      "ID": 113,
      "Name": "MainMission1030303_10",
      "GroupGUID": "7af4a200-70a0-43dc-90e5-dcc915491dc0",
      "GroupPath": "Config/LevelOutput/Group/Groups_P10301_F10301001/LevelGroup_P10301_F10301001_G113.json"
    },
    {
      "ID": 114,
      "Name": "MainMission1030303_11",
      "GroupGUID": "60176d30-4a59-4d98-a0fe-e8106ce43f3d",
      "GroupPath": "Config/LevelOutput/Group/Groups_P10301_F10301001/LevelGroup_P10301_F10301001_G114.json"
    },
    {
      "ID": 115,
      "Name": "MainMission1030303_13",
      "GroupGUID": "e3f2ba64-db85-49b1-8d89-9459af8c781c",
      "GroupPath": "Config/LevelOutput/Group/Groups_P10301_F10301001/LevelGroup_P10301_F10301001_G115.json"
    },
    {
      "ID": 116,
      "Name": "Tpl_OrigamiBird",
      "GroupGUID": "e4f32e8f-e9ec-4df1-8421-1b1201a8917e",
      "GroupPath": "Config/LevelOutput/Group/Groups_P10301_F10301001/LevelGroup_P10301_F10301001_G116.json"
    },
    {
      "ID": 35,
      "Name": "Tpl_OrigamiBird",
      "GroupGUID": "38b99504-5efc-4f41-842e-7cacea7dfd68",
      "GroupPath": "Config/LevelOutput/Group/Groups_P10301_F10301001/LevelGroup_P10301_F10301001_G35.json"
    },
    {
      "ID": 37,
      "Name": "Tpl_OrigamiBird",
      "GroupGUID": "5c958523-6991-4589-93dd-993c128ec4e6",
      "GroupPath": "Config/LevelOutput/Group/Groups_P10301_F10301001/LevelGroup_P10301_F10301001_G37.json"
    },
    {
      "ID": 38,
      "Name": "Tpl_OrigamiBird",
      "GroupGUID": "552be2ef-f680-4363-a171-a18c7764e0fe",
      "GroupPath": "Config/LevelOutput/Group/Groups_P10301_F10301001/LevelGroup_P10301_F10301001_G38.json"
    },
    {
      "ID": 36,
      "Name": "Tpl_OrigamiBird",
      "GroupGUID": "df613afe-121a-4575-8b60-55a4d778a991",
      "GroupPath": "Config/LevelOutput/Group/Groups_P10301_F10301001/LevelGroup_P10301_F10301001_G36.json"
    },
    {
      "ID": 198,
      "Name": "Tpl_OrigamiBird",
      "GroupGUID": "7010c116-206f-4715-b3c2-9820b7bc47db",
      "GroupPath": "Config/LevelOutput/Group/Groups_P10301_F10301001/LevelGroup_P10301_F10301001_G198.json"
    },
    {
      "ID": 202,
      "Name": "Tpl_OrigamiBird",
      "GroupGUID": "5b24fde5-dc69-4593-91e4-1c128bcc08c2",
      "GroupPath": "Config/LevelOutput/Group/Groups_P10301_F10301001/LevelGroup_P10301_F10301001_G202.json"
    },
    {
      "ID": 41,
      "Name": "Tpl_OrigamiBird",
      "GroupGUID": "25c3b3eb-c7c7-4d58-ad2d-b18040244a83",
      "GroupPath": "Config/LevelOutput/Group/Groups_P10301_F10301001/LevelGroup_P10301_F10301001_G41.json"
    },
    {
      "ID": 39,
      "Name": "Tpl_OrigamiBird",
      "GroupGUID": "46f94723-14d0-49b1-b3cc-b076a4bcb3cf",
      "GroupPath": "Config/LevelOutput/Group/Groups_P10301_F10301001/LevelGroup_P10301_F10301001_G39.json"
    },
    {
      "ID": 42,
      "Name": "Tpl_OrigamiBird",
      "GroupGUID": "4e417582-dc71-4de0-ac43-3250179d3493",
      "GroupPath": "Config/LevelOutput/Group/Groups_P10301_F10301001/LevelGroup_P10301_F10301001_G42.json"
    },
    {
      "ID": 43,
      "Name": "Tpl_OrigamiBird",
      "GroupGUID": "dbd03000-de76-4d9a-ad08-633c1bce31c7",
      "GroupPath": "Config/LevelOutput/Group/Groups_P10301_F10301001/LevelGroup_P10301_F10301001_G43.json"
    },
    {
      "ID": 118,
      "Name": "Tpl_OrigamiBird",
      "GroupGUID": "6e76c396-58c4-4889-9523-c19a43580b12",
      "GroupPath": "Config/LevelOutput/Group/Groups_P10301_F10301001/LevelGroup_P10301_F10301001_G118.json"
    },
    {
      "ID": 200,
      "Name": "Tpl_OrigamiBird",
      "GroupGUID": "1a79411b-6563-4b7f-98bf-44c94a1e7209",
      "GroupPath": "Config/LevelOutput/Group/Groups_P10301_F10301001/LevelGroup_P10301_F10301001_G200.json"
    },
    {
      "ID": 188,
      "Name": "Tpl_OrigamiBird",
      "GroupGUID": "0edb84dd-f2da-4bb4-aaff-2a8fc76dd156",
      "GroupPath": "Config/LevelOutput/Group/Groups_P10301_F10301001/LevelGroup_P10301_F10301001_G188.json"
    },
    {
      "ID": 186,
      "Name": "Tpl_OrigamiBird",
      "GroupGUID": "c90af2b2-ea90-4240-9b9e-210d268c1d47",
      "GroupPath": "Config/LevelOutput/Group/Groups_P10301_F10301001/LevelGroup_P10301_F10301001_G186.json"
    },
    {
      "ID": 190,
      "Name": "Tpl_OrigamiBird",
      "GroupGUID": "dc91f7d6-07fb-45dc-ae83-76e102c7a752",
      "GroupPath": "Config/LevelOutput/Group/Groups_P10301_F10301001/LevelGroup_P10301_F10301001_G190.json"
    },
    {
      "ID": 193,
      "Name": "Tpl_OrigamiBird",
      "GroupGUID": "1510e158-cd7d-4bef-826e-92f5d91a518b",
      "GroupPath": "Config/LevelOutput/Group/Groups_P10301_F10301001/LevelGroup_P10301_F10301001_G193.json"
    },
    {
      "ID": 194,
      "Name": "Tpl_OrigamiBird",
      "GroupGUID": "e7430746-7462-4f3e-a36c-cfe4e8027789",
      "GroupPath": "Config/LevelOutput/Group/Groups_P10301_F10301001/LevelGroup_P10301_F10301001_G194.json"
    },
    {
      "ID": 173,
      "Name": "Tpl_OrigamiBird",
      "GroupGUID": "818537d0-e709-448c-89e5-728fc3423df6",
      "GroupPath": "Config/LevelOutput/Group/Groups_P10301_F10301001/LevelGroup_P10301_F10301001_G173.json"
    },
    {
      "ID": 199,
      "Name": "Tpl_OrigamiBird",
      "GroupGUID": "0e3a47f9-82cf-4399-88a1-efea4e871e0e",
      "GroupPath": "Config/LevelOutput/Group/Groups_P10301_F10301001/LevelGroup_P10301_F10301001_G199.json"
    },
    {
      "ID": 40,
      "Name": "OrigamiBird",
      "GroupGUID": "5ada1ce2-df0b-4413-9c01-0b45134b2e80",
      "GroupPath": "Config/LevelOutput/Group/Groups_P10301_F10301001/LevelGroup_P10301_F10301001_G40.json"
    },
    {
      "ID": 117,
      "Name": "MainMission2030001_0302",
      "GroupGUID": "25d64fff-4b9c-412a-a484-ffcd58563edc",
      "GroupPath": "Config/LevelOutput/Group/Groups_P10301_F10301001/LevelGroup_P10301_F10301001_G117.json"
    },
    {
      "ID": 120,
      "Name": "NPC",
      "GroupGUID": "77bfe496-ebd1-42b4-b990-393b6c295677",
      "GroupPath": "Config/LevelOutput/Group/Groups_P10301_F10301001/LevelGroup_P10301_F10301001_G120.json"
    },
    {
      "ID": 121,
      "Name": "MainMission2030101_01",
      "GroupGUID": "dd6e7080-6d7a-428b-a19c-855341c8b6ef",
      "GroupPath": "Config/LevelOutput/Group/Groups_P10301_F10301001/LevelGroup_P10301_F10301001_G121.json"
    },
    {
      "ID": 122,
      "Name": "MainMission2030201_01",
      "GroupGUID": "fed9ead9-5bcb-46fd-b6d8-f739a7cb48b9",
      "GroupPath": "Config/LevelOutput/Group/Groups_P10301_F10301001/LevelGroup_P10301_F10301001_G122.json"
    },
    {
      "ID": 123,
      "Name": "NPC",
      "GroupGUID": "e0afa3aa-0aef-4cab-83c7-bfae90b56994",
      "GroupPath": "Config/LevelOutput/Group/Groups_P10301_F10301001/LevelGroup_P10301_F10301001_G123.json"
    },
    {
      "ID": 408,
      "Name": "MainMission4240309_NPC",
      "GroupGUID": "cfc016c8-d2c3-4081-8e64-4443acda769c",
      "GroupPath": "Config/LevelOutput/Group/Groups_P10301_F10301001/LevelGroup_P10301_F10301001_G408.json"
    },
    {
      "ID": 409,
      "Name": "MainMission4240309_NPC",
      "GroupGUID": "7a4a9c71-1026-4628-aa8b-ca37735d87ac",
      "GroupPath": "Config/LevelOutput/Group/Groups_P10301_F10301001/LevelGroup_P10301_F10301001_G409.json"
    },
    {
      "ID": 410,
      "Name": "MainMission4240309_New Group",
      "GroupGUID": "2fd49554-84ab-4333-97a4-b1f3be8723e6",
      "GroupPath": "Config/LevelOutput/Group/Groups_P10301_F10301001/LevelGroup_P10301_F10301001_G410.json"
    },
    {
      "ID": 411,
      "Name": "MainMission4240309_New Group",
      "GroupGUID": "d6846576-52e9-4064-a025-3b401f745200",
      "GroupPath": "Config/LevelOutput/Group/Groups_P10301_F10301001/LevelGroup_P10301_F10301001_G411.json"
    },
    {
      "ID": 412,
      "Name": "MainMission4240309_New Group",
      "GroupGUID": "219c04d1-5157-40fd-a10a-29be740a7766",
      "GroupPath": "Config/LevelOutput/Group/Groups_P10301_F10301001/LevelGroup_P10301_F10301001_G412.json"
    },
    {
      "ID": 413,
      "Name": "MainMission4240309_New Group",
      "GroupGUID": "8b57354a-8503-4043-bbd5-8beeee076609",
      "GroupPath": "Config/LevelOutput/Group/Groups_P10301_F10301001/LevelGroup_P10301_F10301001_G413.json"
    },
    {
      "ID": 414,
      "Name": "MainMission4240309_New Group",
      "GroupGUID": "b197e76f-8c0e-4fbf-8a67-287d4218abb2",
      "GroupPath": "Config/LevelOutput/Group/Groups_P10301_F10301001/LevelGroup_P10301_F10301001_G414.json"
    },
    {
      "ID": 124,
      "Name": "NPC",
      "GroupGUID": "ea668666-68ca-4cc8-80c4-8100730bf0c5",
      "GroupPath": "Config/LevelOutput/Group/Groups_P10301_F10301001/LevelGroup_P10301_F10301001_G124.json"
    },
    {
      "ID": 265,
      "Name": "MainMission4240308_NPC",
      "GroupGUID": "e55577ac-228f-4dc1-a85d-4f8d798df004",
      "GroupPath": "Config/LevelOutput/Group/Groups_P10301_F10301001/LevelGroup_P10301_F10301001_G265.json"
    },
    {
      "ID": 266,
      "Name": "MainMission4240308_NPC",
      "GroupGUID": "ba230ca7-c92c-4563-b28f-b7922bd3d0eb",
      "GroupPath": "Config/LevelOutput/Group/Groups_P10301_F10301001/LevelGroup_P10301_F10301001_G266.json"
    },
    {
      "ID": 267,
      "Name": "MainMission4240308_NPC",
      "GroupGUID": "66fff665-efb0-4f3b-aa68-6a8b4cb39e29",
      "GroupPath": "Config/LevelOutput/Group/Groups_P10301_F10301001/LevelGroup_P10301_F10301001_G267.json"
    },
    {
      "ID": 268,
      "Name": "MainMission4240308_NPC",
      "GroupGUID": "14b717e1-dd80-4a98-aa95-7d96cb6b13e4",
      "GroupPath": "Config/LevelOutput/Group/Groups_P10301_F10301001/LevelGroup_P10301_F10301001_G268.json"
    },
    {
      "ID": 269,
      "Name": "MainMission4240308_NPC",
      "GroupGUID": "6265d0d7-5d8c-42a4-a038-0bfe07c581ec",
      "GroupPath": "Config/LevelOutput/Group/Groups_P10301_F10301001/LevelGroup_P10301_F10301001_G269.json"
    },
    {
      "ID": 270,
      "Name": "MainMission4240308_NPC",
      "GroupGUID": "9a3becc9-d7ed-4f72-979f-debb20712b6c",
      "GroupPath": "Config/LevelOutput/Group/Groups_P10301_F10301001/LevelGroup_P10301_F10301001_G270.json"
    },
    {
      "ID": 125,
      "Name": "NPC",
      "GroupGUID": "e44c5a55-c135-4afa-b9a8-d250ef340efd",
      "GroupPath": "Config/LevelOutput/Group/Groups_P10301_F10301001/LevelGroup_P10301_F10301001_G125.json"
    },
    {
      "ID": 235,
      "Name": "MainMission4240304_NPC",
      "GroupGUID": "fcbb74a9-b981-4f2c-abf8-4ab9e9e32300",
      "GroupPath": "Config/LevelOutput/Group/Groups_P10301_F10301001/LevelGroup_P10301_F10301001_G235.json"
    },
    {
      "ID": 236,
      "Name": "MainMission4240304_NPC",
      "GroupGUID": "a3ec9d27-1cf8-4b7f-903d-55efb961d2d7",
      "GroupPath": "Config/LevelOutput/Group/Groups_P10301_F10301001/LevelGroup_P10301_F10301001_G236.json"
    },
    {
      "ID": 237,
      "Name": "MainMission4240304_NPC",
      "GroupGUID": "5978f1cc-0387-4046-960f-5435bd62c758",
      "GroupPath": "Config/LevelOutput/Group/Groups_P10301_F10301001/LevelGroup_P10301_F10301001_G237.json"
    },
    {
      "ID": 238,
      "Name": "MainMission4240304_NPC",
      "GroupGUID": "101347e4-098c-4281-bf2c-235c48aaf1f7",
      "GroupPath": "Config/LevelOutput/Group/Groups_P10301_F10301001/LevelGroup_P10301_F10301001_G238.json"
    },
    {
      "ID": 239,
      "Name": "MainMission4240304_NPC",
      "GroupGUID": "e8499729-f4eb-4bcb-8156-2eb46871573b",
      "GroupPath": "Config/LevelOutput/Group/Groups_P10301_F10301001/LevelGroup_P10301_F10301001_G239.json"
    },
    {
      "ID": 126,
      "Name": "NPC",
      "GroupGUID": "ce10a9ec-1b4d-4582-afdb-39d94e3ffcb7",
      "GroupPath": "Config/LevelOutput/Group/Groups_P10301_F10301001/LevelGroup_P10301_F10301001_G126.json"
    },
    {
      "ID": 127,
      "Name": "NPC",
      "GroupGUID": "189d5c55-f02f-4f9a-948e-fcbdca22f00f",
      "GroupPath": "Config/LevelOutput/Group/Groups_P10301_F10301001/LevelGroup_P10301_F10301001_G127.json"
    },
    {
      "ID": 128,
      "Name": "NPC",
      "GroupGUID": "b58dd1fb-50db-41b9-b073-df3e2f5981ef",
      "GroupPath": "Config/LevelOutput/Group/Groups_P10301_F10301001/LevelGroup_P10301_F10301001_G128.json"
    },
    {
      "ID": 129,
      "Name": "NPC",
      "GroupGUID": "1a567f38-7535-4c62-b693-b2cfd4e55857",
      "GroupPath": "Config/LevelOutput/Group/Groups_P10301_F10301001/LevelGroup_P10301_F10301001_G129.json"
    },
    {
      "ID": 130,
      "Name": "NPC",
      "GroupGUID": "90048d14-e8c2-4b60-8af4-dada0574a8eb",
      "GroupPath": "Config/LevelOutput/Group/Groups_P10301_F10301001/LevelGroup_P10301_F10301001_G130.json"
    },
    {
      "ID": 131,
      "Name": "MainMission4240301_NPC",
      "GroupGUID": "49d560a9-4699-4f58-8e80-41abb152a44e",
      "GroupPath": "Config/LevelOutput/Group/Groups_P10301_F10301001/LevelGroup_P10301_F10301001_G131.json"
    },
    {
      "ID": 132,
      "Name": "NPC",
      "GroupGUID": "be6c2367-cad6-41d6-bbda-e389a886c788",
      "GroupPath": "Config/LevelOutput/Group/Groups_P10301_F10301001/LevelGroup_P10301_F10301001_G132.json"
    },
    {
      "ID": 133,
      "Name": "NPC",
      "GroupGUID": "584c3925-a1c0-4c71-bd60-2e9d6c576416",
      "GroupPath": "Config/LevelOutput/Group/Groups_P10301_F10301001/LevelGroup_P10301_F10301001_G133.json"
    },
    {
      "ID": 134,
      "Name": "NPC",
      "GroupGUID": "ff138cc7-cf0f-4a48-8867-2bf00baacb2f",
      "GroupPath": "Config/LevelOutput/Group/Groups_P10301_F10301001/LevelGroup_P10301_F10301001_G134.json"
    },
    {
      "ID": 135,
      "Name": "NPC",
      "GroupGUID": "f66446f2-aada-424f-a4dc-162b25f94057",
      "GroupPath": "Config/LevelOutput/Group/Groups_P10301_F10301001/LevelGroup_P10301_F10301001_G135.json"
    },
    {
      "ID": 136,
      "Name": "NPC",
      "GroupGUID": "622c74be-18ac-49bb-84d0-e59675bc0c8e",
      "GroupPath": "Config/LevelOutput/Group/Groups_P10301_F10301001/LevelGroup_P10301_F10301001_G136.json"
    },
    {
      "ID": 137,
      "Name": "NPC",
      "GroupGUID": "81d4a68e-4be3-48d7-9547-5c1577cc29ab",
      "GroupPath": "Config/LevelOutput/Group/Groups_P10301_F10301001/LevelGroup_P10301_F10301001_G137.json"
    },
    {
      "ID": 184,
      "Name": "MainMission4240302_NPC",
      "GroupGUID": "b893ff45-40c2-473c-9608-326e2380dfee",
      "GroupPath": "Config/LevelOutput/Group/Groups_P10301_F10301001/LevelGroup_P10301_F10301001_G184.json"
    },
    {
      "ID": 185,
      "Name": "MainMission4240302_New Group",
      "GroupGUID": "6657de99-24b8-46cd-82bf-6b8e1afecdce",
      "GroupPath": "Config/LevelOutput/Group/Groups_P10301_F10301001/LevelGroup_P10301_F10301001_G185.json"
    },
    {
      "ID": 138,
      "Name": "NPC",
      "GroupGUID": "44cf647f-7ae3-4fc1-81a2-39afd50c4557",
      "GroupPath": "Config/LevelOutput/Group/Groups_P10301_F10301001/LevelGroup_P10301_F10301001_G138.json"
    },
    {
      "ID": 139,
      "Name": "NPC",
      "GroupGUID": "199b0bf9-d22f-43f8-a326-f338d8b6d708",
      "GroupPath": "Config/LevelOutput/Group/Groups_P10301_F10301001/LevelGroup_P10301_F10301001_G139.json"
    },
    {
      "ID": 140,
      "Name": "NPC",
      "GroupGUID": "87a2591b-8ad2-479e-bb84-657da89fcabc",
      "GroupPath": "Config/LevelOutput/Group/Groups_P10301_F10301001/LevelGroup_P10301_F10301001_G140.json"
    },
    {
      "ID": 141,
      "Name": "NPC",
      "GroupGUID": "2ccdd52d-13cd-423f-91df-3a2bb9cd3e8e",
      "GroupPath": "Config/LevelOutput/Group/Groups_P10301_F10301001/LevelGroup_P10301_F10301001_G141.json"
    },
    {
      "ID": 142,
      "Name": "NPC",
      "GroupGUID": "05894148-0f61-4a13-97b9-cd5fa148f954",
      "GroupPath": "Config/LevelOutput/Group/Groups_P10301_F10301001/LevelGroup_P10301_F10301001_G142.json"
    },
    {
      "ID": 143,
      "Name": "NPC",
      "GroupGUID": "867ba489-a53c-433c-be94-72f61ff365ad",
      "GroupPath": "Config/LevelOutput/Group/Groups_P10301_F10301001/LevelGroup_P10301_F10301001_G143.json"
    },
    {
      "ID": 144,
      "Name": "NPC",
      "GroupGUID": "6d880a30-a78b-4c56-965e-fab402f6c610",
      "GroupPath": "Config/LevelOutput/Group/Groups_P10301_F10301001/LevelGroup_P10301_F10301001_G144.json"
    },
    {
      "ID": 145,
      "Name": "NPC",
      "GroupGUID": "df21e412-1cb2-4af8-ab61-d7061f3179f5",
      "GroupPath": "Config/LevelOutput/Group/Groups_P10301_F10301001/LevelGroup_P10301_F10301001_G145.json"
    },
    {
      "ID": 229,
      "Name": "NPC",
      "GroupGUID": "dca28212-ebb9-4286-a981-58165b16b691",
      "GroupPath": "Config/LevelOutput/Group/Groups_P10301_F10301001/LevelGroup_P10301_F10301001_G229.json"
    },
    {
      "ID": 146,
      "Name": "NPC",
      "GroupGUID": "6d5cfc9c-a4fb-4b8a-b48e-6d5079170610",
      "GroupPath": "Config/LevelOutput/Group/Groups_P10301_F10301001/LevelGroup_P10301_F10301001_G146.json"
    },
    {
      "ID": 147,
      "Name": "NPC",
      "GroupGUID": "0ddb7c58-aebb-4716-8a32-b5258d7e71ce",
      "GroupPath": "Config/LevelOutput/Group/Groups_P10301_F10301001/LevelGroup_P10301_F10301001_G147.json"
    },
    {
      "ID": 148,
      "Name": "NPC",
      "GroupGUID": "372f7030-6fb6-4ee2-b247-ba605571c28d",
      "GroupPath": "Config/LevelOutput/Group/Groups_P10301_F10301001/LevelGroup_P10301_F10301001_G148.json"
    },
    {
      "ID": 149,
      "Name": "NPC",
      "GroupGUID": "53e3312f-9307-40cf-9124-bd3506daa18d",
      "GroupPath": "Config/LevelOutput/Group/Groups_P10301_F10301001/LevelGroup_P10301_F10301001_G149.json"
    },
    {
      "ID": 150,
      "Name": "NPC",
      "GroupGUID": "5281b238-a56a-4f26-a877-afa112726b45",
      "GroupPath": "Config/LevelOutput/Group/Groups_P10301_F10301001/LevelGroup_P10301_F10301001_G150.json"
    },
    {
      "ID": 158,
      "Name": "MainMission1030302_02",
      "GroupGUID": "08bc3a1e-ba34-4fb9-ab2f-4f77a3abf751",
      "GroupPath": "Config/LevelOutput/Group/Groups_P10301_F10301001/LevelGroup_P10301_F10301001_G158.json"
    },
    {
      "ID": 151,
      "Name": "NPC",
      "GroupGUID": "20a7b89f-19da-4b02-8108-178169591787",
      "GroupPath": "Config/LevelOutput/Group/Groups_P10301_F10301001/LevelGroup_P10301_F10301001_G151.json"
    },
    {
      "ID": 152,
      "Name": "NPC",
      "GroupGUID": "1ffe231e-4f6b-46b3-a253-85d80c125fee",
      "GroupPath": "Config/LevelOutput/Group/Groups_P10301_F10301001/LevelGroup_P10301_F10301001_G152.json"
    },
    {
      "ID": 153,
      "Name": "NPC",
      "GroupGUID": "11b6a0c5-2c2a-434b-a4d5-f600cd559bff",
      "GroupPath": "Config/LevelOutput/Group/Groups_P10301_F10301001/LevelGroup_P10301_F10301001_G153.json"
    },
    {
      "ID": 154,
      "Name": "NPC",
      "GroupGUID": "83e1679e-d9f6-4fa4-ad7a-1910b9c795d0",
      "GroupPath": "Config/LevelOutput/Group/Groups_P10301_F10301001/LevelGroup_P10301_F10301001_G154.json"
    },
    {
      "ID": 191,
      "Name": "MainMission4240302_New Group",
      "GroupGUID": "645f9d07-6fef-4158-946f-aa6d102b2c50",
      "GroupPath": "Config/LevelOutput/Group/Groups_P10301_F10301001/LevelGroup_P10301_F10301001_G191.json"
    },
    {
      "ID": 192,
      "Name": "NPC",
      "GroupGUID": "1516af3b-87a2-4a1c-a504-53da36b1bae8",
      "GroupPath": "Config/LevelOutput/Group/Groups_P10301_F10301001/LevelGroup_P10301_F10301001_G192.json"
    },
    {
      "ID": 208,
      "Name": "NPC",
      "GroupGUID": "5e0830e8-9c62-4e4c-a4e1-0904e675cb00",
      "GroupPath": "Config/LevelOutput/Group/Groups_P10301_F10301001/LevelGroup_P10301_F10301001_G208.json"
    },
    {
      "ID": 156,
      "Name": "WolfBroGroup",
      "GroupGUID": "8b0f3573-a5f9-4b99-941e-16e49b9280f3",
      "GroupPath": "Config/LevelOutput/Group/Groups_P10301_F10301001/LevelGroup_P10301_F10301001_G156.json"
    },
    {
      "ID": 159,
      "Name": "MainMission1030303_02",
      "GroupGUID": "89dbf0f0-66a3-4a22-8fd7-a853e397c1d4",
      "GroupPath": "Config/LevelOutput/Group/Groups_P10301_F10301001/LevelGroup_P10301_F10301001_G159.json"
    },
    {
      "ID": 160,
      "Name": "MainMission1030303_17",
      "GroupGUID": "377d3cba-804a-4e17-98f0-c87dfdb424b6",
      "GroupPath": "Config/LevelOutput/Group/Groups_P10301_F10301001/LevelGroup_P10301_F10301001_G160.json"
    },
    {
      "ID": 162,
      "Name": "NPC",
      "GroupGUID": "fd81c67d-ac6a-4137-ba4a-5f2696d0da91",
      "GroupPath": "Config/LevelOutput/Group/Groups_P10301_F10301001/LevelGroup_P10301_F10301001_G162.json"
    },
    {
      "ID": 167,
      "Name": "MainMission1030301_09",
      "GroupGUID": "8435a984-dc2f-407a-a311-07942d3e7c2b",
      "GroupPath": "Config/LevelOutput/Group/Groups_P10301_F10301001/LevelGroup_P10301_F10301001_G167.json"
    },
    {
      "ID": 176,
      "Name": "BoardCrowd",
      "GroupGUID": "0997b281-52b4-4675-8097-24c00e8064eb",
      "GroupPath": "Config/LevelOutput/Group/Groups_P10301_F10301001/LevelGroup_P10301_F10301001_G176.json"
    },
    {
      "ID": 177,
      "Name": "BoardCrowd",
      "GroupGUID": "8bb759c4-35fe-4adc-b994-2b33cfc3d626",
      "GroupPath": "Config/LevelOutput/Group/Groups_P10301_F10301001/LevelGroup_P10301_F10301001_G177.json"
    },
    {
      "ID": 178,
      "Name": "BoardCrowd",
      "GroupGUID": "a4e8900b-aee5-41ba-822b-b5b88c5831d0",
      "GroupPath": "Config/LevelOutput/Group/Groups_P10301_F10301001/LevelGroup_P10301_F10301001_G178.json"
    },
    {
      "ID": 179,
      "Name": "BoardCrowd",
      "GroupGUID": "041f54f4-912f-4031-8439-5879d020461e",
      "GroupPath": "Config/LevelOutput/Group/Groups_P10301_F10301001/LevelGroup_P10301_F10301001_G179.json"
    },
    {
      "ID": 180,
      "Name": "BoardCrowd",
      "GroupGUID": "a78bc711-100c-42c2-8099-36e51f4918f0",
      "GroupPath": "Config/LevelOutput/Group/Groups_P10301_F10301001/LevelGroup_P10301_F10301001_G180.json"
    },
    {
      "ID": 181,
      "Name": "BoardCrowd",
      "GroupGUID": "d9445c61-d9e9-4a08-b160-dd2181b49d51",
      "GroupPath": "Config/LevelOutput/Group/Groups_P10301_F10301001/LevelGroup_P10301_F10301001_G181.json"
    },
    {
      "ID": 182,
      "Name": "BoardCrowd",
      "GroupGUID": "d6eda674-36d7-4d65-88b8-470abdded58c",
      "GroupPath": "Config/LevelOutput/Group/Groups_P10301_F10301001/LevelGroup_P10301_F10301001_G182.json"
    },
    {
      "ID": 183,
      "Name": "BoardCrowd",
      "GroupGUID": "5950d390-1708-48be-b9e9-153f18fbda6c",
      "GroupPath": "Config/LevelOutput/Group/Groups_P10301_F10301001/LevelGroup_P10301_F10301001_G183.json"
    },
    {
      "ID": 168,
      "Name": "MainMission1031001_0",
      "GroupGUID": "7fbbd430-824d-4ff8-8a04-21e1008464d8",
      "GroupPath": "Config/LevelOutput/Group/Groups_P10301_F10301001/LevelGroup_P10301_F10301001_G168.json"
    },
    {
      "ID": 169,
      "Name": "MainMission1031001_1",
      "GroupGUID": "b36ba19f-1678-4a2f-9a2e-015d7e845bba",
      "GroupPath": "Config/LevelOutput/Group/Groups_P10301_F10301001/LevelGroup_P10301_F10301001_G169.json"
    },
    {
      "ID": 170,
      "Name": "MainMission1031001_2",
      "GroupGUID": "b271bf73-4021-4c0e-96ff-2c18d7736c1e",
      "GroupPath": "Config/LevelOutput/Group/Groups_P10301_F10301001/LevelGroup_P10301_F10301001_G170.json"
    },
    {
      "ID": 171,
      "Name": "MainMission1031001_3",
      "GroupGUID": "0767606a-29b6-4f81-a4f8-b5f68a311282",
      "GroupPath": "Config/LevelOutput/Group/Groups_P10301_F10301001/LevelGroup_P10301_F10301001_G171.json"
    },
    {
      "ID": 172,
      "Name": "MainMission1031001_4",
      "GroupGUID": "3e0bd670-18c3-43cb-b6ac-acd756bdeb5a",
      "GroupPath": "Config/LevelOutput/Group/Groups_P10301_F10301001/LevelGroup_P10301_F10301001_G172.json"
    },
    {
      "ID": 174,
      "Name": "MainMission1031401_0",
      "GroupGUID": "7b2268d3-db69-4001-92e7-4e81bf06a759",
      "GroupPath": "Config/LevelOutput/Group/Groups_P10301_F10301001/LevelGroup_P10301_F10301001_G174.json"
    },
    {
      "ID": 175,
      "Name": "MainMission1031401_1",
      "GroupGUID": "07f6fb09-93e4-4aee-b594-3a2fabc5862c",
      "GroupPath": "Config/LevelOutput/Group/Groups_P10301_F10301001/LevelGroup_P10301_F10301001_G175.json"
    },
    {
      "ID": 195,
      "Name": "MainMission4340102_01",
      "GroupGUID": "163d76fa-11c6-4e11-8fc3-f350bca13686",
      "GroupPath": "Config/LevelOutput/Group/Groups_P10301_F10301001/LevelGroup_P10301_F10301001_G195.json"
    },
    {
      "ID": 196,
      "Name": "MainMission4340102_02",
      "GroupGUID": "5191604e-e51a-40db-b8b7-4a1c70eea859",
      "GroupPath": "Config/LevelOutput/Group/Groups_P10301_F10301001/LevelGroup_P10301_F10301001_G196.json"
    },
    {
      "ID": 197,
      "Name": "MainMission4340102_03",
      "GroupGUID": "e809ec16-34e9-4139-9024-d6c5de823bf2",
      "GroupPath": "Config/LevelOutput/Group/Groups_P10301_F10301001/LevelGroup_P10301_F10301001_G197.json"
    },
    {
      "ID": 203,
      "Name": "MainMission1030303_18",
      "GroupGUID": "da7b86bb-7ee4-4c03-aa4d-59c844b30fdd",
      "GroupPath": "Config/LevelOutput/Group/Groups_P10301_F10301001/LevelGroup_P10301_F10301001_G203.json"
    },
    {
      "ID": 204,
      "Name": "MainMission1030303_14",
      "GroupGUID": "46c292be-4e85-4b98-8bbd-3531498e75ad",
      "GroupPath": "Config/LevelOutput/Group/Groups_P10301_F10301001/LevelGroup_P10301_F10301001_G204.json"
    },
    {
      "ID": 205,
      "Name": "MainMission1030303_20",
      "GroupGUID": "91f4f2de-c31b-41d2-aa6e-c21c1905df4e",
      "GroupPath": "Config/LevelOutput/Group/Groups_P10301_F10301001/LevelGroup_P10301_F10301001_G205.json"
    },
    {
      "ID": 206,
      "Name": "MainMission1030303_21",
      "GroupGUID": "5e1b81d7-7c7f-4b86-92be-c22056e45c01",
      "GroupPath": "Config/LevelOutput/Group/Groups_P10301_F10301001/LevelGroup_P10301_F10301001_G206.json"
    },
    {
      "ID": 224,
      "Name": "MainMission1030302_11",
      "GroupGUID": "14c9f0b8-b50d-40d2-8f98-213ae6604258",
      "GroupPath": "Config/LevelOutput/Group/Groups_P10301_F10301001/LevelGroup_P10301_F10301001_G224.json"
    },
    {
      "ID": 225,
      "Name": "testfenwei",
      "GroupGUID": "0facd42c-1566-4ec5-a256-9d37166c2557",
      "GroupPath": "Config/LevelOutput/Group/Groups_P10301_F10301001/LevelGroup_P10301_F10301001_G225.json"
    },
    {
      "ID": 226,
      "Name": "testfenwei",
      "GroupGUID": "8ecc4bdd-a8a0-4e91-928b-98fae98446d1",
      "GroupPath": "Config/LevelOutput/Group/Groups_P10301_F10301001/LevelGroup_P10301_F10301001_G226.json"
    },
    {
      "ID": 228,
      "Name": "testfenwei",
      "GroupGUID": "71ab1330-b347-4aa2-b97a-191331a63e5b",
      "GroupPath": "Config/LevelOutput/Group/Groups_P10301_F10301001/LevelGroup_P10301_F10301001_G228.json"
    },
    {
      "ID": 232,
      "Name": "MainMission4240301_NPC",
      "GroupGUID": "66887dee-e9b6-4f0f-a0f0-03dcc95e20b6",
      "GroupPath": "Config/LevelOutput/Group/Groups_P10301_F10301001/LevelGroup_P10301_F10301001_G232.json"
    },
    {
      "ID": 233,
      "Name": "BGM",
      "GroupGUID": "9f834aeb-3cd0-4a92-8da3-e75b0f8163f6",
      "GroupPath": "Config/LevelOutput/Group/Groups_P10301_F10301001/LevelGroup_P10301_F10301001_G233.json"
    },
    {
      "ID": 234,
      "Name": "MainMission1030901_21",
      "GroupGUID": "ad1f8614-bf4a-4246-a760-d2b96ef761cc",
      "GroupPath": "Config/LevelOutput/Group/Groups_P10301_F10301001/LevelGroup_P10301_F10301001_G234.json"
    },
    {
      "ID": 241,
      "Name": "MainMission4240306_mission Group",
      "GroupGUID": "713f5c64-bb55-4bc9-95b3-ab1e038319e1",
      "GroupPath": "Config/LevelOutput/Group/Groups_P10301_F10301001/LevelGroup_P10301_F10301001_G241.json"
    },
    {
      "ID": 243,
      "Name": "MainMission4040311_Dog",
      "GroupGUID": "9cdbbddf-df61-44d5-8c27-3cac7c81831c",
      "GroupPath": "Config/LevelOutput/Group/Groups_P10301_F10301001/LevelGroup_P10301_F10301001_G243.json"
    },
    {
      "ID": 244,
      "Name": "clockie",
      "GroupGUID": "cac82758-1198-4c12-bb72-fb2bf22c6b19",
      "GroupPath": "Config/LevelOutput/Group/Groups_P10301_F10301001/LevelGroup_P10301_F10301001_G244.json"
    },
    {
      "ID": 284,
      "Name": "MapInfo",
      "GroupGUID": "73e19b74-b19a-4168-8108-0edcc6a48736",
      "GroupPath": "Config/LevelOutput/Group/Groups_P10301_F10301001/LevelGroup_P10301_F10301001_G284.json"
    },
    {
      "ID": 246,
      "Name": "MainMission1030302_28",
      "GroupGUID": "7c36e3f4-7f55-43d8-b02f-13f25a17fe22",
      "GroupPath": "Config/LevelOutput/Group/Groups_P10301_F10301001/LevelGroup_P10301_F10301001_G246.json"
    },
    {
      "ID": 254,
      "Name": "MainMission1030303_25",
      "GroupGUID": "3f86e2bc-f976-4beb-821a-fb58ff9a86de",
      "GroupPath": "Config/LevelOutput/Group/Groups_P10301_F10301001/LevelGroup_P10301_F10301001_G254.json"
    },
    {
      "ID": 255,
      "Name": "MainMission1030303_06",
      "GroupGUID": "21871fe4-716b-4a08-9330-9f49e17d371d",
      "GroupPath": "Config/LevelOutput/Group/Groups_P10301_F10301001/LevelGroup_P10301_F10301001_G255.json"
    },
    {
      "ID": 249,
      "Name": "New Group",
      "GroupGUID": "a29f0509-8496-4878-a5f9-4d3a53a6ef0f",
      "GroupPath": "Config/LevelOutput/Group/Groups_P10301_F10301001/LevelGroup_P10301_F10301001_G249.json"
    },
    {
      "ID": 274,
      "Name": "SpecialDistructable",
      "GroupGUID": "66a8760f-9307-4d5f-9bef-810df5ae7840",
      "GroupPath": "Config/LevelOutput/Group/Groups_P10301_F10301001/LevelGroup_P10301_F10301001_G274.json"
    },
    {
      "ID": 277,
      "Name": "Sound",
      "GroupGUID": "8e4022fa-bcfe-4722-afda-b6db151d30dd",
      "GroupPath": "Config/LevelOutput/Group/Groups_P10301_F10301001/LevelGroup_P10301_F10301001_G277.json"
    },
    {
      "ID": 280,
      "Name": "ActivityEntrance01",
      "GroupGUID": "7e563c2a-82fb-4d42-b2a9-7f2104a7eb6e",
      "GroupPath": "Config/LevelOutput/Group/Groups_P10301_F10301001/LevelGroup_P10301_F10301001_G280.json"
    },
    {
      "ID": 281,
      "Name": "RailBall_Flow",
      "GroupGUID": "2fcd561f-83c1-4e83-91a4-b2f887d2890c",
      "GroupPath": "Config/LevelOutput/Group/Groups_P10301_F10301001/LevelGroup_P10301_F10301001_G281.json"
    },
    {
      "ID": 283,
      "Name": "MainMission4340103_02",
      "GroupGUID": "97d0bf7b-9e02-4601-8717-dbeba53226d9",
      "GroupPath": "Config/LevelOutput/Group/Groups_P10301_F10301001/LevelGroup_P10301_F10301001_G283.json"
    },
    {
      "ID": 288,
      "Name": "Find",
      "GroupGUID": "b43c9e98-3f82-4771-a32e-ee02a1458d0d",
      "GroupPath": "Config/LevelOutput/Group/Groups_P10301_F10301001/LevelGroup_P10301_F10301001_G288.json"
    },
    {
      "ID": 289,
      "Name": "MainMission4240312_gaixin",
      "GroupGUID": "20d53c78-e5f4-406e-9cc9-aff35fb6422f",
      "GroupPath": "Config/LevelOutput/Group/Groups_P10301_F10301001/LevelGroup_P10301_F10301001_G289.json"
    },
    {
      "ID": 290,
      "Name": "NPC",
      "GroupGUID": "4be97380-348c-4355-a805-a34d5512b376",
      "GroupPath": "Config/LevelOutput/Group/Groups_P10301_F10301001/LevelGroup_P10301_F10301001_G290.json"
    },
    {
      "ID": 291,
      "Name": "Find",
      "GroupGUID": "a9dcb750-50c7-42b1-97d3-f052f2026d5e",
      "GroupPath": "Config/LevelOutput/Group/Groups_P10301_F10301001/LevelGroup_P10301_F10301001_G291.json"
    },
    {
      "ID": 292,
      "Name": "TravelPoint1",
      "GroupGUID": "0817ff0e-71e5-4f22-b210-dcbaaad65fb1",
      "GroupPath": "Config/LevelOutput/Group/Groups_P10301_F10301001/LevelGroup_P10301_F10301001_G292.json"
    },
    {
      "ID": 293,
      "Name": "MainMission4540201_Travel",
      "GroupGUID": "eb186af7-567b-4ad8-84f0-ca51040ee0d3",
      "GroupPath": "Config/LevelOutput/Group/Groups_P10301_F10301001/LevelGroup_P10301_F10301001_G293.json"
    },
    {
      "ID": 296,
      "Name": "MainMission4240314_chujian",
      "GroupGUID": "5464e881-f403-4173-b339-41ab1ec4108d",
      "GroupPath": "Config/LevelOutput/Group/Groups_P10301_F10301001/LevelGroup_P10301_F10301001_G296.json"
    },
    {
      "ID": 297,
      "Name": "MainMission4240314_jiao",
      "GroupGUID": "16c417e7-1a2e-4651-9c21-f248f356658e",
      "GroupPath": "Config/LevelOutput/Group/Groups_P10301_F10301001/LevelGroup_P10301_F10301001_G297.json"
    },
    {
      "ID": 305,
      "Name": "MainMission4240312_gaixin",
      "GroupGUID": "7c960db4-c85d-4244-918d-a2c557eee02e",
      "GroupPath": "Config/LevelOutput/Group/Groups_P10301_F10301001/LevelGroup_P10301_F10301001_G305.json"
    },
    {
      "ID": 306,
      "Name": "MainMission4240312_gaixin",
      "GroupGUID": "4b8f34ee-67b4-4a01-b50c-596b618bc895",
      "GroupPath": "Config/LevelOutput/Group/Groups_P10301_F10301001/LevelGroup_P10301_F10301001_G306.json"
    },
    {
      "ID": 307,
      "Name": "MainMission4240312_gaixin",
      "GroupGUID": "70ec5ba4-8b7a-40f1-b1fd-0684aa220d43",
      "GroupPath": "Config/LevelOutput/Group/Groups_P10301_F10301001/LevelGroup_P10301_F10301001_G307.json"
    },
    {
      "ID": 316,
      "Name": "MainMission2030201_01X",
      "GroupGUID": "27444ab5-400a-4f5b-9d73-7b27e8667aa8",
      "GroupPath": "Config/LevelOutput/Group/Groups_P10301_F10301001/LevelGroup_P10301_F10301001_G316.json"
    },
    {
      "ID": 317,
      "Name": "MainMission2030201_02Pre",
      "GroupGUID": "e4009030-b145-43df-9947-6b4c50895d4e",
      "GroupPath": "Config/LevelOutput/Group/Groups_P10301_F10301001/LevelGroup_P10301_F10301001_G317.json"
    },
    {
      "ID": 319,
      "Name": "qipao",
      "GroupGUID": "67093019-5393-4144-bfca-195669cc8634",
      "GroupPath": "Config/LevelOutput/Group/Groups_P10301_F10301001/LevelGroup_P10301_F10301001_G319.json"
    },
    {
      "ID": 320,
      "Name": "qipao",
      "GroupGUID": "7c348141-534a-4e8d-9484-cf63ff382351",
      "GroupPath": "Config/LevelOutput/Group/Groups_P10301_F10301001/LevelGroup_P10301_F10301001_G320.json"
    },
    {
      "ID": 322,
      "Name": "qipao",
      "GroupGUID": "b8cafbea-5cbc-423a-a931-851e68c5bf61",
      "GroupPath": "Config/LevelOutput/Group/Groups_P10301_F10301001/LevelGroup_P10301_F10301001_G322.json"
    },
    {
      "ID": 324,
      "Name": "qipao",
      "GroupGUID": "602fea59-e988-4dce-9c16-7bd1dc0e3b3c",
      "GroupPath": "Config/LevelOutput/Group/Groups_P10301_F10301001/LevelGroup_P10301_F10301001_G324.json"
    },
    {
      "ID": 325,
      "Name": "MainMission4240312_NPC",
      "GroupGUID": "9263e1ea-7842-4de2-9a59-214796b75892",
      "GroupPath": "Config/LevelOutput/Group/Groups_P10301_F10301001/LevelGroup_P10301_F10301001_G325.json"
    },
    {
      "ID": 318,
      "Name": "MainMission2030201_02",
      "GroupGUID": "9cda86c9-af93-4c3a-8152-eb47aabac441",
      "GroupPath": "Config/LevelOutput/Group/Groups_P10301_F10301001/LevelGroup_P10301_F10301001_G318.json"
    },
    {
      "ID": 326,
      "Name": "MainMission2030201_03",
      "GroupGUID": "3834b673-0caf-4611-8bde-df311b1388ed",
      "GroupPath": "Config/LevelOutput/Group/Groups_P10301_F10301001/LevelGroup_P10301_F10301001_G326.json"
    },
    {
      "ID": 327,
      "Name": "MainMission2030201_04",
      "GroupGUID": "c7b92db1-d8b9-400f-ab17-16427c5ef6bd",
      "GroupPath": "Config/LevelOutput/Group/Groups_P10301_F10301001/LevelGroup_P10301_F10301001_G327.json"
    },
    {
      "ID": 328,
      "Name": "MainMission2030201_05",
      "GroupGUID": "08d3dada-242d-4b45-a6fd-6d2b50cde42d",
      "GroupPath": "Config/LevelOutput/Group/Groups_P10301_F10301001/LevelGroup_P10301_F10301001_G328.json"
    },
    {
      "ID": 329,
      "Name": "MainMission2030201_06",
      "GroupGUID": "e5e43645-e880-4b48-a940-77061ff7b164",
      "GroupPath": "Config/LevelOutput/Group/Groups_P10301_F10301001/LevelGroup_P10301_F10301001_G329.json"
    },
    {
      "ID": 330,
      "Name": "MainMission2030201_07",
      "GroupGUID": "49551d23-0af9-4efc-bb51-13d6e152c39d",
      "GroupPath": "Config/LevelOutput/Group/Groups_P10301_F10301001/LevelGroup_P10301_F10301001_G330.json"
    },
    {
      "ID": 331,
      "Name": "MainMission2030201_08",
      "GroupGUID": "4b58270c-ef17-4f46-9e0d-cd0b0d68c102",
      "GroupPath": "Config/LevelOutput/Group/Groups_P10301_F10301001/LevelGroup_P10301_F10301001_G331.json"
    },
    {
      "ID": 332,
      "Name": "MainMission2030201_09",
      "GroupGUID": "28c26893-c9cd-4fee-ba64-2ad0010b4f34",
      "GroupPath": "Config/LevelOutput/Group/Groups_P10301_F10301001/LevelGroup_P10301_F10301001_G332.json"
    },
    {
      "ID": 333,
      "Name": "MainMission2030201_09X11",
      "GroupGUID": "6acf7e7f-1d9e-45f1-a9fc-0bd89b2c0d67",
      "GroupPath": "Config/LevelOutput/Group/Groups_P10301_F10301001/LevelGroup_P10301_F10301001_G333.json"
    },
    {
      "ID": 334,
      "Name": "MainMission2030201_10",
      "GroupGUID": "2f9f2258-bde3-40ff-ad54-1cc63f31a164",
      "GroupPath": "Config/LevelOutput/Group/Groups_P10301_F10301001/LevelGroup_P10301_F10301001_G334.json"
    },
    {
      "ID": 335,
      "Name": "MainMission2030201_11",
      "GroupGUID": "7630b0ba-4f18-44b7-a23e-f15af78db9f7",
      "GroupPath": "Config/LevelOutput/Group/Groups_P10301_F10301001/LevelGroup_P10301_F10301001_G335.json"
    },
    {
      "ID": 336,
      "Name": "MainMission4340105_01",
      "GroupGUID": "8d0d0e41-1166-4447-b56b-6eb0ef005f17",
      "GroupPath": "Config/LevelOutput/Group/Groups_P10301_F10301001/LevelGroup_P10301_F10301001_G336.json"
    },
    {
      "ID": 337,
      "Name": "MainMission4340105_03",
      "GroupGUID": "0ee23bde-c06b-4b03-a029-88a3a628ea74",
      "GroupPath": "Config/LevelOutput/Group/Groups_P10301_F10301001/LevelGroup_P10301_F10301001_G337.json"
    },
    {
      "ID": 338,
      "Name": "MainMission2030201_12X13",
      "GroupGUID": "5cbb3d4f-0499-4394-8c6c-dc63d4851eb6",
      "GroupPath": "Config/LevelOutput/Group/Groups_P10301_F10301001/LevelGroup_P10301_F10301001_G338.json"
    },
    {
      "ID": 339,
      "Name": "MainMission2030201_15",
      "GroupGUID": "9a5cc4ce-e61c-4e99-9998-6bdec426e7b5",
      "GroupPath": "Config/LevelOutput/Group/Groups_P10301_F10301001/LevelGroup_P10301_F10301001_G339.json"
    },
    {
      "ID": 340,
      "Name": "MainMission2030201_16",
      "GroupGUID": "1052d1ac-9c07-4e0d-9763-5ba5d2677548",
      "GroupPath": "Config/LevelOutput/Group/Groups_P10301_F10301001/LevelGroup_P10301_F10301001_G340.json"
    },
    {
      "ID": 341,
      "Name": "MainMission1031801_03",
      "GroupGUID": "d3082e14-5299-48d4-83af-77bd28fd413b",
      "GroupPath": "Config/LevelOutput/Group/Groups_P10301_F10301001/LevelGroup_P10301_F10301001_G341.json"
    },
    {
      "ID": 342,
      "IsDelete": true,
      "Name": "MainMission1031801_10",
      "GroupGUID": "47d69582-c53f-483a-a83b-45d7e0ba5205",
      "GroupPath": "Config/LevelOutput/Group/Groups_P10301_F10301001/LevelGroup_P10301_F10301001_G342.json"
    },
    {
      "ID": 344,
      "Name": "MainMission4240311_NPC",
      "GroupGUID": "64c98b0c-230a-4500-a424-bbc3ecf8ed50",
      "GroupPath": "Config/LevelOutput/Group/Groups_P10301_F10301001/LevelGroup_P10301_F10301001_G344.json"
    },
    {
      "ID": 345,
      "Name": "MainMission4240311_NPC",
      "GroupGUID": "7963056a-223c-4056-ba19-85c389158e39",
      "GroupPath": "Config/LevelOutput/Group/Groups_P10301_F10301001/LevelGroup_P10301_F10301001_G345.json"
    },
    {
      "ID": 346,
      "Name": "MainMission4240311_NPC",
      "GroupGUID": "2069d7b1-e2c9-4b1f-b8f1-a17b9c05b1f4",
      "GroupPath": "Config/LevelOutput/Group/Groups_P10301_F10301001/LevelGroup_P10301_F10301001_G346.json"
    },
    {
      "ID": 347,
      "Name": "MainMission4340105_04",
      "GroupGUID": "71da2411-4030-4c09-8b83-4d98f320e5cd",
      "GroupPath": "Config/LevelOutput/Group/Groups_P10301_F10301001/LevelGroup_P10301_F10301001_G347.json"
    },
    {
      "ID": 348,
      "Name": "MainMission4240317_NPC",
      "GroupGUID": "f46aac0c-3213-485d-9074-dd48efea68b8",
      "GroupPath": "Config/LevelOutput/Group/Groups_P10301_F10301001/LevelGroup_P10301_F10301001_G348.json"
    },
    {
      "ID": 349,
      "Name": "MainMission2030201_27",
      "GroupGUID": "47ee1b6e-4080-40e2-bd51-c8e839779758",
      "GroupPath": "Config/LevelOutput/Group/Groups_P10301_F10301001/LevelGroup_P10301_F10301001_G349.json"
    },
    {
      "ID": 350,
      "Name": "MainMission2030203_01",
      "GroupGUID": "d3195b8e-c101-4088-9665-416b58f6ab22",
      "GroupPath": "Config/LevelOutput/Group/Groups_P10301_F10301001/LevelGroup_P10301_F10301001_G350.json"
    },
    {
      "ID": 351,
      "IsDelete": true,
      "Name": "NPC",
      "GroupGUID": "96d3f607-1334-4234-88f3-386f32212b7a",
      "GroupPath": "Config/LevelOutput/Group/Groups_P10301_F10301001/LevelGroup_P10301_F10301001_G351.json"
    },
    {
      "ID": 353,
      "Name": "NPC",
      "GroupGUID": "4a248fd6-cf46-4504-9fe5-7e859596328c",
      "GroupPath": "Config/LevelOutput/Group/Groups_P10301_F10301001/LevelGroup_P10301_F10301001_G353.json"
    },
    {
      "ID": 354,
      "Name": "NPC",
      "GroupGUID": "a32a63e7-5819-4fef-9ca0-5dbeffda713e",
      "GroupPath": "Config/LevelOutput/Group/Groups_P10301_F10301001/LevelGroup_P10301_F10301001_G354.json"
    },
    {
      "ID": 352,
      "Name": "MainMission8020108_1",
      "GroupGUID": "a55ebcc5-3e2e-40ef-9efe-5e39ad977b3f",
      "GroupPath": "Config/LevelOutput/Group/Groups_P10301_F10301001/LevelGroup_P10301_F10301001_G352.json"
    },
    {
      "ID": 355,
      "Name": "MainMission2030101_02",
      "GroupGUID": "b4ccda14-6e5f-4b42-8414-5d234309c31c",
      "GroupPath": "Config/LevelOutput/Group/Groups_P10301_F10301001/LevelGroup_P10301_F10301001_G355.json"
    },
    {
      "ID": 356,
      "Name": "MainMission8020301_ActivityTelevision ",
      "GroupGUID": "d08b0417-1939-4f3a-b523-08249ebcdcd7",
      "GroupPath": "Config/LevelOutput/Group/Groups_P10301_F10301001/LevelGroup_P10301_F10301001_G356.json"
    },
    {
      "ID": 357,
      "Name": "MainMission8020303_ActivityTelevision ",
      "GroupGUID": "083c2e65-dd9c-4e9f-b683-a8274382b50d",
      "GroupPath": "Config/LevelOutput/Group/Groups_P10301_F10301001/LevelGroup_P10301_F10301001_G357.json"
    },
    {
      "ID": 358,
      "Name": "MainMission4340106_01",
      "GroupGUID": "a2986590-7ae1-4e3d-9267-c6ba5f05bc19",
      "GroupPath": "Config/LevelOutput/Group/Groups_P10301_F10301001/LevelGroup_P10301_F10301001_G358.json"
    },
    {
      "ID": 359,
      "Name": "MainMission4340106_02",
      "GroupGUID": "239d971a-3534-4e66-b001-4e438262e35e",
      "GroupPath": "Config/LevelOutput/Group/Groups_P10301_F10301001/LevelGroup_P10301_F10301001_G359.json"
    },
    {
      "ID": 360,
      "Name": "MainMission4340106_02",
      "GroupGUID": "9db4f53e-9977-48ff-b71e-9bc309660e39",
      "GroupPath": "Config/LevelOutput/Group/Groups_P10301_F10301001/LevelGroup_P10301_F10301001_G360.json"
    },
    {
      "ID": 361,
      "Name": "MainMission4340106_04",
      "GroupGUID": "078344a8-2679-421a-b151-8b5074492a17",
      "GroupPath": "Config/LevelOutput/Group/Groups_P10301_F10301001/LevelGroup_P10301_F10301001_G361.json"
    },
    {
      "ID": 362,
      "Name": "MainMission4340106_05",
      "GroupGUID": "8ecfc252-5906-427f-a1c5-77f096a6041e",
      "GroupPath": "Config/LevelOutput/Group/Groups_P10301_F10301001/LevelGroup_P10301_F10301001_G362.json"
    },
    {
      "ID": 363,
      "Name": "MainMission4240316_photo",
      "GroupGUID": "24f03992-a01c-4523-b811-6bf8be02883d",
      "GroupPath": "Config/LevelOutput/Group/Groups_P10301_F10301001/LevelGroup_P10301_F10301001_G363.json"
    },
    {
      "ID": 368,
      "Name": "MainMission8020301_Mission",
      "GroupGUID": "c75a47ea-9f5e-4622-9deb-289e1b95c894",
      "GroupPath": "Config/LevelOutput/Group/Groups_P10301_F10301001/LevelGroup_P10301_F10301001_G368.json"
    },
    {
      "ID": 369,
      "Name": "MainMission8020303_Mission",
      "GroupGUID": "d00f0c75-b1c2-416b-aa3f-b6287ecd35e5",
      "GroupPath": "Config/LevelOutput/Group/Groups_P10301_F10301001/LevelGroup_P10301_F10301001_G369.json"
    },
    {
      "ID": 371,
      "Name": "MapInfo",
      "GroupGUID": "4b50fa11-12b6-4740-a935-b8b3b2279f3a",
      "GroupPath": "Config/LevelOutput/Group/Groups_P10301_F10301001/LevelGroup_P10301_F10301001_G371.json"
    },
    {
      "ID": 364,
      "Name": "MainMission2030101_01",
      "GroupGUID": "ee9be969-4c58-46ff-82b9-6148e75b5743",
      "GroupPath": "Config/LevelOutput/Group/Groups_P10301_F10301001/LevelGroup_P10301_F10301001_G364.json"
    },
    {
      "ID": 365,
      "Name": "MainMission2030101_02",
      "GroupGUID": "9798c9e0-c7f0-4c80-85c9-fa340db9df7c",
      "GroupPath": "Config/LevelOutput/Group/Groups_P10301_F10301001/LevelGroup_P10301_F10301001_G365.json"
    },
    {
      "ID": 366,
      "Name": "MainMission2030101_03",
      "GroupGUID": "f64c6746-dbd4-476d-97a8-35a3453876c2",
      "GroupPath": "Config/LevelOutput/Group/Groups_P10301_F10301001/LevelGroup_P10301_F10301001_G366.json"
    },
    {
      "ID": 424,
      "Name": "MainMission2030101_04_00",
      "GroupGUID": "4b28955e-d538-4ca2-994b-807cb357782d",
      "GroupPath": "Config/LevelOutput/Group/Groups_P10301_F10301001/LevelGroup_P10301_F10301001_G424.json"
    },
    {
      "ID": 372,
      "Name": "MainMission2030101_04",
      "GroupGUID": "62e3c1d9-d7dd-4b8a-b0c2-dcb88ced5227",
      "GroupPath": "Config/LevelOutput/Group/Groups_P10301_F10301001/LevelGroup_P10301_F10301001_G372.json"
    },
    {
      "ID": 373,
      "Name": "MainMission2030101_05",
      "GroupGUID": "c601cd7b-0d09-42a6-a4c7-9207c1f4b1a3",
      "GroupPath": "Config/LevelOutput/Group/Groups_P10301_F10301001/LevelGroup_P10301_F10301001_G373.json"
    },
    {
      "ID": 384,
      "Name": "MainMission2030101_06",
      "GroupGUID": "22d57704-48f6-4093-8c95-aa0f79ca6c80",
      "GroupPath": "Config/LevelOutput/Group/Groups_P10301_F10301001/LevelGroup_P10301_F10301001_G384.json"
    },
    {
      "ID": 405,
      "Name": "MainMission2030101_07",
      "GroupGUID": "5aefa2e9-7b6c-4f69-999a-b585be9e9d58",
      "GroupPath": "Config/LevelOutput/Group/Groups_P10301_F10301001/LevelGroup_P10301_F10301001_G405.json"
    },
    {
      "ID": 407,
      "Name": "MainMission2030101_08",
      "GroupGUID": "8eea29a5-3389-4371-8a8c-8965f549ee15",
      "GroupPath": "Config/LevelOutput/Group/Groups_P10301_F10301001/LevelGroup_P10301_F10301001_G407.json"
    },
    {
      "ID": 421,
      "Name": "MainMission2030101_09",
      "GroupGUID": "b7f9cd55-a738-4432-8713-055db06743c0",
      "GroupPath": "Config/LevelOutput/Group/Groups_P10301_F10301001/LevelGroup_P10301_F10301001_G421.json"
    },
    {
      "ID": 374,
      "Name": "MainMission4340107_New Group",
      "GroupGUID": "bf93ecbd-fcdf-436d-bacc-40edfa089da2",
      "GroupPath": "Config/LevelOutput/Group/Groups_P10301_F10301001/LevelGroup_P10301_F10301001_G374.json"
    },
    {
      "ID": 375,
      "Name": "MainMission4340108_01",
      "GroupGUID": "5a12a42f-4eba-4e37-b759-fea228f4b245",
      "GroupPath": "Config/LevelOutput/Group/Groups_P10301_F10301001/LevelGroup_P10301_F10301001_G375.json"
    },
    {
      "ID": 376,
      "Name": "MainMission4340108_02_1",
      "GroupGUID": "e75a2565-099a-4204-a1a4-ba4e6eb2c8c9",
      "GroupPath": "Config/LevelOutput/Group/Groups_P10301_F10301001/LevelGroup_P10301_F10301001_G376.json"
    },
    {
      "ID": 377,
      "Name": "MainMission4340108_02_2",
      "GroupGUID": "53cd4088-2aa3-4c1a-b461-7608bf44ba5b",
      "GroupPath": "Config/LevelOutput/Group/Groups_P10301_F10301001/LevelGroup_P10301_F10301001_G377.json"
    },
    {
      "ID": 378,
      "Name": "MainMission4340108_02_3",
      "GroupGUID": "25e3435f-c18c-493b-9afd-1fb0d92a2c3b",
      "GroupPath": "Config/LevelOutput/Group/Groups_P10301_F10301001/LevelGroup_P10301_F10301001_G378.json"
    },
    {
      "ID": 379,
      "Name": "MainMission4340108_03_1",
      "GroupGUID": "251b6446-5f62-4b3f-98d8-a72ef89b4378",
      "GroupPath": "Config/LevelOutput/Group/Groups_P10301_F10301001/LevelGroup_P10301_F10301001_G379.json"
    },
    {
      "ID": 380,
      "Name": "MainMission4340108_03_2",
      "GroupGUID": "2dd847d9-3773-42a0-be17-f337fab81d50",
      "GroupPath": "Config/LevelOutput/Group/Groups_P10301_F10301001/LevelGroup_P10301_F10301001_G380.json"
    },
    {
      "ID": 381,
      "Name": "MainMission4340108_03_3",
      "GroupGUID": "a955d510-c0d7-40df-9f6c-9ea8fc8cc708",
      "GroupPath": "Config/LevelOutput/Group/Groups_P10301_F10301001/LevelGroup_P10301_F10301001_G381.json"
    },
    {
      "ID": 383,
      "Name": "MainMission1032301_05",
      "GroupGUID": "efd43909-2690-42a9-805e-2756576b440c",
      "GroupPath": "Config/LevelOutput/Group/Groups_P10301_F10301001/LevelGroup_P10301_F10301001_G383.json"
    },
    {
      "ID": 385,
      "Name": "MainMission4340108_02",
      "GroupGUID": "8fdcb99a-5f9b-4e9c-9b56-1c1bb7927116",
      "GroupPath": "Config/LevelOutput/Group/Groups_P10301_F10301001/LevelGroup_P10301_F10301001_G385.json"
    },
    {
      "ID": 386,
      "Name": "Tpl_MainMission4340156_01",
      "GroupGUID": "9b504da3-3c5a-4c12-9445-680f949cf42a",
      "GroupPath": "Config/LevelOutput/Group/Groups_P10301_F10301001/LevelGroup_P10301_F10301001_G386.json"
    },
    {
      "ID": 388,
      "Name": "MainMission4240313_01",
      "GroupGUID": "b2542b31-0d9a-45df-ae0e-e336a4a353f9",
      "GroupPath": "Config/LevelOutput/Group/Groups_P10301_F10301001/LevelGroup_P10301_F10301001_G388.json"
    },
    {
      "ID": 387,
      "Name": "MainMission8020220_01",
      "GroupGUID": "5b632889-8dbd-4d10-b1bc-b17cc4517b1c",
      "GroupPath": "Config/LevelOutput/Group/Groups_P10301_F10301001/LevelGroup_P10301_F10301001_G387.json"
    },
    {
      "ID": 389,
      "Name": "MainMission4240313_02",
      "GroupGUID": "0ac582c4-af8a-4571-91ff-de0014bdf427",
      "GroupPath": "Config/LevelOutput/Group/Groups_P10301_F10301001/LevelGroup_P10301_F10301001_G389.json"
    },
    {
      "ID": 390,
      "Name": "MainMission4240313_03",
      "GroupGUID": "d7301f4b-9962-45f8-90b4-d4ef56294a86",
      "GroupPath": "Config/LevelOutput/Group/Groups_P10301_F10301001/LevelGroup_P10301_F10301001_G390.json"
    },
    {
      "ID": 391,
      "Name": "New Group",
      "GroupGUID": "5e75b781-523b-4db5-9b8d-d967eab5c163",
      "GroupPath": "Config/LevelOutput/Group/Groups_P10301_F10301001/LevelGroup_P10301_F10301001_G391.json"
    },
    {
      "ID": 392,
      "Name": "New Group",
      "GroupGUID": "31d32cc8-9bee-434c-b916-2f56adba9412",
      "GroupPath": "Config/LevelOutput/Group/Groups_P10301_F10301001/LevelGroup_P10301_F10301001_G392.json"
    },
    {
      "ID": 393,
      "Name": "MainMission1032601_14",
      "GroupGUID": "34ecff81-2184-4a6e-b6df-9fab6136fd93",
      "GroupPath": "Config/LevelOutput/Group/Groups_P10301_F10301001/LevelGroup_P10301_F10301001_G393.json"
    },
    {
      "ID": 394,
      "Name": "MainMission1032601_16",
      "GroupGUID": "f2b0d2e1-210a-4e90-96f7-5e69622c3177",
      "GroupPath": "Config/LevelOutput/Group/Groups_P10301_F10301001/LevelGroup_P10301_F10301001_G394.json"
    },
    {
      "ID": 395,
      "Name": "MainMission1032601_18",
      "GroupGUID": "28a0d70a-afdb-43c7-a5fe-4d2ec0bac33b",
      "GroupPath": "Config/LevelOutput/Group/Groups_P10301_F10301001/LevelGroup_P10301_F10301001_G395.json"
    },
    {
      "ID": 398,
      "Name": "Sound-Vocal",
      "GroupGUID": "fbbfe5eb-cdf4-4e5f-aa9c-fa8d4994a30e",
      "GroupPath": "Config/LevelOutput/Group/Groups_P10301_F10301001/LevelGroup_P10301_F10301001_G398.json"
    },
    {
      "ID": 400,
      "Name": "NPC",
      "GroupGUID": "645f6b66-b862-405c-b31c-58d3278070d2",
      "GroupPath": "Config/LevelOutput/Group/Groups_P10301_F10301001/LevelGroup_P10301_F10301001_G400.json"
    },
    {
      "ID": 399,
      "Name": "New Group",
      "GroupGUID": "b0ce254f-b597-4e23-97cd-1f7e3b25a96f",
      "GroupPath": "Config/LevelOutput/Group/Groups_P10301_F10301001/LevelGroup_P10301_F10301001_G399.json"
    },
    {
      "ID": 401,
      "Name": "Book",
      "GroupGUID": "4ef9919d-c23d-4e9e-bc61-33876fc2a82e",
      "GroupPath": "Config/LevelOutput/Group/Groups_P10301_F10301001/LevelGroup_P10301_F10301001_G401.json"
    },
    {
      "ID": 402,
      "Name": "NPC",
      "GroupGUID": "0980b562-5cd0-4323-8086-cb8dcb5b2efc",
      "GroupPath": "Config/LevelOutput/Group/Groups_P10301_F10301001/LevelGroup_P10301_F10301001_G402.json"
    },
    {
      "ID": 403,
      "Name": "NPC",
      "GroupGUID": "d4ec3cfa-748e-4d99-b687-6eb385510f16",
      "GroupPath": "Config/LevelOutput/Group/Groups_P10301_F10301001/LevelGroup_P10301_F10301001_G403.json"
    },
    {
      "ID": 404,
      "Name": "Park",
      "GroupGUID": "a92c1148-cc7f-434d-815d-a0c1fd0d2ac2",
      "GroupPath": "Config/LevelOutput/Group/Groups_P10301_F10301001/LevelGroup_P10301_F10301001_G404.json"
    },
    {
      "ID": 415,
      "Name": "MainMission4240309_New Group",
      "GroupGUID": "593e3db2-11f9-43ec-863e-8646a7e7327c",
      "GroupPath": "Config/LevelOutput/Group/Groups_P10301_F10301001/LevelGroup_P10301_F10301001_G415.json"
    },
    {
      "ID": 417,
      "Name": "JigsawPuzzle_P1_Interactive_01_LoveDoll",
      "GroupGUID": "59932c20-117b-48ed-a030-982531ee6516",
      "GroupPath": "Config/LevelOutput/Group/Groups_P10301_F10301001/LevelGroup_P10301_F10301001_G417.json"
    },
    {
      "ID": 418,
      "Name": "MainMission4240312_Laluosi",
      "GroupGUID": "a218ca60-3ffa-4449-992c-fe45e03732f6",
      "GroupPath": "Config/LevelOutput/Group/Groups_P10301_F10301001/LevelGroup_P10301_F10301001_G418.json"
    },
    {
      "ID": 419,
      "Name": "MainMission1030301_RL",
      "GroupGUID": "550fe3e9-6948-45ca-8a09-c0169c13a0dd",
      "GroupPath": "Config/LevelOutput/Group/Groups_P10301_F10301001/LevelGroup_P10301_F10301001_G419.json"
    },
    {
      "ID": 420,
      "Name": "Sound-Reverb",
      "GroupGUID": "639330cd-ba07-4385-a518-3232ee3682a6",
      "GroupPath": "Config/LevelOutput/Group/Groups_P10301_F10301001/LevelGroup_P10301_F10301001_G420.json"
    },
    {
      "ID": 422,
      "Name": "MainMission4240310_NPC",
      "GroupGUID": "138c92cf-283a-4715-8d63-7aeda3711081",
      "GroupPath": "Config/LevelOutput/Group/Groups_P10301_F10301001/LevelGroup_P10301_F10301001_G422.json"
    },
    {
      "ID": 423,
      "Name": "MainMission4240310_NPC",
      "GroupGUID": "9ebcb4f6-ce13-4507-bbe2-f5bef759fa23",
      "GroupPath": "Config/LevelOutput/Group/Groups_P10301_F10301001/LevelGroup_P10301_F10301001_G423.json"
    },
    {
      "ID": 425,
      "Name": "MainMission4240310_New Group",
      "GroupGUID": "d635db65-c276-4b5e-9312-749b54767de3",
      "GroupPath": "Config/LevelOutput/Group/Groups_P10301_F10301001/LevelGroup_P10301_F10301001_G425.json"
    },
    {
      "ID": 426,
      "Name": "MainMission4040303_Per",
      "GroupGUID": "3bb33d2e-47f3-4066-a9b9-dac44223fd03",
      "GroupPath": "Config/LevelOutput/Group/Groups_P10301_F10301001/LevelGroup_P10301_F10301001_G426.json"
    },
    {
      "ID": 427,
      "Name": "New Group",
      "GroupGUID": "1355b3ec-7ecc-49d6-996b-d4bce80d33a1",
      "GroupPath": "Config/LevelOutput/Group/Groups_P10301_F10301001/LevelGroup_P10301_F10301001_G427.json"
    },
    {
      "ID": 428,
      "Name": "New Group",
      "GroupGUID": "b8d34a00-07fa-442a-b154-6abf600d7654",
      "GroupPath": "Config/LevelOutput/Group/Groups_P10301_F10301001/LevelGroup_P10301_F10301001_G428.json"
    },
    {
      "ID": 429,
      "Name": "New Group",
      "GroupGUID": "f67104f9-a890-4837-b448-5a4fbf83be12",
      "GroupPath": "Config/LevelOutput/Group/Groups_P10301_F10301001/LevelGroup_P10301_F10301001_G429.json"
    },
    {
      "ID": 430,
      "Name": "New Group",
      "GroupGUID": "a6eb9bf2-cb8f-4e80-991c-08a9c26c978e",
      "GroupPath": "Config/LevelOutput/Group/Groups_P10301_F10301001/LevelGroup_P10301_F10301001_G430.json"
    },
    {
      "ID": 431,
      "Name": "New Group",
      "GroupGUID": "693a6aac-942a-4d24-a929-48985a29e534",
      "GroupPath": "Config/LevelOutput/Group/Groups_P10301_F10301001/LevelGroup_P10301_F10301001_G431.json"
    },
    {
      "ID": 432,
      "Name": "New Group",
      "GroupGUID": "c73c94e9-37aa-4a79-9700-4a4143f8d8de",
      "GroupPath": "Config/LevelOutput/Group/Groups_P10301_F10301001/LevelGroup_P10301_F10301001_G432.json"
    },
    {
      "ID": 433,
      "Name": "New Group",
      "GroupGUID": "7c1684cb-b360-40e6-8d91-75da7b1d31b4",
      "GroupPath": "Config/LevelOutput/Group/Groups_P10301_F10301001/LevelGroup_P10301_F10301001_G433.json"
    },
    {
      "ID": 434,
      "Name": "New Group",
      "GroupGUID": "6b7cc34e-dd30-4904-af93-a64546320e52",
      "GroupPath": "Config/LevelOutput/Group/Groups_P10301_F10301001/LevelGroup_P10301_F10301001_G434.json"
    },
    {
      "ID": 435,
      "Name": "New Group",
      "GroupGUID": "804c32d7-1d44-464f-9dc6-6c4d53098a5f",
      "GroupPath": "Config/LevelOutput/Group/Groups_P10301_F10301001/LevelGroup_P10301_F10301001_G435.json"
    },
    {
      "ID": 436,
      "Name": "New Group",
      "GroupGUID": "67323669-f29c-4edd-8754-360966ea5b2a",
      "GroupPath": "Config/LevelOutput/Group/Groups_P10301_F10301001/LevelGroup_P10301_F10301001_G436.json"
    },
    {
      "ID": 437,
      "Name": "New Group",
      "GroupGUID": "ed5c42c9-26c5-44db-a828-161358367667",
      "GroupPath": "Config/LevelOutput/Group/Groups_P10301_F10301001/LevelGroup_P10301_F10301001_G437.json"
    },
    {
      "ID": 438,
      "Name": "New Group",
      "GroupGUID": "f7f3b82f-a839-426f-99ae-3af81aee7850",
      "GroupPath": "Config/LevelOutput/Group/Groups_P10301_F10301001/LevelGroup_P10301_F10301001_G438.json"
    },
    {
      "ID": 439,
      "Name": "New Group",
      "GroupGUID": "dbcdb0d7-f6a2-40a9-b3a9-e61dc12e46d3",
      "GroupPath": "Config/LevelOutput/Group/Groups_P10301_F10301001/LevelGroup_P10301_F10301001_G439.json"
    },
    {
      "ID": 440,
      "Name": "New Group",
      "GroupGUID": "2ca2afcb-53ed-49ce-be38-89a705692ca7",
      "GroupPath": "Config/LevelOutput/Group/Groups_P10301_F10301001/LevelGroup_P10301_F10301001_G440.json"
    },
    {
      "ID": 441,
      "Name": "New Group",
      "GroupGUID": "b4c92377-7c80-4e9d-85a0-900421592800",
      "GroupPath": "Config/LevelOutput/Group/Groups_P10301_F10301001/LevelGroup_P10301_F10301001_G441.json"
    },
    {
      "ID": 442,
      "Name": "New Group",
      "GroupGUID": "c73825e6-c31a-473d-9aeb-c2f498355e63",
      "GroupPath": "Config/LevelOutput/Group/Groups_P10301_F10301001/LevelGroup_P10301_F10301001_G442.json"
    },
    {
      "ID": 443,
      "Name": "New Group",
      "GroupGUID": "1c11e1c1-0931-4ad4-ac64-2877516ac14e",
      "GroupPath": "Config/LevelOutput/Group/Groups_P10301_F10301001/LevelGroup_P10301_F10301001_G443.json"
    },
    {
      "ID": 444,
      "Name": "New Group",
      "GroupGUID": "6894d09c-d241-4428-922c-f127b5f26d10",
      "GroupPath": "Config/LevelOutput/Group/Groups_P10301_F10301001/LevelGroup_P10301_F10301001_G444.json"
    },
    {
      "ID": 445,
      "Name": "New Group",
      "GroupGUID": "151a22bd-e958-4a44-9e1d-394e81d09479",
      "GroupPath": "Config/LevelOutput/Group/Groups_P10301_F10301001/LevelGroup_P10301_F10301001_G445.json"
    },
    {
      "ID": 446,
      "Name": "New Group",
      "GroupGUID": "96ba1b32-3500-42ca-90c5-eaaa63b048c8",
      "GroupPath": "Config/LevelOutput/Group/Groups_P10301_F10301001/LevelGroup_P10301_F10301001_G446.json"
    },
    {
      "ID": 447,
      "Name": "New Group",
      "GroupGUID": "496ab9f6-767b-4904-a239-dc0ced4c0edc",
      "GroupPath": "Config/LevelOutput/Group/Groups_P10301_F10301001/LevelGroup_P10301_F10301001_G447.json"
    },
    {
      "ID": 448,
      "Name": "New Group",
      "GroupGUID": "a17d2571-1fea-4ffa-b17b-b7b246603de0",
      "GroupPath": "Config/LevelOutput/Group/Groups_P10301_F10301001/LevelGroup_P10301_F10301001_G448.json"
    },
    {
      "ID": 449,
      "Name": "New Group",
      "GroupGUID": "9656636c-3aad-4a4f-92a7-2bb0faf818c1",
      "GroupPath": "Config/LevelOutput/Group/Groups_P10301_F10301001/LevelGroup_P10301_F10301001_G449.json"
    },
    {
      "ID": 450,
      "Name": "New Group",
      "GroupGUID": "0e98a8af-8246-480d-9da3-bc1009774a40",
      "GroupPath": "Config/LevelOutput/Group/Groups_P10301_F10301001/LevelGroup_P10301_F10301001_G450.json"
    },
    {
      "ID": 451,
      "Name": "New Group",
      "GroupGUID": "dd514dca-fb50-4cd5-a035-0880e9775b2a",
      "GroupPath": "Config/LevelOutput/Group/Groups_P10301_F10301001/LevelGroup_P10301_F10301001_G451.json"
    },
    {
      "ID": 452,
      "Name": "New Group",
      "GroupGUID": "40308725-8640-4b6c-a756-bfa614abf2e3",
      "GroupPath": "Config/LevelOutput/Group/Groups_P10301_F10301001/LevelGroup_P10301_F10301001_G452.json"
    },
    {
      "ID": 453,
      "Name": "New Group",
      "GroupGUID": "76227d56-aa62-4bc6-863e-d75c9316d778",
      "GroupPath": "Config/LevelOutput/Group/Groups_P10301_F10301001/LevelGroup_P10301_F10301001_G453.json"
    },
    {
      "ID": 454,
      "Name": "New Group",
      "GroupGUID": "20e6ade9-6731-436a-8df5-433e78749ae6",
      "GroupPath": "Config/LevelOutput/Group/Groups_P10301_F10301001/LevelGroup_P10301_F10301001_G454.json"
    },
    {
      "ID": 455,
      "Name": "New Group",
      "GroupGUID": "869becd5-bb35-47f6-a796-bfd0de095dfb",
      "GroupPath": "Config/LevelOutput/Group/Groups_P10301_F10301001/LevelGroup_P10301_F10301001_G455.json"
    },
    {
      "ID": 456,
      "Name": "MainMission1030501_52",
      "GroupGUID": "9ca23b69-4a08-4a4a-9b40-b72ac96fc7f2",
      "GroupPath": "Config/LevelOutput/Group/Groups_P10301_F10301001/LevelGroup_P10301_F10301001_G456.json"
    },
    {
      "ID": 457,
      "Name": "MainMission1032601_08",
      "GroupGUID": "bae8e4fc-7d44-4c59-8c24-a095a03137c3",
      "GroupPath": "Config/LevelOutput/Group/Groups_P10301_F10301001/LevelGroup_P10301_F10301001_G457.json"
    },
    {
      "ID": 459,
      "Name": "MainMission1032601_10",
      "GroupGUID": "e8ea79e2-f446-479d-b149-b9cbc6c65dd2",
      "GroupPath": "Config/LevelOutput/Group/Groups_P10301_F10301001/LevelGroup_P10301_F10301001_G459.json"
    },
    {
      "ID": 460,
      "Name": "MainMission1032601_12",
      "GroupGUID": "fd4d952d-4c4d-4bf5-b942-6418e6f2518b",
      "GroupPath": "Config/LevelOutput/Group/Groups_P10301_F10301001/LevelGroup_P10301_F10301001_G460.json"
    },
    {
      "ID": 461,
      "Name": "MainMission1032601_19",
      "GroupGUID": "ad29957e-c668-453f-bf29-d632f116a384",
      "GroupPath": "Config/LevelOutput/Group/Groups_P10301_F10301001/LevelGroup_P10301_F10301001_G461.json"
    },
    {
      "ID": 462,
      "Name": "MainMission1032601_02",
      "GroupGUID": "5926b8b1-c2f3-49da-8029-46d9e6011124",
      "GroupPath": "Config/LevelOutput/Group/Groups_P10301_F10301001/LevelGroup_P10301_F10301001_G462.json"
    },
    {
      "ID": 463,
      "Name": "Book",
      "GroupGUID": "7b7c5e5a-8b2e-4940-9a4d-5d2ab804a590",
      "GroupPath": "Config/LevelOutput/Group/Groups_P10301_F10301001/LevelGroup_P10301_F10301001_G463.json"
    },
    {
      "ID": 464,
      "Name": "Book",
      "GroupGUID": "fa98acf5-6b6e-4120-9a92-1c896d0b453d",
      "GroupPath": "Config/LevelOutput/Group/Groups_P10301_F10301001/LevelGroup_P10301_F10301001_G464.json"
    },
    {
      "ID": 465,
      "Name": "Book",
      "GroupGUID": "7a7532dd-db95-4f0b-a999-e43bb705face",
      "GroupPath": "Config/LevelOutput/Group/Groups_P10301_F10301001/LevelGroup_P10301_F10301001_G465.json"
    },
    {
      "ID": 466,
      "Name": "MainMission4240310_New Group",
      "GroupGUID": "ab58f614-300d-4ca2-b6eb-ac1728788de3",
      "GroupPath": "Config/LevelOutput/Group/Groups_P10301_F10301001/LevelGroup_P10301_F10301001_G466.json"
    },
    {
      "ID": 467,
      "Name": "MainMission4040328_NPCEx",
      "GroupGUID": "e895b26b-f86d-43dd-9db4-c272a9fe5a7e",
      "GroupPath": "Config/LevelOutput/Group/Groups_P10301_F10301001/LevelGroup_P10301_F10301001_G467.json"
    },
    {
      "ID": 469,
      "Name": "MainMission1032302_New Group",
      "GroupGUID": "66fdf751-8b47-4bda-98d7-6f1550f1c972",
      "GroupPath": "Config/LevelOutput/Group/Groups_P10301_F10301001/LevelGroup_P10301_F10301001_G469.json"
    },
    {
      "ID": 470,
      "Name": "MainMission8021102_10",
      "GroupGUID": "940aa12e-b9ae-4472-af2e-104e976719b9",
      "GroupPath": "Config/LevelOutput/Group/Groups_P10301_F10301001/LevelGroup_P10301_F10301001_G470.json"
    },
    {
      "ID": 471,
      "Name": "MainMission4240302_New Group",
      "GroupGUID": "27ab8a79-dd8a-4f72-8ef6-f03d79dd4ad2",
      "GroupPath": "Config/LevelOutput/Group/Groups_P10301_F10301001/LevelGroup_P10301_F10301001_G471.json"
    },
    {
      "ID": 476,
      "Name": "WolfGroup_Collider",
      "GroupGUID": "c58ec3b7-0bbc-46bf-9b74-b649afac587e",
      "GroupPath": "Config/LevelOutput/Group/Groups_P10301_F10301001/LevelGroup_P10301_F10301001_G476.json"
    },
    {
      "ID": 477,
      "Name": "MainMission8022202_ActivityEvolveBuild",
      "GroupGUID": "dd63037b-18b6-48c5-b54b-ea13e5ea2973",
      "GroupPath": "Config/LevelOutput/Group/Groups_P10301_F10301001/LevelGroup_P10301_F10301001_G477.json"
    },
    {
      "ID": 478,
      "Name": "MainMission4240308_New Group",
      "GroupGUID": "66223e8a-7f31-42c5-98df-b48ac33fb2db",
      "GroupPath": "Config/LevelOutput/Group/Groups_P10301_F10301001/LevelGroup_P10301_F10301001_G478.json"
    },
    {
      "ID": 479,
      "Name": "Book",
      "GroupGUID": "e3f259ec-5ed0-4d9d-836f-588399ffeae0",
      "GroupPath": "Config/LevelOutput/Group/Groups_P10301_F10301001/LevelGroup_P10301_F10301001_G479.json"
    },
    {
      "ID": 481,
      "Name": "Book",
      "GroupGUID": "ac68c218-527b-436e-85cc-cf33b59cdbd4",
      "GroupPath": "Config/LevelOutput/Group/Groups_P10301_F10301001/LevelGroup_P10301_F10301001_G481.json"
    },
    {
      "ID": 482,
      "Name": "Book",
      "GroupGUID": "61047bf9-d69f-4493-8c4e-f483a10fd55f",
      "GroupPath": "Config/LevelOutput/Group/Groups_P10301_F10301001/LevelGroup_P10301_F10301001_G482.json"
    },
    {
      "ID": 483,
      "Name": "MainMission1032601_01",
      "GroupGUID": "30857243-6645-41ba-8bad-1f0b1581a186",
      "GroupPath": "Config/LevelOutput/Group/Groups_P10301_F10301001/LevelGroup_P10301_F10301001_G483.json"
    },
    {
      "ID": 484,
      "Name": "MainMission1032601_02",
      "GroupGUID": "0036f336-0d3b-42f6-988a-bf8a45e6a2bf",
      "GroupPath": "Config/LevelOutput/Group/Groups_P10301_F10301001/LevelGroup_P10301_F10301001_G484.json"
    },
    {
      "ID": 485,
      "Name": "MainMission1032601_09",
      "GroupGUID": "22917c65-ef5b-41e6-bec1-8132a62c23be",
      "GroupPath": "Config/LevelOutput/Group/Groups_P10301_F10301001/LevelGroup_P10301_F10301001_G485.json"
    },
    {
      "ID": 486,
      "Name": "MainMission1032705_04",
      "GroupGUID": "70a2acb0-b50f-4a83-8919-e07d686fdfda",
      "GroupPath": "Config/LevelOutput/Group/Groups_P10301_F10301001/LevelGroup_P10301_F10301001_G486.json"
    },
    {
      "ID": 487,
      "Name": "MainMission8022202_01",
      "GroupGUID": "c9840266-edd5-4e4a-b328-435a5a18d751",
      "GroupPath": "Config/LevelOutput/Group/Groups_P10301_F10301001/LevelGroup_P10301_F10301001_G487.json"
    },
    {
      "ID": 488,
      "Name": "MainMission8022202_02",
      "GroupGUID": "14d5ab8d-7eb4-4e80-89a9-eba1e5d713c6",
      "GroupPath": "Config/LevelOutput/Group/Groups_P10301_F10301001/LevelGroup_P10301_F10301001_G488.json"
    },
    {
      "ID": 489,
      "Name": "MainMission8022202_03",
      "GroupGUID": "524f32e6-f5aa-4f9f-b963-648a2177094a",
      "GroupPath": "Config/LevelOutput/Group/Groups_P10301_F10301001/LevelGroup_P10301_F10301001_G489.json"
    },
    {
      "ID": 480,
      "IsDelete": true,
      "Name": "New Group",
      "GroupGUID": "6d397567-0929-4a97-bf01-1052b74ac4e6",
      "GroupPath": "Config/LevelOutput/Group/Groups_P10301_F10301001/LevelGroup_P10301_F10301001_G480.json"
    },
    {
      "ID": 490,
      "Name": "MainMission4240322_3",
      "GroupGUID": "55c599c9-7c60-4219-87b4-99f55ce2c04c",
      "GroupPath": "Config/LevelOutput/Group/Groups_P10301_F10301001/LevelGroup_P10301_F10301001_G490.json"
    },
    {
      "ID": 493,
      "Name": "MainMission8021106_04",
      "GroupGUID": "6ea889e5-92b6-492a-9d40-976cd47bc528",
      "GroupPath": "Config/LevelOutput/Group/Groups_P10301_F10301001/LevelGroup_P10301_F10301001_G493.json"
    },
    {
      "ID": 495,
      "Name": "MainMission8021106_05",
      "GroupGUID": "02761250-2390-4444-a9a9-b9c93204dce6",
      "GroupPath": "Config/LevelOutput/Group/Groups_P10301_F10301001/LevelGroup_P10301_F10301001_G495.json"
    },
    {
      "ID": 498,
      "Name": "MainMission8021106_06",
      "GroupGUID": "d9ed403f-59f6-48fa-b95e-c9158e43a836",
      "GroupPath": "Config/LevelOutput/Group/Groups_P10301_F10301001/LevelGroup_P10301_F10301001_G498.json"
    },
    {
      "ID": 499,
      "Name": "MainMission8021106_07",
      "GroupGUID": "4e02cf10-09fb-4dfc-8abd-89fba48a7efe",
      "GroupPath": "Config/LevelOutput/Group/Groups_P10301_F10301001/LevelGroup_P10301_F10301001_G499.json"
    },
    {
      "ID": 500,
      "Name": "MainMission1031002_1",
      "GroupGUID": "963ef37c-2586-425c-b0ad-0cf1ce82d4dd",
      "GroupPath": "Config/LevelOutput/Group/Groups_P10301_F10301001/LevelGroup_P10301_F10301001_G500.json"
    },
    {
      "ID": 501,
      "Name": "MainMission1031002_2",
      "GroupGUID": "0320b83c-15bb-43c1-bba4-e9e3b25cfd24",
      "GroupPath": "Config/LevelOutput/Group/Groups_P10301_F10301001/LevelGroup_P10301_F10301001_G501.json"
    },
    {
      "ID": 502,
      "Name": "MainMission1031002_3",
      "GroupGUID": "e5e8b6fd-4e54-417d-845c-55ae418409c9",
      "GroupPath": "Config/LevelOutput/Group/Groups_P10301_F10301001/LevelGroup_P10301_F10301001_G502.json"
    },
    {
      "ID": 503,
      "Name": "MainMission1031002_4",
      "GroupGUID": "96515a9e-f979-485d-9d27-5ef5c8bb6772",
      "GroupPath": "Config/LevelOutput/Group/Groups_P10301_F10301001/LevelGroup_P10301_F10301001_G503.json"
    },
    {
      "ID": 504,
      "Name": "MainMission2021801_03",
      "GroupGUID": "2aac7b26-8834-41fd-9015-d3fc81de8d23",
      "GroupPath": "Config/LevelOutput/Group/Groups_P10301_F10301001/LevelGroup_P10301_F10301001_G504.json"
    },
    {
      "ID": 505,
      "Name": "Book",
      "GroupGUID": "0ab9378f-b0de-48fd-b5a8-6434a4ad1a24",
      "GroupPath": "Config/LevelOutput/Group/Groups_P10301_F10301001/LevelGroup_P10301_F10301001_G505.json"
    },
    {
      "ID": 506,
      "Name": "NPC_SJ",
      "GroupGUID": "816400d6-fe13-4db4-b249-6f2e273ececb",
      "GroupPath": "Config/LevelOutput/Group/Groups_P10301_F10301001/LevelGroup_P10301_F10301001_G506.json"
    },
    {
      "ID": 507,
      "Name": "MainMission1031801_StartPerformance",
      "GroupGUID": "b4ef50a9-633d-4abc-90bc-c0deeb22123e",
      "GroupPath": "Config/LevelOutput/Group/Groups_P10301_F10301001/LevelGroup_P10301_F10301001_G507.json"
    },
    {
      "ID": 508,
      "Name": "tvscreen3",
      "GroupGUID": "d6e7ffc7-f490-483d-80ae-9f00851f38fe",
      "GroupPath": "Config/LevelOutput/Group/Groups_P10301_F10301001/LevelGroup_P10301_F10301001_G508.json"
    },
    {
      "ID": 509,
      "Name": "New Group",
      "GroupGUID": "cd7d0f42-ba00-4bc8-a80a-6e11a6135dea",
      "GroupPath": "Config/LevelOutput/Group/Groups_P10301_F10301001/LevelGroup_P10301_F10301001_G509.json"
    },
    {
      "ID": 511,
      "Name": "MainMission4340119_01",
      "GroupGUID": "216f3553-1070-49d4-bfb5-00b8befbb3be",
      "GroupPath": "Config/LevelOutput/Group/Groups_P10301_F10301001/LevelGroup_P10301_F10301001_G511.json"
    },
    {
      "ID": 512,
      "Name": "MainMission4340119_02",
      "GroupGUID": "a6646420-6754-4396-a309-648f4a18850b",
      "GroupPath": "Config/LevelOutput/Group/Groups_P10301_F10301001/LevelGroup_P10301_F10301001_G512.json"
    },
    {
      "ID": 513,
      "Name": "MainMission4340119_03",
      "GroupGUID": "c7e429a6-cd06-4172-bf85-95ffb53824fd",
      "GroupPath": "Config/LevelOutput/Group/Groups_P10301_F10301001/LevelGroup_P10301_F10301001_G513.json"
    },
    {
      "ID": 514,
      "Name": "MainMission4340119_04",
      "GroupGUID": "b8ad44da-d43b-468e-934b-650a101704a9",
      "GroupPath": "Config/LevelOutput/Group/Groups_P10301_F10301001/LevelGroup_P10301_F10301001_G514.json"
    },
    {
      "ID": 516,
      "Name": "RobinCrowd",
      "GroupGUID": "bd372184-ff50-4b7f-af76-060dae641ab5",
      "GroupPath": "Config/LevelOutput/Group/Groups_P10301_F10301001/LevelGroup_P10301_F10301001_G516.json"
    }
  ]
}