{
  "FloorID": 30500001,
  "FloorName": "MazeText_Empty",
  "StartGroupID": 21,
  "StartAnchorID": 1,
  "GroupList": [
    {
      "ID": 17,
      "Name": "MP",
      "GroupGUID": "6186ed27-662d-4eb5-9499-093a57d15c94",
      "GroupPath": "Config/LevelOutput/Group/Groups_P30500_F30500001/LevelGroup_P30500_F30500001_G17.json"
    },
    {
      "ID": 18,
      "Name": "Monster_1",
      "GroupGUID": "d553ec7e-c31b-4594-a4ae-41cf67ffc0ca",
      "GroupPath": "Config/LevelOutput/Group/Groups_P30500_F30500001/LevelGroup_P30500_F30500001_G18.json"
    },
    {
      "ID": 34,
      "Name": "ShowTutorialGuide",
      "GroupGUID": "fe9c9b50-ccae-4c50-8b5e-3832911f8dec",
      "GroupPath": "Config/LevelOutput/Group/Groups_P30500_F30500001/LevelGroup_P30500_F30500001_G34.json"
    },
    {
      "ID": 19,
      "Name": "Monster_2",
      "GroupGUID": "4a241c28-331d-4ec4-90be-fe94f403389d",
      "GroupPath": "Config/LevelOutput/Group/Groups_P30500_F30500001/LevelGroup_P30500_F30500001_G19.json"
    },
    {
      "ID": 36,
      "Name": "Monster_2",
      "GroupGUID": "2b20c1e1-eba5-47ef-95f4-73934511f630",
      "GroupPath": "Config/LevelOutput/Group/Groups_P30500_F30500001/LevelGroup_P30500_F30500001_G36.json"
    },
    {
      "ID": 20,
      "Name": "Monster_1",
      "GroupGUID": "c98d4916-e760-4239-be96-ad596a6d1885",
      "GroupPath": "Config/LevelOutput/Group/Groups_P30500_F30500001/LevelGroup_P30500_F30500001_G20.json"
    },
    {
      "ID": 21,
      "Name": "DefaultGroup",
      "GroupGUID": "d388193d-da3f-4438-89df-f27f055c65d0",
      "GroupPath": "Config/LevelOutput/Group/Groups_P30500_F30500001/LevelGroup_P30500_F30500001_G21.json"
    },
    {
      "ID": 22,
      "Name": "PinBall_1",
      "GroupGUID": "61bfae79-5d79-4b5d-b312-efdab6e92d5c",
      "GroupPath": "Config/LevelOutput/Group/Groups_P30500_F30500001/LevelGroup_P30500_F30500001_G22.json"
    },
    {
      "ID": 23,
      "Name": "PinBall_2",
      "GroupGUID": "ea32b6e2-26a3-42ca-b845-dc5fce5877bf",
      "GroupPath": "Config/LevelOutput/Group/Groups_P30500_F30500001/LevelGroup_P30500_F30500001_G23.json"
    },
    {
      "ID": 24,
      "Name": "PinBall_3",
      "GroupGUID": "089e41cf-5bd8-4799-82c2-43f5625191ea",
      "GroupPath": "Config/LevelOutput/Group/Groups_P30500_F30500001/LevelGroup_P30500_F30500001_G24.json"
    },
    {
      "ID": 25,
      "Name": "PinBall_4",
      "GroupGUID": "01e26b64-bfad-40e1-b13b-3816907abafc",
      "GroupPath": "Config/LevelOutput/Group/Groups_P30500_F30500001/LevelGroup_P30500_F30500001_G25.json"
    },
    {
      "ID": 26,
      "Name": "Door",
      "GroupGUID": "2c3aa6ce-cdea-45b1-a2d8-968f87718c4e",
      "GroupPath": "Config/LevelOutput/Group/Groups_P30500_F30500001/LevelGroup_P30500_F30500001_G26.json"
    },
    {
      "ID": 27,
      "Name": "Garden",
      "GroupGUID": "29f81a4b-712b-48b2-afc5-70adffe6c273",
      "GroupPath": "Config/LevelOutput/Group/Groups_P30500_F30500001/LevelGroup_P30500_F30500001_G27.json"
    },
    {
      "ID": 28,
      "Name": "Screen",
      "GroupGUID": "34399f13-4866-4adc-94db-6c7635fe42e9",
      "GroupPath": "Config/LevelOutput/Group/Groups_P30500_F30500001/LevelGroup_P30500_F30500001_G28.json"
    },
    {
      "ID": 29,
      "Name": "BAT_Prop",
      "GroupGUID": "a68b9d21-4f78-4436-85b9-91f650cb5c26",
      "GroupPath": "Config/LevelOutput/Group/Groups_P30500_F30500001/LevelGroup_P30500_F30500001_G29.json"
    },
    {
      "ID": 30,
      "Name": "Sound",
      "GroupGUID": "60e820f9-5dab-4c9c-8116-062a7fe8b08a",
      "GroupPath": "Config/LevelOutput/Group/Groups_P30500_F30500001/LevelGroup_P30500_F30500001_G30.json"
    },
    {
      "ID": 31,
      "Name": "BGM",
      "GroupGUID": "b6e159cc-930e-4f0c-a75b-625bef6d399a",
      "GroupPath": "Config/LevelOutput/Group/Groups_P30500_F30500001/LevelGroup_P30500_F30500001_G31.json"
    },
    {
      "ID": 32,
      "Name": "Sound-Reverb",
      "GroupGUID": "d88bc5fd-66b2-44c5-a97f-73fb5e6b5554",
      "GroupPath": "Config/LevelOutput/Group/Groups_P30500_F30500001/LevelGroup_P30500_F30500001_G32.json"
    },
    {
      "ID": 33,
      "Name": "Airwall",
      "GroupGUID": "6924348e-aedb-42f2-8a06-230eb04a15ba",
      "GroupPath": "Config/LevelOutput/Group/Groups_P30500_F30500001/LevelGroup_P30500_F30500001_G33.json"
    },
    {
      "ID": 35,
      "Name": "MonsterVision",
      "GroupGUID": "8db30693-824c-437b-97c6-3acf9b8ead69",
      "GroupPath": "Config/LevelOutput/Group/Groups_P30500_F30500001/LevelGroup_P30500_F30500001_G35.json"
    }
  ]
}