{
  "FloorID": 44001003,
  "FloorName": "FloorName_44001003",
  "StartGroupID": 1,
  "StartAnchorID": 1,
  "GroupList": [
    {
      "ID": 1,
      "Name": "DefaultGroup",
      "GroupGUID": "b4569bc9-78c7-4a0d-9497-a40a9e2de9f3",
      "GroupPath": "Config/LevelOutput/Group/Groups_P44001_F44001003/LevelGroup_P44001_F44001003_G1.json"
    },
    {
      "ID": 2,
      "Name": "DefaultGroup",
      "GroupGUID": "37ce402d-fc91-416f-a366-d9e23117f3a1",
      "GroupPath": "Config/LevelOutput/Group/Groups_P44001_F44001003/LevelGroup_P44001_F44001003_G2.json"
    },
    {
      "ID": 3,
      "Name": "MainMission4070013_New Group",
      "GroupGUID": "529dbcad-7ca8-4f4c-9362-eca1b25a746e",
      "GroupPath": "Config/LevelOutput/Group/Groups_P44001_F44001003/LevelGroup_P44001_F44001003_G3.json"
    },
    {
      "ID": 4,
      "Name": "Monster",
      "GroupGUID": "f4bb9bcd-100e-4179-aca6-88b35ff55e03",
      "GroupPath": "Config/LevelOutput/Group/Groups_P44001_F44001003/LevelGroup_P44001_F44001003_G4.json"
    },
    {
      "ID": 5,
      "Name": "MainMission4070013_New Group",
      "GroupGUID": "4f7cbbfa-70df-4ecd-bf1f-9d40bed2c78d",
      "GroupPath": "Config/LevelOutput/Group/Groups_P44001_F44001003/LevelGroup_P44001_F44001003_G5.json"
    },
    {
      "ID": 7,
      "Name": "MainMission4070013_New Group",
      "GroupGUID": "d36ca8e7-38e2-453b-96da-df12761df1fe",
      "GroupPath": "Config/LevelOutput/Group/Groups_P44001_F44001003/LevelGroup_P44001_F44001003_G7.json"
    },
    {
      "ID": 8,
      "Name": "MainMission4070013_New Group",
      "GroupGUID": "10b42bab-b094-4835-ad02-84c5a2cfd4a9",
      "GroupPath": "Config/LevelOutput/Group/Groups_P44001_F44001003/LevelGroup_P44001_F44001003_G8.json"
    },
    {
      "ID": 9,
      "Name": "MainMission4070013_New Group",
      "GroupGUID": "6aeed0f2-1d10-4424-8389-69aa7324811c",
      "GroupPath": "Config/LevelOutput/Group/Groups_P44001_F44001003/LevelGroup_P44001_F44001003_G9.json"
    },
    {
      "ID": 10,
      "Name": "MainMission4070013_New Group",
      "GroupGUID": "f1962684-6efe-4daa-8df1-257d5e925823",
      "GroupPath": "Config/LevelOutput/Group/Groups_P44001_F44001003/LevelGroup_P44001_F44001003_G10.json"
    },
    {
      "ID": 11,
      "Name": "Gate",
      "GroupGUID": "4eff5722-d7b9-44a1-9de5-e401b6d6d50a",
      "GroupPath": "Config/LevelOutput/Group/Groups_P44001_F44001003/LevelGroup_P44001_F44001003_G11.json"
    },
    {
      "ID": 12,
      "Name": "New Group",
      "GroupGUID": "dded1b39-50c0-4fe7-8796-733c38321ca6",
      "GroupPath": "Config/LevelOutput/Group/Groups_P44001_F44001003/LevelGroup_P44001_F44001003_G12.json"
    },
    {
      "ID": 22,
      "Name": "MainMission4070013_New Group",
      "GroupGUID": "88d53cd3-5fb9-40b4-aff9-43088ca90dc1",
      "GroupPath": "Config/LevelOutput/Group/Groups_P44001_F44001003/LevelGroup_P44001_F44001003_G22.json"
    },
    {
      "ID": 13,
      "Name": "MainMission4070013_New Group",
      "GroupGUID": "a2e34078-8c18-43ab-a8b1-a9f8b6735a57",
      "GroupPath": "Config/LevelOutput/Group/Groups_P44001_F44001003/LevelGroup_P44001_F44001003_G13.json"
    },
    {
      "ID": 14,
      "Name": "MainMission4070013_New Group",
      "GroupGUID": "57623888-5617-45e6-9502-36974a5b64a2",
      "GroupPath": "Config/LevelOutput/Group/Groups_P44001_F44001003/LevelGroup_P44001_F44001003_G14.json"
    },
    {
      "ID": 15,
      "Name": "MainMission4070013_New Group",
      "GroupGUID": "47b1c00d-0568-4f9f-9128-8e50f1176dde",
      "GroupPath": "Config/LevelOutput/Group/Groups_P44001_F44001003/LevelGroup_P44001_F44001003_G15.json"
    },
    {
      "ID": 16,
      "Name": "MainMission4070013_New Group",
      "GroupGUID": "b98d76a3-9c99-4db9-b763-d3ac03f4fd85",
      "GroupPath": "Config/LevelOutput/Group/Groups_P44001_F44001003/LevelGroup_P44001_F44001003_G16.json"
    },
    {
      "ID": 17,
      "Name": "MainMission4070013_New Group",
      "GroupGUID": "025c1a66-9e3c-420a-abf3-febbe8c7221e",
      "GroupPath": "Config/LevelOutput/Group/Groups_P44001_F44001003/LevelGroup_P44001_F44001003_G17.json"
    },
    {
      "ID": 18,
      "Name": "MainMission4070013_New Group",
      "GroupGUID": "1d1db2c7-4c1b-48b0-8875-6f37dbcb5b02",
      "GroupPath": "Config/LevelOutput/Group/Groups_P44001_F44001003/LevelGroup_P44001_F44001003_G18.json"
    },
    {
      "ID": 19,
      "Name": "MainMission4070013_New Group",
      "GroupGUID": "731c7c0a-22db-4c3f-8846-0eb4650bc922",
      "GroupPath": "Config/LevelOutput/Group/Groups_P44001_F44001003/LevelGroup_P44001_F44001003_G19.json"
    },
    {
      "ID": 23,
      "Name": "MainMission4070013_New Group",
      "GroupGUID": "94d428ba-ee6b-4cde-809a-dc4bfc3fd360",
      "GroupPath": "Config/LevelOutput/Group/Groups_P44001_F44001003/LevelGroup_P44001_F44001003_G23.json"
    },
    {
      "ID": 24,
      "Name": "MainMission4070013_New Group",
      "GroupGUID": "10ce070f-88f5-4af2-b5af-3f8459ad32a4",
      "GroupPath": "Config/LevelOutput/Group/Groups_P44001_F44001003/LevelGroup_P44001_F44001003_G24.json"
    },
    {
      "ID": 25,
      "Name": "Sound",
      "GroupGUID": "756f30e0-ef23-496c-9ad3-abc8ee91bd20",
      "GroupPath": "Config/LevelOutput/Group/Groups_P44001_F44001003/LevelGroup_P44001_F44001003_G25.json"
    },
    {
      "ID": 26,
      "Name": "Checkpoint",
      "GroupGUID": "64568f42-13ba-43fa-a2e7-0d09b79b1858",
      "GroupPath": "Config/LevelOutput/Group/Groups_P44001_F44001003/LevelGroup_P44001_F44001003_G26.json"
    }
  ]
}