{
  "FloorID": 44001002,
  "FloorName": "FloorName_44001002",
  "StartGroupID": 1,
  "StartAnchorID": 1,
  "GroupList": [
    {
      "ID": 1,
      "Name": "DefaultGroup",
      "GroupGUID": "8fbd6ce1-4880-497c-b964-a8880f80c4de",
      "GroupPath": "Config/LevelOutput/Group/Groups_P44001_F44001002/LevelGroup_P44001_F44001002_G1.json"
    },
    {
      "ID": 7,
      "Name": "Default Group",
      "GroupGUID": "903bca50-d7d2-4a70-af11-7a07d436938a",
      "GroupPath": "Config/LevelOutput/Group/Groups_P44001_F44001002/LevelGroup_P44001_F44001002_G7.json"
    },
    {
      "ID": 8,
      "Name": "Sound",
      "GroupGUID": "731bd266-3ac3-4ef0-b8fe-3c17bef4fd4e",
      "GroupPath": "Config/LevelOutput/Group/Groups_P44001_F44001002/LevelGroup_P44001_F44001002_G8.json"
    },
    {
      "ID": 9,
      "Name": "MainMission_RoadBlock",
      "GroupGUID": "c029728d-41e3-4155-aa7d-f2d78708910b",
      "GroupPath": "Config/LevelOutput/Group/Groups_P44001_F44001002/LevelGroup_P44001_F44001002_G9.json"
    },
    {
      "ID": 14,
      "Name": "MainMission4070012_New Group",
      "GroupGUID": "e4b9d394-5d5f-4fc9-861e-0fde9283e1e8",
      "GroupPath": "Config/LevelOutput/Group/Groups_P44001_F44001002/LevelGroup_P44001_F44001002_G14.json"
    },
    {
      "ID": 15,
      "Name": "New Group",
      "GroupGUID": "ff7010ab-73f8-440b-a548-84cb2639d8cb",
      "GroupPath": "Config/LevelOutput/Group/Groups_P44001_F44001002/LevelGroup_P44001_F44001002_G15.json"
    },
    {
      "ID": 17,
      "Name": "MainMission4070012_New Group",
      "GroupGUID": "f391133e-e4f4-4db7-bf08-58d93bfa3dc9",
      "GroupPath": "Config/LevelOutput/Group/Groups_P44001_F44001002/LevelGroup_P44001_F44001002_G17.json"
    },
    {
      "ID": 18,
      "Name": "New Group",
      "GroupGUID": "4fdb70d1-988e-4f3e-b4e8-04f6e462e3e4",
      "GroupPath": "Config/LevelOutput/Group/Groups_P44001_F44001002/LevelGroup_P44001_F44001002_G18.json"
    },
    {
      "ID": 19,
      "Name": "MainMission4070012_New Group",
      "GroupGUID": "721cbcfb-d616-409a-a4d6-9c132aab6d90",
      "GroupPath": "Config/LevelOutput/Group/Groups_P44001_F44001002/LevelGroup_P44001_F44001002_G19.json"
    },
    {
      "ID": 20,
      "Name": "MainMission4070012_New Group",
      "GroupGUID": "4429b621-f15e-4213-b4e5-45e7dd82f11f",
      "GroupPath": "Config/LevelOutput/Group/Groups_P44001_F44001002/LevelGroup_P44001_F44001002_G20.json"
    },
    {
      "ID": 27,
      "Name": "MainMission4070012_New Group",
      "GroupGUID": "23502d7a-fb6b-4225-896d-032b33373fef",
      "GroupPath": "Config/LevelOutput/Group/Groups_P44001_F44001002/LevelGroup_P44001_F44001002_G27.json"
    },
    {
      "ID": 31,
      "Name": "MainMission4070012_New Group",
      "GroupGUID": "e10170ba-b827-4780-ba42-b68c2e99c85c",
      "GroupPath": "Config/LevelOutput/Group/Groups_P44001_F44001002/LevelGroup_P44001_F44001002_G31.json"
    },
    {
      "ID": 21,
      "Name": "MainMission4070012_New Group",
      "GroupGUID": "0dcafd79-2e3b-4c64-b6fc-0ec229354fe9",
      "GroupPath": "Config/LevelOutput/Group/Groups_P44001_F44001002/LevelGroup_P44001_F44001002_G21.json"
    },
    {
      "ID": 22,
      "Name": "MainMission4070012_New Group",
      "GroupGUID": "8697b295-b25d-4c57-b8d2-cec6651382f3",
      "GroupPath": "Config/LevelOutput/Group/Groups_P44001_F44001002/LevelGroup_P44001_F44001002_G22.json"
    },
    {
      "ID": 39,
      "Name": "MainMission4070012_HiddenAnimal",
      "GroupGUID": "754935cd-7f21-4751-9eb4-3c6f2a75875e",
      "GroupPath": "Config/LevelOutput/Group/Groups_P44001_F44001002/LevelGroup_P44001_F44001002_G39.json"
    },
    {
      "ID": 23,
      "Name": "MainMission4070012_New Group",
      "GroupGUID": "9cf153a9-3f31-40ad-98d9-04dc52d4721a",
      "GroupPath": "Config/LevelOutput/Group/Groups_P44001_F44001002/LevelGroup_P44001_F44001002_G23.json"
    },
    {
      "ID": 24,
      "Name": "MainMission4070012_New Group",
      "GroupGUID": "13e7ac3f-c012-4a63-aee7-c88e8df85c6a",
      "GroupPath": "Config/LevelOutput/Group/Groups_P44001_F44001002/LevelGroup_P44001_F44001002_G24.json"
    },
    {
      "ID": 25,
      "Name": "MainMission4070012_New Group",
      "GroupGUID": "bf95f9e8-1ebc-4e31-814c-8d15971705ed",
      "GroupPath": "Config/LevelOutput/Group/Groups_P44001_F44001002/LevelGroup_P44001_F44001002_G25.json"
    },
    {
      "ID": 26,
      "Name": "MainMission4070012_New Group",
      "GroupGUID": "ecd035ba-dac9-45c4-a39d-c8790858bdb3",
      "GroupPath": "Config/LevelOutput/Group/Groups_P44001_F44001002/LevelGroup_P44001_F44001002_G26.json"
    },
    {
      "ID": 37,
      "Name": "MainMission4070012_New Group",
      "GroupGUID": "4db00d01-83b5-45e6-af82-382197308b6e",
      "GroupPath": "Config/LevelOutput/Group/Groups_P44001_F44001002/LevelGroup_P44001_F44001002_G37.json"
    },
    {
      "ID": 28,
      "Name": "New Group",
      "GroupGUID": "f497c897-8714-429d-94f4-bfd411a834b4",
      "GroupPath": "Config/LevelOutput/Group/Groups_P44001_F44001002/LevelGroup_P44001_F44001002_G28.json"
    },
    {
      "ID": 32,
      "Name": "New Group",
      "GroupGUID": "6e7b5049-507a-4542-a520-8f3490f5a042",
      "GroupPath": "Config/LevelOutput/Group/Groups_P44001_F44001002/LevelGroup_P44001_F44001002_G32.json"
    },
    {
      "ID": 33,
      "Name": "MainMission4070012_New Group",
      "GroupGUID": "5ab53967-b749-480c-9112-c067561b8212",
      "GroupPath": "Config/LevelOutput/Group/Groups_P44001_F44001002/LevelGroup_P44001_F44001002_G33.json"
    },
    {
      "ID": 36,
      "Name": "Tpl_PeiPeiChallenge01",
      "GroupGUID": "be16a4ca-55d2-495d-9569-75bc6ff792e9",
      "GroupPath": "Config/LevelOutput/Group/Groups_P44001_F44001002/LevelGroup_P44001_F44001002_G36.json"
    },
    {
      "ID": 38,
      "Name": "Checkpoint",
      "GroupGUID": "a9b302fb-de3e-4324-ab07-158e9bf632be",
      "GroupPath": "Config/LevelOutput/Group/Groups_P44001_F44001002/LevelGroup_P44001_F44001002_G38.json"
    },
    {
      "ID": 40,
      "Name": "New Group",
      "GroupGUID": "96a552fd-5870-4d80-9601-5f2f2dd578b5",
      "GroupPath": "Config/LevelOutput/Group/Groups_P44001_F44001002/LevelGroup_P44001_F44001002_G40.json"
    }
  ]
}