{
  "FloorID": 44301016,
  "FloorName": "FloorName_44301016",
  "StartGroupID": 1,
  "StartAnchorID": 1,
  "GroupList": [
    {
      "ID": 1,
      "Name": "DefaultGroup",
      "GroupGUID": "1bfdcf34-148f-463c-9c5a-aa4ed3b00ec0",
      "GroupPath": "Config/LevelOutput/Group/Groups_P44301_F44301016/LevelGroup_P44301_F44301016_G1.json"
    },
    {
      "ID": 2,
      "Name": "Pinball",
      "GroupGUID": "cc9aa71b-32da-4a40-9304-80cfb43084da",
      "GroupPath": "Config/LevelOutput/Group/Groups_P44301_F44301016/LevelGroup_P44301_F44301016_G2.json"
    },
    {
      "ID": 4,
      "Name": "Airwall",
      "GroupGUID": "f0f913d0-cf66-4efe-b202-ce20114e91a5",
      "GroupPath": "Config/LevelOutput/Group/Groups_P44301_F44301016/LevelGroup_P44301_F44301016_G4.json"
    },
    {
      "ID": 5,
      "Name": "MainMission8020216_弹珠机",
      "GroupGUID": "2e1a0ac4-d56e-4c41-86f5-295b551a723c",
      "GroupPath": "Config/LevelOutput/Group/Groups_P44301_F44301016/LevelGroup_P44301_F44301016_G5.json"
    },
    {
      "ID": 6,
      "Name": "BGM",
      "GroupGUID": "e8b980fb-33ca-42db-beeb-5697894f515a",
      "GroupPath": "Config/LevelOutput/Group/Groups_P44301_F44301016/LevelGroup_P44301_F44301016_G6.json"
    },
    {
      "ID": 7,
      "Name": "Sound",
      "GroupGUID": "2751c163-aed6-44f4-9a0b-2ff1a0f00abd",
      "GroupPath": "Config/LevelOutput/Group/Groups_P44301_F44301016/LevelGroup_P44301_F44301016_G7.json"
    },
    {
      "ID": 8,
      "Name": "Sound-Reverb",
      "GroupGUID": "d3e44be5-54fe-4465-aedd-46086af4753f",
      "GroupPath": "Config/LevelOutput/Group/Groups_P44301_F44301016/LevelGroup_P44301_F44301016_G8.json"
    }
  ]
}