{
  "FloorID": 44305002,
  "FloorName": "FloorName_44305002",
  "StartGroupID": 2,
  "StartAnchorID": 1,
  "GroupList": [
    {
      "ID": 1,
      "Name": "DefaultGroup",
      "GroupGUID": "5e97423f-02ac-4343-ab8f-af544de2efbb",
      "GroupPath": "Config/LevelOutput/Group/Groups_P44305_F44305002/LevelGroup_P44305_F44305002_G1.json"
    },
    {
      "ID": 2,
      "Name": "DefaultGroup",
      "GroupGUID": "c00edb70-84df-462f-bdaf-9ceb4cdcdb9b",
      "GroupPath": "Config/LevelOutput/Group/Groups_P44305_F44305002/LevelGroup_P44305_F44305002_G2.json"
    },
    {
      "ID": 18,
      "Name": "TakePhotos",
      "GroupGUID": "766f484e-f692-4c15-9aaa-22f7db82d013",
      "GroupPath": "Config/LevelOutput/Group/Groups_P44305_F44305002/LevelGroup_P44305_F44305002_G18.json"
    },
    {
      "ID": 19,
      "Name": "EnvProps",
      "GroupGUID": "fb53bc11-e810-47a2-a607-7a714e4153d6",
      "GroupPath": "Config/LevelOutput/Group/Groups_P44305_F44305002/LevelGroup_P44305_F44305002_G19.json"
    },
    {
      "ID": 48,
      "Name": "CheckPoint",
      "GroupGUID": "61b3318e-3f5a-4c35-a689-b5de02acbe32",
      "GroupPath": "Config/LevelOutput/Group/Groups_P44305_F44305002/LevelGroup_P44305_F44305002_G48.json"
    },
    {
      "ID": 20,
      "Name": "1-0",
      "GroupGUID": "9723c86a-d3e3-4cc1-bfb9-6621c5e6d62a",
      "GroupPath": "Config/LevelOutput/Group/Groups_P44305_F44305002/LevelGroup_P44305_F44305002_G20.json"
    },
    {
      "ID": 21,
      "Name": "1-1",
      "GroupGUID": "da2c1ef6-d17d-4ce1-a1de-e97b253742d7",
      "GroupPath": "Config/LevelOutput/Group/Groups_P44305_F44305002/LevelGroup_P44305_F44305002_G21.json"
    },
    {
      "ID": 22,
      "Name": "2-0",
      "GroupGUID": "1c3dccad-d390-4ed9-b512-8d84cedfabe5",
      "GroupPath": "Config/LevelOutput/Group/Groups_P44305_F44305002/LevelGroup_P44305_F44305002_G22.json"
    },
    {
      "ID": 23,
      "Name": "2-1",
      "GroupGUID": "84523257-b8b7-47b4-92af-8356151ec7c6",
      "GroupPath": "Config/LevelOutput/Group/Groups_P44305_F44305002/LevelGroup_P44305_F44305002_G23.json"
    },
    {
      "ID": 38,
      "Name": "MainMission8022125_2-2Monster",
      "GroupGUID": "22f72841-e4b0-4287-a7dd-c46eb38b8557",
      "GroupPath": "Config/LevelOutput/Group/Groups_P44305_F44305002/LevelGroup_P44305_F44305002_G38.json"
    },
    {
      "ID": 24,
      "Name": "2-2",
      "GroupGUID": "7515ee21-95cc-46fb-b2d9-20a5faa6d34e",
      "GroupPath": "Config/LevelOutput/Group/Groups_P44305_F44305002/LevelGroup_P44305_F44305002_G24.json"
    },
    {
      "ID": 25,
      "Name": "3-0",
      "GroupGUID": "8d61f395-9db9-4fd9-87fd-16f78bb47dd8",
      "GroupPath": "Config/LevelOutput/Group/Groups_P44305_F44305002/LevelGroup_P44305_F44305002_G25.json"
    },
    {
      "ID": 47,
      "Name": "MainMission8022125_Monster3-1",
      "GroupGUID": "850e56fe-a003-4fb2-a60f-ac5e4912e476",
      "GroupPath": "Config/LevelOutput/Group/Groups_P44305_F44305002/LevelGroup_P44305_F44305002_G47.json"
    },
    {
      "ID": 26,
      "Name": "3-1",
      "GroupGUID": "cb8171f8-a077-4130-90db-d1ce73706215",
      "GroupPath": "Config/LevelOutput/Group/Groups_P44305_F44305002/LevelGroup_P44305_F44305002_G26.json"
    },
    {
      "ID": 37,
      "Name": "Tpl_MainMission8022125_OrigamiBird_Normal",
      "GroupGUID": "637f8dd4-b566-49c4-b153-a0926da63edf",
      "GroupPath": "Config/LevelOutput/Group/Groups_P44305_F44305002/LevelGroup_P44305_F44305002_G37.json"
    },
    {
      "ID": 44,
      "Name": "MainMission8022125_OrigamiBird_Normal",
      "GroupGUID": "7cf29be9-fd15-4f06-a30f-2054ad5767b3",
      "GroupPath": "Config/LevelOutput/Group/Groups_P44305_F44305002/LevelGroup_P44305_F44305002_G44.json"
    },
    {
      "ID": 27,
      "Name": "3-2",
      "GroupGUID": "f84cad8d-b83f-4d1b-91ef-9103d2280068",
      "GroupPath": "Config/LevelOutput/Group/Groups_P44305_F44305002/LevelGroup_P44305_F44305002_G27.json"
    },
    {
      "ID": 30,
      "Name": "MainMission8022125_01",
      "GroupGUID": "80dd1470-9b19-4a0f-909c-2f4be69cf329",
      "GroupPath": "Config/LevelOutput/Group/Groups_P44305_F44305002/LevelGroup_P44305_F44305002_G30.json"
    },
    {
      "ID": 31,
      "Name": "MainMission8022125_02",
      "GroupGUID": "2558ea20-3d5f-45d3-8950-b535b7df7366",
      "GroupPath": "Config/LevelOutput/Group/Groups_P44305_F44305002/LevelGroup_P44305_F44305002_G31.json"
    },
    {
      "ID": 35,
      "Name": "MainMission8022125_02_01",
      "GroupGUID": "a0232805-2a17-4d05-8fef-f4f24c73da08",
      "GroupPath": "Config/LevelOutput/Group/Groups_P44305_F44305002/LevelGroup_P44305_F44305002_G35.json"
    },
    {
      "ID": 32,
      "Name": "MainMission8022125_03",
      "GroupGUID": "79900735-b69f-42ca-8554-18b4e5a9b154",
      "GroupPath": "Config/LevelOutput/Group/Groups_P44305_F44305002/LevelGroup_P44305_F44305002_G32.json"
    },
    {
      "ID": 33,
      "Name": "MainMission8022125_04",
      "GroupGUID": "18828ef4-aae9-490d-859a-722887227239",
      "GroupPath": "Config/LevelOutput/Group/Groups_P44305_F44305002/LevelGroup_P44305_F44305002_G33.json"
    },
    {
      "ID": 34,
      "Name": "MainMission8022125_05",
      "GroupGUID": "8ce26edd-7d63-433e-a0b5-c244fa04a8ff",
      "GroupPath": "Config/LevelOutput/Group/Groups_P44305_F44305002/LevelGroup_P44305_F44305002_G34.json"
    },
    {
      "ID": 36,
      "Name": "Position",
      "GroupGUID": "5b1275ea-6a7e-4ba5-99c9-e8539aaebdbe",
      "GroupPath": "Config/LevelOutput/Group/Groups_P44305_F44305002/LevelGroup_P44305_F44305002_G36.json"
    },
    {
      "ID": 39,
      "Name": "MainMission8022125_Camera1-1",
      "GroupGUID": "1d1c431d-40ce-4fb5-8e4a-a98b4d7417b9",
      "GroupPath": "Config/LevelOutput/Group/Groups_P44305_F44305002/LevelGroup_P44305_F44305002_G39.json"
    },
    {
      "ID": 40,
      "Name": "MainMission8022125_Camera2-1",
      "GroupGUID": "ed4c8046-c92e-4a1a-9067-b4496cf8503a",
      "GroupPath": "Config/LevelOutput/Group/Groups_P44305_F44305002/LevelGroup_P44305_F44305002_G40.json"
    },
    {
      "ID": 41,
      "Name": "MainMission8022125_Camera2-2",
      "GroupGUID": "72fe032f-2912-47a6-bc79-71b05eaaf5e1",
      "GroupPath": "Config/LevelOutput/Group/Groups_P44305_F44305002/LevelGroup_P44305_F44305002_G41.json"
    },
    {
      "ID": 45,
      "Name": "MainMission8022125_12",
      "GroupGUID": "415c9657-57fb-431b-b65b-f88ec9672649",
      "GroupPath": "Config/LevelOutput/Group/Groups_P44305_F44305002/LevelGroup_P44305_F44305002_G45.json"
    },
    {
      "ID": 42,
      "Name": "MainMission8022125_Camera3-1",
      "GroupGUID": "8289dcb5-a913-409a-872a-f202afb8f193",
      "GroupPath": "Config/LevelOutput/Group/Groups_P44305_F44305002/LevelGroup_P44305_F44305002_G42.json"
    },
    {
      "ID": 46,
      "Name": "MainMission8022125_11",
      "GroupGUID": "d90bb52e-05cd-4a00-848d-35215d11bd47",
      "GroupPath": "Config/LevelOutput/Group/Groups_P44305_F44305002/LevelGroup_P44305_F44305002_G46.json"
    },
    {
      "ID": 43,
      "Name": "MainMission8022125_Camera3-2",
      "GroupGUID": "9cd47a49-bc02-4b57-8e54-e6c38549258f",
      "GroupPath": "Config/LevelOutput/Group/Groups_P44305_F44305002/LevelGroup_P44305_F44305002_G43.json"
    },
    {
      "ID": 49,
      "Name": "MainMission8022125_07",
      "GroupGUID": "6e63d68a-391a-4c59-8ea2-fba00ae2993e",
      "GroupPath": "Config/LevelOutput/Group/Groups_P44305_F44305002/LevelGroup_P44305_F44305002_G49.json"
    },
    {
      "ID": 50,
      "Name": "MainMission8022125_08",
      "GroupGUID": "2b7517bf-150d-4765-828c-f3212eac18b0",
      "GroupPath": "Config/LevelOutput/Group/Groups_P44305_F44305002/LevelGroup_P44305_F44305002_G50.json"
    },
    {
      "ID": 51,
      "Name": "MainMission8022125_09",
      "GroupGUID": "c548af4b-4f61-4daf-8aab-d7decf78dbbc",
      "GroupPath": "Config/LevelOutput/Group/Groups_P44305_F44305002/LevelGroup_P44305_F44305002_G51.json"
    },
    {
      "ID": 52,
      "Name": "MainMission8022125_10",
      "GroupGUID": "4baf67f2-91ee-4d13-8a54-6af78d11ff51",
      "GroupPath": "Config/LevelOutput/Group/Groups_P44305_F44305002/LevelGroup_P44305_F44305002_G52.json"
    },
    {
      "ID": 53,
      "Name": "Anchor",
      "GroupGUID": "cba23ef6-f447-43d8-b84f-cc1a49a34ade",
      "GroupPath": "Config/LevelOutput/Group/Groups_P44305_F44305002/LevelGroup_P44305_F44305002_G53.json"
    },
    {
      "ID": 54,
      "Name": "Sound-Reverb",
      "GroupGUID": "bd9a0d1b-d8a1-41a2-99f3-087242fd38a3",
      "GroupPath": "Config/LevelOutput/Group/Groups_P44305_F44305002/LevelGroup_P44305_F44305002_G54.json"
    },
    {
      "ID": 55,
      "Name": "BGM",
      "GroupGUID": "0ee13fe0-2c7b-489f-9033-e4ef31a4c15e",
      "GroupPath": "Config/LevelOutput/Group/Groups_P44305_F44305002/LevelGroup_P44305_F44305002_G55.json"
    },
    {
      "ID": 56,
      "Name": "Sound",
      "GroupGUID": "be6d89b9-31e8-4c0e-9bb5-fbd34f23d0cc",
      "GroupPath": "Config/LevelOutput/Group/Groups_P44305_F44305002/LevelGroup_P44305_F44305002_G56.json"
    },
    {
      "ID": 61,
      "Name": "Screen",
      "GroupGUID": "3c3afc04-fc72-477e-bf3b-ab1042c15f7b",
      "GroupPath": "Config/LevelOutput/Group/Groups_P44305_F44305002/LevelGroup_P44305_F44305002_G61.json"
    },
    {
      "ID": 62,
      "Name": "BAT_Prop",
      "GroupGUID": "c43bd0b7-9925-4719-b2d7-66b84714b87e",
      "GroupPath": "Config/LevelOutput/Group/Groups_P44305_F44305002/LevelGroup_P44305_F44305002_G62.json"
    }
  ]
}