{
  "GroupGUID": "36176b0a-6998-40e2-b96c-7c22ce7f8962",
  "GroupName": "MainMission1032602_02",
  "Category": "Mission",
  "LevelGraph": "Config/Level/GroupGraph/F10000000/Group_F10000000_G171.json",
  "AreaAnchorName": "LevelArea_P10000_F10000000_G171",
  "SaveType": "Reset",
  "OwnerMainMissionID": 1032602,
  "ValueSource": {},
  "ConflictIDList": [],
  "IsHoyoGroup": true,
  "ConflictWhiteList": [],
  "TagContainer": {},
  "AnchorList": [],
  "MonsterList": [],
  "PropList": [],
  "NPCList": []
}