{
  "GroupGUID": "d1ff0c85-0ab1-4e69-b7e1-f4e3123324bd",
  "GroupName": "MainMission2030401_New Group",
  "Category": "Mission",
  "LevelGraph": "Config/Level/GroupGraph/F20313001/Group_F20313001_G255.json",
  "AreaAnchorName": "LevelArea_P20313_F20313001_G255",
  "SaveType": "Reset",
  "OwnerMainMissionID": 2030401,
  "ValueSource": {},
  "ConflictIDList": [],
  "IsHoyoGroup": true,
  "ConflictWhiteList": [],
  "TagContainer": {},
  "AnchorList": [],
  "MonsterList": [],
  "PropList": [],
  "NPCList": []
}