{
  "GroupGUID": "601a9c29-744c-4bde-a0f2-1ab92d4c7dbc",
  "GroupName": "distractible",
  "LevelGraph": "Config/Level/GroupGraph/F44305005/Group_F44305005_G38.json",
  "AreaAnchorName": "LevelArea_P44305_F44305005_G38",
  "SaveDimensionFilter": {},
  "SavedValueCondition": {
    "Conditions": [],
    "Operation": "And"
  },
  "LoadSide": "Server",
  "LoadOnInitial": true,
  "ValueSource": {},
  "ConflictIDList": [],
  "IsHoyoGroup": true,
  "ConflictWhiteList": [],
  "TagContainer": {},
  "AnchorList": [],
  "MonsterList": [],
  "PropList": [
    {
      "ID": 300001,
      "PosX": 149.902,
      "PosY": 47.05,
      "PosZ": -269.23,
      "Name": "Prop1",
      "RotY": 270.0,
      "RotZ": 180.0,
      "PropID": 103016,
      "IsOverrideInitLevelGraph": true,
      "InitLevelGraph": "Config/Level/Props/Chap03/InitLevelGraph_Prop_Chap03_Balloon_03.json",
      "ValueSource": {
        "Values": [
          {
            "$type": "SharedString",
            "Key": "RaidTargetID",
            "Value": "443050036"
          }
        ]
      },
      "CampID": 4,
      "EventID": 10000,
      "CustomTriggerMap": {},
      "CustomTriggerMapV2": {},
      "BridgeStateRotations": [],
      "DialogueGroups": [],
      "TalkDialogGroupIDList": [],
      "ServerInteractVerificationIDList": [],
      "TriggerValidGuest": {},
      "TagContainer": {},
      "CameraCenterEntityList": [],
      "SpawnConfig": {
        "EntitySpawnConfig": {}
      }
    },
    {
      "ID": 300002,
      "PosX": 148.089,
      "PosY": 47.04599,
      "PosZ": -266.73,
      "Name": "Prop2",
      "RotY": 210.0,
      "RotZ": 180.0,
      "PropID": 103016,
      "IsOverrideInitLevelGraph": true,
      "InitLevelGraph": "Config/Level/Props/Chap03/InitLevelGraph_Prop_Chap03_Balloon_03.json",
      "ValueSource": {
        "Values": [
          {
            "$type": "SharedString",
            "Key": "RaidTargetID",
            "Value": "443050036"
          }
        ]
      },
      "CampID": 4,
      "EventID": 10000,
      "CustomTriggerMap": {},
      "CustomTriggerMapV2": {},
      "BridgeStateRotations": [],
      "DialogueGroups": [],
      "TalkDialogGroupIDList": [],
      "ServerInteractVerificationIDList": [],
      "TriggerValidGuest": {},
      "TagContainer": {},
      "CameraCenterEntityList": [],
      "SpawnConfig": {
        "EntitySpawnConfig": {}
      }
    },
    {
      "ID": 300003,
      "PosX": 142.602,
      "PosY": 47.05,
      "PosZ": -269.23,
      "Name": "Prop3",
      "RotY": 89.99999,
      "RotZ": 180.0,
      "PropID": 103016,
      "IsOverrideInitLevelGraph": true,
      "InitLevelGraph": "Config/Level/Props/Chap03/InitLevelGraph_Prop_Chap03_Balloon_03.json",
      "ValueSource": {
        "Values": [
          {
            "$type": "SharedString",
            "Key": "RaidTargetID",
            "Value": "443050036"
          }
        ]
      },
      "CampID": 4,
      "EventID": 10000,
      "CustomTriggerMap": {},
      "CustomTriggerMapV2": {},
      "BridgeStateRotations": [],
      "DialogueGroups": [],
      "TalkDialogGroupIDList": [],
      "ServerInteractVerificationIDList": [],
      "TriggerValidGuest": {},
      "TagContainer": {},
      "CameraCenterEntityList": [],
      "SpawnConfig": {
        "EntitySpawnConfig": {}
      }
    },
    {
      "ID": 300004,
      "PosX": 144.385,
      "PosY": 47.046,
      "PosZ": -266.77,
      "Name": "Prop4",
      "RotY": 150.0,
      "RotZ": 180.0,
      "PropID": 103016,
      "IsOverrideInitLevelGraph": true,
      "InitLevelGraph": "Config/Level/Props/Chap03/InitLevelGraph_Prop_Chap03_Balloon_03.json",
      "ValueSource": {
        "Values": [
          {
            "$type": "SharedString",
            "Key": "RaidTargetID",
            "Value": "443050036"
          }
        ]
      },
      "CampID": 4,
      "EventID": 10000,
      "CustomTriggerMap": {},
      "CustomTriggerMapV2": {},
      "BridgeStateRotations": [],
      "DialogueGroups": [],
      "TalkDialogGroupIDList": [],
      "ServerInteractVerificationIDList": [],
      "TriggerValidGuest": {},
      "TagContainer": {},
      "CameraCenterEntityList": [],
      "SpawnConfig": {
        "EntitySpawnConfig": {}
      }
    },
    {
      "ID": 300005,
      "PosX": 149.86,
      "PosY": 47.05,
      "PosZ": -271.03,
      "Name": "Prop5",
      "RotY": 296.5546,
      "RotZ": 180.0,
      "PropID": 103016,
      "IsOverrideInitLevelGraph": true,
      "InitLevelGraph": "Config/Level/Props/Chap03/InitLevelGraph_Prop_Chap03_Balloon_03.json",
      "ValueSource": {
        "Values": [
          {
            "$type": "SharedString",
            "Key": "RaidTargetID",
            "Value": "443050036"
          }
        ]
      },
      "CampID": 4,
      "EventID": 10000,
      "CustomTriggerMap": {},
      "CustomTriggerMapV2": {},
      "BridgeStateRotations": [],
      "DialogueGroups": [],
      "TalkDialogGroupIDList": [],
      "ServerInteractVerificationIDList": [],
      "TriggerValidGuest": {},
      "TagContainer": {},
      "CameraCenterEntityList": [],
      "SpawnConfig": {
        "EntitySpawnConfig": {}
      }
    },
    {
      "ID": 300006,
      "PosX": 149.35,
      "PosY": 47.04599,
      "PosZ": -267.98,
      "Name": "Prop6",
      "RotY": 236.5545,
      "RotZ": 180.0,
      "PropID": 103016,
      "IsOverrideInitLevelGraph": true,
      "InitLevelGraph": "Config/Level/Props/Chap03/InitLevelGraph_Prop_Chap03_Balloon_03.json",
      "ValueSource": {
        "Values": [
          {
            "$type": "SharedString",
            "Key": "RaidTargetID",
            "Value": "443050036"
          }
        ]
      },
      "CampID": 4,
      "EventID": 10000,
      "CustomTriggerMap": {},
      "CustomTriggerMapV2": {},
      "BridgeStateRotations": [],
      "DialogueGroups": [],
      "TalkDialogGroupIDList": [],
      "ServerInteractVerificationIDList": [],
      "TriggerValidGuest": {},
      "TagContainer": {},
      "CameraCenterEntityList": [],
      "SpawnConfig": {
        "EntitySpawnConfig": {}
      }
    },
    {
      "ID": 300007,
      "PosX": 143.32,
      "PosY": 47.05,
      "PosZ": -267.76,
      "Name": "Prop7",
      "RotY": 116.5545,
      "RotZ": 180.0,
      "PropID": 103016,
      "IsOverrideInitLevelGraph": true,
      "InitLevelGraph": "Config/Level/Props/Chap03/InitLevelGraph_Prop_Chap03_Balloon_03.json",
      "ValueSource": {
        "Values": [
          {
            "$type": "SharedString",
            "Key": "RaidTargetID",
            "Value": "443050036"
          }
        ]
      },
      "CampID": 4,
      "EventID": 10000,
      "CustomTriggerMap": {},
      "CustomTriggerMapV2": {},
      "BridgeStateRotations": [],
      "DialogueGroups": [],
      "TalkDialogGroupIDList": [],
      "ServerInteractVerificationIDList": [],
      "TriggerValidGuest": {},
      "TagContainer": {},
      "CameraCenterEntityList": [],
      "SpawnConfig": {
        "EntitySpawnConfig": {}
      }
    },
    {
      "ID": 300008,
      "PosX": 142.5932,
      "PosY": 47.046,
      "PosZ": -271.185,
      "Name": "Prop8",
      "RotY": 53.85086,
      "RotZ": 180.0,
      "PropID": 103016,
      "IsOverrideInitLevelGraph": true,
      "InitLevelGraph": "Config/Level/Props/Chap03/InitLevelGraph_Prop_Chap03_Balloon_03.json",
      "ValueSource": {
        "Values": [
          {
            "$type": "SharedString",
            "Key": "RaidTargetID",
            "Value": "443050036"
          }
        ]
      },
      "CampID": 4,
      "EventID": 10000,
      "CustomTriggerMap": {},
      "CustomTriggerMapV2": {},
      "BridgeStateRotations": [],
      "DialogueGroups": [],
      "TalkDialogGroupIDList": [],
      "ServerInteractVerificationIDList": [],
      "TriggerValidGuest": {},
      "TagContainer": {},
      "CameraCenterEntityList": [],
      "SpawnConfig": {
        "EntitySpawnConfig": {}
      }
    },
    {
      "ID": 300009,
      "PosX": 143.663,
      "PosY": 47.04601,
      "PosZ": -270.171,
      "Name": "Prop9",
      "RotY": 87.69129,
      "RotZ": 180.0,
      "PropID": 103016,
      "IsOverrideInitLevelGraph": true,
      "InitLevelGraph": "Config/Level/Props/Chap03/InitLevelGraph_Prop_Chap03_Balloon_03.json",
      "ValueSource": {
        "Values": [
          {
            "$type": "SharedString",
            "Key": "RaidTargetID",
            "Value": "443050036"
          }
        ]
      },
      "CampID": 4,
      "EventID": 10000,
      "CustomTriggerMap": {},
      "CustomTriggerMapV2": {},
      "BridgeStateRotations": [],
      "DialogueGroups": [],
      "TalkDialogGroupIDList": [],
      "ServerInteractVerificationIDList": [],
      "TriggerValidGuest": {},
      "TagContainer": {},
      "CameraCenterEntityList": [],
      "SpawnConfig": {
        "EntitySpawnConfig": {}
      }
    },
    {
      "ID": 300010,
      "PosX": 148.669,
      "PosY": 47.04601,
      "PosZ": -270.171,
      "Name": "Prop10",
      "RotY": 267.6913,
      "RotZ": 180.0,
      "PropID": 103016,
      "IsOverrideInitLevelGraph": true,
      "InitLevelGraph": "Config/Level/Props/Chap03/InitLevelGraph_Prop_Chap03_Balloon_03.json",
      "ValueSource": {
        "Values": [
          {
            "$type": "SharedString",
            "Key": "RaidTargetID",
            "Value": "443050036"
          }
        ]
      },
      "CampID": 4,
      "EventID": 10000,
      "CustomTriggerMap": {},
      "CustomTriggerMapV2": {},
      "BridgeStateRotations": [],
      "DialogueGroups": [],
      "TalkDialogGroupIDList": [],
      "ServerInteractVerificationIDList": [],
      "TriggerValidGuest": {},
      "TagContainer": {},
      "CameraCenterEntityList": [],
      "SpawnConfig": {
        "EntitySpawnConfig": {}
      }
    },
    {
      "ID": 300011,
      "PosX": 147.603,
      "PosY": 47.046,
      "PosZ": -268.461,
      "Name": "Prop11",
      "RotY": 228.3771,
      "RotZ": 180.0,
      "PropID": 103016,
      "IsOverrideInitLevelGraph": true,
      "InitLevelGraph": "Config/Level/Props/Chap03/InitLevelGraph_Prop_Chap03_Balloon_03.json",
      "ValueSource": {
        "Values": [
          {
            "$type": "SharedString",
            "Key": "RaidTargetID",
            "Value": "443050036"
          }
        ]
      },
      "CampID": 4,
      "EventID": 10000,
      "CustomTriggerMap": {},
      "CustomTriggerMapV2": {},
      "BridgeStateRotations": [],
      "DialogueGroups": [],
      "TalkDialogGroupIDList": [],
      "ServerInteractVerificationIDList": [],
      "TriggerValidGuest": {},
      "TagContainer": {},
      "CameraCenterEntityList": [],
      "SpawnConfig": {
        "EntitySpawnConfig": {}
      }
    },
    {
      "ID": 300012,
      "PosX": 144.473,
      "PosY": 47.046,
      "PosZ": -268.499,
      "Name": "Prop12",
      "RotY": 143.3213,
      "RotZ": 180.0,
      "PropID": 103016,
      "IsOverrideInitLevelGraph": true,
      "InitLevelGraph": "Config/Level/Props/Chap03/InitLevelGraph_Prop_Chap03_Balloon_03.json",
      "ValueSource": {
        "Values": [
          {
            "$type": "SharedString",
            "Key": "RaidTargetID",
            "Value": "443050036"
          }
        ]
      },
      "CampID": 4,
      "EventID": 10000,
      "CustomTriggerMap": {},
      "CustomTriggerMapV2": {},
      "BridgeStateRotations": [],
      "DialogueGroups": [],
      "TalkDialogGroupIDList": [],
      "ServerInteractVerificationIDList": [],
      "TriggerValidGuest": {},
      "TagContainer": {},
      "CameraCenterEntityList": [],
      "SpawnConfig": {
        "EntitySpawnConfig": {}
      }
    }
  ],
  "NPCList": []
}