{
  "GroupGUID": "b4417855-b25d-42d2-b726-050dc899924d",
  "GroupName": "MainMission8022127_01",
  "Category": "Mission",
  "LevelGraph": "Config/Level/GroupGraph/F44305005/Group_F44305005_G47.json",
  "AreaAnchorName": "LevelArea_P44305_F44305005_G47",
  "SaveType": "Reset",
  "OwnerMainMissionID": 8022127,
  "ValueSource": {},
  "ConflictIDList": [],
  "IsHoyoGroup": true,
  "StreamingTemplateType": "None",
  "ConflictWhiteList": [],
  "TagContainer": {},
  "AnchorList": [],
  "MonsterList": [],
  "PropList": [],
  "NPCList": []
}