{
  "GroupGUID": "e143c408-ce1a-41ee-a037-7f098135b903",
  "GroupName": "MainMission2010201_07",
  "Category": "Mission",
  "AreaAnchorName": "LevelArea_P20101_F20101001_G79",
  "SaveType": "Reset",
  "LoadCondition": {
    "Conditions": [
      {
        "Type": "SubMission",
        "ID": 201020106
      },
      {
        "Type": "SubMission",
        "ID": 201020107
      }
    ],
    "Operation": "Or"
  },
  "UnloadCondition": {
    "Conditions": [
      {
        "Type": "SubMission",
        "Phase": "Finish",
        "ID": 201020107
      }
    ]
  },
  "OwnerMainMissionID": 2010201,
  "ValueSource": {},
  "ConflictIDList": [],
  "AnchorList": [],
  "MonsterList": [],
  "PropList": [],
  "NPCList": [
    {
      "ID": 400004,
      "PosX": 13.75,
      "PosY": 14.0276,
      "PosZ": -23.95,
      "Name": "NPC4",
      "RotY": 5.639997,
      "NPCID": 1993,
      "ValueSource": {},
      "DialogueGroups": [],
      "ServerInteractVerificationIDList": [],
      "BoardShowList": [],
      "TalkDialogGroupIDList": [],
      "DefaultIdleFreeStyleMotionID": 390010000,
      "OverrideSeriesID": 100101,
      "InitialHiddenNodeList": [],
      "SpawnConfig": {
        "EntitySpawnConfig": {},
        "CaptureDistanceTolerance": 10.0
      }
    },
    {
      "ID": 400001,
      "PosX": 14.72,
      "PosY": 14.57079,
      "PosZ": -14.64,
      "Name": "NPC1",
      "RotY": 126.86,
      "NPCID": 2213,
      "ValueSource": {},
      "DialogueGroups": [],
      "ServerInteractVerificationIDList": [],
      "BoardShowList": [],
      "TalkDialogGroupIDList": [],
      "DefaultIdleFreeStyleMotionID": 200520000,
      "InitialHiddenNodeList": [],
      "SpawnConfig": {
        "EntitySpawnConfig": {},
        "CaptureDistanceTolerance": 10.0
      }
    }
  ]
}