{
  "GroupGUID": "6bb34629-aa72-4696-889b-9e2e9d18b76e",
  "GroupName": "MainMission2021002_01",
  "Category": "Mission",
  "AreaAnchorName": "LevelArea_P43202_F43202001_G10",
  "SaveType": "Reset",
  "LoadCondition": {
    "Conditions": [
      {
        "Type": "SubMission",
        "ID": 202100207
      }
    ]
  },
  "UnloadCondition": {
    "Conditions": [
      {
        "Type": "SubMission",
        "Phase": "Finish",
        "ID": 202100209
      }
    ]
  },
  "OwnerMainMissionID": 2021002,
  "ValueSource": {},
  "ConflictIDList": [],
  "AnchorList": [
    {
      "ID": 1,
      "PosX": -0.587,
      "PosY": -1.159217,
      "PosZ": -16.581,
      "Name": "Anchor1",
      "RotY": 16.60636,
      "Usage": "Actor"
    },
    {
      "ID": 2,
      "PosX": 0.049,
      "PosY": 0.271,
      "PosZ": -15.99,
      "Name": "Anchor2",
      "RotY": 359.0006,
      "RotX": 0.936631,
      "Usage": "Camera",
      "CustomParameter": {
        "$type": "LevelAnchorCameraParameter"
      }
    },
    {
      "ID": 3,
      "PosX": 2.402924,
      "PosY": -1.159216,
      "PosZ": -21.01292,
      "Name": "Anchor3",
      "RotY": 85.79012,
      "Usage": "Actor"
    },
    {
      "ID": 4,
      "PosX": 1.39632,
      "PosY": 0.596,
      "PosZ": -21.34212,
      "Name": "Anchor4",
      "RotY": 92.87569,
      "RotX": 19.44905,
      "RotZ": 359.3867,
      "Usage": "Camera",
      "CustomParameter": {
        "$type": "LevelAnchorCameraParameter"
      }
    },
    {
      "ID": 5,
      "PosX": 0.34,
      "PosY": 0.15,
      "PosZ": -16.888,
      "Name": "Anchor5",
      "Usage": "Camera",
      "CustomParameter": {
        "$type": "LevelAnchorCameraParameter"
      }
    },
    {
      "ID": 6,
      "PosX": -0.999,
      "PosY": -0.223827,
      "PosZ": -8.340001,
      "Name": "Anchor6",
      "Usage": "Actor"
    },
    {
      "ID": 7,
      "PosX": -0.696,
      "PosY": 1.243,
      "PosZ": -9.287,
      "Name": "Anchor7",
      "RotX": 3.427006,
      "Usage": "Camera",
      "CustomParameter": {
        "$type": "LevelAnchorCameraParameter"
      }
    },
    {
      "ID": 8,
      "PosX": -0.373,
      "PosY": -0.236936,
      "PosZ": -7.316,
      "Name": "Anchor8"
    },
    {
      "ID": 9,
      "PosX": -0.42,
      "PosY": 0.597,
      "PosZ": -9.567,
      "Name": "Anchor9",
      "RotY": 0.360803,
      "RotX": 350.2289,
      "Usage": "Camera",
      "CustomParameter": {
        "$type": "LevelAnchorCameraParameter",
        "fov": 40.0
      }
    },
    {
      "ID": 10,
      "PosX": -5.18,
      "PosY": -1.159217,
      "PosZ": -12.661,
      "Name": "Anchor10",
      "Usage": "Actor"
    },
    {
      "ID": 11,
      "PosX": 4.62,
      "PosY": -1.159217,
      "PosZ": -12.93951,
      "Name": "Anchor11",
      "RotY": 353.219,
      "Usage": "Actor"
    }
  ],
  "MonsterList": [],
  "PropList": [
    {
      "ID": 300001,
      "PosX": -0.08,
      "PosY": -1.785053,
      "PosZ": -21.61,
      "Name": "Prop1",
      "PropID": 100,
      "IsOverrideInitLevelGraph": true,
      "ValueSource": {},
      "Trigger": {
        "Radius": 6.0,
        "DimX": 1.0,
        "DimY": 1.0,
        "DimZ": 1.0,
        "PointList": []
      },
      "CampID": 4,
      "CustomTriggerMap": {},
      "CustomTriggerMapV2": {},
      "BridgeStateRotations": [],
      "DialogueGroups": [],
      "TalkDialogGroupIDList": [],
      "ServerInteractVerificationIDList": []
    },
    {
      "ID": 300002,
      "PosX": -0.06,
      "PosY": 2.255661,
      "PosZ": -9.93,
      "Name": "Prop2",
      "PropID": 100,
      "IsOverrideInitLevelGraph": true,
      "ValueSource": {},
      "Trigger": {
        "Radius": 3.0,
        "DimX": 1.0,
        "DimY": 1.0,
        "DimZ": 1.0,
        "PointList": []
      },
      "CampID": 4,
      "CustomTriggerMap": {},
      "CustomTriggerMapV2": {},
      "BridgeStateRotations": [],
      "DialogueGroups": [],
      "TalkDialogGroupIDList": [],
      "ServerInteractVerificationIDList": []
    }
  ],
  "NPCList": [
    {
      "ID": 400001,
      "PosX": 3.503,
      "PosY": -1.159216,
      "PosZ": -21.284,
      "Name": "NPC1",
      "RotY": 217.9717,
      "NPCID": 1210,
      "ValueSource": {},
      "DialogueGroups": [],
      "ServerInteractVerificationIDList": [],
      "DefaultLookAtMode": "LookTarget",
      "DefaultLookAtTargetInfo": {
        "GroupID": 4,
        "InstanceID": 400002
      },
      "BoardShowList": [
        8
      ],
      "TalkDialogGroupIDList": [],
      "DefaultIdleFreeStyleMotionID": 312090000,
      "InitialHiddenNodeList": [],
      "Dialog": {
        "LevelGraph": "Config/Level/NPCDialogue/P43202/F43202001_G5/DialogueMain_F43202001_G5_N400004.json",
        "PackList": [],
        "EnableCondition": {
          "Conditions": [
            {
              "Type": "SubMission",
              "ID": 202100206
            }
          ]
        }
      },
      "SpawnConfig": {
        "EntitySpawnConfig": {},
        "CaptureDistanceTolerance": 10.0
      }
    },
    {
      "ID": 400002,
      "PosX": 3.411,
      "PosY": -1.159216,
      "PosZ": -22.223,
      "Name": "NPC2",
      "RotY": 346.5478,
      "NPCID": 12244,
      "ValueSource": {},
      "DialogueGroups": [],
      "ServerInteractVerificationIDList": [],
      "DefaultLookAtMode": "LookTarget",
      "DefaultLookAtTargetInfo": {
        "GroupID": 4,
        "InstanceID": 400001
      },
      "BoardShowList": [
        8
      ],
      "TalkDialogGroupIDList": [],
      "DefaultIdleFreeStyleMotionID": 100020230,
      "InitialHiddenNodeList": [],
      "SpawnConfig": {
        "EntitySpawnConfig": {},
        "CaptureDistanceTolerance": 10.0
      }
    },
    {
      "ID": 400003,
      "PosX": -0.373,
      "PosY": -0.236936,
      "PosZ": -7.316,
      "Name": "NPC3",
      "RotY": 167.9724,
      "NPCID": 1212,
      "ValueSource": {},
      "DialogueGroups": [],
      "ServerInteractVerificationIDList": [],
      "BoardShowList": [
        8
      ],
      "TalkDialogGroupIDList": [],
      "DefaultIdleFreeStyleMotionID": 312120000,
      "InitialHiddenNodeList": [],
      "Dialog": {
        "LevelGraph": "Config/Level/NPCDialogue/P43202/F43202001_G4/DialogueMain_F43202001_G4_N400003.json",
        "PackList": []
      },
      "SpawnConfig": {
        "EntitySpawnConfig": {},
        "CaptureDistanceTolerance": 10.0
      }
    },
    {
      "ID": 400004,
      "PosX": -7.48,
      "PosY": -0.236942,
      "PosZ": 7.89,
      "Name": "NPC4",
      "RotY": 148.5428,
      "NPCID": 2201,
      "ValueSource": {},
      "DialogueGroups": [],
      "ServerInteractVerificationIDList": [],
      "BoardShowList": [],
      "TalkDialogGroupIDList": [],
      "DefaultIdleFreeStyleMotionID": 200230000,
      "InitialHiddenNodeList": [],
      "SpawnConfig": {
        "EntitySpawnConfig": {},
        "CaptureDistanceTolerance": 10.0
      }
    },
    {
      "ID": 400005,
      "PosX": 7.440001,
      "PosY": -0.209813,
      "PosZ": 8.23,
      "Name": "NPC5",
      "RotY": 199.904,
      "NPCID": 2201,
      "ValueSource": {},
      "DialogueGroups": [],
      "ServerInteractVerificationIDList": [],
      "BoardShowList": [],
      "TalkDialogGroupIDList": [],
      "DefaultIdleFreeStyleMotionID": 200230000,
      "InitialHiddenNodeList": [],
      "SpawnConfig": {
        "EntitySpawnConfig": {},
        "CaptureDistanceTolerance": 10.0
      }
    },
    {
      "ID": 400006,
      "PosX": 5.02,
      "PosY": -1.159217,
      "PosZ": -12.877,
      "Name": "NPC6",
      "RotY": 333.674,
      "NPCID": 2201,
      "ValueSource": {},
      "DialogueGroups": [],
      "ServerInteractVerificationIDList": [],
      "BoardShowList": [],
      "TalkDialogGroupIDList": [],
      "DefaultIdleFreeStyleMotionID": 200230201,
      "InitialHiddenNodeList": [],
      "SpawnConfig": {
        "EntitySpawnConfig": {},
        "CaptureDistanceTolerance": 10.0
      }
    },
    {
      "ID": 400007,
      "PosX": -5.31,
      "PosY": -1.159217,
      "PosZ": -12.61,
      "Name": "NPC7",
      "RotY": 47.14884,
      "NPCID": 2201,
      "ValueSource": {},
      "DialogueGroups": [],
      "ServerInteractVerificationIDList": [],
      "BoardShowList": [],
      "TalkDialogGroupIDList": [],
      "DefaultIdleFreeStyleMotionID": 200230201,
      "InitialHiddenNodeList": [],
      "SpawnConfig": {
        "EntitySpawnConfig": {},
        "CaptureDistanceTolerance": 10.0
      }
    },
    {
      "ID": 400008,
      "PosX": -5.468,
      "PosY": 0.905967,
      "PosZ": 15.245,
      "Name": "NPC8",
      "RotY": 38.64624,
      "NPCID": 2201,
      "ValueSource": {},
      "DialogueGroups": [],
      "ServerInteractVerificationIDList": [],
      "BoardShowList": [],
      "TalkDialogGroupIDList": [],
      "DefaultIdleFreeStyleMotionID": 200230000,
      "InitialHiddenNodeList": [],
      "SpawnConfig": {
        "EntitySpawnConfig": {},
        "CaptureDistanceTolerance": 10.0
      }
    },
    {
      "ID": 400009,
      "PosX": -5.78,
      "PosY": -1.157714,
      "PosZ": -17.83,
      "Name": "NPC9",
      "RotY": 56.90884,
      "NPCID": 2201,
      "ValueSource": {},
      "DialogueGroups": [],
      "ServerInteractVerificationIDList": [],
      "BoardShowList": [],
      "TalkDialogGroupIDList": [],
      "DefaultIdleFreeStyleMotionID": 200230201,
      "InitialHiddenNodeList": [],
      "SpawnConfig": {
        "EntitySpawnConfig": {},
        "CaptureDistanceTolerance": 10.0
      }
    },
    {
      "ID": 400010,
      "PosX": 5.48,
      "PosY": -1.159216,
      "PosZ": -18.27,
      "Name": "NPC10",
      "RotY": 319.3896,
      "NPCID": 2201,
      "ValueSource": {},
      "DialogueGroups": [],
      "ServerInteractVerificationIDList": [],
      "BoardShowList": [],
      "TalkDialogGroupIDList": [],
      "DefaultIdleFreeStyleMotionID": 200230201,
      "InitialHiddenNodeList": [],
      "SpawnConfig": {
        "EntitySpawnConfig": {},
        "CaptureDistanceTolerance": 10.0
      }
    }
  ]
}