{
  "GroupGUID": "e63ec47f-3c98-4672-ad64-ea20d2680941",
  "GroupName": "MainMission4140106_",
  "Category": "Mission",
  "LevelGraph": "Config/Level/GroupGraph/F20136001/Group_F20136001_G63.json",
  "AreaAnchorName": "LevelArea_P20136_F20136001_G63",
  "SaveType": "Reset",
  "OwnerMainMissionID": 4140106,
  "ValueSource": {},
  "ConflictIDList": [],
  "IsHoyoGroup": true,
  "ConflictWhiteList": [],
  "AnchorList": [
    {
      "ID": 1,
      "PosX": -20.101,
      "PosY": 5.515526,
      "PosZ": 73.118,
      "Name": "Anchor1",
      "RotY": 272.9843,
      "Usage": "Actor"
    },
    {
      "ID": 2,
      "PosX": -18.1551,
      "PosY": 7.188432,
      "PosZ": 71.89144,
      "Name": "Anchor2",
      "RotY": 321.2995,
      "RotX": 5.659291,
      "RotZ": 358.9173,
      "Usage": "Camera",
      "CustomParameter": {
        "$type": "LevelAnchorCameraParameter",
        "fov": 40.0
      }
    }
  ],
  "MonsterList": [],
  "PropList": [
    {
      "ID": 300001,
      "PosX": -21.909,
      "PosY": 5.573114,
      "PosZ": 73.194,
      "Name": "Prop1",
      "PropID": 101017,
      "IsOverrideInitLevelGraph": true,
      "ValueSource": {},
      "Trigger": {
        "Radius": 1.5,
        "DimX": 1.0,
        "DimY": 1.0,
        "DimZ": 1.0,
        "PointList": []
      },
      "CampID": 4,
      "CustomTriggerMap": {},
      "CustomTriggerMapV2": {},
      "BridgeStateRotations": [],
      "DialogueGroups": [],
      "TalkDialogGroupIDList": [],
      "ServerInteractVerificationIDList": []
    }
  ],
  "NPCList": [
    {
      "ID": 400001,
      "PosX": -20.11713,
      "PosY": 5.521531,
      "PosZ": 75.74561,
      "Name": "NPC1",
      "RotY": 167.4832,
      "NPCID": 2215,
      "ValueSource": {},
      "DialogueGroups": [],
      "ServerInteractVerificationIDList": [],
      "BoardShowList": [],
      "TalkDialogGroupIDList": [],
      "DefaultIdleFreeStyleMotionID": 200480000,
      "InitialHiddenNodeList": [],
      "SpawnConfig": {
        "EntitySpawnConfig": {},
        "CaptureDistanceTolerance": 10.0
      }
    },
    {
      "ID": 400002,
      "PosX": -20.11713,
      "PosY": 5.521531,
      "PosZ": 75.74561,
      "Name": "NPC2",
      "RotY": 167.4832,
      "NPCID": 2215,
      "ValueSource": {},
      "DialogueGroups": [],
      "ServerInteractVerificationIDList": [],
      "BoardShowList": [],
      "TalkDialogGroupIDList": [],
      "DefaultIdleFreeStyleMotionID": 200480209,
      "InitialHiddenNodeList": [],
      "SpawnConfig": {
        "EntitySpawnConfig": {},
        "CaptureDistanceTolerance": 10.0
      }
    }
  ]
}