{
  "GroupGUID": "11391859-d2e5-4cb7-a586-4a882a8edd92",
  "GroupName": "Normal_NPC",
  "AreaAnchorName": "LevelArea_P20136_F20136001_G6",
  "SaveType": "Reset",
  "LoadOnInitial": true,
  "ValueSource": {},
  "ConflictIDList": [],
  "AnchorList": [],
  "MonsterList": [],
  "PropList": [
    {
      "ID": 300001,
      "PosX": 4.54,
      "PosY": 6.282804,
      "PosZ": 28.2,
      "Name": "Prop1",
      "PropID": 100,
      "IsOverrideInitLevelGraph": true,
      "InitLevelGraph": "Config/Level/CrowdBubble/MunicipalChat_Play_Template.json",
      "ValueSource": {
        "Values": [
          {
            "$type": "SharedString",
            "Key": "PlayMunicipalChatPath",
            "Value": "Config/Level/MunicipalChatConfig/F20136001/MunicipalChatConfig_F20136001_0001.json"
          },
          {
            "$type": "SharedString",
            "Key": "PlayMunicipalChatName",
            "Value": "MunicipalChatConfig_F20136001_0001"
          },
          {
            "$type": "SharedJsonConfigList",
            "Key": "PlayMunicipalChatCharacterList",
            "Value": [
              {
                "$type": "MunicipalChatEntityInfo",
                "UniqueName": "1",
                "GroupInstanceID": 400001
              }
            ]
          }
        ]
      },
      "Trigger": {
        "Radius": 4.0,
        "DimX": 1.0,
        "DimY": 1.0,
        "DimZ": 1.0,
        "PointList": []
      },
      "CampID": 4,
      "CustomTriggerMap": {},
      "CustomTriggerMapV2": {},
      "BridgeStateRotations": [],
      "DialogueGroups": [],
      "TalkDialogGroupIDList": [],
      "ServerInteractVerificationIDList": [],
      "TriggerValidGuest": {},
      "SpawnConfig": {
        "EntitySpawnConfig": {}
      }
    }
  ],
  "NPCList": [
    {
      "ID": 400001,
      "PosX": 5.391,
      "PosY": 6.358907,
      "PosZ": 27.697,
      "Name": "NPC1",
      "RotY": 246.8634,
      "NPCID": 2213,
      "ValueSource": {},
      "DialogueGroups": [],
      "ServerInteractVerificationIDList": [],
      "BoardShowList": [
        8
      ],
      "TalkDialogGroupIDList": [],
      "DefaultIdleFreeStyleMotionID": 200520000,
      "InitialHiddenNodeList": [],
      "SpawnConfig": {
        "EntitySpawnConfig": {},
        "CaptureDistanceTolerance": 10.0
      }
    }
  ]
}